%!PS-Adobe-3.0 EPSF-3.0
%%Creator: cairo 1.16.0 (https://cairographics.org)
%%CreationDate: Mon Aug 23 08:35:01 2021
%%Pages: 1
%%DocumentData: Clean7Bit
%%LanguageLevel: 2
%%BoundingBox: 0 10 384 374
%%EndComments
%%BeginProlog
50 dict begin
/q { gsave } bind def
/Q { grestore } bind def
/cm { 6 array astore concat } bind def
/w { setlinewidth } bind def
/J { setlinecap } bind def
/j { setlinejoin } bind def
/M { setmiterlimit } bind def
/d { setdash } bind def
/m { moveto } bind def
/l { lineto } bind def
/c { curveto } bind def
/h { closepath } bind def
/re { exch dup neg 3 1 roll 5 3 roll moveto 0 rlineto
      0 exch rlineto 0 rlineto closepath } bind def
/S { stroke } bind def
/f { fill } bind def
/f* { eofill } bind def
/n { newpath } bind def
/W { clip } bind def
/W* { eoclip } bind def
/BT { } bind def
/ET { } bind def
/BDC { mark 3 1 roll /BDC pdfmark } bind def
/EMC { mark /EMC pdfmark } bind def
/cairo_store_point { /cairo_point_y exch def /cairo_point_x exch def } def
/Tj { show currentpoint cairo_store_point } bind def
/TJ {
  {
    dup
    type /stringtype eq
    { show } { -0.001 mul 0 cairo_font_matrix dtransform rmoveto } ifelse
  } forall
  currentpoint cairo_store_point
} bind def
/cairo_selectfont { cairo_font_matrix aload pop pop pop 0 0 6 array astore
    cairo_font exch selectfont cairo_point_x cairo_point_y moveto } bind def
/Tf { pop /cairo_font exch def /cairo_font_matrix where
      { pop cairo_selectfont } if } bind def
/Td { matrix translate cairo_font_matrix matrix concatmatrix dup
      /cairo_font_matrix exch def dup 4 get exch 5 get cairo_store_point
      /cairo_font where { pop cairo_selectfont } if } bind def
/Tm { 2 copy 8 2 roll 6 array astore /cairo_font_matrix exch def
      cairo_store_point /cairo_font where { pop cairo_selectfont } if } bind def
/g { setgray } bind def
/rg { setrgbcolor } bind def
/d1 { setcachedevice } bind def
/cairo_data_source {
  CairoDataIndex CairoData length lt
    { CairoData CairoDataIndex get /CairoDataIndex CairoDataIndex 1 add def }
    { () } ifelse
} def
/cairo_flush_ascii85_file { cairo_ascii85_file status { cairo_ascii85_file flushfile } if } def
/cairo_image { image cairo_flush_ascii85_file } def
/cairo_imagemask { imagemask cairo_flush_ascii85_file } def
%%EndProlog
%%BeginSetup
%%EndSetup
%%Page: 1 1
%%BeginPageSetup
%%PageBoundingBox: 0 10 384 374
%%EndPageSetup
q 0 10 384 364 rectclip
1 0 0 -1 0 384 cm q
0.988235 0.792157 0.45098 rg
124.496 279.305 m 124.496 279.305 78.512 334.301 14.129 315.938 c 9.316
 314.562 5.922 310.246 5.645 305.25 c 5.262 298.438 10.715 292.645 17.535
 292.773 c 67.629 293.715 96.902 251.715 96.902 251.715 c h
124.496 279.305 m f
0.976471 0.87451 0.603922 rg
98.293 191.809 m 56.758 224.992 l 50.309 230.145 48.066 238.949 51.262 
246.559 c 54.742 254.848 63.691 259.422 72.449 257.391 c 96.906 251.715 
l h
98.293 191.809 m f
184.398 277.914 m 151.215 319.449 l 146.066 325.898 137.258 328.145 129.648
 324.945 c 121.359 321.465 116.785 312.516 118.82 303.758 c 124.496 279.305
 l h
184.398 277.914 m f
0.988235 0.792157 0.45098 rg
115.227 68.973 m 112.879 52.895 97.762 41.867 81.711 44.387 c 60.398 47.73
 32.441 59.031 9.711 91.906 c 5.492 98.008 9.23 106.473 16.582 107.445 c
 30.449 109.277 48.355 116.68 49.797 142.457 c 50.195 149.609 54.816 155.828
 61.629 158.043 c 76.188 162.781 98.855 175.57 102.441 209.555 c 160.984
 169.059 l 128.895 125.719 118.398 90.672 115.227 68.973 c h
115.227 68.973 m f
307.234 260.98 m 323.312 263.332 334.344 278.445 331.824 294.496 c 328.477
 315.809 317.18 343.766 284.305 366.5 c 278.203 370.719 269.738 366.98 268.766
 359.625 c 266.934 345.758 259.531 327.855 233.75 326.414 c 226.598 326.012
 220.379 321.391 218.164 314.578 c 213.426 300.02 200.637 277.352 166.652
 273.766 c 207.152 215.223 l 250.488 247.312 285.535 257.809 307.234 260.98
 c h
307.234 260.98 m f
0.968627 0.729412 0.368627 rg
129.918 117.02 m 121.48 140.902 122.426 166.613 131.738 189.285 c 160.984
 169.059 l 146.84 149.953 136.895 132.465 129.918 117.02 c h
129.918 117.02 m f
186.891 244.516 m 198.949 249.473 211.98 252.07 225.41 252.07 c 236.988
 252.07 248.336 250.125 259.191 246.289 c 243.742 239.312 226.254 229.367
 207.152 215.223 c h
186.891 244.516 m f
80.75 268.762 m 84.078 274.027 88.027 279.008 92.613 283.594 c 97.078 288.059
 101.945 291.965 107.137 295.285 c 118.246 286.773 124.496 279.305 124.496
 279.305 c 96.902 251.711 l 96.902 251.715 91.281 259.777 80.75 268.762 
c h
80.75 268.762 m f
0.988235 0.792157 0.45098 rg
119.289 301.734 m 129.848 306.281 141.32 308.676 153.16 308.676 c 155.473
 308.676 157.77 308.578 160.047 308.398 c 184.398 277.914 l 124.496 279.305
 l h
119.289 301.734 m f
74.516 256.91 m 96.906 251.715 l 98.293 191.809 l 67.859 216.125 l 66.746
 229.941 68.965 243.973 74.516 256.91 c h
74.516 256.91 m f
0.976471 0.87451 0.603922 rg
216.285 223.047 m 216.285 257.91 188.023 286.176 153.16 286.176 c 118.297
 286.176 90.035 257.91 90.035 223.047 c 90.035 188.184 118.297 159.922 153.16
 159.922 c 169.902 159.922 185.957 166.574 197.797 178.41 c 209.637 190.25
 216.285 206.305 216.285 223.047 c h
216.285 223.047 m f
0.988235 0.792157 0.45098 rg
125.352 166.379 m 128.598 187.18 138.289 206.898 153.801 222.41 c 169.199
 237.809 188.691 247.633 209.816 250.879 c 221.398 227.309 217.402 198.02
 197.797 178.41 c 178.195 158.812 148.922 154.812 125.352 166.379 c h
125.352 166.379 m f
0.976471 0.87451 0.603922 rg
351.281 218.895 m 300.668 180.672 l 299.617 179.879 299.199 178.492 299.637
 177.246 c 299.656 177.195 l 300.18 175.711 301.75 174.875 303.277 175.266
 c 364.711 191.02 l 374.152 193.441 381.836 183.164 376.762 174.844 c 362.484
 151.422 334.496 137.137 314.262 129.426 c 305.633 126.141 298.504 119.91
 293.941 111.883 c 290.238 105.371 285.535 99.273 279.824 93.816 c 267.914
 82.43 253.238 75.527 237.973 73.098 c 216.727 69.715 197.707 57.82 186.242
 39.617 c 182.836 34.207 180.191 29.223 178.199 25.023 c 174.602 17.457 
165.812 13.832 157.863 16.727 c 151.715 18.961 147.629 24.789 147.137 31.312
 c 146.242 43.145 146.438 62.832 153.469 85.188 c 157.27 97.266 156.656 
110.258 152.047 122.047 c 140.992 150.309 146.879 183.668 169.711 206.5 
c 192.402 229.191 225.496 235.145 253.645 224.359 c 264.148 220.336 275.82
 220.602 285.941 225.504 c 303.363 233.941 325.156 241.043 346.117 238.406
 c 355.797 237.188 359.066 224.777 351.281 218.895 c h
351.281 218.895 m f
0.937255 0.533333 0.607843 rg
259.953 141.164 m 268.832 150.039 270.297 162.965 263.227 170.035 c 256.16
 177.105 243.23 175.641 234.355 166.762 c 225.48 157.887 224.012 144.961
 231.082 137.891 c 238.152 130.82 251.078 132.285 259.953 141.164 c h
259.953 141.164 m f
0 g
88.449 94.004 m 91.531 94.191 94.195 91.852 94.402 88.766 c 94.609 85.668
 92.266 82.984 89.168 82.777 c 88.488 82.73 72.324 81.816 51.176 95.289 
c 48.555 96.957 47.785 100.434 49.453 103.055 c 51.125 105.68 54.602 106.441
 57.219 104.777 c 74.887 93.523 88.133 93.988 88.449 94.004 c h
88.449 94.004 m f
80.914 141.977 m 92.105 130.426 102.043 128.359 102.324 128.305 c 105.363
 127.766 107.406 124.879 106.891 121.832 c 106.375 118.766 103.473 116.703
 100.41 117.219 c 99.867 117.312 86.895 119.637 72.832 134.148 c 70.672 
136.379 70.727 139.941 72.957 142.102 c 75.188 144.262 78.75 144.211 80.914
 141.977 c h
80.914 141.977 m f
273.133 326.734 m 275.754 328.402 279.23 327.633 280.898 325.012 c 294.371
 303.867 293.457 287.699 293.41 287.02 c 293.203 283.922 290.523 281.578
 287.422 281.785 c 284.324 281.996 281.98 284.676 282.188 287.773 c 282.195
 287.902 282.738 301.191 271.414 318.969 c 269.742 321.59 270.516 325.066
 273.133 326.734 c h
273.133 326.734 m f
242.039 303.355 m 256.551 289.293 258.879 276.324 258.969 275.777 c 259.484
 272.715 257.426 269.789 254.363 269.27 c 251.297 268.754 248.402 270.793
 247.887 273.855 c 247.867 273.957 245.875 283.977 234.211 295.277 c 231.98
 297.438 231.922 301 234.086 303.23 c 236.234 305.449 239.797 305.527 242.039
 303.355 c h
242.039 303.355 m f
266.805 145.715 m 268.836 143.684 272.121 143.684 274.152 145.715 c 276.184
 147.742 276.184 151.031 274.152 153.059 c 271.957 155.258 271.957 158.816
 274.152 161.016 c 276.348 163.211 279.91 163.211 282.105 161.016 c 288.535
 154.586 288.535 144.184 282.105 137.758 c 275.68 131.332 265.277 131.332
 258.852 137.758 c 256.656 139.957 256.656 143.516 258.852 145.715 c 261.047
 147.91 264.609 147.91 266.805 145.715 c h
266.805 145.715 m f
17.641 287.137 m 7.527 286.941 -0.535 295.504 0.027 305.547 c 0.441 312.965
 5.488 319.305 12.586 321.328 c 28.789 325.949 44.773 326.391 60.066 323.371
 c 63.117 322.77 65.098 319.812 64.496 316.766 c 63.895 313.715 60.934 311.734
 57.891 312.336 c 43.836 315.109 29.633 314.496 15.672 310.512 c 13.18 309.801
 11.406 307.555 11.258 304.922 c 11.059 301.32 13.926 298.316 17.43 298.383
 c 48.113 298.961 76.145 284.234 96.188 261.535 c 101.266 269.043 107.836
 275.551 115.516 280.57 c 108.941 287.008 95.738 298.391 77.988 306.039 
c 75.137 307.266 73.82 310.578 75.047 313.43 c 76.277 316.281 79.586 317.598
 82.438 316.371 c 95.902 310.566 106.859 302.938 114.738 296.422 c 113.332
 302.473 l 107.496 327.629 139.801 342.727 155.602 322.945 c 186.102 284.773
 l 202.055 292.367 209.422 305.914 212.805 316.309 c 215.734 325.312 223.828
 331.477 233.422 332.016 c 250.805 332.988 260.816 342.52 263.172 360.348
 c 264.695 371.867 277.922 377.719 287.484 371.109 c 322.699 346.758 334.043
 316.477 337.359 295.359 c 338.816 286.062 336.547 276.766 330.961 269.184
 c 325.406 261.648 317.266 256.754 308.031 255.402 c 293.77 253.32 271.988
 247.652 244.969 232.887 c 248.566 232.031 252.129 230.949 255.641 229.602
 c 264.816 226.086 274.961 226.434 283.473 230.559 c 303.062 240.043 325.289
 246.68 346.797 243.977 c 361.648 242.109 366.32 223.215 354.648 214.398
 c 314.242 183.883 l 363.293 196.461 l 377.559 200.121 389.273 184.598 381.539
 171.91 c 366.539 147.301 337.754 132.363 316.246 124.172 c 308.945 121.387
 302.754 116.035 298.812 109.102 c 286.551 87.531 264.977 71.703 238.844
 67.543 c 210.84 63.086 194.508 46.281 183.266 22.613 c 173.695 2.465 143.262
 7.738 141.516 30.891 c 140.543 43.793 140.895 63.98 148.094 86.875 c 151.445
 97.531 150.984 109.293 146.797 119.996 c 145.355 123.684 144.195 127.43
 143.297 131.207 c 139.418 124.109 135.973 117.035 133.012 110.055 c 131.797
 107.195 128.496 105.859 125.637 107.074 c 122.777 108.289 121.441 111.59
 122.656 114.449 c 127.578 126.051 133.746 137.879 141.004 149.633 c 140.98
 151.543 141.023 153.449 141.129 155.352 c 124.637 158.285 109.602 167.195
 99.105 180.551 c 89.598 164.262 74.875 156.438 63.363 152.691 c 58.805 
151.207 55.684 147.066 55.406 142.141 c 54.129 119.246 40.602 104.945 17.32
 101.867 c 14.141 101.445 12.504 97.754 14.336 95.105 c 36.418 63.168 63.633
 52.918 82.578 49.945 c 95.523 47.914 107.754 56.773 109.656 69.785 c 110.738
 77.184 112.477 84.934 114.824 92.812 c 115.711 95.789 118.844 97.484 121.82
 96.598 c 124.797 95.711 126.492 92.578 125.605 89.602 c 123.41 82.238 121.789
 75.023 120.785 68.16 c 117.988 49.008 100.031 35.816 80.832 38.832 c 59.715
 42.148 29.434 53.492 5.082 88.707 c -1.527 98.27 4.328 111.492 15.848 113.02
 c 33.672 115.375 43.207 125.383 44.18 142.766 c 44.715 152.363 50.879 160.457
 59.883 163.387 c 70.277 166.77 83.824 174.137 91.422 190.09 c 53.246 220.586
 l 33.359 236.473 48.746 268.652 73.719 262.855 c 80.621 261.254 l 68.242
 272.723 46.5 287.68 17.641 287.137 c h
146.812 315.926 m 138.316 326.559 121.211 318.289 124.289 305.016 c 128.426
 287.195 l 140.906 292.02 154.371 293.059 167.242 290.352 c h
226.527 235.168 m 261 256.457 288.941 263.98 306.402 266.535 c 312.641 
267.445 318.145 270.758 321.902 275.855 c 325.695 281 327.234 287.305 326.246
 293.613 c 323.27 312.555 313.023 339.773 281.086 361.852 c 278.441 363.684
 274.746 362.051 274.324 358.871 c 271.246 335.59 256.941 322.062 234.051
 320.781 c 229.125 320.504 224.98 317.383 223.5 312.824 c 219.754 301.316
 211.93 286.59 195.637 277.082 c 208.98 266.598 217.906 251.566 220.84 235.051
 c 222.746 235.152 225.207 235.188 226.527 235.168 c h
152.734 31.734 m 153.609 20.172 168.426 17.594 173.105 27.441 c 186.398
 55.418 206.23 73.738 237.074 78.648 c 259.766 82.266 278.441 96.031 289.031
 114.66 c 294.262 123.859 302.504 130.973 312.238 134.68 c 332.105 142.25
 358.59 155.871 371.934 177.766 c 374.375 181.77 370.645 186.734 366.086
 185.562 c 304.656 169.809 l 295.492 167.461 289.75 179.48 297.262 185.156
 c 347.867 223.375 l 351.633 226.219 350.055 232.227 345.391 232.816 c 328.828
 234.898 309.645 230.734 288.375 220.434 c 276.863 214.859 263.453 214.562
 251.613 219.098 c 225.047 229.277 194.332 223.172 173.676 202.516 c 152.973
 181.812 146.777 150.926 157.273 124.094 c 162.391 111.008 162.941 96.59
 158.824 83.5 c 152.164 62.312 151.836 43.656 152.734 31.734 c h
142.496 166.543 m 145.598 182.852 153.484 198.23 165.723 210.469 c 177.938
 222.684 193.328 230.57 209.648 233.676 c 206.59 249.914 196.59 264.465 
181.578 273.016 c 164.73 282.613 144.348 283.086 127.062 274.277 c 127.055
 274.273 127.043 274.273 127.035 274.27 c 127.031 274.266 127.027 274.262
 127.023 274.262 c 116.398 268.836 107.527 260.137 101.93 249.168 c 101.926
 249.164 101.926 249.16 101.922 249.156 c 101.918 249.145 101.914 249.137
 101.91 249.129 c 93.102 231.84 93.574 211.461 103.172 194.609 c 111.773
 179.512 126.367 169.586 142.496 166.543 c h
71.172 251.898 m 57.91 254.977 49.621 237.883 60.266 229.375 c 85.836 208.945
 l 83.129 221.816 84.168 235.281 88.996 247.762 c h
71.172 251.898 m f
Q Q
showpage
%%Trailer
end
%%EOF
