%!PS-Adobe-3.0 EPSF-3.0
%%Creator: cairo 1.16.0 (https://cairographics.org)
%%CreationDate: Mon Aug 23 08:35:01 2021
%%Pages: 1
%%DocumentData: Clean7Bit
%%LanguageLevel: 2
%%BoundingBox: 0 30 384 354
%%EndComments
%%BeginProlog
50 dict begin
/q { gsave } bind def
/Q { grestore } bind def
/cm { 6 array astore concat } bind def
/w { setlinewidth } bind def
/J { setlinecap } bind def
/j { setlinejoin } bind def
/M { setmiterlimit } bind def
/d { setdash } bind def
/m { moveto } bind def
/l { lineto } bind def
/c { curveto } bind def
/h { closepath } bind def
/re { exch dup neg 3 1 roll 5 3 roll moveto 0 rlineto
      0 exch rlineto 0 rlineto closepath } bind def
/S { stroke } bind def
/f { fill } bind def
/f* { eofill } bind def
/n { newpath } bind def
/W { clip } bind def
/W* { eoclip } bind def
/BT { } bind def
/ET { } bind def
/BDC { mark 3 1 roll /BDC pdfmark } bind def
/EMC { mark /EMC pdfmark } bind def
/cairo_store_point { /cairo_point_y exch def /cairo_point_x exch def } def
/Tj { show currentpoint cairo_store_point } bind def
/TJ {
  {
    dup
    type /stringtype eq
    { show } { -0.001 mul 0 cairo_font_matrix dtransform rmoveto } ifelse
  } forall
  currentpoint cairo_store_point
} bind def
/cairo_selectfont { cairo_font_matrix aload pop pop pop 0 0 6 array astore
    cairo_font exch selectfont cairo_point_x cairo_point_y moveto } bind def
/Tf { pop /cairo_font exch def /cairo_font_matrix where
      { pop cairo_selectfont } if } bind def
/Td { matrix translate cairo_font_matrix matrix concatmatrix dup
      /cairo_font_matrix exch def dup 4 get exch 5 get cairo_store_point
      /cairo_font where { pop cairo_selectfont } if } bind def
/Tm { 2 copy 8 2 roll 6 array astore /cairo_font_matrix exch def
      cairo_store_point /cairo_font where { pop cairo_selectfont } if } bind def
/g { setgray } bind def
/rg { setrgbcolor } bind def
/d1 { setcachedevice } bind def
/cairo_data_source {
  CairoDataIndex CairoData length lt
    { CairoData CairoDataIndex get /CairoDataIndex CairoDataIndex 1 add def }
    { () } ifelse
} def
/cairo_flush_ascii85_file { cairo_ascii85_file status { cairo_ascii85_file flushfile } if } def
/cairo_image { image cairo_flush_ascii85_file } def
/cairo_imagemask { imagemask cairo_flush_ascii85_file } def
%%EndProlog
%%BeginSetup
%%EndSetup
%%Page: 1 1
%%BeginPageSetup
%%PageBoundingBox: 0 30 384 354
%%EndPageSetup
q 0 30 384 324 rectclip
1 0 0 -1 0 384 cm q
0.952941 0.615686 0.521569 rg
312.324 317.016 m 312.406 316.207 312.453 315.383 312.453 314.551 c 312.453
 258.078 l 216.379 258.078 l 216.379 314.551 l 216.379 325.68 224.059 335.012
 234.41 337.547 c h
312.324 317.016 m f
71.676 317.016 m 71.594 316.207 71.547 315.383 71.547 314.551 c 71.547 
258.078 l 167.621 258.078 l 167.621 314.551 l 167.621 325.68 159.941 335.012
 149.59 337.547 c h
71.676 317.016 m f
0.992157 0.94902 0.894118 rg
297.059 344.984 m 299.727 346.871 302.977 347.984 306.492 347.984 c 318.527
 347.984 l 323.824 347.984 328.117 343.691 328.117 338.398 c 328.117 326.047
 318.102 316.035 305.754 316.035 c 300.535 316.035 295.93 318.605 293.094
 322.539 c h
297.059 344.984 m f
0.992157 0.913725 0.815686 rg
268.637 344.984 m 271.305 346.871 274.555 347.984 278.07 347.984 c 290.105
 347.984 l 295.402 347.984 299.691 343.691 299.691 338.398 c 299.691 326.047
 289.68 316.035 277.332 316.035 c 272.113 316.035 267.508 318.605 264.672
 322.539 c h
268.637 344.984 m f
0.898039 0.52549 0.431373 rg
241.004 283.004 m 241.004 274.285 242.441 265.902 245.086 258.078 c 216.379
 258.078 l 216.379 314.551 l 216.379 325.68 224.059 335.012 234.41 337.547
 c 257.887 331.359 l 247.32 318.09 241.004 301.285 241.004 283.004 c h
241.004 283.004 m f
0.992157 0.94902 0.894118 rg
248.91 316.035 m 240.289 316.035 233.305 323.02 233.305 331.641 c 233.305
 340.664 240.621 347.984 249.648 347.984 c 261.684 347.984 l 266.98 347.984
 271.27 343.691 271.27 338.395 c 271.27 326.047 261.258 316.035 248.91 316.035
 c h
248.91 316.035 m f
0.898039 0.52549 0.431373 rg
94.316 283.004 m 94.316 274.285 95.75 265.902 98.398 258.078 c 71.547 258.078
 l 71.547 314.551 l 71.547 315.383 71.594 316.207 71.676 317.016 c 107.609
 326.484 l 99.219 314.074 94.316 299.109 94.316 283.004 c h
94.316 283.004 m f
0.992157 0.94902 0.894118 rg
86.941 344.984 m 84.273 346.871 81.023 347.984 77.508 347.984 c 65.473 
347.984 l 60.176 347.984 55.883 343.691 55.883 338.398 c 55.883 326.047 
65.898 316.035 78.246 316.035 c 83.465 316.035 88.07 318.605 90.906 322.539
 c h
86.941 344.984 m f
0.992157 0.913725 0.815686 rg
115.363 344.984 m 112.695 346.871 109.445 347.984 105.93 347.984 c 93.895
 347.984 l 88.598 347.984 84.309 343.691 84.309 338.398 c 84.309 326.047
 94.32 316.035 106.668 316.035 c 111.887 316.035 116.492 318.605 119.328
 322.539 c h
115.363 344.984 m f
0.741176 0.815686 0.396078 rg
192 71.859 m 107.344 71.859 38.719 140.484 38.719 225.141 c 38.719 250.316
 59.129 270.727 84.305 270.727 c 299.695 270.727 l 324.871 270.727 345.281
 250.316 345.281 225.141 c 345.281 140.484 276.656 71.859 192 71.859 c h
192 71.859 m f
0.654902 0.776471 0.392157 rg
268.551 231.926 m 196.809 231.926 138.652 173.77 138.652 102.027 c 138.652
 94.789 139.254 87.691 140.395 80.773 c 81.129 101.961 38.719 158.594 38.719
 225.141 c 38.719 250.316 59.129 270.727 84.305 270.727 c 224.695 270.727
 l h
268.551 231.926 m f
0.952941 0.615686 0.521569 rg
267.727 246.359 m 253.465 273.625 224.902 292.223 192 292.223 c 159.098
 292.223 130.535 273.625 116.273 246.359 c 144.617 239.934 165.281 242.742
 177.797 246.328 c 187.078 248.992 196.922 248.992 206.203 246.328 c 218.719
 242.742 239.383 239.934 267.727 246.359 c h
267.727 246.359 m f
0.898039 0.52549 0.431373 rg
153.504 242.613 m 143.121 242.215 130.695 243.09 116.273 246.359 c 130.535
 273.625 159.098 292.223 192 292.223 c 192.414 292.223 192.824 292.207 193.238
 292.203 c 173.344 282.625 159.934 265.324 153.504 242.613 c h
153.504 242.613 m f
281.309 214.281 m 281.309 220.316 280.711 226.211 279.57 231.91 c 277.078
 244.348 265.336 252.781 252.754 251.172 c 237.117 249.172 220.875 249.625
 206.203 253.832 c 196.922 256.492 187.078 256.492 177.797 253.832 c 163.125
 249.625 146.883 249.176 131.246 251.172 c 118.664 252.781 106.922 244.348
 104.43 231.91 c 103.289 226.211 102.691 220.316 102.691 214.281 c 102.691
 164.965 142.676 124.98 192 124.98 c 241.324 124.98 281.309 164.965 281.309
 214.281 c h
281.309 214.281 m f
0.835294 0.454902 0.356863 rg
149.109 208.637 m 149.109 173.57 167.254 142.742 194.664 125.023 c 193.777
 124.996 192.891 124.98 192 124.98 c 142.676 124.98 102.691 164.965 102.691
 214.281 c 102.691 220.316 103.289 226.211 104.43 231.91 c 106.922 244.352
 118.664 252.781 131.246 251.172 c 139.434 250.125 147.789 249.762 156 250.246
 c 151.438 238.066 149.109 224.055 149.109 208.637 c h
149.109 208.637 m f
0.992157 0.913725 0.815686 rg
106.004 92.758 m 100.824 89.008 96.523 84.113 93.477 78.441 c 87.379 67.105
 70.824 67.543 65.133 79.09 c 61.98 85.488 60.391 92.793 60.863 100.512 
c 61.652 113.473 68.359 124.898 78.273 132.148 c 88.809 139.859 103.66 137.348
 111.473 126.883 c 119.594 116 116.996 100.727 106.004 92.758 c h
106.004 92.758 m f
146.949 173.852 m 145.898 162.957 136.07 155.25 125.188 156.453 c 120.066
 157.023 114.848 156.434 109.953 154.703 c 100.168 151.242 90.527 160.473
 93.391 170.449 c 94.977 175.977 97.988 181.199 102.453 185.551 c 109.949
 192.855 120.148 196.039 129.992 194.992 c 140.461 193.883 147.961 184.332
 146.949 173.852 c h
146.949 173.852 m f
72.086 201.191 m 71.59 187.621 59.992 177.355 46.43 178.039 c 40.043 178.363
 33.625 177.246 27.695 174.742 c 15.836 169.734 3.215 180.453 6.023 193.016
 c 7.578 199.977 10.918 206.664 16.125 212.383 c 24.871 221.98 37.258 226.68
 49.523 226.113 c 62.566 225.508 72.562 214.242 72.086 201.191 c h
72.086 201.191 m f
0.992157 0.94902 0.894118 rg
277.996 92.758 m 283.176 89.008 287.477 84.113 290.523 78.441 c 296.621
 67.105 313.176 67.543 318.867 79.09 c 322.02 85.488 323.609 92.793 323.137
 100.512 c 322.348 113.473 315.641 124.898 305.727 132.148 c 295.191 139.859
 280.34 137.348 272.527 126.883 c 264.406 116 267.004 100.727 277.996 92.758
 c h
277.996 92.758 m f
274.047 154.703 m 269.152 156.434 263.934 157.023 258.812 156.453 c 247.93
 155.25 238.105 162.957 237.051 173.852 c 236.039 184.332 243.543 193.883
 254.008 194.992 c 263.855 196.039 274.051 192.855 281.551 185.551 c 286.016
 181.199 289.023 175.977 290.613 170.449 c 293.473 160.473 283.832 151.242
 274.047 154.703 c h
274.047 154.703 m f
311.914 201.191 m 312.41 187.621 324.008 177.355 337.57 178.039 c 343.957
 178.363 350.375 177.246 356.305 174.742 c 368.164 169.734 380.785 180.453
 377.977 193.016 c 376.422 199.977 373.082 206.664 367.875 212.383 c 359.129
 221.98 346.742 226.68 334.477 226.113 c 321.434 225.508 311.438 214.242
 311.914 201.191 c h
311.914 201.191 m f
216.18 71.516 m 216.18 84.871 205.355 95.695 192 95.695 c 178.645 95.695
 167.82 84.871 167.82 71.516 c 167.82 58.16 178.645 36.016 192 36.016 c 
205.355 36.016 216.18 58.16 216.18 71.516 c h
216.18 71.516 m f
135.09 316.035 m 143.711 316.035 150.695 323.02 150.695 331.641 c 150.695
 340.664 143.379 347.984 134.352 347.984 c 122.316 347.984 l 117.02 347.984
 112.727 343.691 112.727 338.395 c 112.727 326.047 122.738 316.035 135.09
 316.035 c h
135.09 316.035 m f
0 g
146.859 217.457 m 146.859 225.051 l 146.859 228.156 149.379 230.676 152.484
 230.676 c 155.594 230.676 158.109 228.156 158.109 225.051 c 158.109 217.457
 l 158.109 214.352 155.594 211.832 152.484 211.832 c 149.379 211.832 146.859
 214.352 146.859 217.457 c h
146.859 217.457 m f
231.512 230.676 m 234.621 230.676 237.137 228.156 237.137 225.051 c 237.137
 217.457 l 237.137 214.352 234.621 211.832 231.512 211.832 c 228.406 211.832
 225.887 214.352 225.887 217.457 c 225.887 225.051 l 225.887 228.156 228.406
 230.676 231.512 230.676 c h
231.512 230.676 m f
33.309 229.66 m 35.051 249.441 48.098 266.031 65.926 272.922 c 65.926 313.273
 l 56.656 317.84 50.262 327.383 50.262 338.391 c 50.262 346.781 57.086 353.605
 65.473 353.605 c 77.512 353.605 l 80.645 353.605 83.684 352.934 86.492 
351.668 c 88.684 352.898 91.207 353.605 93.895 353.605 c 105.93 353.605 
l 109.066 353.605 112.105 352.934 114.914 351.668 c 117.105 352.898 119.629
 353.605 122.316 353.605 c 134.352 353.605 l 142.633 353.605 149.855 348.996
 153.598 342.215 c 165.293 338.152 173.246 327.148 173.246 314.547 c 173.246
 295.875 l 179.352 297.168 185.629 297.848 192 297.848 c 198.367 297.848
 204.645 297.168 210.75 295.875 c 210.75 314.547 l 210.75 327.148 218.703
 338.152 230.398 342.215 c 234.141 348.996 241.363 353.605 249.645 353.605
 c 261.68 353.605 l 264.367 353.605 266.891 352.898 269.082 351.668 c 271.891
 352.934 274.93 353.605 278.066 353.605 c 290.102 353.605 l 292.789 353.605
 295.312 352.898 297.504 351.668 c 300.312 352.934 303.352 353.605 306.484
 353.605 c 318.523 353.605 l 326.91 353.605 333.734 346.781 333.734 338.391
 c 333.734 327.383 327.34 317.84 318.07 313.273 c 318.07 272.922 l 335.898
 266.031 348.945 249.441 350.688 229.66 c 367.555 224.504 379.797 210.656
 383.461 194.242 c 387.266 177.215 370.156 162.785 354.109 169.562 c 350.262
 171.188 346.113 172.145 341.926 172.398 c 336.328 156.477 328.277 141.664
 317.945 128.262 c 330.18 113.371 332.035 93.094 323.906 76.605 c 316.188
 60.945 293.812 60.449 285.566 75.781 c 282.945 80.652 279.188 84.949 274.691
 88.207 c 274.383 88.43 274.086 88.66 273.789 88.895 c 257.645 79.172 240.16
 72.508 221.699 69.023 c 220.504 52.902 208.152 30.395 191.996 30.395 c 
175.844 30.395 163.492 52.902 162.297 69.023 c 143.832 72.508 126.348 79.172
 110.207 88.895 c 106.121 85.699 102.09 82.582 98.43 75.781 c 90.145 60.379
 67.777 61.004 60.09 76.605 c 51.98 93.059 53.789 113.34 66.051 128.262 
c 55.719 141.668 47.668 156.477 42.07 172.398 c 37.883 172.148 33.734 171.188
 29.883 169.562 c 13.777 162.758 -3.258 177.266 0.535 194.242 c 4.195 210.633
 16.426 224.5 33.309 229.66 c h
77.512 342.355 m 65.473 342.355 l 63.289 342.355 61.512 340.578 61.512 
338.395 c 61.512 325.402 75.668 318.559 83.266 323.035 c 80.43 327.332 78.684
 332.781 78.684 338.395 c 78.684 339.488 78.836 340.938 79.172 342.227 c
 78.629 342.312 78.07 342.355 77.512 342.355 c h
105.93 342.355 m 93.895 342.355 l 91.723 342.355 89.934 340.547 89.934 
338.395 c 89.934 329.172 97.453 321.656 106.672 321.656 c 108.375 321.656
 110.074 322.078 111.691 323.027 c 108.805 327.406 107.105 332.871 107.105
 338.395 c 107.105 339.496 107.258 340.938 107.594 342.227 c 107.047 342.312
 106.492 342.355 105.93 342.355 c h
134.352 342.355 m 122.316 342.355 l 120.02 342.355 118.066 340.676 118.434
 336.797 c 118.438 336.762 118.438 336.73 118.441 336.699 c 119.297 328.164
 126.559 321.656 135.086 321.656 c 135.094 321.656 l 140.562 321.656 145.074
 326.113 145.074 331.637 c 145.07 337.371 140.398 342.355 134.352 342.355
 c h
161.996 314.547 m 161.996 319.832 159.73 324.66 156.008 327.996 c 154.297
 318.086 145.598 310.406 135.09 310.406 c 135.086 310.406 135.082 310.406
 135.078 310.406 c 129.477 310.41 124.062 312.148 119.777 314.957 c 116.066
 312.031 111.367 310.406 106.668 310.406 c 101.395 310.406 95.961 311.953
 91.371 314.957 c 87.461 311.863 82.551 310.223 77.176 310.426 c 77.176 
275.852 l 79.605 276.191 82.227 276.352 84.305 276.352 c 133.25 276.352 
l 141.723 283.504 151.559 289.121 161.996 292.773 c h
129.926 256.941 m 133.832 256.711 154.723 253.066 176.246 259.234 c 186.512
 262.18 197.465 262.188 207.75 259.234 c 228.465 253.289 247.789 256.547
 254.074 256.941 c 251.879 259.656 249.078 262.688 245.988 265.531 c 231.453
 278.859 212.242 286.598 192 286.598 c 167.309 286.598 144.609 275.102 129.926
 256.941 c h
249.645 342.355 m 244.965 342.355 240.988 339.336 239.531 335.148 c 237.152
 328.324 242.137 321.656 248.906 321.656 c 248.914 321.656 l 258.105 321.656
 265.645 329.145 265.645 338.391 c 265.645 340.508 263.887 342.355 261.684
 342.355 c h
278.066 342.355 m 277.504 342.355 276.949 342.312 276.402 342.227 c 276.742
 340.93 276.895 339.473 276.895 338.395 c 276.895 332.879 275.18 327.383
 272.309 323.027 c 273.895 322.094 275.594 321.656 277.328 321.656 c 286.562
 321.656 294.066 329.18 294.066 338.395 c 294.066 340.555 292.27 342.355
 290.102 342.355 c h
318.523 342.355 m 306.488 342.355 l 305.926 342.355 305.371 342.312 304.824
 342.227 c 305.164 340.93 305.316 339.477 305.316 338.395 c 305.316 332.777
 303.559 327.32 300.73 323.035 c 302.242 322.145 303.91 321.656 305.75 321.656
 c 314.863 321.656 322.484 329.07 322.484 338.395 c 322.488 340.578 320.711
 342.355 318.523 342.355 c h
358.488 179.926 m 366.086 176.715 374.309 183.617 372.484 191.789 c 369.086
 207.012 356.211 219.02 339.469 220.402 c 339.449 220.406 339.426 220.406
 339.402 220.41 c 325.551 221.531 317.137 212.262 317.535 201.398 c 317.883
 191.859 325.379 184.551 334.48 183.715 c 334.492 183.715 334.508 183.715
 334.52 183.711 c 338.02 183.398 346.797 184.863 358.488 179.926 c h
295.473 81.109 m 299.422 73.777 310.148 74.133 313.816 81.578 c 326.855
 108.031 301.453 142.492 280.93 127.395 c 271.879 120.73 270.914 107.867
 278.527 99.758 c 278.543 99.742 278.555 99.723 278.566 99.707 c 281.605
 96.504 289.23 92.723 295.473 81.109 c h
179.707 51.68 m 183.523 45.398 188.121 41.645 192 41.645 c 195.879 41.645
 200.473 45.398 204.289 51.68 c 208.039 57.852 210.555 65.82 210.555 71.52
 c 210.555 81.668 202.305 90.074 192.004 90.074 c 192.004 90.074 192 90.074
 192 90.074 c 191.996 90.074 191.992 90.074 191.992 90.074 c 181.801 90.074
 173.441 81.77 173.441 71.52 c 173.441 65.82 175.961 57.852 179.707 51.68
 c h
70.18 81.578 m 73.875 74.086 84.609 73.836 88.523 81.109 c 94.785 92.754
 102.348 96.449 105.469 99.758 c 114.617 109.5 108.699 120.641 108.688 120.715
 c 103.633 130.898 89.605 136.086 77.383 124.008 c 77.355 123.984 77.328
 123.965 77.305 123.938 c 65.746 112.48 63.391 95.359 70.18 81.578 c h
74.191 136.121 m 87.637 146.375 106.141 143.406 115.961 130.273 c 115.965
 130.266 115.973 130.254 115.98 130.246 c 123.496 120.176 123.453 107.262
 117.75 97.5 c 131.992 89.184 147.328 83.395 163.484 80.242 c 167.242 92.719
 178.715 101.324 192 101.324 c 205.129 101.324 216.715 92.863 220.516 80.242
 c 236.668 83.395 252.008 89.184 266.25 97.5 c 258.473 110.816 262.094 127.559
 274.316 136.492 c 274.371 136.527 274.422 136.562 274.473 136.602 c 284.473
 143.816 298.707 144.59 309.805 136.121 c 318.363 147.422 325.191 159.777
 330.172 172.988 c 316.418 175.789 306.082 187.859 306.273 202.5 c 306.477
 217.445 318.102 232.84 339.109 231.711 c 335.957 250.656 319.426 265.102
 299.691 265.102 c 295.082 265.102 l 291.977 265.102 289.457 267.621 289.457
 270.727 c 289.457 273.832 291.977 276.352 295.082 276.352 c 299.691 276.352
 l 301.883 276.352 304.539 276.172 306.824 275.852 c 306.824 310.426 l 301.328
 310.219 296.434 311.949 292.629 314.961 c 288.254 312.098 282.906 310.406
 277.328 310.406 c 272.773 310.406 268.062 311.941 264.223 314.961 c 259.855
 312.094 254.461 310.41 248.922 310.406 c 248.918 310.406 248.914 310.406
 248.91 310.406 c 238.617 310.406 229.75 317.855 227.992 327.996 c 224.27
 324.664 222.004 319.832 222.004 314.547 c 222.004 292.777 l 232.441 289.121
 242.277 283.508 250.75 276.352 c 273.395 276.352 l 276.504 276.352 279.02
 273.832 279.02 270.727 c 279.02 267.621 276.504 265.102 273.395 265.102
 c 261.934 265.102 l 264.816 261.645 267.875 257.363 270.348 253.199 c 277.652
 249.113 283.32 241.824 285.082 233.016 c 285.543 230.715 285.918 228.395
 286.207 226.055 c 287.707 213.914 286.82 201.938 284.027 190.918 c 289.586
 186.012 293.871 179.477 296.016 172.004 c 299.438 160.082 290.355 148.414
 278.363 148.352 c 272.727 148.32 270.352 150.992 262.777 151.031 c 238.406
 124.047 202.457 113.883 169.098 122.148 c 166.082 122.898 164.242 125.945
 164.988 128.961 c 165.738 131.977 168.785 133.816 171.801 133.07 c 199.59
 126.18 228.102 134.102 248.047 152.156 c 222.762 161.141 227.648 197.848
 253.414 200.586 c 260.293 201.316 267.41 200.285 273.953 197.375 c 275.742
 206.07 276.211 215.207 275.043 224.672 c 274.789 226.734 274.457 228.781
 274.051 230.809 c 272.156 240.293 263.141 246.828 253.469 245.594 c 253.465
 245.594 l 232.703 242.938 218.984 245.016 202.703 248.934 c 194.727 250.844
 186.672 250.527 179.348 248.422 c 163.82 243.973 146.496 243.551 130.535
 245.594 c 130.531 245.594 130.531 245.594 130.531 245.594 c 120.891 246.82
 111.859 240.34 109.949 230.809 c 108.867 225.402 108.32 219.84 108.32 214.281
 c 108.32 208.727 108.867 203.105 110.047 197.375 c 116.391 200.199 123.512
 201.34 130.586 200.586 c 143.973 199.168 153.871 186.969 152.551 173.312
 c 151.906 166.648 148.695 160.629 143.465 156.383 c 141.152 154.504 138.547
 153.078 135.961 152.16 c 140.707 147.879 146.156 143.906 152.527 140.492
 c 155.289 139.012 156.285 135.594 154.828 132.875 c 153.352 130.117 149.93
 129.121 147.215 130.574 c 137.199 135.945 128.484 142.914 121.223 151.031
 c 114.707 150.996 111.902 149.066 108.367 148.551 c 95.305 146.641 84.262
 159.023 87.984 172.004 c 90.113 179.418 94.371 185.977 99.973 190.918 c
 98 198.711 97.07 206.781 97.07 214.285 c 97.07 220.648 97.93 231.473 100.242
 237.629 c 100.258 237.668 100.273 237.707 100.289 237.746 c 102.867 244.508
 107.828 249.941 113.652 253.203 c 116.125 257.371 119.262 261.742 122.066
 265.102 c 84.305 265.102 l 64.898 265.102 48.094 250.977 44.887 231.715
 c 53.23 232.16 60.422 230.414 66.832 225.145 c 66.859 225.121 66.887 225.102
 66.91 225.082 c 73.938 219.262 78.051 210.387 77.707 200.988 c 77.168 186.215
 66.258 175.504 53.824 172.992 c 58.809 159.777 65.633 147.422 74.191 136.121
 c h
254.602 189.398 m 242.855 188.152 238.168 172.793 247.629 165.113 c 253.164
 160.617 259.207 162.293 259.734 162.176 c 265.23 162.48 270.262 162.008
 275.918 160.004 c 281.383 158.07 286.812 163.285 285.199 168.898 c 281.438
 182.023 268.727 190.898 254.602 189.398 c h
108.078 160.004 m 116.898 163.125 124.602 162.152 124.441 162.164 c 128.273
 161.895 132.074 161.625 136.371 165.113 c 138.156 166.566 139.516 168.395
 140.371 170.461 c 143.836 178.82 138.363 188.449 129.398 189.402 c 129.395
 189.402 129.391 189.402 129.387 189.402 c 116.094 190.812 103.809 182.996
 99.367 170.664 c 96.453 162.57 103.039 158.223 108.078 160.004 c h
21.57 179.113 m 26.477 179.113 31.441 184.184 46.719 183.656 c 57.137 183.129
 66.086 190.957 66.465 201.398 c 66.707 208.008 63.469 213.969 58.43 217.414
 c 58.422 217.422 58.414 217.426 58.406 217.434 c 45.961 225.914 17.18 217.156
 11.516 191.789 c 9.984 184.941 15.48 179.113 21.57 179.113 c h
21.57 179.113 m f
Q Q
showpage
%%Trailer
end
%%EOF
