%!PS-Adobe-3.0 EPSF-3.0
%%Creator: cairo 1.16.0 (https://cairographics.org)
%%CreationDate: Mon Aug 23 08:35:02 2021
%%Pages: 1
%%DocumentData: Clean7Bit
%%LanguageLevel: 2
%%BoundingBox: 21 0 363 384
%%EndComments
%%BeginProlog
50 dict begin
/q { gsave } bind def
/Q { grestore } bind def
/cm { 6 array astore concat } bind def
/w { setlinewidth } bind def
/J { setlinecap } bind def
/j { setlinejoin } bind def
/M { setmiterlimit } bind def
/d { setdash } bind def
/m { moveto } bind def
/l { lineto } bind def
/c { curveto } bind def
/h { closepath } bind def
/re { exch dup neg 3 1 roll 5 3 roll moveto 0 rlineto
      0 exch rlineto 0 rlineto closepath } bind def
/S { stroke } bind def
/f { fill } bind def
/f* { eofill } bind def
/n { newpath } bind def
/W { clip } bind def
/W* { eoclip } bind def
/BT { } bind def
/ET { } bind def
/BDC { mark 3 1 roll /BDC pdfmark } bind def
/EMC { mark /EMC pdfmark } bind def
/cairo_store_point { /cairo_point_y exch def /cairo_point_x exch def } def
/Tj { show currentpoint cairo_store_point } bind def
/TJ {
  {
    dup
    type /stringtype eq
    { show } { -0.001 mul 0 cairo_font_matrix dtransform rmoveto } ifelse
  } forall
  currentpoint cairo_store_point
} bind def
/cairo_selectfont { cairo_font_matrix aload pop pop pop 0 0 6 array astore
    cairo_font exch selectfont cairo_point_x cairo_point_y moveto } bind def
/Tf { pop /cairo_font exch def /cairo_font_matrix where
      { pop cairo_selectfont } if } bind def
/Td { matrix translate cairo_font_matrix matrix concatmatrix dup
      /cairo_font_matrix exch def dup 4 get exch 5 get cairo_store_point
      /cairo_font where { pop cairo_selectfont } if } bind def
/Tm { 2 copy 8 2 roll 6 array astore /cairo_font_matrix exch def
      cairo_store_point /cairo_font where { pop cairo_selectfont } if } bind def
/g { setgray } bind def
/rg { setrgbcolor } bind def
/d1 { setcachedevice } bind def
/cairo_data_source {
  CairoDataIndex CairoData length lt
    { CairoData CairoDataIndex get /CairoDataIndex CairoDataIndex 1 add def }
    { () } ifelse
} def
/cairo_flush_ascii85_file { cairo_ascii85_file status { cairo_ascii85_file flushfile } if } def
/cairo_image { image cairo_flush_ascii85_file } def
/cairo_imagemask { imagemask cairo_flush_ascii85_file } def
%%EndProlog
%%BeginSetup
%%EndSetup
%%Page: 1 1
%%BeginPageSetup
%%PageBoundingBox: 21 0 363 384
%%EndPageSetup
q 21 0 342 384 rectclip
1 0 0 -1 0 384 cm q
0.501961 0.772549 0.690196 rg
275.555 324.68 m 225.812 274.934 l 196.906 303.844 l 246.648 353.586 l 
254.633 361.57 267.574 361.57 275.555 353.586 c 283.539 345.605 283.539 
332.66 275.555 324.68 c h
275.555 324.68 m f
0.435294 0.74902 0.65098 rg
166.562 227.973 m 119.039 231.586 98.211 213.473 96.645 213.027 c 60.695
 188.617 56.891 144.102 56.742 143.633 c 56.742 143.656 56.918 143.859 55.77
 139.508 c 51.418 122.98 26.934 126.395 27.184 143.434 c 27.105 140.086 
26.078 166.023 37.754 194.797 c 47.199 218.086 61.195 234.734 78.793 248.016
 c 80.758 248.738 108.293 273.48 167.645 274.566 c 167.941 274.574 l h
166.562 227.973 m f
0.313726 0.713726 0.572549 rg
225.812 274.934 m 201.281 299.469 l 201.281 308.219 l 224.488 331.426 l
 229.039 330.332 l 241.918 327.234 254.086 321.617 264.828 313.949 c h
225.812 274.934 m f
0.921569 0.917647 0.960784 rg
295.953 95.934 m 324.539 117.137 l 303.039 117.137 285.605 134.566 285.605
 156.07 c 285.605 229.914 l 285.605 268 259.25 299.926 223.781 308.453 c
 223.781 223.895 l 239.223 120.809 l h
295.953 95.934 m f
0.313726 0.713726 0.572549 rg
159.078 228.367 m 116.852 229.66 98.125 213.449 96.645 213.027 c 95.746
 212.418 94.871 211.789 94.012 211.156 c 85.32 221.078 79.277 233.258 76.875
 246.531 c 77.512 247.027 78.145 247.531 78.789 248.02 c 80.758 248.738 
108.293 273.484 167.641 274.566 c 167.941 274.574 l 167.867 272.152 l 161.926
 261.113 158.711 248.672 158.711 235.855 c 158.711 233.348 158.84 230.848
 159.078 228.367 c h
159.078 228.367 m f
0.501961 0.772549 0.690196 rg
347.402 61.941 m 341.551 56.09 333.465 52.473 324.539 52.473 c 315.176 
52.473 l 313.477 26.316 291.734 5.625 265.148 5.625 c 251.301 5.625 238.766
 11.234 229.695 20.312 c 220.617 29.383 215.008 41.926 215.008 55.773 c 
215.008 179.34 l 215.008 195.277 202.086 208.195 186.148 208.195 c 150.137
 208.195 l 121.754 208.195 98.258 230.98 98.219 259.363 c 98.207 266.113
 99.5 272.559 101.863 278.453 c 102.766 280.703 103.82 282.871 105.016 284.953
 c 109.52 292.781 111.859 301.664 111.859 310.695 c 111.859 357.934 l 111.859
 369.223 121.012 378.375 132.301 378.375 c 143.59 378.375 152.742 369.223
 152.742 357.934 c 152.742 310.695 l 167.227 310.695 l 172.59 310.695 177.828
 310.168 182.898 309.172 c 182.898 357.508 l 182.898 368.645 191.633 378.062
 202.766 378.367 c 214.316 378.684 223.781 369.414 223.781 357.934 c 223.781
 287.586 l 238.727 272.926 248 252.504 248 229.914 c 248 156.07 l 248 134.566
 265.434 117.137 286.938 117.137 c 324.539 117.137 l 333.465 117.137 341.551
 113.52 347.402 107.668 c 353.254 101.816 356.871 93.73 356.871 84.805 c
 356.871 75.875 353.254 67.789 347.402 61.941 c h
347.402 61.941 m f
0.435294 0.74902 0.65098 rg
136.211 235.855 m 136.211 226.625 137.48 217.695 139.84 209.215 c 116.289
 213.934 98.254 234.5 98.219 259.363 c 98.207 266.117 99.5 272.559 101.863
 278.457 c 102.766 280.703 103.82 282.875 105.016 284.953 c 109.52 292.781
 111.859 301.664 111.859 310.695 c 111.859 357.934 l 111.859 369.227 121.012
 378.375 132.301 378.375 c 143.59 378.375 152.742 369.227 152.742 357.934
 c 152.742 310.695 l 167.227 310.695 l 168.25 310.695 169.27 310.672 170.281
 310.633 c 149.41 292.465 136.211 265.703 136.211 235.855 c h
136.211 235.855 m f
0 g
300.352 86.094 m 309.199 96.246 324.957 96.234 333.797 86.094 c 335.836
 83.75 335.594 80.199 333.25 78.156 c 330.91 76.117 327.355 76.359 325.316
 78.703 c 320.957 83.699 313.203 83.715 308.832 78.703 c 306.789 76.359 
303.238 76.117 300.895 78.156 c 298.555 80.195 298.309 83.75 300.352 86.094
 c h
300.352 86.094 m f
295.98 46.133 m 292.871 46.133 290.355 48.652 290.355 51.758 c 290.355 
60.105 l 290.355 63.211 292.871 65.73 295.98 65.73 c 299.086 65.73 301.605
 63.211 301.605 60.105 c 301.605 51.758 l 301.605 48.652 299.086 46.133 
295.98 46.133 c h
295.98 46.133 m f
264.824 60.105 m 264.824 51.758 l 264.824 48.652 262.305 46.133 259.199
 46.133 c 256.094 46.133 253.574 48.652 253.574 51.758 c 253.574 60.105 
l 253.574 63.211 256.094 65.73 259.199 65.73 c 262.305 65.73 264.824 63.211
 264.824 60.105 c h
264.824 60.105 m f
32.566 196.914 m 41.707 219.449 55.727 237.633 75.43 252.508 c 78.441 254.785
 85.883 259.633 92.75 263.121 c 93.312 271.945 95.859 280.273 100.164 287.758
 c 104.152 294.688 106.262 302.621 106.262 310.695 c 106.262 357.934 l 106.262
 372.309 117.953 384 132.328 384 c 146.699 384 158.395 372.309 158.395 357.934
 c 158.395 316.32 l 167.254 316.32 l 170.605 316.32 173.965 316.125 177.301
 315.738 c 177.301 357.508 l 177.301 371.727 188.664 383.605 202.637 383.992
 c 217.359 384.395 229.434 372.605 229.434 357.934 c 229.434 344.301 l 242.695
 357.566 l 252.859 367.727 269.395 367.73 279.559 357.566 c 289.746 347.379
 289.746 330.891 279.559 320.703 c 257.363 298.504 l 263.777 293.586 269.539
 287.773 274.41 281.176 c 276.254 278.676 275.727 275.152 273.227 273.309
 c 270.727 271.465 267.203 271.992 265.359 274.492 c 256.16 286.957 243.449
 296.105 229.434 300.945 c 229.434 289.902 l 231.781 287.473 233.969 284.926
 235.992 282.281 c 245.41 271.488 253.652 250.672 253.652 229.918 c 253.652
 156.07 l 253.652 137.812 268.48 122.762 286.961 122.762 c 295 122.762 l
 285.805 130.93 280.004 142.836 280.004 156.07 c 280.004 229.918 l 280.004
 239.168 278.332 248.223 275.027 256.832 c 273.914 259.734 275.359 262.984
 278.262 264.098 c 281.16 265.211 284.414 263.766 285.527 260.863 c 289.328
 250.965 291.254 240.551 291.254 229.918 c 291.254 156.07 l 291.254 137.703
 306.199 122.762 324.566 122.762 c 345.547 122.762 362.52 105.789 362.52
 84.805 c 362.52 63.824 345.547 46.848 324.562 46.848 c 320.223 46.848 l
 315.926 20.188 292.695 0 265.176 0 c 250.273 0 236.27 5.801 225.746 16.332
 c 215.211 26.859 209.41 40.867 209.41 55.773 c 209.41 90.543 l 209.41 93.652
 211.926 96.168 215.035 96.168 c 218.141 96.168 220.66 93.652 220.66 90.543
 c 220.66 55.773 l 220.66 43.875 225.289 32.691 233.699 24.289 c 242.102
 15.879 253.281 11.25 265.176 11.25 c 288.566 11.25 308.074 29.516 309.59
 52.836 c 309.781 55.797 312.238 58.098 315.203 58.098 c 324.566 58.098 
l 339.328 58.098 351.273 70.039 351.273 84.805 c 351.273 99.566 339.328 
111.512 324.566 111.512 c 286.961 111.512 l 262.297 111.512 242.402 131.59
 242.402 156.07 c 242.402 229.914 l 242.402 246.062 237.227 262.035 227.105
 275.359 c 220.66 283.84 218.184 283.742 218.184 287.586 c 218.184 357.934
 l 218.184 366.227 211.363 372.973 202.945 372.742 c 195.008 372.527 188.551
 365.691 188.551 357.508 c 188.551 309.172 l 188.551 305.633 185.312 302.969
 181.84 303.652 c 177.051 304.594 172.145 305.07 167.254 305.07 c 152.77
 305.07 l 149.664 305.07 147.145 307.59 147.145 310.695 c 147.145 357.934
 l 147.145 366.105 140.496 372.75 132.328 372.75 c 124.156 372.75 117.512
 366.105 117.512 357.934 c 117.512 310.695 l 117.512 300.656 114.887 290.785
 109.918 282.148 c 92.512 251.895 114.625 213.82 150.16 213.82 c 186.176
 213.82 l 205.191 213.82 220.66 198.352 220.66 179.34 c 220.66 112.945 l
 220.66 109.84 218.141 107.32 215.035 107.32 c 211.926 107.32 209.41 109.84
 209.41 112.945 c 209.41 179.34 l 209.41 192.148 198.988 202.57 186.176 
202.57 c 150.16 202.57 l 136.25 202.57 123.473 207.484 113.508 215.648 c
 105.145 212.242 101.219 209.062 99.484 208.137 c 70.059 187.922 63.664 
153.453 62.402 143.336 c 60.742 130.012 51.426 121.609 39.035 123.309 c 
28.934 124.691 21.887 132.535 21.594 142.543 c 20.914 148.16 23.043 173.438
 32.566 196.914 c h
247.828 304.883 m 271.605 328.656 l 277.395 334.445 277.398 343.816 271.605
 349.609 c 265.828 355.387 256.43 355.387 250.652 349.609 c 229.434 328.391
 l 229.434 312.77 l 235.605 310.941 241.988 308.238 247.828 304.883 c h
40.562 134.453 m 50.508 133.09 51.191 144.629 51.238 144.727 c 52.656 156.066
 59.883 194.844 93.512 217.68 c 96.895 219.977 101.324 222.473 105.027 224.211
 c 98.879 231.84 94.82 240.887 93.297 250.648 c 86.758 246.941 83.383 244.156
 81.848 243.258 c 63.758 229.512 51.406 213.434 42.992 192.684 c 33.492 
169.27 32.824 147.875 32.789 144.168 c 32.914 143.215 32.359 135.578 40.562
 134.453 c h
40.562 134.453 m f
Q Q
showpage
%%Trailer
end
%%EOF
