%!PS-Adobe-3.0 EPSF-3.0
%%Creator: cairo 1.16.0 (https://cairographics.org)
%%CreationDate: Mon Aug 23 08:35:03 2021
%%Pages: 1
%%DocumentData: Clean7Bit
%%LanguageLevel: 2
%%BoundingBox: 0 52 384 332
%%EndComments
%%BeginProlog
50 dict begin
/q { gsave } bind def
/Q { grestore } bind def
/cm { 6 array astore concat } bind def
/w { setlinewidth } bind def
/J { setlinecap } bind def
/j { setlinejoin } bind def
/M { setmiterlimit } bind def
/d { setdash } bind def
/m { moveto } bind def
/l { lineto } bind def
/c { curveto } bind def
/h { closepath } bind def
/re { exch dup neg 3 1 roll 5 3 roll moveto 0 rlineto
      0 exch rlineto 0 rlineto closepath } bind def
/S { stroke } bind def
/f { fill } bind def
/f* { eofill } bind def
/n { newpath } bind def
/W { clip } bind def
/W* { eoclip } bind def
/BT { } bind def
/ET { } bind def
/BDC { mark 3 1 roll /BDC pdfmark } bind def
/EMC { mark /EMC pdfmark } bind def
/cairo_store_point { /cairo_point_y exch def /cairo_point_x exch def } def
/Tj { show currentpoint cairo_store_point } bind def
/TJ {
  {
    dup
    type /stringtype eq
    { show } { -0.001 mul 0 cairo_font_matrix dtransform rmoveto } ifelse
  } forall
  currentpoint cairo_store_point
} bind def
/cairo_selectfont { cairo_font_matrix aload pop pop pop 0 0 6 array astore
    cairo_font exch selectfont cairo_point_x cairo_point_y moveto } bind def
/Tf { pop /cairo_font exch def /cairo_font_matrix where
      { pop cairo_selectfont } if } bind def
/Td { matrix translate cairo_font_matrix matrix concatmatrix dup
      /cairo_font_matrix exch def dup 4 get exch 5 get cairo_store_point
      /cairo_font where { pop cairo_selectfont } if } bind def
/Tm { 2 copy 8 2 roll 6 array astore /cairo_font_matrix exch def
      cairo_store_point /cairo_font where { pop cairo_selectfont } if } bind def
/g { setgray } bind def
/rg { setrgbcolor } bind def
/d1 { setcachedevice } bind def
/cairo_data_source {
  CairoDataIndex CairoData length lt
    { CairoData CairoDataIndex get /CairoDataIndex CairoDataIndex 1 add def }
    { () } ifelse
} def
/cairo_flush_ascii85_file { cairo_ascii85_file status { cairo_ascii85_file flushfile } if } def
/cairo_image { image cairo_flush_ascii85_file } def
/cairo_imagemask { imagemask cairo_flush_ascii85_file } def
%%EndProlog
%%BeginSetup
%%EndSetup
%%Page: 1 1
%%BeginPageSetup
%%PageBoundingBox: 0 52 384 332
%%EndPageSetup
q 0 52 384 280 rectclip
1 0 0 -1 0 384 cm q
0.937255 0.501961 0.498039 rg
284.418 262.777 m 256.652 246.953 238.594 220.449 238.391 220.148 c 219.469
 232.801 l 200.492 245.41 l 201.598 247.066 225.273 282.223 264.031 303.543
 c 271.637 307.73 281.199 304.25 284.488 296.215 c 290.715 281.02 l 293.5
 274.223 290.801 266.414 284.418 262.777 c h
284.418 262.777 m f
0.92549 0.415686 0.384314 rg
238.391 220.148 m 219.469 232.801 l 200.492 245.41 l 201.273 246.582 213.352
 264.52 234.074 282.461 c 240.891 278.141 247.27 273.109 253.059 267.426
 c 258.199 262.379 262.852 256.754 266.961 250.656 c 249.32 236.18 238.547
 220.379 238.391 220.148 c h
238.391 220.148 m f
0.501961 0.772549 0.690196 rg
160.664 145.281 m 148.77 120.762 l 144.711 112.391 132.836 112.25 128.578
 120.52 c 116.098 144.746 l 112.254 152.207 117.609 161.105 126 161.203 
c 150.371 161.496 l 158.766 161.598 164.328 152.832 160.664 145.281 c h
160.664 145.281 m f
93.355 141.27 m 90.32 114.188 l 89.281 104.941 78.133 100.848 71.359 107.227
 c 51.52 125.906 l 45.406 131.656 47.488 141.832 55.363 144.723 c 78.246
 153.125 l 86.125 156.02 94.293 149.609 93.355 141.27 c h
93.355 141.27 m f
275.594 85.469 m 249.254 78.492 l 240.258 76.109 232.406 85.016 235.898
 93.641 c 246.121 118.902 l 249.27 126.68 259.504 128.426 265.055 122.129
 c 281.172 103.848 l 286.723 97.551 283.707 87.617 275.594 85.469 c h
275.594 85.469 m f
227.367 134.934 m 209.402 114.441 l 203.266 107.445 191.781 110.457 189.863
 119.562 c 184.254 146.227 l 182.527 154.441 190.043 161.602 198.164 159.473
 c 221.742 153.297 l 229.859 151.168 232.902 141.242 227.367 134.934 c h
227.367 134.934 m f
0.313726 0.713726 0.572549 rg
67.059 138.262 m 67.059 124.926 77.055 113.934 89.961 112.352 c 87.762 
104.43 77.668 101.289 71.359 107.227 c 51.52 125.906 l 45.406 131.656 47.488
 141.832 55.363 144.723 c 69.871 150.051 l 68.078 146.508 67.059 142.504
 67.059 138.262 c h
67.059 138.262 m f
134.203 130.391 m 134.203 124.387 136.23 118.859 139.637 114.449 c 135.348
 114.066 130.863 116.078 128.578 120.52 c 116.098 144.746 l 112.254 152.207
 117.609 161.105 126 161.203 c 150.371 161.496 l 154.461 161.547 157.875
 159.484 159.883 156.488 c 145.66 156.258 134.203 144.664 134.203 130.391
 c h
134.203 130.391 m f
223.344 149.195 m 208.922 149.195 197.234 137.504 197.234 123.082 c 197.234
 118.562 198.383 114.312 200.402 110.605 c 195.594 110.844 191.012 114.109
 189.863 119.562 c 184.254 146.23 l 182.527 154.441 190.043 161.602 198.164
 159.477 c 221.742 153.297 l 224.562 152.559 226.766 150.879 228.215 148.734
 c 226.637 149.031 225.012 149.195 223.344 149.195 c h
223.344 149.195 m f
269.562 107.902 m 255.145 107.902 243.453 96.211 243.453 81.793 c 243.453
 80.648 243.535 79.523 243.676 78.418 c 237.391 79.953 233.16 86.883 235.898
 93.641 c 246.121 118.902 l 249.27 126.68 259.504 128.426 265.055 122.133
 c 279.238 106.043 l 276.246 107.238 272.984 107.902 269.562 107.902 c h
269.562 107.902 m f
0.937255 0.501961 0.498039 rg
368.812 87.062 m 355.199 71.734 l 347.223 62.75 335.781 57.609 323.766 
57.609 c 311.73 57.609 300.273 62.766 292.297 71.773 c 248.789 120.883 l
 233.156 138.531 210.707 148.637 187.133 148.633 c 129.691 148.633 l 95.801
 148.633 63.137 137.402 35.367 117.977 c 27.297 112.332 16.172 113.785 9.84
 121.492 c 4.211 128.344 4.293 138.273 9.668 145.328 c 18.621 157.09 34.352
 174.559 57.598 189.488 c 70.152 197.555 79.824 209.297 85.949 222.902 c
 89.141 229.984 93.184 236.598 97.949 242.617 c 97.949 310.504 l 97.949 
319.277 105.062 326.391 113.836 326.391 c 127.926 326.391 l 136.703 326.391
 143.816 319.277 143.816 310.504 c 143.816 274.082 l 152.582 276.789 161.895
 278.254 171.551 278.254 c 174.996 278.254 178.426 278.055 181.828 277.676
 c 181.828 310.504 l 181.828 319.277 188.941 326.391 197.715 326.391 c 211.809
 326.391 l 220.582 326.391 227.695 319.277 227.695 310.504 c 227.695 259.582
 l 231.066 257.074 234.277 254.336 237.293 251.371 c 248.59 240.281 256.379
 226.336 260.844 211.312 c 268.477 185.609 281.23 161.715 299.012 141.645
 c 303.488 136.59 l 307.438 132.129 314.398 132.125 318.352 136.578 c 328.949
 148.512 345.43 151.246 358.758 144.539 c 360.434 138.035 l 370.906 134.398
 l 381.641 120.379 380.68 100.426 368.812 87.062 c h
368.812 87.062 m f
0.92549 0.415686 0.384314 rg
112.977 233.109 m 112.977 201.301 123.715 172.008 141.754 148.637 c 129.691
 148.637 l 95.801 148.637 63.137 137.406 35.367 117.977 c 27.297 112.332
 16.172 113.785 9.84 121.492 c 4.211 128.344 4.293 138.273 9.668 145.332
 c 18.621 157.09 34.352 174.559 57.598 189.492 c 70.152 197.555 79.824 209.297
 85.949 222.902 c 89.141 229.988 93.184 236.602 97.949 242.617 c 97.949 
310.504 l 97.949 319.277 105.062 326.391 113.836 326.391 c 127.926 326.391
 l 134.035 326.391 139.328 322.941 141.988 317.887 c 123.809 294.465 112.977
 265.055 112.977 233.109 c h
112.977 233.109 m f
0 g
336.652 102.293 m 336.652 93.188 l 336.652 90.082 334.133 87.562 331.027
 87.562 c 327.922 87.562 325.402 90.082 325.402 93.188 c 325.402 102.293
 l 325.402 105.398 327.922 107.918 331.027 107.918 c 334.133 107.918 336.652
 105.398 336.652 102.293 c h
336.652 102.293 m f
197.707 331.977 m 211.797 331.977 l 223.656 331.977 233.301 322.328 233.301
 310.469 c 233.301 289.172 l 242.367 296.727 251.742 303.188 261.293 308.441
 c 266.168 311.121 272.117 311.711 277.641 309.762 c 283.09 307.836 287.473
 303.664 289.664 298.316 c 295.887 283.125 l 299.73 273.75 295.98 262.891
 287.172 257.867 c 274.844 250.844 264.5 241.523 257.324 234.074 c 260.988
 227.496 263.984 220.395 266.207 212.902 c 268.688 204.562 271.77 196.328
 275.371 188.43 c 276.66 185.602 275.414 182.266 272.59 180.977 c 269.766
 179.688 266.43 180.934 265.141 183.762 c 261.32 192.133 258.051 200.863
 255.426 209.703 c 250.16 227.43 240.363 242.742 225.328 254.273 c 225.25
 254.332 224.223 255.121 224.301 255.062 c 221.809 256.926 222.074 259.742
 222.055 259.816 c 222.055 310.469 l 222.055 316.125 217.453 320.727 211.797
 320.727 c 197.707 320.727 l 192.051 320.727 187.449 316.125 187.449 310.469
 c 187.449 278.035 l 187.68 274.594 184.789 271.73 181.328 272.047 c 181.289
 272.051 181.25 272.055 181.211 272.059 c 169.117 273.41 156.93 272.223 
145.469 268.68 c 141.695 267.512 137.945 270.504 138.195 274.414 c 138.195
 310.469 l 138.195 316.125 133.594 320.73 127.938 320.73 c 113.848 320.73
 l 108.191 320.73 103.586 316.125 103.586 310.469 c 103.586 242.598 l 103.586
 241.332 103.16 240.102 102.371 239.109 c 97.859 233.406 94.066 227.172 
91.098 220.582 c 84.352 205.598 73.828 193.211 60.664 184.754 c 55.441 181.398
 50.305 177.707 45.391 173.781 c 42.965 171.84 39.43 172.234 37.488 174.66
 c 35.547 177.086 35.941 180.625 38.367 182.562 c 43.582 186.73 49.039 190.652
 54.586 194.219 c 65.914 201.492 74.992 212.207 80.844 225.199 c 83.922 
232.035 87.785 238.527 92.34 244.523 c 92.34 310.469 l 92.34 322.328 101.988
 331.977 113.848 331.977 c 127.938 331.977 l 139.797 331.977 149.445 322.328
 149.445 310.469 c 149.445 281.379 l 158.477 283.434 167.57 284.156 176.199
 283.738 c 176.199 310.469 l 176.199 322.328 185.848 331.977 197.707 331.977
 c h
251.133 243.828 m 258.754 251.488 269.219 260.582 281.605 267.641 c 285.52
 269.871 287.188 274.695 285.48 278.859 c 279.258 294.055 l 278.281 296.438
 276.324 298.297 273.895 299.156 c 271.484 300.008 268.934 299.805 266.715
 298.586 c 255.254 292.281 244.023 284.09 233.305 274.227 c 233.305 262.332
 l 239.941 257.09 245.898 251.043 251.133 243.828 c h
251.133 243.828 m f
21.273 167.168 m 23.453 169.379 27.016 169.398 29.227 167.215 c 31.434 
165.035 31.457 161.473 29.273 159.262 c 23.793 153.719 18.715 147.887 14.176
 141.926 c 10.328 136.875 10.348 129.785 14.223 125.07 c 18.621 119.719 
26.504 118.629 32.172 122.598 c 62.609 143.891 96.52 154.262 129.68 154.262
 c 184.004 154.262 l 188.449 153.812 224.484 156.852 252.977 124.625 c 256.543
 120.598 291.133 81.555 296.473 75.523 c 310.934 59.199 336.457 59.172 350.949
 75.492 c 364.559 90.816 l 375.582 103.23 375.57 122.309 363.57 134.188 
c 361.23 133.734 359.051 132.703 357.188 131.141 c 354.043 128.504 352.199
 124.633 352.121 120.52 c 352.062 117.414 349.527 114.945 346.391 115.004
 c 343.285 115.062 340.816 117.629 340.875 120.734 c 341.016 128.098 344.324
 135.031 349.957 139.754 c 350.598 140.293 351.262 140.781 351.941 141.25
 c 349.344 142.059 346.621 142.492 343.828 142.508 c 335.68 142.555 328.094
 139.129 322.52 132.852 c 316.348 125.898 305.445 125.863 299.246 132.867
 c 294.77 137.918 l 287.859 145.719 281.535 154.273 275.973 163.355 c 274.352
 166.004 275.184 169.465 277.828 171.086 c 280.469 172.703 283.934 171.891
 285.562 169.23 c 290.785 160.711 296.715 152.684 303.188 145.379 c 307.664
 140.324 l 309.375 138.395 312.395 138.387 314.109 140.32 c 321.754 148.926
 332.641 153.824 343.895 153.758 c 378.277 153.555 397.457 110.922 372.969
 83.348 c 359.359 68.023 l 340.402 46.68 307 46.684 288.055 68.066 c 277.348
 80.156 l 276.352 79.867 259.543 75.43 250.672 73.078 c 237.207 69.512 225.441
 82.859 230.668 95.77 c 240.891 121.023 l 237.598 124.254 234.039 127.164
 230.266 129.73 c 213.621 110.746 l 204.434 100.273 187.223 104.785 184.355
 118.414 c 179.18 143.016 l 165.809 143.016 l 165.777 142.953 165.754 142.891
 165.727 142.832 c 153.836 118.32 l 147.746 105.77 129.949 105.598 123.586
 117.957 c 111.27 141.867 l 107.113 141.352 102.98 140.66 98.867 139.801
 c 95.926 113.574 l 94.371 99.73 77.668 93.602 67.527 103.145 c 49.312 120.293
 l 45.691 118.137 42.125 115.832 38.621 113.379 c 28.172 106.07 13.637 108.066
 5.535 117.93 c -1.73 126.77 -1.855 139.441 5.23 148.742 c 10.059 155.082
 15.457 161.281 21.273 167.168 c h
75.238 111.336 m 78.645 108.129 84.227 110.188 84.746 114.828 c 87.219 
136.867 l 77.824 134.125 68.605 130.48 59.684 125.98 c h
247.793 83.949 m 269.008 89.566 l 249.297 111.82 l 241.094 91.551 l 239.32
 87.18 243.32 82.766 247.793 83.949 c h
205.16 118.164 m 220.324 135.457 l 211.023 139.918 200.852 142.469 190.691
 142.93 c 195.359 120.73 l 196.328 116.145 202.082 114.652 205.16 118.164
 c h
123.402 142.879 m 133.586 123.105 l 135.707 118.988 141.66 118.992 143.715
 123.23 c 153.312 143.016 l 131.445 142.98 128.789 143.113 123.402 142.879
 c h
123.402 142.879 m f
Q Q
showpage
%%Trailer
end
%%EOF
