%!PS-Adobe-3.0 EPSF-3.0
%%Creator: cairo 1.16.0 (https://cairographics.org)
%%CreationDate: Mon Aug 23 08:35:04 2021
%%Pages: 1
%%DocumentData: Clean7Bit
%%LanguageLevel: 2
%%BoundingBox: 0 70 384 314
%%EndComments
%%BeginProlog
50 dict begin
/q { gsave } bind def
/Q { grestore } bind def
/cm { 6 array astore concat } bind def
/w { setlinewidth } bind def
/J { setlinecap } bind def
/j { setlinejoin } bind def
/M { setmiterlimit } bind def
/d { setdash } bind def
/m { moveto } bind def
/l { lineto } bind def
/c { curveto } bind def
/h { closepath } bind def
/re { exch dup neg 3 1 roll 5 3 roll moveto 0 rlineto
      0 exch rlineto 0 rlineto closepath } bind def
/S { stroke } bind def
/f { fill } bind def
/f* { eofill } bind def
/n { newpath } bind def
/W { clip } bind def
/W* { eoclip } bind def
/BT { } bind def
/ET { } bind def
/BDC { mark 3 1 roll /BDC pdfmark } bind def
/EMC { mark /EMC pdfmark } bind def
/cairo_store_point { /cairo_point_y exch def /cairo_point_x exch def } def
/Tj { show currentpoint cairo_store_point } bind def
/TJ {
  {
    dup
    type /stringtype eq
    { show } { -0.001 mul 0 cairo_font_matrix dtransform rmoveto } ifelse
  } forall
  currentpoint cairo_store_point
} bind def
/cairo_selectfont { cairo_font_matrix aload pop pop pop 0 0 6 array astore
    cairo_font exch selectfont cairo_point_x cairo_point_y moveto } bind def
/Tf { pop /cairo_font exch def /cairo_font_matrix where
      { pop cairo_selectfont } if } bind def
/Td { matrix translate cairo_font_matrix matrix concatmatrix dup
      /cairo_font_matrix exch def dup 4 get exch 5 get cairo_store_point
      /cairo_font where { pop cairo_selectfont } if } bind def
/Tm { 2 copy 8 2 roll 6 array astore /cairo_font_matrix exch def
      cairo_store_point /cairo_font where { pop cairo_selectfont } if } bind def
/g { setgray } bind def
/rg { setrgbcolor } bind def
/d1 { setcachedevice } bind def
/cairo_data_source {
  CairoDataIndex CairoData length lt
    { CairoData CairoDataIndex get /CairoDataIndex CairoDataIndex 1 add def }
    { () } ifelse
} def
/cairo_flush_ascii85_file { cairo_ascii85_file status { cairo_ascii85_file flushfile } if } def
/cairo_image { image cairo_flush_ascii85_file } def
/cairo_imagemask { imagemask cairo_flush_ascii85_file } def
%%EndProlog
%%BeginSetup
%%EndSetup
%%Page: 1 1
%%BeginPageSetup
%%PageBoundingBox: 0 70 384 314
%%EndPageSetup
q 0 70 384 244 rectclip
1 0 0 -1 0 384 cm q
0.552941 0.556863 0.772549 rg
249.961 228.926 m 244.848 221.059 235.441 216.965 226.199 218.574 c 209.879
 221.418 195.254 232.148 188.141 248.473 c 181.031 264.797 183.133 282.812
 192.164 296.703 c 197.277 304.566 206.684 308.664 215.926 307.055 c 232.246
 304.207 246.871 293.48 253.984 277.152 c 261.094 260.828 258.992 242.812
 249.961 228.926 c h
249.961 228.926 m f
0.407843 0.435294 0.694118 rg
140.73 76.613 m 130.57 76.16 125.555 88.57 133.105 95.387 c 149.312 110.02
 152.09 129.316 152.09 129.316 c 187.359 104.438 l 173.727 83.512 155.898
 77.289 140.73 76.613 c h
140.73 76.613 m f
187.359 104.438 m 174.469 109.371 163.047 117.297 153.949 127.352 c 153.344
 128.027 152.727 128.684 152.09 129.316 c 130.848 154.27 l 116.27 146.734
 l 106.777 147.77 96.996 146.469 87.754 142.57 c 87.133 142.312 86.543 142.055
 86 141.816 c 91.16 134.191 93.512 124.648 91.848 114.855 c 90.723 108.246
 87.906 102.344 83.914 97.516 c 83.914 97.516 83.914 97.508 83.906 97.508
 c 72.68 83.836 59.477 83.906 52.074 92.074 c 43.676 101.328 40.668 113.914
 43.484 125.605 c 43.895 127.301 42.555 128.891 40.812 128.773 c 28.848 
127.973 17.25 132.953 9.598 142.359 c 4.301 148.871 4.301 158.066 9.598 
164.578 c 16.383 172.922 26.727 178.246 38.324 178.246 c 44.195 178.246 
49.742 176.879 54.676 174.449 c 54.676 174.449 82.449 245.047 198.707 269.09
 c 278.488 225.797 l 334.961 225.797 l 378.309 206.734 l 378.352 206.031
 378.375 205.32 378.375 204.609 c 378.375 194.887 374.43 186.086 368.062
 179.707 c 361.684 173.336 352.883 169.395 343.16 169.395 c 322.637 169.395
 303.445 158.859 292.77 141.34 c 279.125 118.961 255.688 102.812 229.016
 99.398 c 209.117 129.98 l h
187.359 104.438 m f
0.298039 0.341176 0.596078 rg
192.375 227.332 m 121.129 227.332 63.375 169.578 63.375 98.332 c 63.375
 94.34 63.566 90.395 63.922 86.492 c 59.332 86.645 55.188 88.641 52.074 
92.074 c 43.676 101.328 40.668 113.914 43.484 125.605 c 43.895 127.301 42.555
 128.891 40.812 128.773 c 28.848 127.973 17.25 132.953 9.598 142.359 c 4.301
 148.871 4.301 158.066 9.598 164.578 c 16.383 172.922 26.727 178.246 38.324
 178.246 c 44.195 178.246 49.742 176.879 54.676 174.449 c 54.676 174.449
 82.449 245.047 198.707 269.09 c h
192.375 227.332 m f
0.611765 0.619608 0.811765 rg
113.801 211.551 m 112.395 205.652 107.809 201.066 101.914 199.66 c 89.793
 196.77 76.5 200.047 67.043 209.504 c 57.43 219.121 54.195 232.699 57.348
 244.98 c 58.746 250.422 63.039 254.715 68.48 256.113 c 80.762 259.266 94.34
 256.031 103.957 246.418 c 113.414 236.961 116.695 223.668 113.801 211.551
 c h
113.801 211.551 m f
0.921569 0.917647 0.960784 rg
333.18 191.848 m 329.426 183.23 317.203 183.23 313.449 191.848 c 305.324
 210.5 l 341.305 210.5 l h
333.18 191.848 m f
297.195 191.848 m 293.441 183.23 281.219 183.23 277.465 191.848 c 269.34
 210.5 l 305.324 210.5 l h
297.195 191.848 m f
0.815686 0.811765 0.909804 rg
378.309 206.734 m 377.211 225.199 361.895 239.836 343.156 239.836 c 309.211
 239.836 l 296.344 239.836 283.852 244.293 273.965 252.52 c 258.898 265.039
 239.539 272.574 218.422 272.574 c 211.582 271.562 205.016 270.398 198.707
 269.09 c 205.598 242.48 l 205.598 242.48 221.188 237.047 235.926 226.191
 c 253.328 213.367 274.523 206.734 296.141 206.734 c h
378.309 206.734 m f
202.668 160.094 m 194.75 164.277 186.031 156.301 189.348 147.98 c 191.766
 141.93 193.094 135.324 193.094 128.41 c 193.094 119.781 191.023 111.629
 187.359 104.438 c 197.086 100.711 207.648 98.688 218.688 98.719 c 222.168
 98.727 225.613 98.957 229.016 99.398 c 229.914 102.691 230.504 106.113 
230.746 109.629 c 232.227 131.258 220.551 150.648 202.668 160.094 c h
202.668 160.094 m f
152.211 135.996 m 151.176 155.738 138.488 172.016 121.262 178.609 c 113.641
 181.535 106.621 173.359 110.535 166.191 c 113.383 160.977 115.309 155.145
 116.066 148.879 c 116.148 148.16 116.223 147.445 116.27 146.734 c 129.566
 145.277 142.285 139.238 152.09 129.316 c 152.285 131.508 152.332 133.746
 152.211 135.996 c h
152.211 135.996 m f
0.611765 0.619608 0.811765 rg
205.379 228.926 m 200.266 221.059 190.863 216.965 181.621 218.574 c 165.301
 221.418 150.676 232.148 143.562 248.473 c 136.453 264.797 138.555 282.812
 147.586 296.703 c 152.699 304.566 162.105 308.664 171.348 307.055 c 187.668
 304.207 202.293 293.48 209.406 277.152 c 216.516 260.828 214.414 242.812
 205.379 228.926 c h
205.379 228.926 m f
0.298039 0.341176 0.596078 rg
161.875 97.688 m 149.094 97.688 137.973 90.621 132.184 80.184 c 128.598
 84.281 128.238 90.996 133.105 95.387 c 149.312 110.02 152.09 129.316 152.09
 129.316 c 187.359 104.438 l 184.562 100.141 181.582 96.473 178.488 93.336
 c 173.578 96.102 167.91 97.688 161.875 97.688 c h
161.875 97.688 m f
0 g
246.766 183.996 m 246.766 187.102 249.285 189.617 252.391 189.617 c 255.496
 189.617 258.016 187.102 258.016 183.996 c 258.016 176.484 l 260.363 177.113
 l 263.363 177.918 266.445 176.133 267.25 173.133 c 268.055 170.133 266.273
 167.051 263.273 166.246 c 244.086 161.105 l 241.086 160.301 238 162.082
 237.195 165.082 c 236.391 168.082 238.172 171.168 241.172 171.969 c 247.191
 173.582 l 246.918 174.246 246.766 174.969 246.766 175.73 c h
246.766 183.996 m f
383.922 207.027 m 385.363 183.785 366.844 163.773 343.16 163.773 c 324.574
 163.773 307.105 154.059 297.578 138.418 c 294.629 133.578 291.188 128.941
 287.352 124.637 c 285.285 122.316 281.73 122.113 279.41 124.18 c 277.094
 126.246 276.887 129.801 278.953 132.121 c 282.336 135.922 285.371 140.012
 287.973 144.273 c 299.527 163.242 320.676 175.023 343.16 175.023 c 358.465
 175.023 370.84 186.562 372.547 201.113 c 343.352 201.113 l 338.34 189.609
 l 332.617 176.477 314.008 176.496 308.297 189.609 c 305.328 196.422 l 302.359
 189.609 l 296.637 176.48 278.027 176.496 272.316 189.609 c 265.375 205.535
 l 253.527 209.012 242.387 214.457 232.602 221.664 c 227.258 225.598 220.812
 229.484 213.957 232.793 c 212.855 230.445 211.547 228.07 210.109 225.859
 c 203.738 216.062 192.188 211.027 180.668 213.035 c 176.699 213.727 172.781
 214.852 169.035 216.375 c 166.172 217.539 164.766 220.809 165.941 223.703
 c 167.109 226.582 170.391 227.965 173.266 226.797 c 175.812 225.762 178.324
 225 181.148 224.41 c 189.672 222.637 196.703 225.875 200.68 231.992 c 213.824
 252.203 208.859 279.105 189.629 293.285 c 189.59 293.312 189.555 293.348
 189.516 293.375 c 177.309 302.332 160.535 306.266 152.32 293.633 c 140.672
 275.715 143.238 252.711 157.238 237.789 c 159.363 235.523 159.25 231.965
 156.984 229.84 c 154.883 227.867 151.621 227.801 149.449 229.695 c 147.293
 231.566 142.5 237.754 139.465 243.977 c 132.164 240.562 125.18 236.828 
118.594 232.82 c 120.812 225.656 121.117 217.91 119.305 210.289 c 119.301
 210.273 119.297 210.262 119.293 210.246 c 117.383 202.238 111.219 196.102
 103.242 194.195 c 94.32 192.066 84.691 192.734 75.816 196.73 c 64.211 182.891
 59.973 172.492 59.934 172.395 c 58.73 169.336 55.164 167.953 52.215 169.41
 c 47.879 171.547 43.219 172.629 38.352 172.629 c 28.863 172.629 19.984 
168.406 13.992 161.039 c 10.371 156.586 10.371 150.367 13.992 145.918 c 
20.41 138.023 30.309 133.719 40.469 134.398 c 45.965 134.766 50.281 129.703
 48.98 124.301 c 46.547 114.203 49.273 103.574 56.273 95.867 c 63.059 88.375
 72.953 93.016 79.586 101.09 c 79.609 101.121 79.637 101.152 79.66 101.18
 c 88.195 111.57 89.402 126.801 81.367 138.672 c 79.398 141.582 80.551 145.547
 83.742 146.965 c 91.988 150.633 100.383 152.648 109.711 152.703 c 108.832
 156.535 107.461 160.129 105.637 163.469 c 105.633 163.48 105.625 163.492
 105.621 163.504 c 99.176 175.309 110.848 188.621 123.266 183.883 c 123.277
 183.879 123.285 183.875 123.297 183.871 c 129.93 181.332 135.855 177.555
 140.852 172.863 c 150.832 163.504 157.105 150.488 157.848 136.309 c 157.848
 136.305 157.848 136.305 157.848 136.305 c 157.93 134.805 157.938 132.867
 157.879 131.426 c 165.441 123.117 174.105 116.57 184.473 111.785 c 186.527
 117.227 187.48 122.852 187.484 128.371 c 187.484 128.387 187.488 128.406
 187.488 128.422 c 187.488 134.293 186.418 140.008 184.32 145.426 c 178.715
 159.898 193.297 171.414 205.312 165.074 c 225.762 154.277 237.953 132.367
 236.371 109.254 c 236.305 108.301 236.215 107.352 236.102 106.398 c 245.793
 108.672 255.168 112.812 263.574 118.574 c 266.137 120.328 269.637 119.676
 271.395 117.113 c 273.148 114.551 272.496 111.051 269.934 109.293 c 255.496
 99.402 237.645 93.148 218.715 93.109 c 218.629 93.109 218.539 93.109 218.453
 93.109 c 208.547 93.109 198.848 94.656 189.551 97.715 c 177.383 81.102 
160.688 71.891 141.004 71.012 c 125.59 70.324 117.891 89.23 129.355 99.578
 c 140.367 109.516 144.57 122.016 145.949 127.43 c 137.516 135.078 126.879
 139.926 115.68 141.152 c 108.41 141.945 101.039 141.184 94.102 138.938 
c 100.992 124.055 98.656 106.512 88.277 93.949 c 88.262 93.93 88.242 93.906
 88.227 93.887 c 74.379 77.086 57.254 78.031 47.941 88.312 c 39.324 97.801
 35.48 110.562 37.305 123.094 c 24.918 123.406 13.16 129.117 5.266 138.82
 c -1.754 147.453 -1.754 159.508 5.266 168.141 c 13.402 178.145 25.465 183.883
 38.355 183.883 c 43.035 183.883 47.578 183.141 51.93 181.676 c 54.395 186.355
 58.898 193.863 66.18 202.73 c 65.113 203.609 64.086 204.543 63.094 205.535
 c 52.469 216.16 48.191 231.812 51.93 246.383 c 53.84 253.836 59.66 259.652
 67.109 261.562 c 81.637 265.289 97.301 261.055 107.957 250.398 c 110.211
 248.145 112.176 245.691 113.84 243.082 c 120.707 247.207 127.969 251.051
 135.543 254.555 c 131.535 269.859 134.094 286.238 142.891 299.766 c 151.637
 313.215 169.852 318.68 192.066 305.195 c 198.68 311.309 207.93 314.156 
216.906 312.59 c 235.734 309.309 251.527 296.898 259.152 279.398 c 260.922
 275.332 262.199 271.094 262.98 266.766 c 268.125 263.945 273.016 260.633
 277.57 256.848 c 286.395 249.504 297.633 245.461 309.219 245.461 c 343.16
 245.461 l 364.727 245.461 382.621 228.621 383.918 207.113 c 383.918 207.109
 383.922 207.102 383.922 207.098 c 383.922 207.098 383.922 207.094 383.922
 207.09 c 383.922 207.086 383.922 207.078 383.922 207.07 c 383.922 207.055
 383.922 207.043 383.922 207.027 c h
121.371 151.68 m 130.105 150.09 138.457 146.684 145.863 141.738 c 143.125
 155.777 133.223 168.012 119.293 173.355 c 119.285 173.359 119.277 173.363
 119.27 173.363 c 116.508 174.422 114.07 171.496 115.492 168.891 c 118.293
 163.766 120.359 157.914 121.371 151.68 c h
218.688 104.352 m 220.586 104.355 222.512 104.438 224.438 104.586 c 224.801
 106.527 225.023 108.309 225.137 109.941 c 225.141 109.969 225.145 109.996
 225.145 110.023 c 226.422 128.695 216.574 146.402 200.055 155.125 c 196.754
 156.871 193.211 153.523 194.586 150.074 c 197.336 143.184 198.734 135.898
 198.734 128.422 c 198.734 128.406 198.734 128.391 198.734 128.375 c 198.727
 121.645 197.531 114.602 194.984 107.789 c 202.629 105.484 210.59 104.332
 218.688 104.352 c h
136.895 91.227 m 133.293 87.973 135.578 82.238 140.215 82.238 c 140.309
 82.238 140.406 82.242 140.504 82.246 c 155.938 82.934 168.766 89.586 178.719
 102.047 c 170.195 106.113 161.957 111.715 154.918 118.363 c 152.16 110.773
 146.844 100.207 136.895 91.227 c h
69.902 250.664 m 66.43 249.773 63.715 247.059 62.824 243.582 c 60.066 232.848
 63.219 221.312 71.047 213.484 c 78.777 205.754 89.926 202.59 100.602 205.129
 c 100.613 205.133 100.621 205.133 100.629 205.133 c 103.031 205.707 105.09
 207.082 106.516 208.965 c 110.801 214.633 111.035 231.406 100 242.441 c
 92.176 250.27 80.641 253.418 69.902 250.664 c h
318.609 194.098 m 320.402 189.988 326.234 189.984 328.027 194.098 c 331.082
 201.109 l 315.555 201.109 l h
282.629 194.098 m 284.422 189.988 290.254 189.984 292.047 194.098 c 295.102
 201.117 l 289.996 201.172 284.426 201.598 278.988 202.461 c h
249.699 272.785 m 249.43 273.496 249.141 274.203 248.836 274.902 c 242.727
 288.93 230.066 298.875 214.973 301.508 c 210.125 302.352 205.145 301.098
 201.258 298.23 c 207.371 292.535 212.16 285.516 215.25 277.777 c 224.676
 279.207 239.59 276.43 249.699 272.785 c h
343.16 234.211 m 309.215 234.211 l 295.008 234.211 281.215 239.176 270.375
 248.195 c 256.719 259.543 239.621 266.082 222.141 266.855 c 221.109 266.906
 219.195 267 218.391 266.875 c 219.746 259.465 219.633 251.375 217.715 243.465
 c 225.02 240.016 232.566 235.652 239.234 230.746 c 239.25 230.738 239.262
 230.727 239.277 230.719 c 255.625 218.672 275.918 212.359 296.145 212.359
 c 371.723 212.359 l 368.309 224.996 356.738 234.211 343.16 234.211 c h
343.16 234.211 m f
Q Q
showpage
%%Trailer
end
%%EOF
