%!PS-Adobe-3.0 EPSF-3.0
%%Creator: cairo 1.16.0 (https://cairographics.org)
%%CreationDate: Mon Aug 23 08:35:04 2021
%%Pages: 1
%%DocumentData: Clean7Bit
%%LanguageLevel: 2
%%BoundingBox: 0 39 384 345
%%EndComments
%%BeginProlog
50 dict begin
/q { gsave } bind def
/Q { grestore } bind def
/cm { 6 array astore concat } bind def
/w { setlinewidth } bind def
/J { setlinecap } bind def
/j { setlinejoin } bind def
/M { setmiterlimit } bind def
/d { setdash } bind def
/m { moveto } bind def
/l { lineto } bind def
/c { curveto } bind def
/h { closepath } bind def
/re { exch dup neg 3 1 roll 5 3 roll moveto 0 rlineto
      0 exch rlineto 0 rlineto closepath } bind def
/S { stroke } bind def
/f { fill } bind def
/f* { eofill } bind def
/n { newpath } bind def
/W { clip } bind def
/W* { eoclip } bind def
/BT { } bind def
/ET { } bind def
/BDC { mark 3 1 roll /BDC pdfmark } bind def
/EMC { mark /EMC pdfmark } bind def
/cairo_store_point { /cairo_point_y exch def /cairo_point_x exch def } def
/Tj { show currentpoint cairo_store_point } bind def
/TJ {
  {
    dup
    type /stringtype eq
    { show } { -0.001 mul 0 cairo_font_matrix dtransform rmoveto } ifelse
  } forall
  currentpoint cairo_store_point
} bind def
/cairo_selectfont { cairo_font_matrix aload pop pop pop 0 0 6 array astore
    cairo_font exch selectfont cairo_point_x cairo_point_y moveto } bind def
/Tf { pop /cairo_font exch def /cairo_font_matrix where
      { pop cairo_selectfont } if } bind def
/Td { matrix translate cairo_font_matrix matrix concatmatrix dup
      /cairo_font_matrix exch def dup 4 get exch 5 get cairo_store_point
      /cairo_font where { pop cairo_selectfont } if } bind def
/Tm { 2 copy 8 2 roll 6 array astore /cairo_font_matrix exch def
      cairo_store_point /cairo_font where { pop cairo_selectfont } if } bind def
/g { setgray } bind def
/rg { setrgbcolor } bind def
/d1 { setcachedevice } bind def
/cairo_data_source {
  CairoDataIndex CairoData length lt
    { CairoData CairoDataIndex get /CairoDataIndex CairoDataIndex 1 add def }
    { () } ifelse
} def
/cairo_flush_ascii85_file { cairo_ascii85_file status { cairo_ascii85_file flushfile } if } def
/cairo_image { image cairo_flush_ascii85_file } def
/cairo_imagemask { imagemask cairo_flush_ascii85_file } def
%%EndProlog
%%BeginSetup
%%EndSetup
%%Page: 1 1
%%BeginPageSetup
%%PageBoundingBox: 0 39 384 345
%%EndPageSetup
q 0 39 384 306 rectclip
1 0 0 -1 0 384 cm q
0.435294 0.74902 0.65098 rg
181.859 290.957 m 173.777 285.461 170.438 275.547 172.965 266.598 c 174.613
 260.766 175.668 254.777 175.668 248.715 c 175.668 245.898 l 123.711 254.27
 l 115.879 267.672 116.629 284.422 125.262 297.324 c 139.211 318.16 l 144.039
 325.367 152.141 329.695 160.812 329.695 c 211.07 329.695 l 211.066 329.691
 208.73 309.23 181.859 290.957 c h
181.859 290.957 m f
0.321569 0.419608 0.501961 rg
211.387 310.844 m 204.703 308.465 197.355 311.953 194.98 318.637 c 192.602
 325.32 196.09 332.668 202.773 335.047 c 209.457 337.422 223.867 336.445
 226.242 329.762 c 228.621 323.078 218.07 313.219 211.387 310.844 c h
211.387 310.844 m f
0.313726 0.713726 0.572549 rg
118.688 280.145 m 120.484 281.797 l 127.211 282.852 l 128.164 283.004 136.879
 284.312 149.305 284.312 c 156.922 284.312 165.516 283.82 174.445 282.414
 c 172.047 277.551 171.465 271.906 172.965 266.598 c 174.613 260.766 175.668
 254.777 175.668 248.715 c 175.668 245.898 l 123.711 254.27 l 119.066 262.215
 117.441 271.34 118.688 280.145 c h
118.688 280.145 m f
0.976471 0.87451 0.603922 rg
214.254 240.68 m 184.867 269.125 130.695 260.625 130.695 260.625 c 113.566
 244.887 l 143.871 182.309 l 223.566 172.766 l 228.621 219.348 l h
214.254 240.68 m f
0.988235 0.792157 0.45098 rg
228.617 219.348 m 224.859 184.676 l 207.402 177.754 l 192 203.027 l 192
 203.027 184.543 228.855 200.855 250.473 c 205.656 247.832 210.191 244.609
 214.254 240.68 c h
228.617 219.348 m f
0.501961 0.772549 0.690196 rg
207.402 84.262 m 200.418 90.102 192.719 95.023 184.504 98.914 c 173.258
 127.684 l 152.469 109.055 l 144.84 111.289 136.578 114.473 128.102 119 
c 113.047 146.625 l 95.41 132.375 l 73.793 136.039 49.934 131.145 31.992
 118.199 c 20.719 110.066 5.113 118.453 5.637 132.352 c 6.566 156.941 18.02
 188.102 63.395 207.418 c 81.383 215.07 88.797 236.594 79.137 253.578 c 
79 253.812 78.871 254.035 78.738 254.27 c 70.906 267.672 71.656 284.422 
80.289 297.32 c 94.238 318.16 l 99.066 325.367 107.168 329.691 115.84 329.691
 c 166.098 329.691 l 166.098 329.691 163.758 309.23 136.887 290.957 c 126.941
 284.191 124.176 270.734 130.695 260.625 c 127.996 206.523 174.078 201.848
 198.934 203.219 c 205.867 203.602 210.941 209.812 210.086 216.711 c 208.57
 228.965 214.254 240.68 214.254 240.68 c 222.551 258.789 l 226.598 267.609
 237.062 271.449 245.852 267.324 c 254.539 263.246 258.309 252.941 254.316
 244.227 c 250.5 235.906 l 247.555 229.48 246.094 222.594 246.094 215.727
 c 246.094 207.309 248.289 198.922 252.629 191.434 c 256.57 184.637 265.582
 182.84 271.84 187.59 c 290.414 201.719 l 300.664 209.52 314.93 209.809 
325.527 202.168 c 330.543 198.555 329.82 190.887 324.23 188.258 c 299.078
 176.438 289.027 164.969 285.457 156.086 c 282.715 149.246 289.969 142.664
 296.59 145.91 c 307.816 151.418 316.945 151.188 322.516 150.094 c 331.723
 148.281 338.379 154.414 344.07 162.008 c 349.66 169.477 360.82 171.324 
368.402 163.949 c 382.902 150.227 381.277 126.715 365.551 114.414 c 349.504
 101.875 341.41 91.629 337.422 83.926 c 324.527 59 297.926 45.332 274.027
 45.332 c 259.766 45.332 245.711 49.812 233.996 58.32 c 227.395 87.77 l 
h
207.402 84.262 m f
0.921569 0.917647 0.960784 rg
291.605 104.152 m 300.125 112.816 301.434 125.34 294.535 132.121 c 287.637
 138.906 275.137 137.383 266.621 128.719 c 258.102 120.055 256.789 107.531
 263.688 100.746 c 270.59 93.965 283.086 95.488 291.605 104.152 c h
291.605 104.152 m f
0.423529 0.501961 0.588235 rg
181.289 155.961 m 172.297 158.172 163.219 152.676 161 143.691 c 152.469
 109.055 l 155.477 108.184 158.383 107.449 161.172 106.852 c 169.281 105.098
 177.102 102.422 184.504 98.914 c 193.559 135.672 l 195.77 144.656 190.285
 153.742 181.289 155.961 c h
181.289 155.961 m f
236.012 116.316 m 227.25 119.301 217.723 114.609 214.742 105.848 c 207.402
 84.262 l 212.5 80.012 217.215 75.281 221.48 70.102 c 225.211 65.582 229.422
 61.641 233.996 58.32 c 246.492 95.047 l 249.465 103.816 244.781 113.336
 236.012 116.316 c h
236.012 116.316 m f
0.313726 0.713726 0.572549 rg
97.152 215.559 m 97.152 190.246 101.438 165.703 109.867 144.059 c 95.41
 132.371 l 73.793 136.039 49.934 131.145 31.992 118.199 c 20.719 110.066
 5.113 118.453 5.637 132.352 c 6.566 156.941 18.02 188.102 63.395 207.414
 c 81.383 215.07 88.797 236.594 79.137 253.578 c 79 253.812 78.875 254.035
 78.738 254.27 c 70.906 267.668 71.656 284.422 80.289 297.32 c 94.238 318.156
 l 99.066 325.367 107.168 329.691 115.84 329.691 c 154.574 329.691 l 119.73
 303.793 97.152 262.312 97.152 215.559 c h
97.152 215.559 m f
0.423529 0.501961 0.588235 rg
115.055 174.211 m 105.812 174.84 97.816 167.863 97.184 158.621 c 95.41 
132.371 l 104.734 130.789 113.637 127.613 121.469 122.809 c 123.688 121.445
 125.906 120.18 128.102 119 c 130.645 156.352 l 131.273 165.586 124.289 
173.582 115.055 174.211 c h
115.055 174.211 m f
0.321569 0.419608 0.501961 rg
158.918 310.844 m 152.238 308.465 144.891 311.953 142.512 318.637 c 140.133
 325.32 143.625 332.668 150.309 335.047 c 156.992 337.422 171.398 336.445
 173.777 329.762 c 176.156 323.078 165.602 313.219 158.918 310.844 c h
158.918 310.844 m f
113.637 315.766 m 109.383 310.086 101.336 308.93 95.656 313.184 c 89.977
 317.438 82.824 329.98 87.074 335.656 c 91.328 341.336 105.379 338 111.055
 333.746 c 116.734 329.496 117.891 321.445 113.637 315.766 c h
113.637 315.766 m f
102.156 169.434 m 105.859 153.031 111.605 137.66 119.348 124.035 c 112.043
 128.148 103.902 130.93 95.41 132.371 c 97.184 158.621 l 97.477 162.883 
99.332 166.66 102.156 169.434 c h
102.156 169.434 m f
0 g
296.691 109.402 m 294.477 111.578 294.441 115.141 296.621 117.355 c 298.797
 119.57 302.359 119.605 304.574 117.426 c 309.297 112.785 l 310.207 114.391
 l 311.738 117.102 315.172 118.043 317.871 116.516 c 320.574 114.984 321.527
 111.555 319.996 108.852 c 310.805 92.598 l 309.273 89.895 305.84 88.941
 303.137 90.473 c 300.434 92 299.48 95.434 301.012 98.137 c 303.715 102.914
 l 303.18 103.172 302.68 103.516 302.234 103.957 c h
296.691 109.402 m f
347.684 145.59 m 349.211 148.297 352.641 149.25 355.348 147.727 c 358.051
 146.199 359.008 142.77 357.48 140.062 c 353.426 132.871 l 351.898 130.168
 348.465 129.211 345.762 130.738 c 343.055 132.266 342.098 135.695 343.625
 138.402 c h
347.684 145.59 m f
9.586 168.93 m 11.047 171.668 14.453 172.707 17.195 171.242 c 19.934 169.781
 20.973 166.375 19.508 163.633 c 14.469 154.18 11.691 143.586 11.258 132.148
 c 10.914 122.961 21.184 117.352 28.699 122.773 c 45.801 135.109 68.391 
140.902 90.203 138.754 c 91.574 159.016 l 92.402 171.352 103.086 180.668
 115.43 179.836 c 115.438 179.836 l 127.754 178.996 137.102 168.348 136.258
 155.98 c 135.727 148.188 134.562 131.07 133.969 122.32 c 138.652 119.992
 143.496 117.965 148.449 116.254 c 148.5 116.465 l 155.539 145.051 l 155.539
 145.055 155.543 145.059 155.543 145.062 c 158.484 156.953 170.59 164.387
 182.625 161.438 c 182.629 161.438 182.633 161.438 182.633 161.434 c 182.637
 161.434 l 194.605 158.484 201.973 146.332 199.023 134.336 c 196.359 123.535
 193.691 112.688 191.043 101.949 c 195.762 99.477 200.297 96.668 204.617
 93.555 c 209.418 107.672 l 213.371 119.281 226.02 125.664 237.82 121.656
 c 237.824 121.656 237.824 121.656 237.828 121.656 c 249.414 117.715 255.816
 105.027 251.82 93.246 c 240.707 60.586 l 250.617 54.359 262.301 50.969 
274.031 50.969 c 293.941 50.969 319.723 61.961 332.43 86.523 c 337.711 96.727
 347.691 107.605 362.09 118.859 c 368.469 123.848 372.344 131.332 372.723
 139.395 c 373.094 147.262 370.188 154.535 364.539 159.879 c 364.52 159.895
 364.5 159.914 364.48 159.934 c 359.504 164.777 352.277 163.594 348.574 
158.648 c 343.137 151.391 334.402 142.035 321.434 144.586 c 316.613 145.531
 308.82 145.656 299.07 140.871 c 287.824 135.359 275.586 146.586 280.242
 158.199 c 285.371 170.973 299.367 182.805 321.84 193.359 c 323.562 194.172
 323.781 196.512 322.242 197.621 c 313.66 203.809 302.238 203.66 293.82 
197.258 c 275.242 183.125 l 266.297 176.332 253.402 178.91 247.766 188.629
 c 242.992 196.863 240.469 206.238 240.469 215.742 c 240.469 231.629 247.043
 240.891 249.203 246.582 c 251.902 252.469 249.328 259.496 243.469 262.246
 c 237.504 265.043 230.414 262.445 227.668 256.461 c 225.582 251.906 221.41
 242.805 219.324 238.25 c 216.809 232.969 214.82 224.289 215.672 217.414
 c 216.902 207.48 209.621 198.188 199.246 197.617 c 192.039 197.219 184.656
 197.387 177.445 198.336 c 174.367 198.742 172.199 201.566 172.602 204.648
 c 173.008 207.711 175.805 209.871 178.867 209.492 c 178.883 209.492 178.898
 209.492 178.914 209.488 c 185.375 208.641 192.066 208.488 198.625 208.848
 c 202.074 209.039 204.633 211.965 204.555 215.355 c 204.5 217.754 202.988
 226.797 207.566 239.152 c 185.051 258.031 148.965 256.75 136.215 255.605
 c 136.316 237.281 142.723 222.863 159.469 214.91 c 162.277 213.578 163.473
 210.223 162.141 207.418 c 160.809 204.609 157.457 203.414 154.648 204.746
 c 132.832 215.219 123.891 235.703 125.012 259.191 c 118.16 271.488 121.473
 287.285 133.727 295.621 c 138.301 298.734 142.738 302.359 146.586 306.328
 c 142.184 308.457 138.855 312.156 137.215 316.766 c 136.398 319.07 136.02
 321.551 136.176 324.082 c 121.809 324.082 l 121.949 319.816 120.613 315.707
 118.145 312.406 c 112.352 304.672 101.676 302.926 93.93 307.594 c 84.969
 294.207 l 71.945 274.754 84.008 256.449 84.027 256.375 c 89.398 246.938
 90.484 235.621 87.008 225.332 c 83.508 214.961 75.703 206.551 65.602 202.254
 c 51.805 196.379 40.445 188.984 31.848 180.27 c 29.664 178.059 26.102 178.035
 23.891 180.219 c 21.68 182.402 21.656 185.961 23.84 188.172 c 33.473 197.934
 46.043 206.152 61.199 212.605 c 68.352 215.648 73.875 221.598 76.352 228.934
 c 80.477 241.145 73.918 251.348 73.887 251.445 c 65.086 266.5 65.766 285.742
 75.621 300.465 c 85.824 315.707 l 80.934 322.801 77.715 332.551 82.578 
339.043 c 89.082 347.73 106.371 344.297 114.43 338.262 c 115.598 337.391
 116.625 336.402 117.52 335.332 c 140.902 335.332 l 145.457 340.398 151.703
 341.875 158.52 341.875 c 165.398 341.875 172.953 340.031 176.949 335.332
 c 193.367 335.332 l 197.922 340.395 204.164 341.875 210.984 341.875 c 219.434
 341.875 228.898 339.102 231.547 331.66 c 235.297 321.125 222.223 308.738
 213.277 305.555 c 210.574 304.594 207.746 304.281 204.98 304.602 c 199.711
 297.891 193.016 291.754 185.027 286.32 c 179.117 282.297 176.445 274.992
 178.383 268.141 c 178.746 266.859 179.078 265.57 179.375 264.293 c 192.262
 261.379 203.359 256.477 212.234 249.781 c 217.441 261.148 l 222.777 272.773
 236.57 277.906 248.246 272.43 c 259.676 267.066 264.691 253.367 259.434
 241.895 c 257.219 236.16 251.723 228.707 251.723 215.742 c 251.723 208.215
 253.719 200.789 257.5 194.27 c 259.746 190.398 264.867 189.367 268.438 
192.082 c 287.012 206.207 l 299.395 215.633 316.195 215.848 328.82 206.746
 c 337.316 200.621 336.102 187.637 326.629 183.18 c 301.945 171.582 293.457
 160.91 290.684 154.008 c 289.859 151.949 292.102 149.984 294.113 150.973
 c 306.68 157.137 317.086 156.902 323.605 155.621 c 328.961 154.57 333.586
 157.402 339.57 165.391 c 347.215 175.598 362.309 177.707 372.297 168.023
 c 380.227 160.504 384.48 149.879 383.961 138.867 c 383.43 127.527 377.984
 117.004 369.02 109.992 c 355.902 99.742 346.953 90.105 342.422 81.352 c
 329.539 56.449 302.055 39.719 274.031 39.719 c 251.262 39.719 230.801 49.996
 217.141 66.539 c 207.855 77.816 195.906 87.305 182.102 93.84 c 167.203 
100.898 151.484 103.5 150.895 103.668 c 120.309 112.621 117.844 122.875 
94.473 126.84 c 73.734 130.355 51.609 125.422 35.289 113.648 c 20.223 102.781
 -0.68 114.004 0.023 132.574 c 0.516 145.73 3.734 157.961 9.586 168.93 c
 h
107.684 329.258 m 101.961 333.543 92.52 333.559 91.578 332.297 c 90.441
 330.781 93.867 321.613 98.992 317.727 c 99.004 317.719 99.016 317.707 99.027
 317.699 c 99.035 317.691 99.043 317.688 99.047 317.684 c 102.223 315.328
 106.73 315.961 109.121 319.133 c 109.125 319.141 109.133 319.145 109.137
 319.148 c 111.516 322.336 110.848 326.887 107.684 329.258 c h
152.195 329.758 m 150.645 329.203 149.359 328.164 148.5 326.789 c 148.492
 326.777 148.488 326.762 148.48 326.75 c 145.137 321.332 149.949 314.562
 156.137 315.91 c 159.277 316.594 163.379 319.973 165.504 322.395 c 168.172
 325.406 168.613 327.473 168.477 327.887 c 168.473 327.891 168.473 327.898
 168.469 327.906 c 167.766 329.723 158.18 331.887 152.195 329.758 c h
217.996 322.422 m 220.656 325.434 221.09 327.484 220.945 327.887 c 220.297
 329.711 210.664 331.895 204.66 329.758 c 200.91 328.422 198.953 324.293
 200.273 320.551 c 200.277 320.543 200.277 320.539 200.277 320.535 c 200.281
 320.527 200.281 320.523 200.285 320.52 c 201.582 316.887 205.652 314.781
 209.504 316.152 c 211.582 316.895 215.125 319.172 217.996 322.422 c h
167.215 266.395 m 164.645 277.52 169.152 289.125 178.695 295.621 c 184.883
 299.828 190.16 304.477 194.441 309.484 c 192.77 311.055 191.32 313.027 
190.301 315.258 c 188.992 318.117 188.457 321.109 188.641 324.082 c 179.23
 324.082 l 179.219 324.047 179.203 324.012 179.195 323.98 c 177.012 316.18
 168.004 308.113 160.809 305.555 c 160.777 305.543 160.746 305.535 160.715
 305.523 c 155.125 298.125 147.809 291.594 140.055 286.32 c 133.641 281.957
 131.105 273.824 133.887 266.695 c 144.383 267.777 156.195 267.73 167.215
 266.395 c h
225.816 73.695 m 227.523 71.629 229.355 69.676 231.293 67.855 c 231.32 
67.93 240.973 96.281 241.234 97.109 c 243.043 102.859 239.934 109.055 234.199
 111.004 c 234.168 111.016 234.141 111.02 234.109 111.031 c 228.289 112.953
 222.027 109.805 220.066 104.047 c 213.949 86.051 l 218.215 82.234 222.199
 78.09 225.816 73.695 c h
180.641 106.754 m 188.098 137.027 l 189.566 142.988 185.91 149.035 179.945
 150.512 c 173.863 152.004 167.895 148.152 166.461 142.359 c 159.25 113.074
 l 163.359 112.074 170.41 110.863 180.641 106.754 c h
123.105 128.398 m 123.914 140.332 123.641 136.262 125.031 156.746 c 125.516
 163.816 119.367 169.469 112.418 168.539 c 112.418 168.539 112.418 168.539
 112.418 168.535 c 107.297 167.844 103.211 163.645 102.809 158.34 c 102.805
 158.309 102.801 158.281 102.797 158.254 c 101.355 136.93 l 109.207 135.121
 116.5 132.262 123.105 128.398 c h
123.105 128.398 m f
Q Q
showpage
%%Trailer
end
%%EOF
