%!PS-Adobe-3.0 EPSF-3.0
%%Creator: cairo 1.16.0 (https://cairographics.org)
%%CreationDate: Mon Aug 23 08:35:05 2021
%%Pages: 1
%%DocumentData: Clean7Bit
%%LanguageLevel: 2
%%BoundingBox: 0 4 384 380
%%EndComments
%%BeginProlog
50 dict begin
/q { gsave } bind def
/Q { grestore } bind def
/cm { 6 array astore concat } bind def
/w { setlinewidth } bind def
/J { setlinecap } bind def
/j { setlinejoin } bind def
/M { setmiterlimit } bind def
/d { setdash } bind def
/m { moveto } bind def
/l { lineto } bind def
/c { curveto } bind def
/h { closepath } bind def
/re { exch dup neg 3 1 roll 5 3 roll moveto 0 rlineto
      0 exch rlineto 0 rlineto closepath } bind def
/S { stroke } bind def
/f { fill } bind def
/f* { eofill } bind def
/n { newpath } bind def
/W { clip } bind def
/W* { eoclip } bind def
/BT { } bind def
/ET { } bind def
/BDC { mark 3 1 roll /BDC pdfmark } bind def
/EMC { mark /EMC pdfmark } bind def
/cairo_store_point { /cairo_point_y exch def /cairo_point_x exch def } def
/Tj { show currentpoint cairo_store_point } bind def
/TJ {
  {
    dup
    type /stringtype eq
    { show } { -0.001 mul 0 cairo_font_matrix dtransform rmoveto } ifelse
  } forall
  currentpoint cairo_store_point
} bind def
/cairo_selectfont { cairo_font_matrix aload pop pop pop 0 0 6 array astore
    cairo_font exch selectfont cairo_point_x cairo_point_y moveto } bind def
/Tf { pop /cairo_font exch def /cairo_font_matrix where
      { pop cairo_selectfont } if } bind def
/Td { matrix translate cairo_font_matrix matrix concatmatrix dup
      /cairo_font_matrix exch def dup 4 get exch 5 get cairo_store_point
      /cairo_font where { pop cairo_selectfont } if } bind def
/Tm { 2 copy 8 2 roll 6 array astore /cairo_font_matrix exch def
      cairo_store_point /cairo_font where { pop cairo_selectfont } if } bind def
/g { setgray } bind def
/rg { setrgbcolor } bind def
/d1 { setcachedevice } bind def
/cairo_data_source {
  CairoDataIndex CairoData length lt
    { CairoData CairoDataIndex get /CairoDataIndex CairoDataIndex 1 add def }
    { () } ifelse
} def
/cairo_flush_ascii85_file { cairo_ascii85_file status { cairo_ascii85_file flushfile } if } def
/cairo_image { image cairo_flush_ascii85_file } def
/cairo_imagemask { imagemask cairo_flush_ascii85_file } def
%%EndProlog
%%BeginSetup
%%EndSetup
%%Page: 1 1
%%BeginPageSetup
%%PageBoundingBox: 0 4 384 380
%%EndPageSetup
q 0 4 384 376 rectclip
1 0 0 -1 0 384 cm q
0.964706 0.65098 0.254902 rg
24.43 142.348 m 20.098 132.254 4.992 135.754 5.645 146.715 c 7.457 177.027
 23.641 212.34 82.938 228.559 c 93.656 188.219 l 53.965 187.723 34.23 165.191
 24.43 142.348 c h
24.43 142.348 m f
157.527 374.152 m 187.223 374.152 l 192.676 374.152 197.094 369.734 197.094
 364.281 c 197.094 351.047 186.363 340.316 173.129 340.316 c 160.836 340.316
 151.805 328.695 154.926 316.805 c 158.812 301.988 169.602 294.047 171.043
 291.227 c 191.574 266.809 l 142.098 238.484 l 131.438 268.555 l 129.953
 275.969 109.75 309.953 137.477 351.031 c 135.73 363.234 145.199 374.152
 157.527 374.152 c h
157.527 374.152 m f
0.976471 0.729412 0.427451 rg
104.469 374.152 m 134.168 374.152 l 139.621 374.152 144.039 369.734 144.039
 364.281 c 144.039 351.047 133.309 340.316 120.074 340.316 c 107.781 340.316
 98.75 328.695 101.871 316.805 c 105.758 301.988 116.547 294.047 117.988
 291.227 c 138.52 266.809 l 89.039 238.484 l 78.383 268.555 l 76.898 275.969
 56.695 309.953 84.422 351.031 c 82.676 363.234 92.145 374.152 104.469 374.152
 c h
104.469 374.152 m f
0.964706 0.65098 0.254902 rg
224.332 210.289 m 216.301 172.762 l 216.109 172.801 l 216.246 172.77 229.801
 169.465 242.414 157.434 c 259.16 141.465 266.918 117.645 265.473 86.629
 c 303.809 84.84 l 306.352 139.375 285.176 170.504 266.961 187.016 c 247.098
 205.02 226.602 209.805 224.332 210.289 c h
224.332 210.289 m f
0.945098 0.552941 0.105882 rg
51.098 216.078 m 60 220.926 70.52 225.164 82.938 228.559 c 93.656 188.219
 l 80.102 188.051 68.883 185.309 59.586 180.867 c 54.582 191.652 51.691 
203.516 51.098 216.078 c h
51.098 216.078 m f
0.964706 0.65098 0.254902 rg
117.988 291.227 m 138.52 266.809 l 89.039 238.484 l 78.383 268.555 l 78
 270.473 76.363 274.164 74.633 279.293 c 84.34 289.289 96.449 296.758 109.719
 300.973 c 113.504 295.945 117.188 292.793 117.988 291.227 c h
117.988 291.227 m f
0.945098 0.552941 0.105882 rg
131.438 268.555 m 130.582 272.824 123.52 285.91 122.98 304.086 c 129.414
 305.148 135.965 305.695 142.527 305.695 c 148.562 305.695 154.547 305.234
 160.438 304.34 c 164.91 297.316 170.078 293.117 171.043 291.227 c 191.574
 266.809 l 142.098 238.484 l h
131.438 268.555 m f
0.976471 0.729412 0.427451 rg
151.195 147.934 m 143.543 148.148 136.16 149.215 129.195 151.066 c 114.367
 170.637 l 99.539 165.68 l 83.52 178.422 73.48 197.441 73.48 220.938 c 73.48
 221.43 l 73.648 250.234 94.051 275.02 122.219 281.055 c 128.766 282.461
 135.566 283.195 142.527 283.195 c 191.699 283.195 231.781 246.621 238.184
 199.875 c 240.047 186.273 234.047 172.734 222.762 164.914 c 209.715 155.863
 195.055 151.527 180.859 149.523 c 166.027 162.902 l h
151.195 147.934 m f
0.945098 0.552941 0.105882 rg
265.473 86.629 m 266.078 99.617 265.062 111.344 262.457 121.758 c 272.391
 126.855 283.492 129.602 294.91 129.602 c 296.562 129.602 298.285 129.5 
300.074 129.305 c 303.086 116.582 304.602 101.852 303.809 84.84 c h
265.473 86.629 m f
0.976471 0.729412 0.427451 rg
376.836 43.562 m 369.285 32.816 354.625 29.352 344.074 28.242 c 336.777
 27.477 329.84 24.664 324.102 20.086 c 315.441 13.172 304.543 9.27 292.277
 9.918 c 268.906 11.148 249.852 28.535 246.738 51.73 c 242.723 81.59 265.836
 107.102 294.91 107.102 c 299.457 107.102 305.234 105.555 310.469 103.727
 c 318.602 100.887 327.473 100.789 335.605 103.625 c 340.195 105.227 344.242
 105.668 347.707 105.453 c 355.27 104.984 358.52 95.641 352.852 90.613 c
 333.816 73.734 l 328.121 68.68 331.371 59.262 338.969 58.797 c 370.371 
56.875 l 376.977 56.469 380.641 48.973 376.836 43.562 c h
376.836 43.562 m f
0.921569 0.917647 0.960784 rg
319.914 70.277 m 319.914 80.188 309.828 88.223 297.383 88.223 c 284.941
 88.223 274.852 80.188 274.852 70.277 c 274.852 60.367 284.941 52.336 297.383
 52.336 c 309.828 52.336 319.914 60.367 319.914 70.277 c h
319.914 70.277 m f
0.937255 0.501961 0.498039 rg
261.828 205.242 m 213.402 154.68 175.406 202.41 175.406 202.41 c 167.188
 210.281 166.906 223.328 174.777 231.547 c 182.648 239.766 195.695 240.047
 203.914 232.176 c 195.695 240.047 195.414 253.094 203.285 261.312 c 211.156
 269.531 224.203 269.812 232.422 261.941 c 222.465 271.477 l 214.246 279.348
 213.965 292.395 221.836 300.613 c 229.707 308.832 242.754 309.113 250.973
 301.242 c 250.973 301.242 312.141 257.773 261.828 205.242 c h
261.828 205.242 m f
0.92549 0.415686 0.384314 rg
180.863 149.523 m 180.863 163.094 l 180.863 171.285 174.223 177.922 166.031
 177.922 c 157.836 177.922 151.195 171.285 151.195 163.094 c 151.195 147.934
 l 152.191 147.895 153.199 147.879 154.203 147.879 c 162.508 147.879 171.582
 148.203 180.863 149.523 c h
180.863 149.523 m f
129.195 151.066 m 129.195 175.375 l 129.195 183.566 122.559 190.207 114.367
 190.207 c 106.176 190.207 99.539 183.566 99.539 175.375 c 99.539 165.68
 l 107.965 158.98 118.043 154.023 129.195 151.066 c h
129.195 151.066 m f
213.863 254.367 m 213.863 228.23 230.504 205.988 253.762 197.633 c 209.25
 159.914 175.406 202.41 175.406 202.41 c 167.188 210.285 166.906 223.328
 174.777 231.547 c 182.648 239.766 195.695 240.047 203.914 232.176 c 195.695
 240.047 195.414 253.094 203.285 261.312 c 206.617 264.793 210.879 266.844
 215.305 267.461 c 214.371 263.242 213.863 258.867 213.863 254.367 c h
213.863 254.367 m f
0 g
310.504 58.637 m 313.609 58.637 316.129 56.117 316.129 53.012 c 316.129
 43.801 l 316.129 40.695 313.609 38.176 310.504 38.176 c 307.395 38.176 
304.879 40.695 304.879 43.801 c 304.879 53.012 l 304.879 56.117 307.395 
58.637 310.504 58.637 c h
310.504 58.637 m f
23.984 202.809 m 26.152 205.035 29.715 205.078 31.941 202.91 c 34.164 200.746
 34.211 197.184 32.043 194.957 c 19.402 181.992 12.414 165.648 11.262 146.383
 c 10.984 141.711 17.402 140.23 19.262 144.566 c 30.059 169.734 48.672 185.84
 73.359 191.516 c 69.98 199.914 68.242 208.961 67.914 217.684 c 60.566 214.789
 53.875 211.449 47.949 207.707 c 45.324 206.051 41.848 206.836 40.191 209.461
 c 38.531 212.09 39.316 215.562 41.945 217.223 c 49.703 222.121 58.609 226.371
 68.445 229.887 c 69.645 238.754 72.637 247.32 77.203 255.035 c 67.855 281.531
 75.035 261.953 71.445 271.543 c 66.453 284.867 54.863 315.797 78.633 352.465
 c 77.812 367.258 89.594 379.77 104.469 379.77 c 134.164 379.77 l 137.984
 379.77 141.477 378.375 144.184 376.074 c 148.168 378.48 152.742 379.77 
157.52 379.77 c 187.215 379.77 l 195.758 379.77 202.711 372.816 202.711 
364.273 c 202.711 347.957 189.438 334.684 173.121 334.684 c 164.488 334.684
 158.18 326.535 160.359 318.227 c 162.891 308.582 168.891 302.125 172.477
 298.266 c 172.906 297.801 171.25 299.914 190.441 276.883 c 194.949 274.496
 199.281 271.77 203.395 268.715 c 206.672 270.949 210.348 272.383 214.137
 272.965 c 208.367 282.66 209.293 295.652 217.766 304.496 c 227.688 314.859
 244.07 315.32 254.559 305.574 c 258.023 303.023 284.238 282.816 287.055
 253.121 c 289.105 231.488 278.117 213.02 262.477 197.938 c 276.008 187.855
 286.508 175.379 294.25 160.82 c 295.711 158.074 294.668 154.672 291.926
 153.211 c 289.184 151.754 285.777 152.797 284.316 155.539 c 276.969 169.359
 266.805 181.168 253.754 190.395 c 250.008 187.523 246.227 185.09 242.422
 183.098 c 241.074 178.512 238.809 173.844 235.793 169.797 c 257.551 155.656
 268.125 132.926 270.637 107.02 c 278.195 110.816 286.465 112.73 294.895
 112.73 c 295.707 112.73 296.961 112.652 297.277 112.629 c 296.301 120.812
 294.668 128.648 292.398 135.992 c 291.484 138.961 293.148 142.109 296.117
 143.027 c 299.082 143.941 302.234 142.281 303.148 139.312 c 305.965 130.184
 307.875 120.398 308.848 110.168 c 313.652 108.691 322.285 104.941 333.738
 108.938 c 338.613 110.641 343.426 111.355 348.039 111.07 c 360.496 110.297
 366.051 94.82 356.566 86.41 c 337.535 69.527 l 335.586 67.797 336.684 64.574
 339.297 64.414 c 370.699 62.492 l 381.562 61.828 387.828 49.445 381.422
 40.332 c 374.562 30.574 361.848 24.461 344.648 22.652 c 338.371 21.992 
332.473 19.59 327.598 15.699 c 317.395 7.555 305.078 3.617 291.969 4.309
 c 265.973 5.68 244.602 25.309 241.152 50.988 c 239.047 66.656 243.746 82.398
 254.047 94.18 c 255.848 96.234 257.789 98.129 259.848 99.871 c 258.387 
131.676 245.34 151.023 227.707 161.574 c 207.164 145.734 176.852 141.352
 151.039 142.312 c 151.035 142.312 151.035 142.312 151.031 142.312 c 151.023
 142.312 151.012 142.312 151 142.312 c 150.992 142.312 150.98 142.316 150.973
 142.316 c 150.969 142.316 150.965 142.316 150.965 142.316 c 138.043 142.688
 129.645 145.246 127.75 145.629 c 127.75 145.629 127.75 145.629 127.746 
145.629 c 126.031 146.27 110.977 149.398 96.035 161.277 c 88.922 166.934
 83.07 173.625 78.566 181.109 c 55.895 176.801 39.43 163.035 29.598 140.129
 c 22.789 124.254 -0.996 129.836 0.031 147.051 c 1.348 169.094 9.406 187.855
 23.984 202.809 c h
252.301 52.488 m 255.031 32.168 271.961 16.629 292.562 15.543 c 302.875
 15 312.562 18.09 320.582 24.492 c 327.137 29.727 335.055 32.957 343.473
 33.844 c 353.145 34.859 365.984 37.934 372.219 46.801 c 373.508 48.633 
372.207 51.133 370.012 51.266 c 338.613 53.188 l 326.035 53.957 320.637 
69.578 330.07 77.945 c 349.102 94.828 l 351.016 96.523 349.934 99.68 347.344
 99.844 c 344.23 100.035 340.898 99.523 337.445 98.316 c 317.84 91.48 306.766
 101.047 295.551 101.465 c 284.625 101.914 271.461 97.004 262.516 86.773
 c 254.23 77.301 250.602 65.125 252.301 52.488 c h
117.594 300.266 m 116.719 312.07 118.41 323.613 122.668 334.805 c 121.809
 334.73 120.945 334.684 120.07 334.684 c 111.438 334.684 105.129 326.535
 107.309 318.227 c 109.445 310.082 114.051 304.219 117.594 300.266 c h
134.164 368.52 m 104.469 368.52 l 95.562 368.52 88.73 360.625 89.988 351.82
 c 90.188 350.441 89.863 349.035 89.082 347.879 c 67.078 315.273 77.52 287.395
 81.98 275.488 c 82.156 275.012 85.23 266.062 85.262 265.973 c 93.461 275.035
 103.922 281.652 115.715 285.184 c 111.352 290.504 113.297 288.332 111.18
 290.609 c 107.16 294.938 99.676 302.996 96.43 315.371 c 92.375 330.816 
104.066 345.934 120.07 345.934 c 130.16 345.934 138.41 354.141 138.41 364.273
 c 138.41 366.609 136.504 368.52 134.164 368.52 c h
168.488 285.512 m 164.676 290.145 166.898 287.738 164.23 290.609 c 160.211
 294.938 152.727 302.996 149.48 315.371 c 145.426 330.816 157.117 345.934
 173.121 345.934 c 183.234 345.934 191.461 354.16 191.461 364.273 c 191.461
 366.613 189.555 368.52 187.215 368.52 c 157.52 368.52 l 154.645 368.52 
151.895 367.695 149.543 366.156 c 149.578 365.871 149.656 364.953 149.656
 364.273 c 149.656 354.93 145.207 346.055 137.633 340.465 c 128.496 323.684
 126.285 306.516 130.914 288.16 c 134.309 288.547 138.48 288.816 142.523
 288.816 c 151.012 288.816 159.871 287.77 168.488 285.512 c h
275.859 251.992 m 273.438 277.969 247.953 296.473 247.703 296.652 c 247.48
 296.809 247.27 296.984 247.07 297.172 c 241.09 302.898 231.617 302.695 
225.891 296.715 c 220.16 290.738 220.363 281.262 226.344 275.535 c 236.301
 266 l 238.547 263.852 238.621 260.289 236.473 258.047 c 234.324 255.801
 230.766 255.727 228.52 257.875 c 228.504 257.891 l 222.547 263.578 213.078
 263.375 207.367 257.441 c 207.332 257.41 l 201.719 251.539 201.723 242.055
 207.797 236.234 c 208.949 235.133 209.531 233.656 209.531 232.176 c 209.531
 230.777 209.012 229.375 207.969 228.281 c 205.82 226.039 202.258 225.961
 200.016 228.109 c 193.125 234.711 181.984 233.242 176.969 225.266 c 176.965
 225.258 176.961 225.25 176.957 225.242 c 173.234 219.305 174.125 211.426
 179.293 206.473 c 179.465 206.305 179.641 206.113 179.793 205.922 c 186.867
 197.133 200.586 188.594 213.828 187.734 c 230.98 186.652 245.914 196.766
 257.758 209.129 c 271.121 223.086 277.215 237.508 275.859 251.992 c h
166.027 172.301 m 160.945 172.301 156.812 168.172 156.812 163.098 c 156.812
 153.52 l 163.66 153.582 169.66 153.898 175.23 154.492 c 175.23 163.098 
l 175.23 168.18 171.094 172.301 166.027 172.301 c h
123.566 175.375 m 123.566 180.449 119.438 184.578 114.363 184.578 c 109.289
 184.578 105.16 180.449 105.16 175.375 c 105.16 168.461 l 110.668 164.422
 116.828 161.16 123.566 158.715 c h
94.172 178.641 m 95.734 188.324 104.141 195.793 114.289 195.828 c 114.316
 195.828 114.34 195.828 114.363 195.828 c 125.641 195.828 134.816 186.652
 134.816 175.375 c 134.816 155.504 l 138.32 154.762 141.91 154.223 145.562
 153.898 c 145.562 163.098 l 145.562 174.375 154.742 183.551 166.023 183.551
 c 177.305 183.551 186.477 174.375 186.477 163.098 c 186.477 156.168 l 200.391
 158.887 219.473 165.773 227.52 177.594 c 223.07 176.621 218.59 176.234 
214.09 176.441 c 189.633 177.559 173.512 195.879 171.25 198.598 c 161.078
 208.594 160.766 225.055 170.707 235.434 c 176.227 241.199 184.066 244.172
 192.176 243.402 c 191.383 249.125 192.465 255.211 195.609 260.48 c 180.785
 271.199 162.41 277.566 142.523 277.566 c 81.891 277.566 61.941 216.457 
94.172 178.641 c h
94.172 178.641 m f
Q Q
showpage
%%Trailer
end
%%EOF
