%!PS-Adobe-3.0 EPSF-3.0
%%Creator: cairo 1.16.0 (https://cairographics.org)
%%CreationDate: Mon Aug 23 08:35:05 2021
%%Pages: 1
%%DocumentData: Clean7Bit
%%LanguageLevel: 2
%%BoundingBox: 4 0 380 384
%%EndComments
%%BeginProlog
50 dict begin
/q { gsave } bind def
/Q { grestore } bind def
/cm { 6 array astore concat } bind def
/w { setlinewidth } bind def
/J { setlinecap } bind def
/j { setlinejoin } bind def
/M { setmiterlimit } bind def
/d { setdash } bind def
/m { moveto } bind def
/l { lineto } bind def
/c { curveto } bind def
/h { closepath } bind def
/re { exch dup neg 3 1 roll 5 3 roll moveto 0 rlineto
      0 exch rlineto 0 rlineto closepath } bind def
/S { stroke } bind def
/f { fill } bind def
/f* { eofill } bind def
/n { newpath } bind def
/W { clip } bind def
/W* { eoclip } bind def
/BT { } bind def
/ET { } bind def
/BDC { mark 3 1 roll /BDC pdfmark } bind def
/EMC { mark /EMC pdfmark } bind def
/cairo_store_point { /cairo_point_y exch def /cairo_point_x exch def } def
/Tj { show currentpoint cairo_store_point } bind def
/TJ {
  {
    dup
    type /stringtype eq
    { show } { -0.001 mul 0 cairo_font_matrix dtransform rmoveto } ifelse
  } forall
  currentpoint cairo_store_point
} bind def
/cairo_selectfont { cairo_font_matrix aload pop pop pop 0 0 6 array astore
    cairo_font exch selectfont cairo_point_x cairo_point_y moveto } bind def
/Tf { pop /cairo_font exch def /cairo_font_matrix where
      { pop cairo_selectfont } if } bind def
/Td { matrix translate cairo_font_matrix matrix concatmatrix dup
      /cairo_font_matrix exch def dup 4 get exch 5 get cairo_store_point
      /cairo_font where { pop cairo_selectfont } if } bind def
/Tm { 2 copy 8 2 roll 6 array astore /cairo_font_matrix exch def
      cairo_store_point /cairo_font where { pop cairo_selectfont } if } bind def
/g { setgray } bind def
/rg { setrgbcolor } bind def
/d1 { setcachedevice } bind def
/cairo_data_source {
  CairoDataIndex CairoData length lt
    { CairoData CairoDataIndex get /CairoDataIndex CairoDataIndex 1 add def }
    { () } ifelse
} def
/cairo_flush_ascii85_file { cairo_ascii85_file status { cairo_ascii85_file flushfile } if } def
/cairo_image { image cairo_flush_ascii85_file } def
/cairo_imagemask { imagemask cairo_flush_ascii85_file } def
%%EndProlog
%%BeginSetup
%%EndSetup
%%Page: 1 1
%%BeginPageSetup
%%PageBoundingBox: 4 0 380 384
%%EndPageSetup
q 4 0 376 384 rectclip
1 0 0 -1 0 384 cm q
0.501961 0.772549 0.690196 rg
271.57 343.633 m 271.57 273.164 l 226.691 288.195 l 226.691 354.105 l 226.691
 367.508 237.559 378.375 250.961 378.375 c 274.664 378.375 l 286.734 378.375
 293.438 364.477 285.992 354.977 c 282.602 350.648 277.949 346.574 271.57
 343.633 c h
271.57 343.633 m f
300.934 217.27 m 306.57 216.172 312.938 214.68 319.93 212.645 c 327.387
 210.473 335.555 207.68 344.336 204.109 c 354.535 199.961 359.41 188.32 
355.266 178.148 c 354.609 176.531 353.762 175.051 352.758 173.715 c 347.461
 166.629 337.879 163.723 329.305 167.215 c 321.82 170.266 314.922 172.617
 308.691 174.426 c 297.504 177.684 288.461 179.199 282.031 179.891 c h
300.934 217.27 m f
32.926 265.75 m 27.234 262.434 20.023 263.316 15.238 267.84 c 9.215 273.527
 8.941 283.066 14.703 289.016 c 73.562 349.805 145.828 306.328 145.828 306.328
 c 153.531 254.336 l 153.531 254.336 96.254 302.672 32.926 265.75 c h
32.926 265.75 m f
0.976471 0.87451 0.603922 rg
133.227 267.105 m 112.363 238.227 l 106.395 229.961 111.547 218.328 121.68
 217.195 c 156.191 213.344 l h
133.227 267.105 m f
156.191 213.344 m 149.672 178.32 l 147.805 168.297 157.438 159.98 167.078
 163.289 c 199.926 174.555 l h
156.191 213.344 m f
199.926 174.555 m 189.902 140.367 l 187.035 130.582 195.777 121.336 205.703
 123.652 c 239.523 131.543 l h
199.926 174.555 m f
0.313726 0.713726 0.572549 rg
335.855 190.66 m 335.855 165.762 l 333.664 165.867 331.453 166.34 329.305
 167.215 c 321.82 170.266 314.922 172.613 308.691 174.426 c 297.5 177.684
 288.461 179.199 282.031 179.891 c 300.934 217.27 l 306.57 216.172 312.938
 214.68 319.93 212.645 c 324.648 211.27 329.652 209.645 334.918 207.734 
c 335.539 202.09 335.855 196.395 335.855 190.66 c h
335.855 190.66 m f
0.976471 0.87451 0.603922 rg
305.551 235.375 m 310.602 221.418 313.355 206.363 313.355 190.66 c 313.355
 82.445 l 270.48 74.918 l 257.902 126.754 l 257.902 232.895 l 292.695 251.406
 l h
305.551 235.375 m f
0.313726 0.713726 0.572549 rg
226.691 338.012 m 242.77 333.113 257.934 325.621 271.57 315.836 c 271.57
 273.164 l 226.691 288.195 l h
226.691 338.012 m f
0.976471 0.87451 0.603922 rg
286.477 270.348 m 264.125 299.652 229.746 319.285 190.707 321.891 c 171.625
 321.891 l 171.625 244.23 l 257.902 232.895 l 292.695 251.406 l h
286.477 270.348 m f
0.313726 0.713726 0.572549 rg
115.562 299.676 m 117.598 304.812 120.199 309.652 123.328 314.145 c 123.328
 315.848 l 137.133 311.551 145.828 306.324 145.828 306.324 c 153.531 254.332
 l 153.531 254.332 136.445 268.75 110.621 275.82 c 110.891 284.043 112.539
 292.062 115.562 299.676 c h
115.562 299.676 m f
0.988235 0.792157 0.45098 rg
121.352 220.867 m 121.352 219.625 121.445 218.402 121.621 217.207 c 111.527
 218.379 106.406 229.977 112.363 238.227 c 133.227 267.105 l 142.387 245.664
 l 130.453 243.707 121.352 233.352 121.352 220.867 c h
121.352 220.867 m f
162.043 176.164 m 162.043 171.309 163.426 166.773 165.812 162.93 c 156.613
 160.723 147.887 168.738 149.672 178.32 c 156.191 213.344 l 173.988 197.562
 l 166.82 193.133 162.043 185.207 162.043 176.164 c h
162.043 176.164 m f
201.555 138.027 m 201.555 132.711 203.211 127.789 206.023 123.727 c 205.707
 123.652 l 195.777 121.336 187.035 130.582 189.902 140.367 c 199.93 174.555
 l 213.727 159.562 l 206.434 155.164 201.555 147.164 201.555 138.027 c h
201.555 138.027 m f
0.501961 0.772549 0.690196 rg
337.379 82.445 m 313.355 82.445 l 292.598 82.445 275.773 99.273 275.773
 120.027 c 275.773 190.66 l 275.773 195.281 275.535 199.848 275.07 204.344
 c 274.441 210.406 277.191 216.223 282.109 219.828 c 282.355 220.008 282.598
 220.195 282.84 220.387 c 287.875 224.445 295.34 229.77 305.551 235.375 
c 311.242 238.504 317.781 241.719 325.23 244.852 c 333.758 248.445 338.48
 257.277 337.219 266.035 c 336.984 267.688 336.535 269.332 335.855 270.941
 c 331.594 281.066 319.914 285.844 309.77 281.57 c 301.035 277.887 293.285
 274.082 286.477 270.348 c 280.105 266.848 274.562 263.414 269.809 260.207
 c 261.445 254.566 250.656 253.895 241.66 258.445 c 221.797 268.496 190.707
 289.414 190.707 321.891 c 190.707 343.629 l 197.082 346.574 201.734 350.648
 205.129 354.977 c 212.57 364.477 205.867 378.375 193.797 378.375 c 170.098
 378.375 l 156.695 378.375 145.828 367.508 145.828 354.105 c 145.828 306.328
 l 141.867 301.996 138.684 296.938 136.48 291.383 c 134.277 285.836 133.066
 279.781 133.066 273.453 c 133.066 203.055 190.758 175.938 199.891 166.004
 c 253.945 123.672 241.395 66.098 243.273 55.629 c 243.273 28.016 265.664
 5.625 293.277 5.625 c 353.18 5.625 l 364.375 5.625 373.453 14.703 373.453
 25.898 c 373.453 36.176 365.762 44.824 355.555 46.031 c 326.363 49.477 
l 343.977 62.91 l 352.262 69.223 347.793 82.445 337.379 82.445 c h
337.379 82.445 m f
0.921569 0.917647 0.960784 rg
312.574 51.77 m 312.574 60.953 303.223 68.402 291.684 68.402 c 280.148 
68.402 270.797 60.953 270.797 51.77 c 270.797 42.582 280.148 35.133 291.684
 35.133 c 303.223 35.133 312.574 42.582 312.574 51.77 c h
312.574 51.77 m f
0 g
306.461 20.969 m 303.355 20.969 300.836 23.484 300.836 26.594 c 300.836
 35.805 l 300.836 38.91 303.355 41.43 306.461 41.43 c 309.57 41.43 312.086
 38.91 312.086 35.805 c 312.086 26.594 l 312.086 23.484 309.57 20.969 306.461
 20.969 c h
306.461 20.969 m f
379.082 25.898 m 379.082 11.617 367.465 0 353.184 0 c 293.281 0 l 262.754
 0 237.891 24.715 237.652 55.184 c 237.34 57.438 237.426 60.48 237.539 64.566
 c 237.906 77.715 238.523 99.934 227.758 123.023 c 206.984 118.176 l 192.867
 114.883 180.422 128.02 184.508 141.949 c 191.473 165.707 l 168.906 157.969
 l 155.195 153.266 141.488 165.082 144.145 179.352 c 148.973 205.297 l 148.16
 206.426 147.355 207.582 146.566 208.758 c 121.059 211.605 l 106.652 213.215
 99.309 229.754 107.809 241.52 c 124.695 264.895 l 102 274.805 69.801 280.734
 35.762 260.891 c 27.984 256.359 17.957 257.535 11.375 263.75 c 3.059 271.609
 2.73 284.734 10.664 292.93 c 18.547 301.07 27.141 307.863 36.207 313.125
 c 38.895 314.688 42.336 313.773 43.895 311.086 c 45.453 308.398 44.539 
304.957 41.855 303.398 c 33.684 298.656 25.91 292.5 18.746 285.102 c 15.18
 281.418 15.34 275.484 19.102 271.93 c 22.078 269.117 26.598 268.574 30.094
 270.609 c 60.84 288.535 94.758 289.68 127.5 275.93 c 127.898 285.945 131.312
 296.066 137.152 304.461 c 124.727 310.266 93.957 321.734 61.234 311.852
 c 58.262 310.953 55.125 312.633 54.223 315.609 c 53.324 318.582 55.008 
321.723 57.984 322.621 c 85.34 330.883 114.934 326.836 140.207 315.43 c 
140.207 354.105 l 140.207 370.59 153.617 384 170.102 384 c 193.797 384 l
 210.562 384 219.887 364.695 209.559 351.508 c 205.922 346.875 201.488 343.078
 196.336 340.191 c 196.336 327.039 l 204.77 326.148 213.047 324.48 221.07
 322.086 c 221.07 354.105 l 221.07 370.59 234.48 384 250.965 384 c 274.664
 384 l 291.434 384 300.75 364.688 290.422 351.508 c 286.789 346.871 282.352
 343.078 277.199 340.191 c 277.199 289.211 l 280.988 285.543 284.586 281.641
 287.965 277.52 c 294.227 280.793 300.801 283.891 307.586 286.754 c 320.586
 292.23 335.562 286.145 341.043 273.121 c 346.527 260.082 340.379 245.129
 327.414 239.668 c 322.23 237.488 317.211 235.137 312.422 232.656 c 313.805
 228.355 314.973 223.996 315.922 219.586 c 326.172 216.883 336.32 213.445
 346.457 209.32 c 359.527 204 365.809 189.102 360.48 176.023 c 360.48 176.023
 360.48 176.023 360.477 176.023 c 355.133 162.922 340.215 156.699 327.184
 162.008 c 324.453 163.121 321.711 164.168 318.98 165.152 c 318.98 88.07
 l 337.383 88.07 l 353.199 88.07 359.938 68.004 347.391 58.438 c 340.832
 53.434 l 356.219 51.617 l 369.254 50.078 379.082 39.02 379.082 25.898 c
 h
204.43 129.133 m 222.148 133.266 l 216.594 142.234 209.508 150.453 200.996
 157.812 c 200.965 157.836 200.938 157.863 200.906 157.891 c 195.305 138.785
 l 193.617 133.035 198.773 127.809 204.43 129.133 c h
155.203 177.289 m 154.121 171.473 159.684 166.699 165.258 168.609 c 180.551
 173.852 l 173.816 178.996 165.914 185.555 158.293 193.883 c h
122.309 222.789 m 139.492 220.867 l 134.922 229.945 131.285 240.262 129.25
 251.988 c 116.93 234.934 l 113.469 230.145 116.438 223.441 122.309 222.789
 c h
265.949 298.988 m 265.949 343.633 l 265.949 345.828 267.227 347.82 269.219
 348.742 c 274.145 351.012 278.301 354.277 281.566 358.445 c 286.137 364.277
 282.047 372.75 274.664 372.75 c 250.965 372.75 l 240.684 372.75 232.32 
364.383 232.32 354.102 c 232.32 318.207 l 244.031 313.57 255.633 307.016
 265.949 298.988 c h
267.832 282.609 m 267.801 282.637 267.766 282.66 267.734 282.688 c 247.633
 301.453 222.629 312.609 196.781 315.684 c 198.062 306.801 201.984 298.82
 207.547 291.691 c 207.547 291.691 207.547 291.691 207.551 291.691 c 216.816
 279.82 230.77 270.262 244.203 263.465 c 251.094 259.977 259.789 260.23 
266.664 264.871 c 269.59 266.844 273.777 269.52 277.957 271.977 c 274.773
 275.73 271.395 279.277 267.832 282.609 c h
331.43 172.426 m 338.75 169.441 347.082 172.965 350.062 180.273 c 353.039
 187.578 349.535 195.922 342.219 198.898 c 334.465 202.055 326.207 204.977
 317.969 207.355 c 318.66 201.664 318.984 195.988 318.984 190.66 c 318.984
 177.078 l 323.113 175.676 327.285 174.113 331.43 172.426 c h
325.707 43.891 m 320.699 44.48 318.945 50.887 322.957 53.949 c 340.57 67.383
 l 344.559 70.422 342.434 76.82 337.383 76.82 c 313.359 76.82 l 289.414 
76.82 270.152 96.305 270.152 120.027 c 270.152 156.992 l 270.152 160.098
 272.672 162.617 275.777 162.617 c 278.883 162.617 281.402 160.098 281.402
 156.992 c 281.402 120.027 l 281.402 104.555 292.547 91.277 307.734 88.578
 c 307.734 190.66 l 307.734 202.57 306.027 215.016 302.387 227.07 c 297.906
 224.363 286.527 216.777 283.699 213.75 c 281.492 211.391 280.324 208.238
 280.668 204.922 c 281.691 195.031 281.328 189.246 281.402 179.367 c 281.402
 176.262 278.883 173.742 275.777 173.742 c 272.672 173.742 270.152 176.262
 270.152 179.367 c 270.055 188.109 270.469 194.164 269.477 203.766 c 268.648
 211.793 272.336 219.633 278.789 224.363 c 288.613 231.559 291.105 233.859
 302.848 240.305 c 309.195 243.793 315.992 247.066 323.051 250.035 c 330.32
 253.098 333.738 261.473 330.676 268.758 c 327.613 276.031 319.238 279.453
 311.957 276.383 c 298.406 270.668 285.145 263.762 272.953 255.539 c 262.906
 248.762 249.941 247.953 239.125 253.426 c 218.941 263.637 185.086 286.109
 185.086 321.891 c 185.086 343.625 l 185.086 345.82 186.359 347.812 188.352
 348.73 c 193.281 351.012 197.438 354.277 200.707 358.445 c 205.27 364.273
 201.188 372.746 193.801 372.746 c 170.102 372.746 l 159.82 372.746 151.457
 364.383 151.457 354.102 c 151.457 306.324 l 151.457 306.312 151.453 306.301
 151.453 306.285 c 151.449 304.953 150.93 303.562 149.98 302.527 c 139.836
 291.438 137.895 279.414 139.039 264.484 c 140.594 244.367 147.441 226.109
 159.422 210.156 c 159.434 210.141 159.449 210.129 159.461 210.113 c 170.309
 195.688 182.531 186.262 195.816 176.531 c 237.168 146.168 250.109 111.859
 248.785 64.25 c 248.523 54.883 248.902 57.512 248.902 55.625 c 248.902 
31.16 268.809 11.25 293.281 11.25 c 353.184 11.25 l 361.262 11.25 367.832
 17.82 367.832 25.898 c 367.832 33.32 362.273 39.574 354.902 40.445 c h
325.707 43.891 m f
Q Q
showpage
%%Trailer
end
%%EOF
