%!PS-Adobe-3.0 EPSF-3.0
%%Creator: cairo 1.16.0 (https://cairographics.org)
%%CreationDate: Mon Aug 23 08:35:06 2021
%%Pages: 1
%%DocumentData: Clean7Bit
%%LanguageLevel: 2
%%BoundingBox: 0 60 384 324
%%EndComments
%%BeginProlog
50 dict begin
/q { gsave } bind def
/Q { grestore } bind def
/cm { 6 array astore concat } bind def
/w { setlinewidth } bind def
/J { setlinecap } bind def
/j { setlinejoin } bind def
/M { setmiterlimit } bind def
/d { setdash } bind def
/m { moveto } bind def
/l { lineto } bind def
/c { curveto } bind def
/h { closepath } bind def
/re { exch dup neg 3 1 roll 5 3 roll moveto 0 rlineto
      0 exch rlineto 0 rlineto closepath } bind def
/S { stroke } bind def
/f { fill } bind def
/f* { eofill } bind def
/n { newpath } bind def
/W { clip } bind def
/W* { eoclip } bind def
/BT { } bind def
/ET { } bind def
/BDC { mark 3 1 roll /BDC pdfmark } bind def
/EMC { mark /EMC pdfmark } bind def
/cairo_store_point { /cairo_point_y exch def /cairo_point_x exch def } def
/Tj { show currentpoint cairo_store_point } bind def
/TJ {
  {
    dup
    type /stringtype eq
    { show } { -0.001 mul 0 cairo_font_matrix dtransform rmoveto } ifelse
  } forall
  currentpoint cairo_store_point
} bind def
/cairo_selectfont { cairo_font_matrix aload pop pop pop 0 0 6 array astore
    cairo_font exch selectfont cairo_point_x cairo_point_y moveto } bind def
/Tf { pop /cairo_font exch def /cairo_font_matrix where
      { pop cairo_selectfont } if } bind def
/Td { matrix translate cairo_font_matrix matrix concatmatrix dup
      /cairo_font_matrix exch def dup 4 get exch 5 get cairo_store_point
      /cairo_font where { pop cairo_selectfont } if } bind def
/Tm { 2 copy 8 2 roll 6 array astore /cairo_font_matrix exch def
      cairo_store_point /cairo_font where { pop cairo_selectfont } if } bind def
/g { setgray } bind def
/rg { setrgbcolor } bind def
/d1 { setcachedevice } bind def
/cairo_data_source {
  CairoDataIndex CairoData length lt
    { CairoData CairoDataIndex get /CairoDataIndex CairoDataIndex 1 add def }
    { () } ifelse
} def
/cairo_flush_ascii85_file { cairo_ascii85_file status { cairo_ascii85_file flushfile } if } def
/cairo_image { image cairo_flush_ascii85_file } def
/cairo_imagemask { imagemask cairo_flush_ascii85_file } def
%%EndProlog
%%BeginSetup
%%EndSetup
%%Page: 1 1
%%BeginPageSetup
%%PageBoundingBox: 0 60 384 324
%%EndPageSetup
q 0 60 384 264 rectclip
1 0 0 -1 0 384 cm q
0.921569 0.917647 0.960784 rg
376.707 186.77 m 373.574 168.395 l 350.82 166.719 l 342.859 192.34 l 361.922
 199.168 l 369.969 202.051 378.145 195.195 376.707 186.77 c h
376.707 186.77 m f
342.488 227.219 m 326.426 236.719 l 332.996 258.555 l 359.773 256.852 l
 359.348 236.609 l 359.168 228.059 349.852 222.871 342.488 227.219 c h
342.488 227.219 m f
0.937255 0.501961 0.498039 rg
124.512 111.418 m 119.824 101.5 105.711 101.5 101.023 111.418 c 82.113 
151.434 l 143.422 151.434 l h
124.512 111.418 m f
185.82 111.418 m 181.133 101.5 167.016 101.5 162.328 111.418 c 143.422 
151.434 l 204.727 151.434 l h
185.82 111.418 m f
247.125 111.418 m 242.438 101.5 228.324 101.5 223.637 111.418 c 204.727
 151.434 l 266.035 151.434 l h
247.125 111.418 m f
0.921569 0.917647 0.960784 rg
90.254 272.676 m 77.402 253.527 l 79.617 207.328 l 184.895 207.328 l 184.895
 272.676 l h
90.254 272.676 m f
280.438 272.676 m 184.895 272.676 l 184.895 207.328 l 254.066 207.328 l
 294.711 238.129 l h
280.438 272.676 m f
0.815686 0.811765 0.909804 rg
89.23 207.328 m 79.617 207.328 l 77.402 253.527 l 90.254 272.676 l 184.895
 272.676 l 184.895 264.434 l 145.34 259.895 110.961 238.367 89.23 207.328
 c h
89.23 207.328 m f
0.92549 0.415686 0.384314 rg
107.129 123.133 m 107.129 115.84 109.812 109.18 114.234 104.066 c 109.07
 103.496 103.613 105.941 101.023 111.418 c 82.117 151.438 l 129.223 151.438
 l 116.535 148.27 107.129 136.801 107.129 123.133 c h
107.129 123.133 m f
143.383 151.434 m 143.422 151.434 l 143.418 151.43 l 143.406 151.43 143.395
 151.434 143.383 151.434 c h
143.383 151.434 m f
167.66 127.707 m 167.66 118.434 171.992 110.176 178.738 104.832 c 172.812
 102.594 165.465 104.785 162.328 111.418 c 143.422 151.434 l 179.871 151.434
 l 172.48 146.145 167.66 137.492 167.66 127.707 c h
167.66 127.707 m f
228.258 131.652 m 228.258 120.824 234.16 111.383 242.914 106.348 c 236.738
 101.969 227.305 103.66 223.637 111.418 c 204.727 151.434 l 235.996 151.434
 l 231.195 146.234 228.258 139.289 228.258 131.652 c h
228.258 131.652 m f
0.501961 0.772549 0.690196 rg
373.574 168.395 m 317.719 211.938 l 310.918 217.234 311.543 227.711 318.922
 232.168 c 359.773 256.852 l 368.887 262.352 367.312 275.988 357.207 279.336
 c 337.418 285.871 316.938 279.395 303.051 272.676 c 280.438 272.676 l 273.332
 246.984 249.777 228.121 221.816 228.121 c 208.758 228.121 l 217.297 241.48
 219.922 257.734 214.859 272.676 c 209.062 289.98 190.559 308.141 173.137
 315.648 c 160.648 321.035 146.117 314.395 142.023 301.422 c 139.23 292.582
 138.289 282.438 138.875 272.676 c 139.461 262.906 141.582 253.52 144.93
 246.199 c 148.254 238.926 153.18 232.836 159.172 228.121 c 90.285 228.121
 l 97.434 242.129 97.941 258.316 90.254 272.676 c 83.301 285.617 69.148 
299.328 54.281 305.742 c 42.559 310.793 28.922 304.555 25.082 292.391 c 
19.848 275.797 21.527 254.309 27.812 240.566 c 29.957 235.875 32.82 231.703
 36.227 228.121 c 41.426 222.633 47.906 218.512 55.098 215.945 c 55.051 
215.613 l -16.789 128.875 4.332 90.941 27.637 69.773 c 35.848 62.316 49.047
 68.328 48.871 79.414 c 48.855 79.906 48.855 80.395 48.855 80.875 c 48.965
 111.559 74.207 136.242 104.895 136.242 c 186.953 136.242 l 228.512 136.242
 268.613 143.887 299.672 171.492 c 299.672 171.492 326.418 145.32 357.719
 145.32 c 361.203 145.32 364.742 145.637 368.301 146.359 c 378.77 148.477
 381.996 161.828 373.574 168.395 c h
373.574 168.395 m f
0.313726 0.713726 0.572549 rg
107.156 228.121 m 81.039 203.375 64.746 168.363 64.746 129.543 c 64.746
 126.246 64.871 122.98 65.102 119.746 c 55.125 109.766 48.91 96.059 48.855
 80.875 c 48.855 80.395 48.855 79.906 48.871 79.414 c 49.047 68.328 35.848
 62.316 27.637 69.773 c 4.332 90.938 -16.789 128.875 55.051 215.613 c 55.098
 215.945 l 47.906 218.512 41.422 222.633 36.227 228.121 c 32.816 231.703
 29.957 235.871 27.812 240.566 c 21.527 254.309 19.844 275.797 25.078 292.391
 c 28.922 304.555 42.555 310.793 54.281 305.742 c 69.148 299.328 83.301 
285.617 90.254 272.676 c 97.941 258.316 97.434 242.129 90.285 228.121 c 
h
107.156 228.121 m f
0 g
275.66 204.102 m 275.66 207.207 278.18 209.727 281.285 209.727 c 284.395
 209.727 286.91 207.207 286.91 204.102 c 286.91 197.27 l 288.828 197.781
 l 291.828 198.586 294.914 196.805 295.715 193.805 c 296.52 190.805 294.738
 187.719 291.738 186.914 c 273.426 182.008 l 270.43 181.203 267.34 182.984
 266.539 185.984 c 265.734 188.988 267.516 192.07 270.516 192.875 c 275.988
 194.34 l 275.781 194.93 275.66 195.555 275.66 196.215 c h
275.66 204.102 m f
16.809 158.723 m 19.66 157.484 20.965 154.172 19.727 151.32 c 10.035 129.027
 2.605 100.086 31.395 73.938 c 35.949 69.801 43.297 73.148 43.223 79.289
 c 42.25 113.211 70.27 141.871 104.875 141.871 c 131.039 141.766 196.016
 141.516 211.754 142.934 c 243.234 145.754 272.301 154.703 295.926 175.703
 c 298.133 177.664 301.48 177.582 303.594 175.523 c 303.844 175.277 329.145
 150.949 357.711 150.949 c 365.035 150.949 371.25 151.516 372.555 157.059
 c 373.18 159.703 372.266 162.285 370.113 163.965 c 362.742 169.707 323.297
 200.461 314.258 207.508 c 304.352 215.223 305.258 230.504 316.004 236.996
 c 318.906 238.746 352.066 258.785 356.859 261.68 c 361.844 264.688 361.02
 272.156 355.438 274.008 c 337.379 279.969 318.309 273.828 305.492 267.629
 c 304.727 267.258 303.891 267.066 303.043 267.066 c 284.562 267.066 l 275.301
 240.512 249.961 222.508 221.801 222.508 c 208.742 222.508 l 204.316 222.508
 201.609 227.414 204.004 231.16 c 204.988 232.703 205.879 234.277 206.68
 235.879 c 212.281 247.086 213.344 259.586 209.512 270.902 c 207.805 276
 204.684 281.539 200.484 286.918 c 198.57 289.367 199.008 292.902 201.457
 294.812 c 203.918 296.734 207.449 296.277 209.352 293.84 c 213.391 288.664
 216.516 283.453 218.703 278.316 c 301.77 278.316 l 316.445 285.219 337.902
 291.645 358.973 284.688 c 372.355 280.254 375.641 263.074 365.332 254.008
 c 364.965 236.5 l 364.695 223.656 350.695 215.844 339.621 222.387 c 326.461
 230.168 l 321.82 227.367 l 317.809 224.941 317.473 219.266 321.168 216.383
 c 343.867 198.688 l 360.02 204.473 l 372.113 208.805 384.406 198.512 382.246
 185.832 c 379.613 170.379 l 383.375 166.055 384.863 160.234 383.504 154.477
 c 380.652 142.379 369.848 139.699 357.711 139.699 c 331.289 139.699 308.414
 156.559 299.578 164.027 c 290.484 156.539 280.48 150.371 269.414 145.453
 c 252.199 109.02 l 245.477 94.793 225.25 94.812 218.535 109.02 c 207.988
 131.34 l 205.773 131.184 203.523 131.051 201.25 130.945 c 190.887 109.02
 l 184.164 94.793 163.938 94.812 157.227 109.02 c 147.016 130.621 l 139.785
 130.621 l 129.574 109.02 l 122.855 94.793 102.629 94.812 95.914 109.02 
c 87.207 127.441 l 67.168 119.977 53.836 100.535 54.469 79.586 c 54.469 
79.559 54.469 79.531 54.469 79.504 c 54.723 63.496 35.691 54.832 23.828 
65.609 c 12.473 75.922 5.363 86.914 2.086 99.211 c -2.27 115.57 0.191 134.613
 9.406 155.809 c 10.645 158.656 13.961 159.965 16.809 158.723 c h
218.109 233.758 m 221.801 233.758 l 243.664 233.758 263.746 246.824 272.484
 267.066 c 222.113 267.066 l 224.176 255.738 222.68 244.23 218.109 233.758
 c h
345.348 232.07 m 349.008 229.91 353.629 232.492 353.719 236.734 c 353.93
 246.762 l 337.395 236.773 l h
363.812 193.879 m 354.375 190.5 l 357.031 188.426 364.707 182.445 369.605
 178.625 c 371.156 187.723 l 371.871 191.914 367.809 195.312 363.812 193.879
 c h
219.898 132.469 m 228.711 113.824 l 231.375 108.191 239.363 108.184 242.027
 113.824 c 254.258 139.707 l 243.754 136.371 232.379 133.977 220.02 132.484
 c 219.98 132.48 219.941 132.473 219.898 132.469 c h
167.398 113.824 m 170.062 108.191 178.051 108.184 180.719 113.824 c 188.656
 130.625 l 187.215 130.617 187.914 130.621 159.461 130.621 c h
106.09 113.824 m 108.754 108.191 116.742 108.184 119.406 113.824 c 127.344
 130.621 l 104.875 130.621 l 102.922 130.621 100.773 130.496 98.355 130.188
 c h
106.09 113.824 m f
22.672 238.238 m 15.492 253.938 14.27 276.906 19.691 294.098 c 24.535 309.434
 41.711 317.289 56.488 310.922 c 70.711 304.789 85.191 291.941 93.488 278.316
 c 133.062 278.316 l 133.066 287.176 134.281 295.656 136.641 303.129 c 141.73
 319.262 159.805 327.535 175.348 320.832 c 181.188 318.312 187.316 314.598
 193.074 310.082 c 195.516 308.164 195.945 304.629 194.027 302.184 c 192.109
 299.742 188.574 299.312 186.129 301.23 c 181.125 305.156 175.855 308.359
 170.891 310.5 c 161.484 314.559 150.465 309.547 147.371 299.742 c 142.316
 283.746 143.777 262.219 150.027 248.551 c 152.906 242.254 157.145 236.871
 162.637 232.551 c 166.785 229.289 164.527 222.508 159.156 222.508 c 90.266
 222.508 l 86.094 222.508 83.34 226.934 85.254 230.688 c 91.879 243.676 
91.715 258.004 85.277 270.031 c 78.594 282.465 64.926 295.031 52.035 300.594
 c 43.379 304.32 33.262 299.703 30.422 290.711 c 25.84 276.184 26.883 256.086
 32.902 242.918 c 37.633 232.566 46.41 225.02 56.965 221.254 c 61.477 219.645
 60.586 214.934 60.602 214.859 c 60.461 213.82 60.027 212.84 59.359 212.035
 c 47.203 197.355 37.207 183.402 29.641 170.562 c 28.062 167.883 24.613 
166.992 21.941 168.57 c 19.262 170.145 18.371 173.594 19.949 176.27 c 26.855
 187.996 35.672 200.562 46.207 213.703 c 35.668 219.184 27.48 227.723 22.672
 238.238 c h
145.809 233.758 m 143.461 236.875 141.449 240.254 139.797 243.871 c 136.551
 250.965 134.605 259.305 133.703 267.066 c 98.766 267.066 l 102.336 256.344
 102.305 244.715 98.695 233.758 c h
145.809 233.758 m f
Q Q
showpage
%%Trailer
end
%%EOF
