%!PS-Adobe-3.0 EPSF-3.0
%%Creator: cairo 1.16.0 (https://cairographics.org)
%%CreationDate: Mon Aug 23 08:35:06 2021
%%Pages: 1
%%DocumentData: Clean7Bit
%%LanguageLevel: 2
%%BoundingBox: 0 56 384 328
%%EndComments
%%BeginProlog
50 dict begin
/q { gsave } bind def
/Q { grestore } bind def
/cm { 6 array astore concat } bind def
/w { setlinewidth } bind def
/J { setlinecap } bind def
/j { setlinejoin } bind def
/M { setmiterlimit } bind def
/d { setdash } bind def
/m { moveto } bind def
/l { lineto } bind def
/c { curveto } bind def
/h { closepath } bind def
/re { exch dup neg 3 1 roll 5 3 roll moveto 0 rlineto
      0 exch rlineto 0 rlineto closepath } bind def
/S { stroke } bind def
/f { fill } bind def
/f* { eofill } bind def
/n { newpath } bind def
/W { clip } bind def
/W* { eoclip } bind def
/BT { } bind def
/ET { } bind def
/BDC { mark 3 1 roll /BDC pdfmark } bind def
/EMC { mark /EMC pdfmark } bind def
/cairo_store_point { /cairo_point_y exch def /cairo_point_x exch def } def
/Tj { show currentpoint cairo_store_point } bind def
/TJ {
  {
    dup
    type /stringtype eq
    { show } { -0.001 mul 0 cairo_font_matrix dtransform rmoveto } ifelse
  } forall
  currentpoint cairo_store_point
} bind def
/cairo_selectfont { cairo_font_matrix aload pop pop pop 0 0 6 array astore
    cairo_font exch selectfont cairo_point_x cairo_point_y moveto } bind def
/Tf { pop /cairo_font exch def /cairo_font_matrix where
      { pop cairo_selectfont } if } bind def
/Td { matrix translate cairo_font_matrix matrix concatmatrix dup
      /cairo_font_matrix exch def dup 4 get exch 5 get cairo_store_point
      /cairo_font where { pop cairo_selectfont } if } bind def
/Tm { 2 copy 8 2 roll 6 array astore /cairo_font_matrix exch def
      cairo_store_point /cairo_font where { pop cairo_selectfont } if } bind def
/g { setgray } bind def
/rg { setrgbcolor } bind def
/d1 { setcachedevice } bind def
/cairo_data_source {
  CairoDataIndex CairoData length lt
    { CairoData CairoDataIndex get /CairoDataIndex CairoDataIndex 1 add def }
    { () } ifelse
} def
/cairo_flush_ascii85_file { cairo_ascii85_file status { cairo_ascii85_file flushfile } if } def
/cairo_image { image cairo_flush_ascii85_file } def
/cairo_imagemask { imagemask cairo_flush_ascii85_file } def
%%EndProlog
%%BeginSetup
%%EndSetup
%%Page: 1 1
%%BeginPageSetup
%%PageBoundingBox: 0 56 384 328
%%EndPageSetup
q 0 56 384 272 rectclip
1 0 0 -1 0 384 cm q
0.952941 0.615686 0.521569 rg
79.293 197.598 m 54.582 203.305 35.387 198.91 23.801 194.348 c 16.773 191.582
 8.855 195.145 6.367 202.273 c 4.434 207.812 6.379 213.949 11.129 217.391
 c 22.695 225.758 47.051 239.012 83.535 237.094 c h
79.293 197.598 m f
80.066 247.617 m 80.066 303.18 l 80.066 313.258 88.238 321.43 98.316 321.43
 c 117.777 321.43 l 127.855 321.43 136.027 313.262 136.027 303.18 c 136.027
 247.617 l h
80.066 247.617 m f
232.941 247.617 m 232.941 303.18 l 232.941 313.258 224.77 321.43 214.691
 321.43 c 195.23 321.43 l 185.152 321.43 176.98 313.262 176.98 303.18 c 
176.98 247.617 l h
232.941 247.617 m f
0.898039 0.52549 0.431373 rg
190.477 77.719 m 174.559 66.156 l 167.98 61.375 159.07 61.375 152.492 66.156
 c 136.574 77.719 l 129.996 82.5 127.242 90.973 129.758 98.703 c 140.051
 130.387 l 187 130.387 l 197.293 98.703 l 199.805 90.973 197.055 82.5 190.477
 77.719 c h
190.477 77.719 m f
94.473 116.734 m 89.543 110.27 81.008 107.711 73.336 110.402 c 54.77 116.91
 l 47.098 119.602 42.027 126.926 42.215 135.055 c 42.668 154.727 l 42.855
 162.855 48.258 169.941 56.047 172.273 c 87.957 181.836 l 114.672 143.227
 l h
94.473 116.734 m f
214.867 295.758 m 221.094 295.758 227.148 294.992 232.941 293.562 c 232.941
 247.617 l 176.98 247.617 l 176.98 295.758 l h
214.867 295.758 m f
112.184 295.758 m 136.027 295.758 l 136.027 247.617 l 80.066 247.617 l 
80.066 288.566 l 89.816 293.176 100.703 295.758 112.184 295.758 c h
112.184 295.758 m f
37.926 198.5 m 37.168 204.105 36.766 209.828 36.766 215.641 c 36.766 220.34
 l 36.766 223.934 37.023 227.469 37.512 230.93 c 49.684 235.141 65.051 238.066
 83.535 237.094 c 79.293 197.598 l 62.859 201.395 48.867 200.719 37.926 
198.5 c h
37.926 198.5 m f
0.835294 0.454902 0.356863 rg
93.32 158.668 m 71.699 158.668 54.172 141.141 54.172 119.52 c 54.172 118.711
 54.203 117.91 54.254 117.113 c 46.871 119.949 42.031 127.113 42.215 135.055
 c 42.668 154.727 l 42.855 162.855 48.254 169.941 56.047 172.273 c 87.957
 181.836 l 105.277 156.801 l 101.508 158.008 97.492 158.668 93.32 158.668
 c h
93.32 158.668 m f
153.477 104.762 m 153.477 88.383 163.539 74.363 177.816 68.523 c 174.559
 66.156 l 167.98 61.375 159.07 61.375 152.492 66.156 c 136.574 77.719 l 
129.996 82.5 127.242 90.973 129.758 98.703 c 140.051 130.387 l 163.043 130.387
 l 157.09 123.52 153.477 114.566 153.477 104.762 c h
153.477 104.762 m f
0.741176 0.815686 0.396078 rg
163.523 111.379 m 105.941 111.379 59.266 158.059 59.266 215.641 c 59.266
 220.34 l 59.266 249.566 82.957 273.258 112.184 273.258 c 214.867 273.258
 l 244.094 273.258 267.785 249.566 267.785 220.34 c 267.785 215.641 l 267.785
 158.059 221.105 111.379 163.523 111.379 c h
163.523 111.379 m f
0.898039 0.52549 0.431373 rg
279.535 129.746 m 278.25 123.711 273.23 119.188 267.09 118.543 c 247.184
 116.449 l 241.047 115.805 235.191 119.184 232.684 124.82 c 224.543 143.109
 l 222.031 148.746 223.438 155.355 228.023 159.484 c 250.59 179.805 l 285.848
 159.445 l h
279.535 129.746 m f
368.047 133.355 m 358.273 115.887 l 355.258 110.5 349.121 107.668 343.07
 108.871 c 323.438 112.77 l 317.383 113.973 312.793 118.934 312.066 125.062
 c 308.488 155.215 l 345.453 172.273 l 366.074 149.98 l 370.266 145.453 
371.059 138.738 368.047 133.355 c h
368.047 133.355 m f
0.654902 0.776471 0.392157 rg
108.859 171.684 m 108.859 154.082 112.145 137.254 118.121 121.762 c 83.285
 138.641 59.266 174.332 59.266 215.641 c 59.266 220.336 l 59.266 249.562
 82.957 273.258 112.184 273.258 c 153.102 273.258 l 125.887 247.926 108.859
 211.797 108.859 171.684 c h
108.859 171.684 m f
0.87451 0.901961 0.611765 rg
141.48 203.77 m 129.926 201.625 121.645 195.496 112.395 201.703 c 109.766
 203.465 l 102.586 208.285 100.457 217.898 104.934 225.297 c 107.09 228.863
 l 114.559 241.207 128.598 235.039 138.34 235.57 c 156.488 234.383 159.27
 208.543 141.48 203.77 c h
141.48 203.77 m f
172.242 142.617 m 158.723 145.203 l 141.762 148.445 136.613 170.258 150.254
 180.758 c 151.465 181.688 l 162.789 190.406 174.223 182.695 181.543 181.508
 c 193.332 178.113 195.383 167.188 195.426 167.113 c 198.957 152.934 186.598
 139.871 172.242 142.617 c h
172.242 142.617 m f
0.835294 0.454902 0.356863 rg
243.441 132.207 m 243.441 126.605 244.574 121.27 246.621 116.414 c 240.695
 116.027 235.117 119.355 232.684 124.82 c 224.543 143.109 l 222.035 148.746
 223.438 155.355 228.023 159.484 c 250.59 179.805 l 268.199 169.637 l 253.645
 163.445 243.441 149.02 243.441 132.207 c h
243.441 132.207 m f
323.949 155.535 m 323.949 135.332 338.68 118.582 357.984 115.418 c 354.883
 110.344 348.941 107.707 343.07 108.871 c 323.438 112.77 l 317.383 113.973
 312.793 118.934 312.066 125.062 c 308.488 155.215 l 324.582 162.641 l 324.176
 160.332 323.949 157.961 323.949 155.535 c h
323.949 155.535 m f
0.952941 0.615686 0.521569 rg
311.59 142.191 m 302.574 142.191 l 265.688 142.191 235.789 172.09 235.789
 208.973 c 235.789 238.16 259.449 261.82 288.637 261.82 c 338.965 261.82
 l 352.891 261.82 359.52 244.68 349.211 235.309 c 342.18 228.918 l 358.434
 228.918 l 369.445 228.918 378.375 219.988 378.375 208.973 c 378.375 172.09
 348.477 142.191 311.59 142.191 c h
311.59 142.191 m f
0.992157 0.94902 0.894118 rg
327.246 230.598 m 327.246 239.996 317.676 247.617 305.871 247.617 c 294.066
 247.617 284.5 239.996 284.5 230.598 c 284.5 221.195 294.066 213.578 305.871
 213.578 c 317.676 213.578 327.246 221.195 327.246 230.598 c h
327.246 230.598 m f
0 g
308.16 217.707 m 311.266 217.707 313.785 215.188 313.785 212.082 c 313.785
 209.574 315.824 207.535 318.332 207.535 c 320.84 207.535 322.879 209.574
 322.879 212.082 c 322.879 215.188 325.398 217.707 328.504 217.707 c 331.609
 217.707 334.129 215.188 334.129 212.082 c 334.129 203.371 327.043 196.285
 318.332 196.285 c 309.621 196.285 302.535 203.371 302.535 212.082 c 302.535
 215.188 305.051 217.707 308.16 217.707 c h
308.16 217.707 m f
102.289 231.781 m 108.953 242.789 118.941 242.969 130.719 241.664 c 137.766
 240.883 137.465 241.27 138.715 241.188 c 149.586 240.477 157.926 232.387
 159 221.508 c 160.145 209.945 152.438 200.094 142.52 198.246 c 131.594 
196.219 121.027 189.152 109.273 197.035 c 106.645 198.801 l 96.949 205.305
 94.09 218.227 100.133 228.215 c h
112.91 208.141 m 115.066 206.922 116.969 204.629 121.109 204.629 c 125.938
 204.629 132.383 207.766 140.223 209.258 c 146.445 211.023 148.227 216.156
 147.805 220.402 c 147.402 224.48 144.66 229.383 138.27 229.941 c 135.391
 229.824 132.391 230.16 129.477 230.48 c 120.035 231.531 115.227 231.426
 111.914 225.957 c 109.758 222.391 l 106.828 217.551 108.215 211.293 112.91
 208.141 c h
112.91 208.141 m f
148.043 186.152 m 157.523 193.449 166.641 192.082 177.414 188.516 c 182.656
 186.781 181.957 187.25 183.109 186.922 c 193.707 183.867 199.23 175.438
 200.883 168.523 c 200.887 168.508 200.891 168.496 200.895 168.48 c 205.422
 150.301 189.562 133.586 171.195 137.102 c 157.676 139.688 l 147.633 141.605
 139.922 148.992 137.555 158.957 c 133.328 176.711 147.871 185.926 148.043
 186.152 c h
148.496 161.559 m 149.848 155.875 154.07 151.828 159.789 150.734 c 173.309
 148.148 l 183.645 146.172 192.48 155.52 189.992 165.695 c 188.594 171.059
 184.98 174.582 180.27 176.031 c 178.199 176.406 176.094 177.102 173.875
 177.836 c 166.191 180.383 160.719 181.715 154.906 177.238 c 154.621 176.871
 146.008 172.016 148.496 161.559 c h
148.496 161.559 m f
7.848 221.953 m 17.766 229.129 34.305 238.176 57.648 241.562 c 61.23 250.734
 67.055 258.789 74.457 265.047 c 74.457 303.184 l 74.457 316.348 85.164 
327.055 98.328 327.055 c 117.789 327.055 l 130.953 327.055 141.66 316.348
 141.66 303.184 c 141.66 278.887 l 171.367 278.887 l 171.367 303.184 l 171.367
 316.348 182.074 327.055 195.238 327.055 c 214.699 327.055 l 227.863 327.055
 238.57 316.348 238.57 303.184 c 238.57 273.836 l 246.188 270.453 253.078
 265.469 258.684 259.152 c 267.516 264.434 277.789 267.449 288.641 267.449
 c 338.965 267.449 l 356.125 267.449 365.652 248.09 356.012 234.547 c 358.434
 234.547 l 372.531 234.547 384 223.078 384 208.98 c 384 190.004 376.66 172.715
 364.672 159.789 c 370.203 153.809 l 376.066 147.473 377.172 138.152 372.957
 130.617 c 363.18 113.148 l 358.965 105.617 350.441 101.684 341.973 103.367
 c 322.34 107.266 l 313.875 108.945 307.5 115.836 306.48 124.41 c 305.039
 136.574 l 302.574 136.574 l 297.277 136.574 292.098 137.156 287.094 138.246
 c 285.039 128.586 l 283.246 120.141 276.27 113.863 267.684 112.961 c 247.777
 110.867 l 239.191 109.965 231.062 114.656 227.551 122.547 c 226.266 125.426
 l 217.785 119.5 208.645 114.867 199.031 111.59 c 202.648 100.457 l 205.926
 90.375 202.363 79.414 193.789 73.184 c 177.871 61.621 l 169.293 55.387 
157.77 55.387 149.195 61.621 c 133.277 73.184 l 124.703 79.414 121.141 90.375
 124.414 100.457 c 128.043 111.621 l 120.234 114.281 112.746 117.816 105.707
 122.188 c 98.957 113.336 l 92.531 104.906 81.492 101.598 71.488 105.105
 c 52.922 111.613 l 42.918 115.121 36.359 124.598 36.605 135.195 c 37.059
 154.867 l 37.301 165.465 44.289 174.629 54.441 177.672 c 59.828 179.285
 l 58.07 184.301 56.68 189.441 55.668 194.672 c 42.66 194.594 32.414 191.699
 25.875 189.125 c 15.852 185.176 4.609 190.289 1.07 200.43 c -1.699 208.363
 1.023 217.016 7.848 221.953 c h
130.414 303.184 m 130.414 310.145 124.75 315.809 117.789 315.809 c 98.328
 315.809 l 91.367 315.809 85.703 310.145 85.703 303.184 c 85.703 272.566
 l 94.16 276.879 103.254 278.887 112.195 278.887 c 130.41 278.887 l 130.41
 303.184 l h
227.324 277.555 m 227.324 303.184 l 227.324 310.145 221.66 315.809 214.699
 315.809 c 195.238 315.809 l 188.277 315.809 182.617 310.145 182.617 303.184
 c 182.617 278.887 l 214.871 278.887 l 219.078 278.887 223.676 278.348 227.324
 277.555 c h
317.652 125.734 m 318.094 122.016 320.859 119.027 324.535 118.297 c 344.164
 114.398 l 347.84 113.668 351.535 115.375 353.363 118.645 c 363.141 136.109
 l 364.969 139.379 364.488 143.422 361.945 146.168 c 356.434 152.129 l 344.988
 143.086 330.969 137.688 316.352 136.727 c h
246.602 122.055 m 266.508 124.145 l 270.234 124.539 273.258 127.262 274.039
 130.926 c 276.285 141.496 l 263.473 146.484 252.215 155.125 244.035 166.336
 c 231.797 155.312 l 229.012 152.809 228.164 148.824 229.688 145.402 c 237.832
 127.117 l 239.355 123.695 242.883 121.66 246.602 122.055 c h
135.117 96.977 m 133.352 91.547 135.27 85.641 139.891 82.281 c 155.809 
70.719 l 160.43 67.359 166.637 67.359 171.258 70.719 c 187.176 82.281 l 
191.797 85.641 193.715 91.547 191.953 96.977 c 188.199 108.52 l 179.891 
106.625 171.516 105.766 163.531 105.766 c 155.547 105.766 147.188 106.641
 138.875 108.547 c h
57.672 166.895 m 52.203 165.254 48.438 160.316 48.305 154.605 c 47.852 
134.934 l 47.719 129.227 51.254 124.117 56.645 122.23 c 75.211 115.719 l
 80.598 113.832 86.551 115.613 90.012 120.156 c 96.461 128.613 l 93.215 
131.125 90.086 133.824 87.098 136.719 c 84.867 138.879 84.809 142.441 86.969
 144.672 c 89.141 146.914 92.703 146.969 94.938 144.809 c 114.113 126.234
 138.73 117.016 163.535 117.016 c 183.887 117.016 204.086 123.109 221.598
 135.914 c 219.41 140.828 l 215.898 148.715 217.852 157.898 224.266 163.676
 c 238.055 176.09 l 234.875 182.328 232.609 189.078 231.375 195.773 c 230.812
 198.828 232.832 201.762 235.887 202.324 c 238.969 202.895 241.891 200.82
 242.445 197.812 c 243.754 190.711 246.289 183.969 249.973 177.773 c 261.027
 159.18 280.938 147.824 302.574 147.824 c 309.492 148.184 322.008 146.117
 338.07 153.859 c 338.09 153.867 l 358.578 163.758 372.75 184.746 372.75
 208.98 c 372.75 216.875 366.324 223.301 358.43 223.301 c 342.18 223.301
 l 337.051 223.301 334.602 229.637 338.395 233.086 c 345.43 239.48 l 351.93
 245.391 347.746 256.203 338.965 256.203 c 288.637 256.203 l 266.168 256.203
 246.652 240.223 242.312 218.137 c 241.711 215.074 238.738 213.105 235.707
 213.703 c 232.66 214.301 230.672 217.258 231.273 220.305 c 233.664 232.484
 239.984 243.875 249.562 252.469 c 240.625 262.094 227.973 267.637 214.871
 267.637 c 192.34 267.637 135.645 267.637 112.195 267.637 c 90.984 267.637
 73.066 253.609 67.062 234.484 c 61.945 218.109 64.457 186.465 81.418 161.031
 c 83.152 158.426 82.426 154.938 79.844 153.219 c 77.262 151.496 73.77 152.195
 72.043 154.781 c 69.043 159.285 66.391 163.977 64.105 168.82 c h
11.691 204.137 m 13.121 200.039 17.676 197.98 21.754 199.59 c 28.953 202.422
 40.062 205.613 54.082 205.91 c 53.504 212.441 53.352 223.137 54.391 229.617
 c 35.867 226.105 22.621 218.758 14.445 212.84 c 11.68 210.84 10.574 207.34
 11.691 204.137 c h
11.691 204.137 m f
Q Q
showpage
%%Trailer
end
%%EOF
