%!PS-Adobe-3.0 EPSF-3.0
%%Creator: cairo 1.16.0 (https://cairographics.org)
%%CreationDate: Mon Aug 23 08:35:07 2021
%%Pages: 1
%%DocumentData: Clean7Bit
%%LanguageLevel: 2
%%BoundingBox: 1 0 383 384
%%EndComments
%%BeginProlog
50 dict begin
/q { gsave } bind def
/Q { grestore } bind def
/cm { 6 array astore concat } bind def
/w { setlinewidth } bind def
/J { setlinecap } bind def
/j { setlinejoin } bind def
/M { setmiterlimit } bind def
/d { setdash } bind def
/m { moveto } bind def
/l { lineto } bind def
/c { curveto } bind def
/h { closepath } bind def
/re { exch dup neg 3 1 roll 5 3 roll moveto 0 rlineto
      0 exch rlineto 0 rlineto closepath } bind def
/S { stroke } bind def
/f { fill } bind def
/f* { eofill } bind def
/n { newpath } bind def
/W { clip } bind def
/W* { eoclip } bind def
/BT { } bind def
/ET { } bind def
/BDC { mark 3 1 roll /BDC pdfmark } bind def
/EMC { mark /EMC pdfmark } bind def
/cairo_store_point { /cairo_point_y exch def /cairo_point_x exch def } def
/Tj { show currentpoint cairo_store_point } bind def
/TJ {
  {
    dup
    type /stringtype eq
    { show } { -0.001 mul 0 cairo_font_matrix dtransform rmoveto } ifelse
  } forall
  currentpoint cairo_store_point
} bind def
/cairo_selectfont { cairo_font_matrix aload pop pop pop 0 0 6 array astore
    cairo_font exch selectfont cairo_point_x cairo_point_y moveto } bind def
/Tf { pop /cairo_font exch def /cairo_font_matrix where
      { pop cairo_selectfont } if } bind def
/Td { matrix translate cairo_font_matrix matrix concatmatrix dup
      /cairo_font_matrix exch def dup 4 get exch 5 get cairo_store_point
      /cairo_font where { pop cairo_selectfont } if } bind def
/Tm { 2 copy 8 2 roll 6 array astore /cairo_font_matrix exch def
      cairo_store_point /cairo_font where { pop cairo_selectfont } if } bind def
/g { setgray } bind def
/rg { setrgbcolor } bind def
/d1 { setcachedevice } bind def
/cairo_data_source {
  CairoDataIndex CairoData length lt
    { CairoData CairoDataIndex get /CairoDataIndex CairoDataIndex 1 add def }
    { () } ifelse
} def
/cairo_flush_ascii85_file { cairo_ascii85_file status { cairo_ascii85_file flushfile } if } def
/cairo_image { image cairo_flush_ascii85_file } def
/cairo_imagemask { imagemask cairo_flush_ascii85_file } def
%%EndProlog
%%BeginSetup
%%EndSetup
%%Page: 1 1
%%BeginPageSetup
%%PageBoundingBox: 1 0 383 384
%%EndPageSetup
q 1 0 382 384 rectclip
1 0 0 -1 0 384 cm q
0.835294 0.454902 0.356863 rg
262.648 360.473 m 256.312 351.465 245.992 346.105 234.98 346.105 c 213.543
 346.105 l 202.711 335 199.391 324.195 203.098 312.102 c 206.234 301.867
 213.305 294.602 213.379 294.527 c 213.281 294.625 l 188.703 269.621 l 187.426
 270.879 176.043 282.41 170.133 300.086 c 164.902 315.73 165.547 331.457
 171.766 346.105 c 165.031 346.105 l 153.547 346.105 143.422 353.629 140.105
 364.621 c 138.039 371.473 143.164 378.375 150.32 378.375 c 253.355 378.375
 l 262.559 378.375 267.945 368 262.648 360.473 c h
262.648 360.473 m f
0.898039 0.52549 0.431373 rg
196.438 360.473 m 190.102 351.465 179.781 346.105 168.77 346.105 c 147.328
 346.105 l 136.5 335 133.18 324.195 136.887 312.102 c 140.023 301.867 147.094
 294.602 147.164 294.527 c 147.07 294.625 l 122.492 269.621 l 121.211 270.879
 109.832 282.41 103.922 300.086 c 98.691 315.73 99.336 331.457 105.555 346.105
 c 98.82 346.105 l 87.336 346.105 77.211 353.629 73.895 364.621 c 71.824
 371.473 76.953 378.375 84.109 378.375 c 187.141 378.375 l 196.348 378.375
 201.734 368 196.438 360.473 c h
196.438 360.473 m f
98.414 288.93 m 96.043 288.504 71.605 289.773 45.797 271.539 c -1.531 237.812
 -6.91 168.945 36.836 129.059 c 42.383 124.004 50.977 124.398 56.035 129.945
 c 60.938 135.324 60.715 143.562 55.645 148.672 c 55.594 148.75 39.301 164.531
 37.883 185.508 c 37.91 185.59 32.27 222.117 65.305 242.871 c 75.199 249.133
 86.777 252.172 98.262 251.746 c h
98.414 288.93 m f
0.835294 0.454902 0.356863 rg
98.262 251.746 m 86.777 252.172 75.199 249.133 65.305 242.871 c 59.516 
239.234 54.922 235.113 51.27 230.789 c 49.066 247.387 51.562 263.875 58.531
 279.141 c 79.16 289.383 96.441 288.574 98.414 288.93 c h
98.262 251.746 m f
0.952941 0.615686 0.521569 rg
247.996 161.52 m 218.914 168.629 194.988 171.922 175.57 172.938 c 160.043
 191.594 l 130.297 173.77 l 119.188 175.754 109.203 180.359 100.793 186.785
 c 104.191 222.121 l 75.367 224.742 l 57.391 291.68 146.125 347.914 208.875
 300.195 c 246.984 271.215 276.98 199.629 247.996 161.52 c h
247.996 161.52 m f
0.423529 0.501961 0.588235 rg
256.051 69.316 m 255.938 69.289 244.195 66.109 233.004 58.098 c 218.918
 48.008 212.598 35.617 213.691 20.227 c 214.227 12.715 208.574 6.195 201.059
 5.66 c 193.547 5.125 187.023 10.785 186.492 18.293 c 184.723 43.215 195.316
 64.645 217.129 80.266 c 232.586 91.336 248.551 95.543 249.223 95.719 c 
249.441 95.773 249.66 95.824 249.879 95.871 c 256.953 97.34 264.008 93.004
 265.836 85.93 c 267.723 78.641 263.34 71.203 256.051 69.316 c h
256.051 69.316 m f
262.082 116.859 m 260.305 109.703 253.137 105.234 245.902 106.836 c 198.789
 117.262 169.953 94.836 157.723 81.82 c 153.32 77.133 146.25 76.156 140.73
 79.461 c 133.293 83.914 131.805 94.082 137.68 100.453 c 142.609 105.801
 149.359 112.078 157.996 117.879 c 172.004 127.273 193.266 136.875 221.672
 136.875 c 230.863 136.875 240.801 135.871 251.48 133.527 c 258.977 131.887
 263.93 124.305 262.082 116.859 c h
262.082 116.859 m f
0.992157 0.94902 0.894118 rg
341.168 105.605 m 321.465 113.09 l 328.527 130.969 l 331.469 138.406 341.391
 139.812 346.277 133.48 c 358.023 118.258 l h
341.168 105.605 m f
0.898039 0.52549 0.431373 rg
273.199 246.09 m 261.395 244.285 250.176 239.09 241.133 230.934 c 232.73
 223.355 l 225.387 216.734 213.973 217.473 207.555 225.117 c 201.441 232.398
 202.504 243.309 209.566 249.676 c 217.652 256.969 l 231.867 269.785 249.504
 277.945 268.062 280.758 c 276.273 282 284.188 277.133 286.824 269.254 c
 287.086 268.465 l 290.484 258.305 283.793 247.707 273.199 246.09 c h
273.199 246.09 m f
0.321569 0.419608 0.501961 rg
178.961 211.598 m 163.375 209.605 141.121 201.66 130.297 173.77 c 135.836
 172.781 141.652 172.441 147.691 172.848 c 155.707 173.387 164.977 173.504
 175.57 172.938 c 177.359 180.629 180.723 189.684 186.805 199.371 c 190.402
 205.094 185.664 212.449 178.961 211.598 c h
178.961 211.598 m f
129.773 251.172 m 113.473 249.223 91.723 242.949 75.367 224.742 c 79.375
 209.797 88.352 196.293 100.793 186.785 c 107.473 200.867 118.781 220.164
 136.375 237.41 c 141.875 242.805 137.41 252.082 129.773 251.172 c h
129.773 251.172 m f
249.879 95.871 m 256.953 97.34 264.008 93.004 265.84 85.934 c 267.723 78.641
 263.34 71.203 256.051 69.32 c 255.938 69.289 244.195 66.109 233.004 58.098
 c 226.156 53.191 221.148 47.742 217.934 41.672 c 211.496 45.242 205.539
 49.77 200.242 55.188 c 198.984 56.473 197.785 57.812 196.613 59.176 c 201.656
 67.016 208.512 74.094 217.129 80.266 c 232.586 91.336 248.555 95.543 249.227
 95.719 c 249.441 95.773 249.66 95.824 249.879 95.871 c h
249.879 95.871 m f
251.48 133.527 m 258.973 131.887 263.93 124.305 262.082 116.859 c 260.305
 109.703 253.137 105.234 245.902 106.836 c 215.633 113.535 192.91 106.672
 177.289 97.457 c 176.395 101.055 175.672 104.746 175.137 108.527 c 174.262
 114.707 173.934 120.84 174.133 126.848 c 186.734 132.539 202.59 136.875
 221.672 136.875 c 230.863 136.875 240.801 135.871 251.48 133.527 c h
251.48 133.527 m f
0.898039 0.52549 0.431373 rg
247.996 161.52 m 224.652 167.227 204.633 170.469 187.598 172.055 c 199.789
 191.043 219.23 203.293 242.434 206.574 c 259.105 208.934 l 260.871 191.258
 257.836 174.457 247.996 161.52 c h
247.996 161.52 m f
0.952941 0.615686 0.521569 rg
313.152 111.91 m 358.023 118.258 l 369.57 119.891 379.188 109.473 376.633
 98.094 c 372.621 80.211 l 369.727 67.309 360.551 56.719 348.191 52.02 c
 341.547 49.496 334.035 51.375 329.363 56.734 c 325.59 61.062 319.883 63.191
 314.195 62.387 c 263.836 55.266 l 228.203 50.227 202.453 76.047 197.414
 111.68 c 192.375 147.309 209.953 179.258 245.586 184.301 c 344.832 198.336
 l 350.207 199.098 355.578 196.914 358.898 192.621 c 365.984 183.453 360.535
 170.051 349.062 168.43 c 339.719 167.109 l 335.754 166.547 332.172 164.434
 329.766 161.23 c 322.852 152.043 l 320.445 148.844 316.863 146.73 312.898
 146.168 c 308.395 145.531 l 299.113 144.219 292.652 135.629 293.965 126.344
 c 295.277 117.059 303.867 110.598 313.152 111.91 c h
313.152 111.91 m f
0.992157 0.94902 0.894118 rg
261.148 101.883 m 249.441 100.227 238.879 106.441 237.562 115.766 c 236.242
 125.09 244.664 133.988 256.371 135.645 c 268.078 137.301 278.641 131.086
 279.957 121.762 c 281.277 112.438 272.855 103.539 261.148 101.883 c h
261.148 101.883 m f
0 g
267.926 102.883 m 267.488 105.961 269.629 108.805 272.707 109.242 c 275.789
 109.676 278.629 107.527 279.062 104.457 c 279.938 98.277 l 281.406 98.898
 l 284.258 100.113 287.566 98.789 288.785 95.926 c 290 93.066 288.668 89.766
 285.812 88.547 c 269.09 81.434 l 266.23 80.219 262.93 81.551 261.715 84.406
 c 260.496 87.266 261.828 90.57 264.688 91.785 c 269.453 93.812 l 269.223
 94.305 269.062 94.836 268.984 95.398 c h
267.926 102.883 m f
349.457 99.91 m 351.938 98.043 352.438 94.516 350.57 92.035 c 344.98 84.602
 l 343.113 82.117 339.586 81.621 337.102 83.488 c 334.621 85.355 334.121
 88.883 335.988 91.363 c 341.578 98.797 l 343.445 101.277 346.973 101.781
 349.457 99.91 c h
349.457 99.91 m f
382.121 96.863 m 378.109 78.98 l 374.789 64.191 364.352 52.148 350.188 
46.762 c 341.383 43.414 331.309 45.938 325.121 53.035 c 322.59 55.945 318.797
 57.355 314.98 56.816 c 264.621 49.695 l 254.02 48.195 243.969 49.133 234.797
 52.41 c 223.328 43.68 218.387 33.539 219.301 20.625 c 220.055 10.035 212.047
 0.805 201.453 0.047 c 190.863 -0.703 181.633 7.305 180.879 17.898 c 179.258
 40.77 187.34 61.098 204.289 77 c 199.957 83.574 196.578 91.066 194.301 
99.195 c 179.02 93.812 168.316 84.883 161.82 77.969 c 155.656 71.406 145.57
 70.004 137.84 74.633 c 127.348 80.918 125.246 95.266 133.543 104.27 c 148.887
 120.91 168.938 133.352 192.422 139.051 c 194.203 148.203 197.566 156.816
 202.91 164.594 c 158.5 170.836 147.793 164.934 129.309 168.23 c 117.621
 170.316 106.879 175.055 97.375 182.312 c 97.375 182.316 97.375 182.312 
97.375 182.316 c 84.027 192.52 74.285 207.07 69.934 223.285 c 69.934 223.285
 69.934 223.289 69.934 223.289 c 68.656 228.051 67.875 232.848 67.562 237.633
 c 51.531 227.23 41.898 210.039 43.492 185.887 c 44.688 168.242 58.062 154.227
 59.582 152.688 c 59.609 152.66 59.641 152.629 59.676 152.594 c 66.855 145.32
 67.086 133.719 60.191 126.156 c 53.051 118.328 40.875 117.766 33.047 124.902
 c 11.961 144.125 0.711 170.301 1.359 198.613 c 1.43 201.723 4 204.18 7.109
 204.109 c 10.215 204.039 12.676 201.461 12.605 198.355 c 12.031 173.348
 21.984 150.211 40.625 133.215 c 43.867 130.258 48.918 130.492 51.875 133.734
 c 54.738 136.875 54.641 141.695 51.648 144.707 c 34.664 161.809 28.129 
185.441 34.023 208.918 c 38.113 225.188 47.891 238.574 62.293 247.621 c 
64.094 248.762 65.969 249.816 67.898 250.777 c 69.188 261.406 72.844 271.516
 78.367 280.547 c 67.973 277.887 58.016 273.289 49.059 266.957 c 32.516 
255.168 20.961 238.66 15.648 219.211 c 14.828 216.215 11.738 214.449 8.742
 215.27 c 5.742 216.086 3.977 219.18 4.797 222.176 c 10.715 243.84 24.117
 262.996 42.547 276.133 c 56.289 285.84 72.113 291.922 88.445 293.816 c 
91.199 296.785 94.195 299.59 97.406 302.215 c 93.875 315.027 93.938 328.066
 97.582 340.504 c 84.043 341.016 72.449 349.922 68.504 362.996 c 65.348 
373.465 73.168 384 84.105 384 c 253.352 384 l 267.102 384 275.16 368.484
 267.25 357.234 c 259.867 346.746 247.805 340.48 234.98 340.48 c 215.973
 340.48 l 207.887 331.527 205.574 323.207 208.473 313.75 c 209.469 310.504
 211.047 307.223 213.156 303.988 c 221.988 297.105 230.512 287.973 238.039
 277.336 c 247.184 281.727 256.996 284.766 267.215 286.316 c 278.125 287.973
 288.633 281.574 292.156 271.039 c 292.203 270.625 296.43 261.359 290.277
 251.285 c 286.734 245.484 280.82 241.562 274.051 240.527 c 268.773 239.723
 263.695 238.188 258.938 235.996 c 263.953 220.75 265.984 206.008 264.926
 192.715 c 299.75 197.641 l 302.824 198.074 305.672 195.934 306.105 192.859
 c 306.539 189.781 304.398 186.938 301.324 186.5 c 284.527 184.125 263.148
 181.102 246.371 178.727 c 177.148 168.934 193.824 51.047 263.047 60.832
 c 313.406 67.957 l 321.012 69.031 328.559 66.219 333.605 60.43 c 336.711
 56.863 341.77 55.598 346.191 57.277 c 356.816 61.316 364.645 70.352 367.133
 81.441 c 371.145 99.324 l 372.832 106.848 366.504 113.777 358.812 112.688
 c 342.621 110.398 330.492 108.684 313.938 106.34 c 301.602 104.598 290.141
 113.215 288.395 125.555 c 286.648 137.895 295.266 149.355 307.605 151.098
 c 310.453 151.809 315.047 151.02 318.355 155.426 c 325.27 164.613 l 332.438
 174.141 342.676 172.586 348.273 173.996 c 355.473 175.016 358.895 183.422
 354.445 189.18 c 352.367 191.867 348.984 193.242 345.621 192.766 c 323.645
 189.656 l 320.57 189.223 317.723 191.363 317.285 194.438 c 316.852 197.516
 318.992 200.359 322.066 200.797 c 344.043 203.906 l 351.387 204.945 358.789
 201.949 363.348 196.059 c 373.066 183.48 365.605 165.086 349.848 162.859
 c 342.801 161.363 337.852 162.629 334.258 157.852 c 327.348 148.664 l 320.715
 139.848 311.391 140.598 309.18 139.961 c 302.984 139.086 298.656 133.328
 299.531 127.133 c 300.41 120.934 306.164 116.605 312.363 117.48 c 317.434
 118.199 l 323.297 133.039 l 327.852 144.566 343.184 146.695 350.727 136.918
 c 360.668 124.035 l 374.895 123.836 385.207 110.613 382.121 96.863 c h
211.246 68.09 m 197.355 54.664 190.754 37.695 192.102 18.691 c 192.402 
14.48 195.926 11.25 200.086 11.25 c 200.273 11.25 200.465 11.258 200.656
 11.27 c 205.062 11.586 208.395 15.422 208.078 19.828 c 207.027 34.68 212.27
 47.422 223.684 57.801 c 219.168 60.625 214.938 64.125 211.246 68.09 c h
141.816 96.645 m 138.367 92.902 139.23 86.914 143.621 84.285 c 146.836 
82.359 151.043 82.926 153.621 85.672 c 161.199 93.734 173.797 104.227 191.93
 110.293 c 191.117 115.734 190.781 121.551 191.012 127.055 c 171.883 121.613
 155.043 110.992 141.816 96.645 c h
171.285 178.762 m 173.504 186.34 177.125 194.531 182.039 202.363 c 182.039
 202.363 182.039 202.363 182.043 202.363 c 182.574 203.211 182.52 204.109
 182.016 204.902 c 181.766 205.293 181.031 206.191 179.672 206.02 c 161.898
 203.746 147.266 194.848 138.586 178.434 c 147.391 177.883 152.055 179.465
 171.285 178.762 c h
98.961 195.727 m 107.645 212.359 119.035 228.289 132.434 241.422 c 132.434
 241.422 132.434 241.426 132.434 241.426 c 133.211 242.188 133.426 243.184
 132.93 244.219 c 132.465 245.191 131.605 245.727 130.441 245.586 c 112.16
 243.41 94.578 236.359 81.676 223.23 c 85.023 212.785 91.016 203.273 98.961
 195.727 c h
79.277 366.246 m 81.895 357.566 89.75 351.73 98.816 351.73 c 105.555 351.73
 l 109.566 351.73 112.309 347.625 110.73 343.906 c 105.961 332.672 104.801
 321.043 107.254 309.254 c 114.328 313.645 122.324 317.191 129.852 319.496
 c 129.266 330.148 133.695 340.184 143.301 350.035 c 144.359 351.121 145.812
 351.73 147.328 351.73 c 168.77 351.73 l 177.938 351.73 186.559 356.207 
191.836 363.707 c 194.527 367.535 191.777 372.75 187.141 372.75 c 84.105
 372.75 l 80.723 372.75 78.297 369.488 79.277 366.246 c h
161.031 323.504 m 161.227 329.242 162.164 334.918 163.801 340.48 c 149.758
 340.48 l 144.09 334.215 141.289 328.348 141.074 322.168 c 148.277 323.441
 154.738 323.785 161.031 323.504 c h
209.512 350.035 m 210.57 351.121 212.023 351.73 213.539 351.73 c 234.98
 351.73 l 244.148 351.73 252.773 356.207 258.047 363.707 c 260.727 367.52
 258.008 372.75 253.352 372.75 c 203.133 372.75 l 204.949 367.824 204.324
 361.906 201.035 357.234 c 195.324 349.113 186.418 343.109 176.012 341.156
 c 175.961 341.148 175.91 341.133 175.859 341.125 c 175.852 341.125 175.844
 341.121 175.836 341.121 c 173.578 334.988 172.379 328.68 172.254 322.289
 c 180.477 320.887 188.691 318.305 196.727 314.34 c 194.191 326.922 198.398
 338.637 209.512 350.035 c h
280.676 257.148 m 283.863 262.367 281.531 267.117 281.484 267.473 c 279.711
 272.785 274.418 276.031 268.902 275.195 c 258.426 273.609 248.406 270.281
 238.887 265.117 c 225.109 257.641 218.164 249.402 213.332 245.496 c 208.453
 241.098 207.797 233.578 211.863 228.734 c 216.23 223.535 223.98 223.039
 228.965 227.535 c 234.488 231.613 246.488 247.695 272.352 251.652 c 275.832
 252.184 278.867 254.188 280.676 257.148 c h
249.016 230.117 m 245.336 227.371 244.184 226.02 236.5 219.18 c 226.773
 210.41 211.715 211.414 203.246 221.5 c 195.344 230.914 196.457 245.43 205.797
 253.852 c 210.387 257.66 216.762 264.77 228.121 271.875 c 212.566 293.441
 192.492 308.762 166.086 311.812 c 119.465 317.152 74.207 279.953 78.945
 236.047 c 92.949 247.914 110.652 254.559 129.105 256.758 c 135.816 257.562
 141.918 253.492 143.867 247.043 c 145.32 242.234 144.047 237.059 140.312
 233.395 c 127.129 220.469 116.129 204.738 107.949 188.598 c 113.812 184.742
 120.172 181.941 126.938 180.238 c 136.434 200.715 154.23 214.07 178.25 
217.18 c 183.531 217.848 188.641 215.441 191.504 210.949 c 194.332 206.531
 194.43 200.934 191.57 196.383 c 188.023 190.734 184.969 184.449 182.867
 178.102 c 192.023 177.402 201.656 176.25 211.609 174.664 c 220.828 183.145
 232.344 188.109 244.793 189.867 c 253.484 191.098 l 254.848 202.848 253.32
 216.156 249.016 230.117 c h
341.82 130.043 m 339.602 132.918 335.098 132.289 333.758 128.902 c 330.246
 120.012 l 347.664 122.477 l h
341.82 130.043 m f
Q Q
showpage
%%Trailer
end
%%EOF
