%!PS-Adobe-3.0 EPSF-3.0
%%Creator: cairo 1.16.0 (https://cairographics.org)
%%CreationDate: Mon Aug 23 08:35:07 2021
%%Pages: 1
%%DocumentData: Clean7Bit
%%LanguageLevel: 2
%%BoundingBox: 21 0 363 384
%%EndComments
%%BeginProlog
50 dict begin
/q { gsave } bind def
/Q { grestore } bind def
/cm { 6 array astore concat } bind def
/w { setlinewidth } bind def
/J { setlinecap } bind def
/j { setlinejoin } bind def
/M { setmiterlimit } bind def
/d { setdash } bind def
/m { moveto } bind def
/l { lineto } bind def
/c { curveto } bind def
/h { closepath } bind def
/re { exch dup neg 3 1 roll 5 3 roll moveto 0 rlineto
      0 exch rlineto 0 rlineto closepath } bind def
/S { stroke } bind def
/f { fill } bind def
/f* { eofill } bind def
/n { newpath } bind def
/W { clip } bind def
/W* { eoclip } bind def
/BT { } bind def
/ET { } bind def
/BDC { mark 3 1 roll /BDC pdfmark } bind def
/EMC { mark /EMC pdfmark } bind def
/cairo_store_point { /cairo_point_y exch def /cairo_point_x exch def } def
/Tj { show currentpoint cairo_store_point } bind def
/TJ {
  {
    dup
    type /stringtype eq
    { show } { -0.001 mul 0 cairo_font_matrix dtransform rmoveto } ifelse
  } forall
  currentpoint cairo_store_point
} bind def
/cairo_selectfont { cairo_font_matrix aload pop pop pop 0 0 6 array astore
    cairo_font exch selectfont cairo_point_x cairo_point_y moveto } bind def
/Tf { pop /cairo_font exch def /cairo_font_matrix where
      { pop cairo_selectfont } if } bind def
/Td { matrix translate cairo_font_matrix matrix concatmatrix dup
      /cairo_font_matrix exch def dup 4 get exch 5 get cairo_store_point
      /cairo_font where { pop cairo_selectfont } if } bind def
/Tm { 2 copy 8 2 roll 6 array astore /cairo_font_matrix exch def
      cairo_store_point /cairo_font where { pop cairo_selectfont } if } bind def
/g { setgray } bind def
/rg { setrgbcolor } bind def
/d1 { setcachedevice } bind def
/cairo_data_source {
  CairoDataIndex CairoData length lt
    { CairoData CairoDataIndex get /CairoDataIndex CairoDataIndex 1 add def }
    { () } ifelse
} def
/cairo_flush_ascii85_file { cairo_ascii85_file status { cairo_ascii85_file flushfile } if } def
/cairo_image { image cairo_flush_ascii85_file } def
/cairo_imagemask { imagemask cairo_flush_ascii85_file } def
%%EndProlog
%%BeginSetup
%%EndSetup
%%Page: 1 1
%%BeginPageSetup
%%PageBoundingBox: 21 0 363 384
%%EndPageSetup
q 21 0 342 384 rectclip
1 0 0 -1 0 384 cm q
0.976471 0.87451 0.603922 rg
95.762 282.082 m 175.914 289.496 l 175.914 345.324 l 175.914 356.328 168.316
 365.551 158.086 368.055 c 81.059 347.762 l 81.059 347.762 95.762 337.285
 95.762 282.082 c h
95.762 282.082 m f
288.238 282.082 m 208.086 289.496 l 208.086 345.324 l 208.086 356.328 215.684
 365.551 225.914 368.055 c 302.941 347.762 l 302.941 347.762 288.238 337.285
 288.238 282.082 c h
288.238 282.082 m f
0.988235 0.792157 0.45098 rg
114.145 335.922 m 114.145 315.5 124.027 297.391 139.266 286.105 c 95.762
 282.078 l 95.762 337.285 81.059 347.762 81.059 347.762 c 118.012 357.496
 l 115.512 350.777 114.145 343.512 114.145 335.922 c h
114.145 335.922 m f
236.773 332.809 m 236.773 313.398 245.703 296.082 259.672 284.723 c 208.086
 289.496 l 208.086 345.324 l 208.086 356.328 215.684 365.551 225.914 368.059
 c 244.691 363.109 l 239.656 354.148 236.773 343.816 236.773 332.809 c h
236.773 332.809 m f
0.968627 0.729412 0.368627 rg
294.203 194.465 m 294.203 194.465 317.016 207.742 307.242 261.434 c 297.469
 315.125 238.863 321.16 192 321.16 c 145.137 321.16 86.531 315.125 76.758
 261.434 c 66.984 207.742 89.797 194.465 89.797 194.465 c h
294.203 194.465 m f
0.988235 0.792157 0.45098 rg
104.684 213.754 m 104.684 213.754 107.441 272.555 192 272.555 c 276.559
 272.555 279.316 213.754 279.316 213.754 c 279.316 194.465 l 104.684 194.465
 l h
104.684 213.754 m f
0.423529 0.501961 0.588235 rg
96.148 375.41 m 93.516 377.277 90.297 378.375 86.824 378.375 c 74.926 378.375
 l 69.691 378.375 65.445 374.133 65.445 368.898 c 65.445 356.688 75.344 
346.789 87.555 346.789 c 92.711 346.789 97.266 349.332 100.07 353.219 c 
h
96.148 375.41 m f
0.321569 0.419608 0.501961 rg
124.246 375.41 m 121.613 377.277 118.398 378.375 114.922 378.375 c 103.023
 378.375 l 97.789 378.375 93.547 374.133 93.547 368.898 c 93.547 356.688
 103.441 346.789 115.652 346.789 c 120.812 346.789 125.367 349.332 128.168
 353.219 c h
124.246 375.41 m f
0.423529 0.501961 0.588235 rg
287.852 375.41 m 290.484 377.277 293.703 378.375 297.176 378.375 c 309.074
 378.375 l 314.309 378.375 318.555 374.133 318.555 368.898 c 318.555 356.688
 308.656 346.789 296.445 346.789 c 291.289 346.789 286.734 349.332 283.93
 353.219 c h
287.852 375.41 m f
0.321569 0.419608 0.501961 rg
259.754 375.41 m 262.387 377.277 265.602 378.375 269.078 378.375 c 280.977
 378.375 l 286.211 378.375 290.453 374.133 290.453 368.898 c 290.453 356.688
 280.559 346.789 268.348 346.789 c 263.188 346.789 258.633 349.332 255.832
 353.219 c h
259.754 375.41 m f
0.423529 0.501961 0.588235 rg
143.75 346.789 m 152.273 346.789 159.18 353.695 159.18 362.219 c 159.18
 371.141 151.945 378.375 143.02 378.375 c 131.121 378.375 l 125.887 378.375
 121.645 374.129 121.645 368.898 c 121.645 356.688 131.543 346.789 143.75
 346.789 c h
143.75 346.789 m f
240.25 346.789 m 231.727 346.789 224.82 353.695 224.82 362.219 c 224.82
 371.141 232.055 378.375 240.98 378.375 c 252.879 378.375 l 258.113 378.375
 262.355 374.129 262.355 368.898 c 262.355 356.688 252.457 346.789 240.25
 346.789 c h
240.25 346.789 m f
111.121 87.625 m 104.551 83.27 96.281 78.762 86.492 75.328 c 71.676 70.125
 56.094 68.02 40.633 68.16 c 33.961 68.215 28.09 73.355 27.594 80.48 c 27.129
 87.184 31.984 93.102 38.586 94.344 c 38.66 94.359 l 50.902 96.664 62.641
 100.727 72.52 106.629 c 78.535 110.211 83.047 113.902 86.531 117.367 c 
h
111.121 87.625 m f
84.535 134.066 m 69.328 138 55.219 144.938 42.457 153.664 c 36.945 157.43
 34.938 164.969 38.496 171.16 c 41.844 176.984 49.172 179.195 55.348 176.551
 c 55.414 176.52 l 66.867 171.613 78.879 168.449 90.371 167.844 c 97.363
 167.465 103.164 168.02 107.988 168.953 c 111.836 130.555 l 103.957 130.602
 94.578 131.465 84.535 134.066 c h
84.535 134.066 m f
272.879 87.625 m 279.449 83.27 287.719 78.762 297.508 75.328 c 312.324 
70.125 327.906 68.02 343.367 68.16 c 350.039 68.215 355.91 73.355 356.406
 80.48 c 356.871 87.184 352.016 93.102 345.414 94.344 c 345.34 94.359 l 
333.098 96.664 321.359 100.727 311.48 106.629 c 305.465 110.211 300.953 
113.902 297.469 117.367 c h
272.879 87.625 m f
299.465 134.066 m 314.672 138 328.781 144.938 341.543 153.664 c 347.055
 157.43 349.062 164.969 345.504 171.16 c 342.156 176.984 334.828 179.195
 328.652 176.551 c 328.586 176.52 l 317.133 171.613 305.121 168.449 293.629
 167.844 c 286.637 167.465 280.836 168.02 276.012 168.953 c 272.164 130.555
 l 280.043 130.602 289.422 131.465 299.465 134.066 c h
299.465 134.066 m f
0.321569 0.419608 0.501961 rg
311.48 106.629 m 317.598 102.977 324.426 100.027 331.645 97.766 c 330.34
 87.809 327.328 78.227 322.754 69.383 c 314.207 70.508 305.738 72.438 297.508
 75.328 c 287.719 78.762 279.449 83.27 272.879 87.625 c 297.469 117.367 
l 300.953 113.902 305.465 110.211 311.48 106.629 c h
311.48 106.629 m f
320.355 172.934 m 320.273 163.559 321.941 153.84 325.305 143.988 c 317.109
 139.793 308.48 136.398 299.465 134.066 c 289.422 131.465 280.043 130.602
 272.164 130.559 c 276.012 168.953 l 280.836 168.02 286.637 167.465 293.629
 167.844 c 302.402 168.305 311.473 170.262 320.367 173.34 c 320.367 173.203
 320.359 173.07 320.355 172.934 c h
320.355 172.934 m f
58.695 143.988 m 62.062 153.84 63.727 163.559 63.645 172.93 c 63.641 173.07
 63.633 173.203 63.633 173.34 c 72.527 170.262 81.598 168.305 90.371 167.844
 c 97.363 167.465 103.164 168.02 107.988 168.953 c 111.836 130.559 l 103.957
 130.602 94.578 131.465 84.535 134.066 c 75.52 136.398 66.891 139.793 58.695
 143.988 c h
58.695 143.988 m f
52.355 97.766 m 59.574 100.027 66.402 102.977 72.52 106.629 c 78.535 110.211
 83.047 113.902 86.531 117.367 c 111.121 87.625 l 104.551 83.27 96.281 78.762
 86.492 75.328 c 78.262 72.438 69.793 70.508 61.246 69.383 c 56.672 78.227
 53.66 87.809 52.355 97.766 c h
52.355 97.766 m f
0.976471 0.87451 0.603922 rg
309.871 107.418 m 308.98 73.281 281.168 45.5 247.027 44.652 c 229.609 44.219
 213.703 50.695 201.855 61.535 c 196.297 66.617 187.703 66.617 182.145 61.535
 c 170.301 50.695 154.391 44.219 136.973 44.652 c 102.832 45.5 75.02 73.281
 74.129 107.418 c 73.902 116.172 75.418 124.543 78.363 132.215 c 83.379 
145.297 86.266 159.121 86.141 173.133 c 86.078 180.273 85.461 186.617 84.539
 192.168 c 82.531 204.223 92.52 214.93 104.684 213.754 c 124.031 211.887
 149.789 214.996 173.547 235.852 c 184.117 245.129 199.883 245.129 210.453
 235.852 c 234.211 214.996 259.973 211.887 279.316 213.754 c 291.48 214.93
 301.469 204.223 299.465 192.168 c 298.539 186.617 297.922 180.273 297.859
 173.133 c 297.734 159.121 300.621 145.297 305.641 132.215 c 308.582 124.543
 310.098 116.172 309.871 107.418 c h
309.871 107.418 m f
0.423529 0.501961 0.588235 rg
214.082 181.531 m 214.082 193.73 204.195 203.617 192 203.617 c 179.805 
203.617 169.918 193.73 169.918 181.531 c 169.918 169.336 179.805 133.973
 192 133.973 c 204.195 133.973 214.082 169.336 214.082 181.531 c h
214.082 181.531 m f
153.809 64.367 m 150.93 57.031 146.75 48.59 140.711 40.156 c 131.57 27.383
 120.023 16.715 107.289 7.945 c 101.793 4.156 94.039 4.996 89.539 10.543
 c 85.309 15.762 85.883 23.395 90.57 28.203 c 90.625 28.258 l 99.324 37.18
 106.594 47.246 111.293 57.754 c 114.16 64.141 115.73 69.754 116.594 74.59
 c 118.445 84.973 128.164 92.027 138.578 90.328 c 139.035 90.254 l 151.078
 88.293 158.258 75.727 153.809 64.367 c h
153.809 64.367 m f
230.191 64.367 m 233.07 57.031 237.25 48.59 243.289 40.156 c 252.43 27.383
 263.977 16.715 276.711 7.945 c 282.207 4.156 289.961 4.996 294.461 10.543
 c 298.691 15.762 298.117 23.395 293.43 28.203 c 293.375 28.258 l 284.676
 37.18 277.406 47.246 272.707 57.754 c 269.84 64.141 268.27 69.754 267.406
 74.59 c 265.555 84.973 255.836 92.027 245.422 90.328 c 244.965 90.254 l
 232.922 88.293 225.742 75.727 230.191 64.367 c h
230.191 64.367 m f
0 g
192 209.227 m 207.277 209.227 219.711 196.797 219.711 181.516 c 219.711
 174.203 216.832 161.426 212.863 151.137 c 207.027 136.004 200.008 128.328
 192 128.328 c 183.988 128.328 176.969 136.004 171.133 151.137 c 167.168
 161.426 164.289 174.203 164.289 181.516 c 164.289 196.797 176.719 209.227
 192 209.227 c h
181.633 155.184 m 186.543 142.445 190.871 139.578 192 139.578 c 193.129
 139.578 197.457 142.445 202.367 155.184 c 206.18 165.074 208.457 176.34
 208.457 181.516 c 208.457 190.594 201.074 197.977 192 197.977 c 182.926
 197.977 175.539 190.59 175.539 181.516 c 175.543 176.34 177.82 165.074 
181.633 155.184 c h
181.633 155.184 m f
143.91 192.426 m 147.016 192.426 149.535 189.906 149.535 186.801 c 149.535
 177.559 l 149.535 174.453 147.016 171.934 143.91 171.934 c 140.801 171.934
 138.281 174.453 138.281 177.559 c 138.281 186.801 l 138.281 189.91 140.801
 192.426 143.91 192.426 c h
143.91 192.426 m f
240.09 192.426 m 243.199 192.426 245.719 189.906 245.719 186.801 c 245.719
 177.559 l 245.719 174.453 243.199 171.934 240.09 171.934 c 236.984 171.934
 234.465 174.453 234.465 177.559 c 234.465 186.801 l 234.465 189.91 236.984
 192.426 240.09 192.426 c h
240.09 192.426 m f
37.512 99.844 m 37.605 99.863 l 49.176 102.043 59.82 105.809 68.492 110.781
 c 68.66 118.039 69.945 125.129 72.297 131.945 c 61.043 135.973 49.961 141.691
 39.273 149 c 31.219 154.5 28.73 165.457 33.605 173.945 c 38.348 182.199
 48.648 185.52 57.543 181.707 c 59.41 181.02 68.156 176.887 80.48 174.664
 c 80.355 180.395 79.855 185.961 78.98 191.23 c 78.613 193.441 78.559 195.652
 78.785 197.812 c 65.473 216.75 68.258 246.195 71.215 262.43 c 73.859 276.957
 80.023 289.078 89.617 298.703 c 87.586 330.141 80.027 340.621 78.07 342.828
 c 67.43 346.711 59.812 356.93 59.812 368.895 c 59.812 377.223 66.586 384
 74.914 384 c 86.816 384 l 89.914 384 92.918 383.34 95.691 382.094 c 97.863
 383.305 100.359 384 103.016 384 c 114.918 384 l 118.012 384 121.016 383.34
 123.793 382.094 c 125.965 383.305 128.457 384 131.113 384 c 143.016 384
 l 151.219 384 158.375 379.441 162.09 372.727 c 173.668 368.695 181.535 
357.797 181.535 345.32 c 181.535 326.668 l 185.305 326.754 188.832 326.781
 191.996 326.781 c 195.352 326.781 198.852 326.754 202.461 326.676 c 202.461
 345.316 l 202.461 357.797 210.328 368.695 221.906 372.723 c 225.625 379.441
 232.781 384 240.984 384 c 252.883 384 l 255.539 384 258.035 383.305 260.207
 382.098 c 262.98 383.34 265.988 384 269.082 384 c 280.984 384 l 283.641
 384 286.137 383.305 288.309 382.098 c 291.082 383.34 294.086 384 297.184
 384 c 309.086 384 l 317.41 384 324.188 377.223 324.188 368.895 c 324.188
 356.93 316.57 346.711 305.93 342.828 c 303.973 340.621 296.414 330.145 
294.383 298.711 c 303.977 289.086 310.141 276.965 312.785 262.43 c 315.742
 246.195 318.527 216.75 305.215 197.812 c 305.441 195.652 305.387 193.441
 305.02 191.23 c 304.145 185.965 303.645 180.398 303.52 174.664 c 310.941
 176.004 318.605 178.344 326.387 181.68 c 326.449 181.703 l 335.402 185.539
 345.68 182.152 350.395 173.945 c 355.27 165.457 352.777 154.5 344.727 149
 c 334.039 141.688 322.953 135.973 311.703 131.945 c 314.055 125.129 315.34
 118.035 315.508 110.781 c 324.176 105.809 334.82 102.043 346.414 99.859
 c 346.469 99.848 l 356 98.055 362.688 89.547 362.027 80.066 c 361.348 70.301
 353.176 62.59 343.43 62.508 c 328.781 62.375 314.91 64.211 302.07 67.949
 c 296.988 60.973 290.605 54.898 283.168 50.117 c 287.012 43.969 291.824
 37.883 297.41 32.152 c 297.461 32.102 l 304.234 25.156 304.824 14.352 298.836
 6.969 c 292.672 -0.633 281.551 -2.254 273.527 3.281 c 259.414 12.996 246.609
 25.066 236.883 39.5 c 222.484 41.258 208.789 47.535 198.055 57.355 c 194.66
 60.465 189.336 60.465 185.941 57.355 c 175.207 47.535 161.512 41.258 147.113
 39.5 c 137.43 25.125 124.637 13.031 110.473 3.281 c 102.445 -2.254 91.324
 -0.637 85.16 6.969 c 79.172 14.352 79.762 25.156 86.539 32.105 c 86.586
 32.156 l 92.172 37.883 96.98 43.965 100.828 50.117 c 93.391 54.898 87.008
 60.973 81.926 67.949 c 69.082 64.211 55.195 62.375 40.57 62.508 c 30.82
 62.586 22.648 70.301 21.969 80.062 c 21.309 89.551 28 98.055 37.512 99.844
 c h
53.121 171.363 m 49.449 172.934 45.254 171.637 43.359 168.34 c 41.359 164.855
 42.332 160.535 45.621 158.289 c 55.477 151.547 65.656 146.277 75.961 142.578
 c 78.059 149.531 79.438 156.469 80.082 163.301 c 65.609 165.672 54.586 
170.828 53.121 171.363 c h
86.816 372.75 m 74.914 372.75 l 72.793 372.75 71.062 371.02 71.062 368.895
 c 71.062 359.703 78.578 352.414 87.547 352.414 c 89.277 352.414 90.906 
352.855 92.418 353.73 c 89.605 358.02 87.914 363.41 87.914 368.895 c 87.914
 370.004 88.07 371.422 88.379 372.633 c 87.867 372.711 87.344 372.75 86.816
 372.75 c h
114.918 372.75 m 103.016 372.75 l 100.883 372.75 99.164 370.965 99.164 
368.895 c 99.164 359.941 106.438 352.414 115.648 352.414 c 117.332 352.414
 118.973 352.828 120.52 353.727 c 117.648 358.102 116.012 363.512 116.012
 368.898 c 116.012 368.898 116.016 368.902 116.016 368.906 c 116.016 370.02
 116.172 371.422 116.48 372.633 c 115.969 372.711 115.445 372.75 114.918
 372.75 c h
143.016 372.75 m 131.117 372.75 l 129.051 372.75 127.289 371.055 127.266
 368.934 c 127.266 368.922 127.266 368.91 127.266 368.898 c 127.266 359.969
 134.496 352.414 143.742 352.414 c 143.746 352.414 l 149.152 352.414 153.551
 356.812 153.551 362.215 c 153.551 362.219 l 153.547 367.84 148.98 372.75
 143.016 372.75 c h
213.715 345.32 m 213.715 326.254 l 237.457 324.961 264.18 320.68 283.816
 307.418 c 285.547 324.086 288.895 334.824 292.082 341.617 c 288.938 342.281
 286 343.656 283.473 345.648 c 279.184 342.855 273.914 341.16 268.352 341.16
 c 263.805 341.16 259.188 342.688 255.391 345.648 c 248.641 341.242 239.543
 339.676 232.113 342.797 c 232.098 342.805 232.078 342.812 232.062 342.82
 c 225.629 345.547 220.809 351.406 219.527 358.492 c 215.914 355.211 213.715
 350.484 213.715 345.32 c h
240.984 372.75 m 236.531 372.75 232.727 369.973 231.188 366.062 c 231.18
 366.047 231.18 366.031 231.172 366.02 c 228.539 359.23 233.453 352.414 
240.254 352.414 c 240.258 352.414 l 249.352 352.414 256.738 359.828 256.738
 368.895 c 256.738 368.922 256.73 368.945 256.73 368.969 c 256.691 370.941
 255.094 372.75 252.887 372.75 c h
269.082 372.75 m 268.555 372.75 268.031 372.711 267.52 372.633 c 267.832
 371.418 267.984 370.012 267.984 368.914 c 267.984 368.91 267.988 368.902
 267.988 368.898 c 267.988 363.535 266.367 358.121 263.48 353.727 c 264.93
 352.883 266.523 352.414 268.352 352.414 c 277.367 352.414 284.836 359.742
 284.836 368.895 c 284.836 370.93 283.145 372.75 280.984 372.75 c h
309.086 372.75 m 297.184 372.75 l 296.656 372.75 296.133 372.711 295.621
 372.633 c 295.941 371.371 296.09 369.949 296.09 368.895 c 296.09 363.562
 294.488 358.164 291.586 353.73 c 293.051 352.883 294.664 352.414 296.453
 352.414 c 305.535 352.414 312.938 359.809 312.938 368.895 c 312.938 371.02
 311.207 372.75 309.086 372.75 c h
299.605 210.867 m 303.488 220.008 306.266 235.422 301.715 260.414 c 299.34
 273.473 293.77 284.039 284.859 292.297 c 284.84 292.316 284.812 292.328
 284.793 292.348 c 262.488 312.957 222.473 315.531 192 315.531 c 174.883
 315.531 156.527 314.703 139.801 311.145 c 136.758 310.5 133.773 312.441
 133.129 315.48 c 132.48 318.523 134.422 321.508 137.461 322.152 c 148.336
 324.461 159.223 325.59 170.285 326.238 c 170.285 345.32 l 170.285 350.484
 168.086 355.211 164.473 358.492 c 162.703 348.621 154.035 341.16 143.746
 341.16 c 143.742 341.16 143.742 341.16 143.738 341.16 c 138.176 341.16 
132.852 342.875 128.609 345.648 c 124.633 342.574 120.066 341.16 115.645
 341.16 c 110.234 341.16 104.906 342.789 100.523 345.648 c 98.008 343.664
 95.086 342.293 91.957 341.625 c 96.734 331.449 99.043 318.605 100.191 307.395
 c 106.348 311.523 113.918 314.977 115.395 315.434 c 118.121 316.27 121.094
 314.922 122.223 312.238 c 123.438 309.359 122.07 306.066 119.227 304.867
 c 99.109 296.383 86.27 282.328 82.281 260.414 c 77.73 235.426 80.512 220.008
 84.391 210.867 c 88.176 215.328 93.574 218.469 99.77 219.258 c 100.949 
225.375 104.051 235.98 112.156 246.566 c 132.168 272.688 166.621 278.172
 192 278.172 c 210.973 278.172 227.543 275.262 241.25 269.523 c 244.117 
268.324 245.465 265.027 244.266 262.16 c 243.066 259.297 239.77 257.945 
236.906 259.145 c 224.582 264.305 209.473 266.922 192 266.922 c 159.078 
266.922 135.344 257.93 121.457 240.195 c 115.203 232.211 112.43 224.109 
111.215 218.953 c 133.582 218.188 153.215 225.473 169.836 240.066 c 182.527
 251.203 201.586 251.105 214.164 240.066 c 230.961 225.324 250.688 218.184
 272.805 218.953 c 271.18 225.922 266.668 238.305 254.301 248.699 c 251.922
 250.699 251.617 254.246 253.613 256.625 c 255.613 259.004 259.164 259.312
 261.539 257.312 c 277.598 243.812 282.652 227.484 284.234 219.258 c 290.297
 218.484 295.723 215.438 299.605 210.867 c h
338.379 158.289 m 341.668 160.535 342.641 164.859 340.637 168.34 c 338.746
 171.637 334.551 172.934 330.871 171.359 c 330.812 171.332 l 321.703 167.43
 312.68 164.738 303.918 163.301 c 304.562 156.469 305.941 149.535 308.039
 142.578 c 318.344 146.277 328.523 151.547 338.379 158.289 c h
308.156 77.93 m 319.121 75.047 330.914 73.648 343.332 73.758 c 347.312 
73.793 350.527 76.84 350.805 80.848 c 351.07 84.637 348.309 88.055 344.367
 88.797 c 344.312 88.809 l 333.551 90.832 323.449 94.137 314.711 98.457 
c 313.664 91.703 311.477 84.562 308.156 77.93 c h
279.91 12.547 m 283.188 10.285 287.57 10.938 290.102 14.055 c 292.492 17.008
 292.195 21.391 289.406 24.25 c 289.355 24.301 l 276.145 37.852 265.207 
54.875 261.871 73.574 c 260.539 81.047 253.711 85.957 246.328 84.754 c 246.254
 84.742 245.797 84.664 245.871 84.68 c 237.348 83.289 232.297 74.398 235.434
 66.395 c 244.309 43.742 260.023 26.238 279.91 12.547 c h
94.59 24.25 m 91.805 21.391 91.508 17.008 93.902 14.055 c 96.418 10.949
 100.797 10.277 104.094 12.551 c 127.32 28.539 140.582 46.578 148.566 66.395
 c 151.707 74.41 146.641 83.293 138.129 84.68 c 138.051 84.664 125.789 86.898
 122.438 74.945 c 121.469 71.48 119.355 49.645 94.637 24.297 c h
106.168 60.059 m 108.395 65.02 110.074 70.07 111.051 75.551 c 113.32 88.277
 124.973 97.113 137.508 96.098 c 137.516 96.098 137.52 96.098 137.527 96.098
 c 155.043 94.668 164.957 77.379 159.043 62.289 c 158.027 59.66 156.289 
55.699 154.66 52.434 c 163.422 54.891 171.473 59.367 178.348 65.66 c 186.004
 72.664 197.996 72.664 205.652 65.66 c 212.527 59.367 220.578 54.891 229.344
 52.434 c 225.125 60.871 222.816 66.34 223.305 73.109 c 224.059 83.5 231.297
 92.371 241.328 95.18 c 256.383 99.398 270.453 89.547 272.949 75.551 c 273.906
 70.184 275.562 65.133 277.832 60.059 c 300.801 75.316 310.27 104.438 300.395
 130.18 c 292.594 150.516 290.254 171.039 293.922 193.078 c 295.312 201.43
 288.395 208.965 279.863 208.141 c 260.801 206.305 232.641 208.883 206.742
 231.609 c 198.34 238.988 185.66 238.988 177.258 231.609 c 156.938 213.773
 131.59 205.496 104.137 208.141 c 95.727 208.957 88.672 201.535 90.078 193.078
 c 93.73 171.141 91.453 150.645 83.605 130.18 c 73.797 104.613 83.008 75.441
 106.168 60.059 c h
33.195 80.848 m 33.465 76.965 36.145 73.754 42.039 73.754 c 53.945 73.754
 65.281 75.156 75.84 77.93 c 72.762 84.09 70.41 91.203 69.289 98.457 c 60.547
 94.133 50.453 90.836 39.707 88.812 c 39.613 88.793 l 35.691 88.055 32.93
 84.637 33.195 80.848 c h
33.195 80.848 m f
Q Q
showpage
%%Trailer
end
%%EOF
