%!PS-Adobe-3.0 EPSF-3.0
%%Creator: cairo 1.16.0 (https://cairographics.org)
%%CreationDate: Mon Aug 23 08:35:08 2021
%%Pages: 1
%%DocumentData: Clean7Bit
%%LanguageLevel: 2
%%BoundingBox: 0 0 384 384
%%EndComments
%%BeginProlog
50 dict begin
/q { gsave } bind def
/Q { grestore } bind def
/cm { 6 array astore concat } bind def
/w { setlinewidth } bind def
/J { setlinecap } bind def
/j { setlinejoin } bind def
/M { setmiterlimit } bind def
/d { setdash } bind def
/m { moveto } bind def
/l { lineto } bind def
/c { curveto } bind def
/h { closepath } bind def
/re { exch dup neg 3 1 roll 5 3 roll moveto 0 rlineto
      0 exch rlineto 0 rlineto closepath } bind def
/S { stroke } bind def
/f { fill } bind def
/f* { eofill } bind def
/n { newpath } bind def
/W { clip } bind def
/W* { eoclip } bind def
/BT { } bind def
/ET { } bind def
/BDC { mark 3 1 roll /BDC pdfmark } bind def
/EMC { mark /EMC pdfmark } bind def
/cairo_store_point { /cairo_point_y exch def /cairo_point_x exch def } def
/Tj { show currentpoint cairo_store_point } bind def
/TJ {
  {
    dup
    type /stringtype eq
    { show } { -0.001 mul 0 cairo_font_matrix dtransform rmoveto } ifelse
  } forall
  currentpoint cairo_store_point
} bind def
/cairo_selectfont { cairo_font_matrix aload pop pop pop 0 0 6 array astore
    cairo_font exch selectfont cairo_point_x cairo_point_y moveto } bind def
/Tf { pop /cairo_font exch def /cairo_font_matrix where
      { pop cairo_selectfont } if } bind def
/Td { matrix translate cairo_font_matrix matrix concatmatrix dup
      /cairo_font_matrix exch def dup 4 get exch 5 get cairo_store_point
      /cairo_font where { pop cairo_selectfont } if } bind def
/Tm { 2 copy 8 2 roll 6 array astore /cairo_font_matrix exch def
      cairo_store_point /cairo_font where { pop cairo_selectfont } if } bind def
/g { setgray } bind def
/rg { setrgbcolor } bind def
/d1 { setcachedevice } bind def
/cairo_data_source {
  CairoDataIndex CairoData length lt
    { CairoData CairoDataIndex get /CairoDataIndex CairoDataIndex 1 add def }
    { () } ifelse
} def
/cairo_flush_ascii85_file { cairo_ascii85_file status { cairo_ascii85_file flushfile } if } def
/cairo_image { image cairo_flush_ascii85_file } def
/cairo_imagemask { imagemask cairo_flush_ascii85_file } def
%%EndProlog
%%BeginSetup
%%EndSetup
%%Page: 1 1
%%BeginPageSetup
%%PageBoundingBox: 0 0 384 384
%%EndPageSetup
q 0 0 384 384 rectclip
1 0 0 -1 0 384 cm q
0.976471 0.87451 0.603922 rg
5.855 205.934 m 10.363 235.938 28.57 297.496 102.164 313.289 c 124.766 
303.32 l 124.766 249.508 l 83.641 249.508 l h
5.855 205.934 m f
0.941176 0.556863 0.619608 rg
258.801 341.84 m 239.301 341.84 l 231.938 332.781 232.293 319.816 239.906
 310.969 c 260.051 287.566 252.898 256.008 252.898 256.008 c 187.992 268.883
 l 183.441 286.012 l 176.207 313.262 182.75 342.324 200.961 363.848 c 208.727
 373.023 220.133 378.316 232.152 378.316 c 258.801 378.316 l 268.875 378.316
 277.039 370.148 277.039 360.074 c 277.039 350.004 268.875 341.84 258.801
 341.84 c h
258.801 341.84 m f
0.94902 0.615686 0.666667 rg
337.734 207.707 m 296.062 197.664 l 288.195 230.297 l 329.867 240.34 l 
338.879 242.512 347.945 236.969 350.117 227.957 c 352.289 218.945 346.746
 209.879 337.734 207.707 c h
337.734 207.707 m f
0.941176 0.556863 0.619608 rg
329 205.602 m 296.062 197.664 l 288.195 230.297 l 321.676 238.363 l 325.324
 227.777 327.781 216.773 329 205.602 c h
329 205.602 m f
0.976471 0.87451 0.603922 rg
327.633 138.207 m 316.465 138.207 307.406 147.266 307.406 158.434 c 307.406
 189.316 l 307.406 211.082 301.961 231.57 292.352 249.508 c 270.172 249.508
 l 222.582 202.113 l 222.582 124.727 l 309.965 124.727 l h
327.633 138.207 m f
0.933333 0.490196 0.564706 rg
187.992 268.883 m 183.441 286.012 l 178.703 303.859 179.879 322.488 186.371
 339.27 c 203.477 338.246 219.414 334.957 234.117 329.406 c 233.422 322.93
 235.387 316.223 239.906 310.969 c 260.051 287.566 252.898 256.008 252.898
 256.008 c h
187.992 268.883 m f
0.976471 0.87451 0.603922 rg
157.535 317.043 m 166.816 315.367 229.348 327.57 276.66 272.445 c 270.172
 249.508 l 222.582 202.113 l 170.926 202.113 l 139.84 278.316 l h
157.535 317.043 m f
0.988235 0.792157 0.45098 rg
57.809 247.582 m 57.809 243.473 58.062 239.426 58.539 235.445 c 5.855 205.934
 l 9.762 231.918 23.945 281.559 75.477 304.656 c 64.336 288.418 57.809 268.762
 57.809 247.582 c h
57.809 247.582 m f
0.94902 0.615686 0.666667 rg
373.832 108.441 m 373.059 100.621 l 377.461 97.047 l 378.051 93.945 378.375
 90.746 378.375 87.469 c 378.375 73.457 372.695 60.77 363.516 51.59 c 354.332
 42.406 341.645 36.727 327.633 36.727 c 326.738 36.727 l 309.098 36.727 
291.879 31.973 276.363 23.582 c 268.035 19.086 258.508 16.531 248.379 16.531
 c 232.078 16.531 217.32 23.141 206.637 33.816 c 195.957 44.504 189.348 
59.266 189.348 75.562 c 189.348 81.188 l 209.078 98.789 l 187.426 116.398
 l 185.484 126.926 182.105 137.176 177.465 146.777 c 183.629 168.922 l 157.398
 176.195 l 151.223 182.805 144.285 188.652 136.688 193.496 c 124.766 216.273
 l 104.082 206.934 l 97.379 208.367 90.387 209.176 83.152 209.176 c 64.16
 209.176 51.797 201.301 43.789 190.34 c 38.027 182.453 27.59 179.566 18.578
 183.352 c 10.656 186.676 5.625 194.414 5.625 202.809 c 5.625 203.84 5.703
 204.887 5.855 205.934 c 52.453 280.848 109.453 268.879 109.453 268.879 
c 104.906 286.008 l 102.516 295.016 101.621 304.219 102.164 313.289 c 103.262
 331.652 110.23 349.438 122.422 363.848 c 126.309 368.434 131.102 372.051
 136.43 374.52 c 141.746 376.992 147.609 378.312 153.617 378.312 c 179.855
 378.312 l 189.863 378.312 198.316 370.43 198.504 360.426 c 198.598 355.25
 196.535 350.551 193.164 347.176 c 189.867 343.879 185.301 341.836 180.262
 341.836 c 160.762 341.836 l 157.199 337.453 155.441 332.156 155.441 326.859
 c 155.441 309.82 170.906 308.984 174.898 279.809 c 176.945 264.934 186.09
 252.027 199.531 245.332 c 199.766 245.219 199.996 245.102 200.223 244.988
 c 211.215 239.465 223.641 238.805 234.746 242.547 c 241.52 244.82 247.801
 248.734 252.961 254.188 c 265.41 267.328 l 268.477 270.566 272.547 272.285
 276.66 272.445 c 281.086 272.621 285.574 271.016 288.957 267.613 c 295.312
 261.211 295.316 250.859 288.91 244.453 c 254.312 209.895 l 248.875 204.465
 245.98 196.992 246.344 189.316 c 246.344 158.434 l 246.344 147.262 255.398
 138.207 266.57 138.207 c 327.633 138.207 l 341.645 138.207 354.332 132.527
 363.516 123.344 c 367.793 119.066 371.297 114.023 373.832 108.441 c h
373.832 108.441 m f
0.321569 0.419608 0.501961 rg
283.281 21.48 m 255.418 7.316 l 246.777 2.922 236.309 7.801 234.117 17.242
 c 231.949 26.566 l 229.816 35.746 235.527 44.922 244.711 47.055 c 271.68
 53.32 l 280.863 55.453 290.035 49.742 292.168 40.559 c 293.945 32.914 290.277
 25.039 283.281 21.48 c h
283.281 21.48 m f
230.742 98.789 m 230.742 108.516 222.855 116.398 213.133 116.398 c 187.422
 116.398 l 188.691 109.559 189.348 102.605 189.348 95.629 c 189.348 81.188
 l 213.133 81.188 l 217.992 81.188 222.398 83.16 225.582 86.34 c 228.77 
89.523 230.742 93.93 230.742 98.789 c h
230.742 98.789 m f
209.863 173.453 m 209.863 176.02 209.301 178.629 208.109 181.094 c 203.887
 189.855 193.371 193.535 184.609 189.309 c 157.398 176.195 l 165.488 167.539
 172.266 157.562 177.465 146.777 c 199.898 157.594 l 206.191 160.625 209.863
 166.906 209.863 173.453 c h
209.863 173.453 m f
145.453 221.434 m 145.453 228.703 140.918 235.508 133.676 238.051 c 124.5
 241.273 114.445 236.449 111.227 227.273 c 104.082 206.934 l 105.41 206.648
 106.723 206.336 108.027 206.008 c 118.324 203.391 127.941 199.109 136.688
 193.5 c 144.453 215.605 l 145.129 217.535 145.453 219.504 145.453 221.434
 c h
145.453 221.434 m f
0.941176 0.556863 0.619608 rg
57.809 247.582 m 57.809 233.055 60.883 219.242 66.406 206.762 c 56.465 
203.625 49.148 197.672 43.789 190.34 c 38.027 182.453 27.594 179.566 18.578
 183.352 c 10.656 186.676 5.625 194.414 5.625 202.809 c 5.625 203.84 5.703
 204.887 5.855 205.934 c 23.078 233.625 41.723 249.438 58.387 258.379 c 
58.008 254.832 57.809 251.23 57.809 247.582 c h
57.809 247.582 m f
0 g
337.863 70.82 m 344.008 75.938 l 346.391 77.922 349.938 77.605 351.93 75.215
 c 353.918 72.828 353.594 69.281 351.207 67.293 c 345.066 62.176 l 342.68
 60.188 339.133 60.512 337.145 62.898 c 335.156 65.281 335.477 68.828 337.863
 70.82 c h
337.863 70.82 m f
384 87.473 m 384 72.414 378.137 58.258 367.492 47.613 c 356.848 36.965 
342.691 31.102 327.633 31.102 c 326.941 31.047 312.773 31.719 295.465 25.828
 c 293.328 21.914 290.039 18.609 285.828 16.469 c 257.969 2.301 l 246.793
 -3.383 233.332 2.188 229.27 13.793 c 219.266 16.887 210.121 22.387 202.656
 29.844 c 180.449 52.066 184.121 78.875 183.723 81.191 c 183.418 94.824 
185.988 116.215 172.398 144.332 c 164.125 161.453 154.656 170.641 153.285
 172.355 c 133.625 193.402 108.398 203.551 83.152 203.551 c 67.848 203.551
 56.457 198.145 48.332 187.02 c 41 176.992 27.871 173.352 16.406 178.168
 c 5.199 182.863 -1.5 194.484 0.289 206.746 c 0.289 206.75 0.289 206.754
 0.289 206.758 c 0.293 206.762 0.293 206.766 0.293 206.77 c 3.559 228.488
 12.547 259.613 36.832 284.543 c 39 286.77 42.562 286.812 44.785 284.645
 c 47.012 282.477 47.059 278.918 44.891 276.691 c 31.445 262.891 23.207 
246.707 18.164 232.32 c 45.199 263.734 76.266 275.734 101.961 275.191 c 
100.617 281.172 96.742 291.094 96.41 306.117 c 83.32 302.594 71.496 297.293
 61.18 290.312 c 58.605 288.57 55.109 289.246 53.367 291.82 c 51.625 294.391
 52.301 297.891 54.875 299.633 c 67.129 307.922 81.254 314.035 96.91 317.852
 c 98.863 336.023 106.305 353.504 118.129 367.484 c 127.289 378.301 140.461
 383.941 153.617 383.941 c 179.855 383.941 l 188.812 383.941 196.715 379.062
 200.922 371.871 c 209.422 379.598 220.508 383.945 232.152 383.945 c 258.801
 383.945 l 271.957 383.945 282.664 373.238 282.664 360.082 c 282.664 346.922
 271.957 336.215 258.801 336.215 c 242.203 336.215 l 238.172 329.523 238.859
 320.812 244.172 314.641 c 247.742 310.488 250.742 305.836 253.117 300.801
 c 262.055 294.895 270.902 287.43 279.289 277.988 c 284.418 277.52 289.285
 275.27 292.949 271.578 c 298.762 265.723 300.598 257.371 298.461 249.938
 c 300.172 246.59 301.738 243.172 303.156 239.691 c 328.551 245.809 l 340.613
 248.719 352.703 241.234 355.586 229.277 c 358.488 217.238 351.094 205.145
 339.051 202.242 c 312.852 195.926 l 312.961 193.727 313.031 191.523 313.031
 189.316 c 313.031 158.434 l 313.031 150.383 319.582 143.832 327.633 143.832
 c 342.691 143.832 356.848 137.969 367.492 127.324 c 373.289 121.527 377.656
 114.684 380.441 107.223 c 380.77 105.891 384 98.609 384 87.473 c h
336.418 213.176 m 342.41 214.621 346.094 220.645 344.648 226.641 c 343.207
 232.621 337.172 236.316 331.188 234.875 c 306.996 229.043 l 309.211 221.938
 310.824 214.648 311.82 207.25 c h
252.871 12.328 m 280.73 26.496 l 292.59 32.527 286.172 50.898 272.965 47.848
 c 231.32 38.168 251.949 42.961 245.984 41.578 c 239.965 40.18 235.965 34.133
 237.426 27.84 c 239.594 18.516 l 240.965 12.613 247.5 9.602 252.871 12.328
 c h
225.117 98.793 m 225.117 105.402 219.691 110.777 213.133 110.777 c 193.996
 110.777 l 194.645 105.727 194.973 100.656 194.973 95.633 c 194.973 86.816
 l 213.133 86.816 l 219.809 86.816 225.117 92.23 225.117 98.793 c h
179.977 154.234 m 197.457 162.664 l 203.465 165.555 205.91 172.715 203.043
 178.656 c 200.207 184.543 193.09 187.156 187.051 184.242 c 166.504 174.34
 l 171.609 168.145 176.117 161.414 179.977 154.234 c h
133.66 201.848 m 139.145 217.473 l 141.121 223.09 138.66 229.219 133.531
 231.984 c 127.051 235.48 118.973 232.34 116.531 225.41 c 111.441 210.922
 l 119.133 208.797 126.574 205.754 133.66 201.848 c h
258.801 347.465 m 265.758 347.465 271.414 353.125 271.414 360.078 c 271.414
 367.035 265.758 372.691 258.801 372.691 c 232.152 372.691 l 221.77 372.691
 211.965 368.145 205.254 360.219 c 204.879 359.773 204.5 359.312 204.102
 358.812 c 203.695 350.844 199.324 343.711 192.602 339.641 c 190.23 334.055
 188.5 328.254 187.438 322.324 c 203.586 321.184 218.609 317.707 232.352
 311.941 c 226.293 322.457 227.113 335.77 234.938 345.391 c 236.004 346.703
 237.609 347.465 239.301 347.465 c h
179.344 336.211 m 163.66 336.211 l 161.957 333.402 161.066 330.215 161.066
 326.859 c 161.066 325.234 161.25 323.816 161.586 322.5 c 165.289 322.551
 169.793 322.789 176.117 322.738 c 176.852 327.305 177.926 331.805 179.344
 336.211 c h
301.781 158.434 m 301.781 189.316 l 301.781 206.316 298.164 223.398 291.289
 238.883 c 258.289 205.918 l 253.98 201.617 251.676 195.66 251.961 189.582
 c 251.965 189.492 251.969 189.406 251.969 189.316 c 251.969 158.434 l 251.969
 150.383 258.516 143.832 266.57 143.832 c 306.309 143.832 l 303.453 147.988
 301.781 153.02 301.781 158.434 c h
359.535 119.371 m 351.016 127.891 339.684 132.582 327.633 132.582 c 266.57
 132.582 l 252.367 132.582 240.715 144.121 240.715 158.434 c 240.715 189.191
 l 240.316 198.535 243.953 207.496 250.336 213.875 c 284.934 248.434 l 284.941
 248.445 284.949 248.453 284.957 248.465 c 289.039 252.57 289.188 259.398
 284.965 263.652 c 280.664 267.98 273.684 267.887 269.492 263.465 c 257.043
 250.32 l 245.191 237.801 227.945 232.371 211.332 235.406 c 208.273 235.965
 206.25 238.895 206.809 241.953 c 207.367 245.004 210.293 247.031 213.352
 246.473 c 226.246 244.117 239.652 248.316 248.875 258.059 c 261.328 271.203
 l 262.879 272.84 264.777 274.289 266.477 275.242 c 259.789 282.07 252.867
 287.633 245.902 292.152 c 245.809 292.207 245.711 292.246 245.617 292.305
 c 226.93 304.332 205.734 310.578 180.832 311.402 c 180.758 311.402 180.684
 311.414 180.613 311.422 c 175.875 311.562 171.648 311.5 168.078 311.41 
c 175.129 301.766 178.707 293.5 180.473 280.578 c 181.906 270.152 187.238
 260.891 195.48 254.5 c 197.941 252.594 198.383 249.059 196.48 246.609 c
 194.574 244.148 191.039 243.711 188.59 245.609 c 178.012 253.809 171.164
 265.68 169.328 279.051 c 167.641 291.395 164.098 297.852 158.074 306.012
 c 153.008 312.883 149.82 318.016 149.82 326.863 c 149.82 333.59 152.156
 340.172 156.402 345.387 c 157.469 346.699 159.074 347.465 160.766 347.465
 c 180.266 347.465 l 187.133 347.465 193.02 353.062 192.879 360.336 c 192.879
 360.379 l 192.723 367.172 186.895 372.691 179.859 372.691 c 153.621 372.691
 l 143.484 372.691 133.559 368.293 126.719 360.219 c 115.543 347.004 108.816
 330.219 107.785 312.957 c 106.672 294.359 111.996 283.27 114.895 270.328
 c 115.961 266.32 112.457 262.547 108.324 263.371 c 105.305 263.988 99.949
 264.012 96.781 263.848 c 60.152 261.828 30.793 234.918 11.301 204.016 c
 10.781 197.324 14.594 191.129 20.758 188.543 c 27.406 185.75 35.008 187.855
 39.25 193.66 c 49.5 207.688 64.27 214.805 83.156 214.805 c 88.863 214.805
 94.637 214.32 100.379 213.363 c 105.922 229.141 l 110.488 242.172 125.453
 248.465 138.062 242.285 c 148.57 237.133 153.688 224.902 149.762 213.742
 c 143.445 195.754 l 148.797 192.016 153.879 187.754 158.617 183.027 c 182.164
 194.375 l 193.652 199.918 207.57 195.184 213.18 183.543 c 214.715 180.359
 215.492 176.93 215.492 173.457 c 215.492 164.789 210.473 156.441 202.344
 152.527 c 198.207 150.535 189.383 146.281 184.867 144.102 c 187.938 136.961
 190.332 129.566 192.02 122.027 c 213.133 122.027 l 225.941 122.027 236.367
 111.605 236.367 98.793 c 236.367 86.016 226.039 75.566 213.133 75.566 c
 194.977 75.566 l 194.977 61.305 200.531 47.891 210.613 37.801 c 215.137
 33.285 220.398 29.633 226.145 27 c 224.426 38.195 231.273 49.113 242.363
 52.258 c 243.215 52.5 245.598 53.027 262.25 56.906 c 260.582 63.598 l 259.828
 66.613 261.664 69.664 264.68 70.418 c 267.719 71.172 270.75 69.309 271.496
 66.32 c 273.254 59.27 l 286.352 60.527 297.227 50.766 298.176 38.434 c 
313.891 42.777 327.121 42.32 327.637 42.355 c 339.688 42.355 351.02 47.047
 359.539 55.566 c 368.059 64.09 372.75 75.418 372.75 87.473 c 372.75 89.285
 372.629 91.078 372.422 92.852 c 363.16 85.133 l 361.074 83.395 358.043 
83.395 355.957 85.133 c 342.801 96.094 l 329.648 85.133 l 327.562 83.395
 324.531 83.395 322.445 85.133 c 309.289 96.094 l 296.133 85.133 l 293.746
 83.145 290.199 83.465 288.211 85.852 c 286.223 88.238 286.547 91.785 288.934
 93.773 c 305.688 107.734 l 307.773 109.473 310.805 109.473 312.891 107.734
 c 326.047 96.773 l 339.199 107.734 l 341.285 109.473 344.316 109.473 346.402
 107.734 c 359.559 96.773 l 369.277 104.875 l 367.043 110.227 363.762 115.145
 359.535 119.371 c h
359.535 119.371 m f
Q Q
showpage
%%Trailer
end
%%EOF
