%!PS-Adobe-3.0 EPSF-3.0
%%Creator: cairo 1.16.0 (https://cairographics.org)
%%CreationDate: Mon Aug 23 08:35:08 2021
%%Pages: 1
%%DocumentData: Clean7Bit
%%LanguageLevel: 2
%%BoundingBox: 11 0 373 384
%%EndComments
%%BeginProlog
50 dict begin
/q { gsave } bind def
/Q { grestore } bind def
/cm { 6 array astore concat } bind def
/w { setlinewidth } bind def
/J { setlinecap } bind def
/j { setlinejoin } bind def
/M { setmiterlimit } bind def
/d { setdash } bind def
/m { moveto } bind def
/l { lineto } bind def
/c { curveto } bind def
/h { closepath } bind def
/re { exch dup neg 3 1 roll 5 3 roll moveto 0 rlineto
      0 exch rlineto 0 rlineto closepath } bind def
/S { stroke } bind def
/f { fill } bind def
/f* { eofill } bind def
/n { newpath } bind def
/W { clip } bind def
/W* { eoclip } bind def
/BT { } bind def
/ET { } bind def
/BDC { mark 3 1 roll /BDC pdfmark } bind def
/EMC { mark /EMC pdfmark } bind def
/cairo_store_point { /cairo_point_y exch def /cairo_point_x exch def } def
/Tj { show currentpoint cairo_store_point } bind def
/TJ {
  {
    dup
    type /stringtype eq
    { show } { -0.001 mul 0 cairo_font_matrix dtransform rmoveto } ifelse
  } forall
  currentpoint cairo_store_point
} bind def
/cairo_selectfont { cairo_font_matrix aload pop pop pop 0 0 6 array astore
    cairo_font exch selectfont cairo_point_x cairo_point_y moveto } bind def
/Tf { pop /cairo_font exch def /cairo_font_matrix where
      { pop cairo_selectfont } if } bind def
/Td { matrix translate cairo_font_matrix matrix concatmatrix dup
      /cairo_font_matrix exch def dup 4 get exch 5 get cairo_store_point
      /cairo_font where { pop cairo_selectfont } if } bind def
/Tm { 2 copy 8 2 roll 6 array astore /cairo_font_matrix exch def
      cairo_store_point /cairo_font where { pop cairo_selectfont } if } bind def
/g { setgray } bind def
/rg { setrgbcolor } bind def
/d1 { setcachedevice } bind def
/cairo_data_source {
  CairoDataIndex CairoData length lt
    { CairoData CairoDataIndex get /CairoDataIndex CairoDataIndex 1 add def }
    { () } ifelse
} def
/cairo_flush_ascii85_file { cairo_ascii85_file status { cairo_ascii85_file flushfile } if } def
/cairo_image { image cairo_flush_ascii85_file } def
/cairo_imagemask { imagemask cairo_flush_ascii85_file } def
%%EndProlog
%%BeginSetup
%%EndSetup
%%Page: 1 1
%%BeginPageSetup
%%PageBoundingBox: 11 0 373 384
%%EndPageSetup
q 11 0 362 384 rectclip
1 0 0 -1 0 384 cm q
0.321569 0.419608 0.501961 rg
127.93 61.25 m 128.453 61.227 128.977 61.188 129.504 61.129 c 144.789 59.496
 155.852 45.781 154.215 30.496 c 152.582 15.215 138.867 4.152 123.586 5.785
 c 115.672 6.633 108.898 10.719 104.426 16.582 c 98.812 11.797 91.328 9.234
 83.418 10.082 c 68.133 11.719 57.07 25.434 58.703 40.715 c 60.246 55.137
 72.551 65.797 86.777 65.578 c 86.773 83.238 90.805 107.785 108.066 132.051
 c 160.398 123.566 l 166.715 100.344 l 142.086 89.449 131.953 73.871 127.93
 61.25 c h
127.93 61.25 m f
50.961 175.754 m 30.383 177.93 l 17.914 179.242 12.379 194.293 21.02 203.375
 c 35.281 218.367 l 48.434 232.191 72.414 227.844 78.48 208.73 c 84.047 
191.199 69.254 173.824 50.961 175.754 c h
50.961 175.754 m f
333.039 175.754 m 353.617 177.93 l 366.086 179.242 371.621 194.293 362.98
 203.375 c 348.719 218.367 l 335.566 232.191 311.586 227.844 305.52 208.73
 c 299.953 191.199 314.746 173.824 333.039 175.754 c h
333.039 175.754 m f
46.055 347.23 m 45.969 346.414 45.926 345.586 45.926 344.746 c 45.926 287.949
 l 142.555 287.949 l 142.555 344.746 l 142.555 355.941 134.828 365.328 124.418
 367.879 c h
46.055 347.23 m f
337.945 347.23 m 338.031 346.414 338.074 345.586 338.074 344.746 c 338.074
 287.949 l 241.445 287.949 l 241.445 344.746 l 241.445 355.941 249.172 365.328
 259.582 367.879 c h
337.945 347.23 m f
0.270588 0.380392 0.47451 rg
72.344 322.832 m 72.344 310.152 75.676 298.25 81.512 287.949 c 45.926 287.949
 l 45.926 344.75 l 45.926 345.586 45.969 346.414 46.055 347.23 c 80.77 356.375
 l 75.395 346.391 72.344 334.969 72.344 322.832 c h
72.344 322.832 m f
0.992157 0.94902 0.894118 rg
61.402 375.359 m 58.723 377.258 55.453 378.375 51.918 378.375 c 39.812 
378.375 l 34.488 378.375 30.168 374.059 30.168 368.734 c 30.168 356.312 
40.238 346.242 52.66 346.242 c 57.91 346.242 62.543 348.828 65.391 352.781
 c h
61.402 375.359 m f
0.992157 0.913725 0.815686 rg
89.992 375.359 m 87.309 377.258 84.039 378.375 80.504 378.375 c 68.398 
378.375 l 63.074 378.375 58.754 374.059 58.754 368.734 c 58.754 356.312 
68.824 346.242 81.246 346.242 c 86.496 346.242 91.129 348.828 93.98 352.781
 c h
89.992 375.359 m f
0.992157 0.94902 0.894118 rg
322.598 375.359 m 325.277 377.258 328.547 378.375 332.082 378.375 c 344.188
 378.375 l 349.516 378.375 353.832 374.059 353.832 368.734 c 353.832 356.312
 343.762 346.242 331.34 346.242 c 326.09 346.242 321.457 348.828 318.609
 352.781 c h
322.598 375.359 m f
0.270588 0.380392 0.47451 rg
271.355 322.832 m 271.355 310.152 274.688 298.25 280.523 287.949 c 241.445
 287.949 l 241.445 344.75 l 241.445 355.945 249.172 365.328 259.582 367.879
 c 282.969 361.715 l 275.629 350.551 271.355 337.191 271.355 322.832 c h
271.355 322.832 m f
0.992157 0.913725 0.815686 rg
294.008 375.359 m 296.691 377.258 299.961 378.375 303.496 378.375 c 315.602
 378.375 l 320.926 378.375 325.246 374.059 325.246 368.734 c 325.246 356.312
 315.176 346.242 302.754 346.242 c 297.504 346.242 292.871 348.828 290.02
 352.781 c h
294.008 375.359 m f
0.992157 0.94902 0.894118 rg
109.832 346.242 m 118.504 346.242 125.531 353.27 125.531 361.938 c 125.531
 371.016 118.172 378.375 109.094 378.375 c 96.984 378.375 l 91.66 378.375
 87.344 374.059 87.344 368.734 c 87.344 356.312 97.414 346.242 109.832 346.242
 c h
109.832 346.242 m f
274.168 346.242 m 265.496 346.242 258.469 353.27 258.469 361.938 c 258.469
 371.016 265.828 378.375 274.906 378.375 c 287.016 378.375 l 292.34 378.375
 296.656 374.059 296.656 368.734 c 296.656 356.312 286.586 346.242 274.168
 346.242 c h
274.168 346.242 m f
0.270588 0.380392 0.47451 rg
108.066 132.051 m 160.398 123.566 l 166.715 100.344 l 155.555 95.406 147.379
 89.508 141.391 83.359 c 124.641 88.605 108.812 96.469 94.402 106.742 c 
97.598 115.008 102.02 123.547 108.066 132.051 c h
108.066 132.051 m f
0.952941 0.615686 0.521569 rg
192 98.156 m 111.324 98.156 45.926 163.559 45.926 244.234 c 45.926 276.637
 l 338.074 276.637 l 338.074 244.234 l 338.074 163.559 272.676 98.156 192
 98.156 c h
192 98.156 m f
0.898039 0.52549 0.431373 rg
135.879 161.156 m 135.879 141.238 140 122.289 147.422 105.094 c 88.551 
123.941 45.926 179.105 45.926 244.234 c 45.926 276.637 l 195.52 276.637 
l 159.426 250.973 135.879 208.812 135.879 161.156 c h
135.879 161.156 m f
0.992157 0.94902 0.894118 rg
45.926 250.414 m 31.441 250.414 19.703 262.152 19.703 276.633 c 19.703 
291.117 31.441 302.855 45.926 302.855 c 133.09 302.855 l 133.09 250.414 
l h
45.926 250.414 m f
338.074 250.414 m 352.559 250.414 364.297 262.152 364.297 276.633 c 364.297
 291.117 352.559 302.855 338.074 302.855 c 250.91 302.855 l 250.91 250.414
 l h
338.074 250.414 m f
0.321569 0.419608 0.501961 rg
272.734 275.559 m 272.734 275.559 268.277 334.32 192 334.32 c 115.723 334.32
 111.266 275.559 111.266 275.559 c h
272.734 275.559 m f
0.270588 0.380392 0.47451 rg
143.43 275.559 m 111.266 275.559 l 111.266 275.559 115.293 328.496 180.934
 333.871 c 162.938 319.035 149.602 298.758 143.43 275.559 c h
143.43 275.559 m f
0.423529 0.501961 0.588235 rg
283.734 244.773 m 275.777 242.527 266.801 237.91 260.453 228.551 c 290.172
 217.383 294.57 198.289 292.273 182.996 c 290.652 172.219 277.977 167.109
 269.363 173.789 c 255.898 184.23 231.617 196.551 192 196.551 c 152.383 
196.551 128.102 184.23 114.637 173.789 c 106.023 167.109 93.348 172.219 
91.727 182.996 c 89.43 198.289 93.828 217.379 123.543 228.551 c 117.199 
237.91 108.219 242.527 100.266 244.773 c 90.75 247.457 86.527 258.578 92.125
 266.727 c 114.34 299.082 151.453 289.473 182.609 302.934 c 188.617 305.527
 195.383 305.527 201.387 302.934 c 232.547 289.473 269.656 299.082 291.871
 266.727 c 297.469 258.578 293.25 247.457 283.734 244.773 c h
283.734 244.773 m f
0.321569 0.419608 0.501961 rg
139.613 246.305 m 139.613 226.645 144.613 208.156 153.414 192.035 c 135.578
 187.504 123.012 180.285 114.637 173.789 c 106.023 167.109 93.348 172.219
 91.727 182.996 c 89.43 198.289 93.828 217.383 123.547 228.551 c 117.199
 237.91 108.223 242.527 100.266 244.773 c 90.75 247.457 86.527 258.578 92.125
 266.727 c 106.988 288.375 128.52 291.234 150.473 294.789 c 143.512 280.09
 139.613 263.652 139.613 246.305 c h
139.613 246.305 m f
214.703 91.188 m 205.559 72.625 l 200.016 61.379 183.98 61.379 178.441 
72.625 c 169.297 91.188 l 161.035 107.957 172.738 128.43 192 128.43 c 211.277
 128.43 222.961 107.949 214.703 91.188 c h
214.703 91.188 m f
0.423529 0.501961 0.588235 rg
117.359 105.266 m 99.129 95.473 l 88.086 89.539 75.035 98.859 77.062 111.23
 c 80.406 131.652 l 83.492 150.492 105.766 160.379 121.531 148.008 c 136.008
 136.656 133.566 113.969 117.359 105.266 c h
117.359 105.266 m f
266.641 105.266 m 284.871 95.473 l 295.914 89.539 308.965 98.859 306.938
 111.23 c 303.594 131.652 l 300.508 150.492 278.234 160.379 262.469 148.008
 c 247.992 136.656 250.434 113.969 266.641 105.266 c h
266.641 105.266 m f
0 g
146.363 259.945 m 143.258 259.945 140.738 262.465 140.738 265.57 c 140.738
 274.34 l 140.738 277.445 143.258 279.965 146.363 279.965 c 149.469 279.965
 151.988 277.445 151.988 274.34 c 151.988 265.57 l 151.988 262.465 149.469
 259.945 146.363 259.945 c h
146.363 259.945 m f
237.637 279.965 m 240.742 279.965 243.262 277.445 243.262 274.34 c 243.262
 265.57 l 243.262 262.465 240.742 259.945 237.637 259.945 c 234.531 259.945
 232.012 262.465 232.012 265.57 c 232.012 274.34 l 232.012 277.445 234.531
 279.965 237.637 279.965 c h
237.637 279.965 m f
354.207 172.332 m 333.629 170.16 l 330.574 169.84 327.555 169.957 324.598
 170.5 c 319.215 160.836 312.742 151.723 305.246 143.32 c 307.164 140.035
 308.516 136.402 309.145 132.562 c 312.488 112.141 l 315.27 95.168 297.352
 82.383 282.207 90.516 c 263.977 100.309 l 260.887 101.969 258.148 104.105
 255.824 106.594 c 245.07 101.598 233.789 97.895 222.188 95.551 c 221.641
 93.215 220.84 90.914 219.75 88.699 c 210.602 70.137 l 203 54.707 180.992
 54.715 173.395 70.137 c 164.25 88.699 l 163.688 89.84 163.207 91.004 162.789
 92.184 c 149.891 85.332 140.805 76.441 135.691 65.645 c 142.312 63.777 
148.176 59.922 152.582 54.461 c 158.191 47.508 160.758 38.785 159.809 29.898
 c 157.848 11.555 141.324 -1.77 122.984 0.191 c 115.609 0.98 108.898 4.09
 103.621 9.082 c 97.414 5.316 90.195 3.699 82.816 4.488 c 64.477 6.449 51.148
 22.969 53.109 41.312 c 54.758 56.723 66.445 68.602 81.262 70.828 c 81.539
 77.223 82.324 83.574 83.602 89.812 c 75 93.641 69.957 102.656 71.512 112.141
 c 74.855 132.562 l 75.484 136.402 76.836 140.035 78.754 143.32 c 71.258
 151.723 64.785 160.836 59.402 170.5 c 56.445 169.957 53.426 169.84 50.371
 170.164 c 29.793 172.336 l 12.688 174.141 5.094 194.797 16.941 207.254 
c 31.207 222.246 l 34.016 225.199 37.363 227.555 41.039 229.227 c 40.176
 238.008 40.316 244.598 40.301 245.297 c 25.414 247.965 14.078 260.996 14.078
 276.637 c 14.078 292.273 25.414 305.309 40.301 307.973 c 40.301 343.488
 l 30.977 348.07 24.543 357.664 24.543 368.734 c 24.543 377.152 31.395 384
 39.812 384 c 51.918 384 l 55.07 384 58.129 383.324 60.953 382.051 c 63.16
 383.289 65.695 384 68.398 384 c 80.504 384 l 83.656 384 86.715 383.324 
89.539 382.051 c 91.746 383.289 94.281 384 96.984 384 c 109.09 384 l 117.414
 384 124.672 379.367 128.43 372.551 c 140.184 368.473 148.18 357.414 148.18
 344.75 c 148.18 331.785 l 160.578 337.199 175.227 339.945 192 339.945 c
 208.77 339.945 223.422 337.199 235.82 331.785 c 235.82 344.75 l 235.82 
357.414 243.816 368.477 255.57 372.551 c 259.328 379.371 266.586 384 274.906
 384 c 287.016 384 l 289.719 384 292.254 383.289 294.461 382.051 c 297.281
 383.324 300.344 384 303.496 384 c 315.602 384 l 318.305 384 320.84 383.289
 323.047 382.051 c 325.867 383.324 328.93 384 332.082 384 c 344.188 384 
l 352.605 384 359.457 377.152 359.457 368.734 c 359.457 357.664 353.023 
348.07 343.699 343.488 c 343.699 307.973 l 358.586 305.309 369.922 292.273
 369.922 276.633 c 369.922 260.996 358.586 247.961 343.699 245.297 c 343.699
 244.234 l 343.699 239.191 343.449 234.188 342.961 229.227 c 346.637 227.555
 349.984 225.199 352.793 222.246 c 367.059 207.254 l 378.91 194.793 371.305
 174.137 354.207 172.332 c h
269.301 110.219 m 287.531 100.426 l 294.488 96.691 302.66 102.551 301.387
 110.32 c 298.039 130.742 l 295.582 145.758 277.984 153.027 265.945 143.59
 c 265.941 143.59 265.941 143.586 265.938 143.582 c 265.934 143.582 265.934
 143.578 265.93 143.578 c 254.855 134.883 256.484 117.105 269.301 110.219
 c h
258.988 152.43 m 258.988 152.434 258.992 152.434 258.992 152.434 c 261.59
 154.469 264.359 156.004 267.219 157.098 c 277.301 160.945 289.059 159.266
 297.91 151.996 c 316.715 173.559 327.84 199.484 331.277 226.055 c 332.051
 232.043 332.449 238.113 332.449 244.234 c 332.449 244.789 l 294.363 244.789
 l 291.91 242.234 288.777 240.359 285.297 239.371 c 285.285 239.367 285.273
 239.363 285.262 239.359 c 279.453 237.719 274.07 234.977 269.633 230.746
 c 290.188 220.848 301.172 204.363 297.836 182.16 c 295.574 167.129 277.93
 160.027 265.914 169.344 c 253.219 179.188 230.09 190.926 192 190.926 c 
180.93 190.926 169.367 189.883 158.438 187.445 c 155.406 186.77 152.398 
188.68 151.723 191.711 c 151.047 194.73 152.945 197.75 155.988 198.426 c
 167.141 200.914 179.258 202.176 192 202.176 c 220.496 202.176 250.203 195.766
 272.809 178.234 c 278.02 174.191 285.727 177.289 286.711 183.832 c 289.73
 203.941 277.434 216.156 258.477 223.285 c 255.074 224.559 253.754 228.691
 255.797 231.703 c 261.844 240.625 270.977 247.016 282.203 250.188 c 286.125
 251.293 288.723 254.812 288.75 258.645 c 288.77 262.125 286.316 265.027
 284.047 267.738 c 279.633 272.996 274.418 277.082 268.215 280.152 c 248.32
 289.992 222.617 287.633 199.156 297.77 c 194.605 299.734 189.383 299.73
 184.844 297.77 c 154.516 284.668 120.754 292.508 99.949 267.738 c 96.957
 264.156 94.414 261.141 95.488 256.699 c 96.242 253.566 98.648 251.074 101.793
 250.184 c 112.461 247.172 121.859 241.059 128.203 231.703 c 130.238 228.699
 128.934 224.562 125.523 223.281 c 104.066 215.219 94.566 201.945 97.289
 183.832 c 98.273 177.289 105.98 174.191 111.191 178.234 c 118.066 183.566
 125.762 187.938 133.832 191.379 c 136.688 192.598 139.992 191.266 141.211
 188.41 c 142.43 185.551 141.102 182.246 138.242 181.027 c 130.742 177.832
 123.961 173.898 118.082 169.344 c 106.074 160.027 88.426 167.125 86.164
 182.16 c 84.609 192.504 86.145 201.891 90.723 210.066 c 95.465 218.531 
103.398 225.465 114.363 230.746 c 109.957 234.945 104.594 237.703 98.738
 239.355 c 98.727 239.359 98.715 239.367 98.703 239.371 c 95.395 240.309
 92.203 242.113 89.637 244.789 c 51.551 244.789 l 51.57 244.172 51.391 236.367
 52.723 226.051 c 56.266 198.648 67.832 172.926 86.09 151.996 c 97.152 161.082
 113.188 161.699 125.004 152.434 c 125.008 152.434 125.008 152.43 125.012
 152.43 c 135.84 143.922 139.656 129.156 134.312 116.148 c 142.645 112.379
 151.699 109.305 161.305 107.156 c 162.395 114.734 166.254 121.855 172.23
 126.902 c 172.234 126.906 172.238 126.906 172.242 126.91 c 183.566 136.457
 200.48 136.422 211.762 126.91 c 211.762 126.91 211.762 126.91 211.766 126.91
 c 217.867 121.762 221.629 114.578 222.691 107.152 c 231.969 109.219 241.008
 112.234 249.684 116.148 c 244.316 129.238 248.219 143.98 258.988 152.43
 c h
174.344 93.672 m 183.488 75.109 l 186.973 68.039 197.023 68.031 200.512
 75.109 c 209.656 93.672 l 213.453 101.379 211.926 110.465 206.375 116.531
 c 198.723 124.902 185.281 124.906 177.625 116.531 c 171.965 110.336 170.602
 101.266 174.344 93.672 c h
64.297 40.117 m 62.996 27.941 71.84 16.977 84.016 15.676 c 90.133 15.02
 96.086 16.863 100.777 20.863 c 103.227 22.949 106.938 22.562 108.898 19.992
 c 112.637 15.09 118.066 12.031 124.184 11.379 c 136.355 10.078 147.32 18.922
 148.621 31.098 c 149.961 43.609 140.539 54.977 127.648 55.633 c 123.965
 55.82 121.453 59.445 122.57 62.961 c 125.875 73.324 133.473 86.977 150.828
 98.195 c 143.426 100.281 135.668 103.113 128.184 106.582 c 125.969 104.203
 123.027 101.926 120.02 100.309 c 101.789 90.516 l 99.562 89.32 96.875 88.492
 94.754 88.211 c 93.188 80.805 92.398 73.211 92.402 65.578 c 92.402 62.441
 89.828 59.902 86.688 59.953 c 75.156 60.133 65.527 51.602 64.297 40.117
 c h
96.465 100.426 m 96.465 100.426 96.469 100.426 96.469 100.426 c 114.699
 110.219 l 114.723 110.234 114.75 110.25 114.777 110.266 c 127.648 117.246
 128.988 135.008 118.062 143.582 c 106.039 153.012 88.41 145.699 85.961 
130.742 c 82.613 110.32 l 81.367 102.719 89.332 96.605 96.465 100.426 c 
h
42.688 217.316 m 41.484 216.5 40.367 215.555 39.355 214.492 c 25.094 199.5
 l 19.664 193.789 23.121 184.352 30.973 183.523 c 51.551 181.352 l 52.289
 181.273 53.023 181.234 53.754 181.234 c 53.824 181.234 53.891 181.234 53.957
 181.234 c 48.82 192.477 44.934 204.738 42.688 217.316 c h
25.328 276.633 m 25.328 265.277 34.566 256.039 45.926 256.039 c 84.16 256.039
 l 82.867 265.508 88.75 272.949 95.688 279.66 c 95.699 279.668 95.707 279.676
 95.719 279.688 c 99.77 283.598 104.105 286.668 108.641 289.125 c 109.449
 291.531 110.688 294.641 111.93 297.23 c 45.926 297.23 l 34.566 297.23 25.328
 287.992 25.328 276.633 c h
51.918 372.75 m 39.812 372.75 l 37.594 372.75 35.793 370.949 35.793 368.734
 c 35.793 359.34 43.473 351.867 52.66 351.867 c 54.434 351.867 56.145 352.316
 57.754 353.273 c 54.777 357.777 53.129 363.281 53.129 368.734 c 53.129 
369.91 53.297 371.352 53.633 372.617 c 53.07 372.703 52.496 372.75 51.918
 372.75 c h
80.504 372.75 m 68.398 372.75 l 66.184 372.75 64.379 370.902 64.379 368.734
 c 64.379 359.465 71.934 351.867 81.246 351.867 c 83.188 351.867 84.84 352.379
 86.344 353.27 c 83.492 357.582 81.719 363.016 81.719 368.734 c 81.719 369.863
 81.879 371.324 82.219 372.613 c 81.656 372.703 81.082 372.75 80.504 372.75
 c h
109.09 372.75 m 96.984 372.75 l 94.789 372.75 92.969 370.922 92.969 368.734
 c 92.969 368.734 92.969 368.734 92.969 368.73 c 92.969 359.387 100.586 
351.867 109.828 351.867 c 109.832 351.867 l 116.656 351.867 121.703 358.59
 119.289 365.496 c 117.816 369.711 113.805 372.75 109.09 372.75 c h
136.93 325.734 m 136.93 344.746 l 136.93 350.094 134.625 354.977 130.852
 358.34 c 129.113 348.113 120.172 340.617 109.832 340.617 c 109.832 340.617
 109.828 340.617 109.824 340.617 c 104.266 340.617 98.766 342.352 94.43 
345.203 c 90.832 342.348 86.098 340.617 81.246 340.617 c 75.945 340.617 
70.449 342.184 65.859 345.203 c 62.328 342.398 57.602 340.617 52.66 340.617
 c 52.289 340.617 51.918 340.625 51.551 340.637 c 51.551 308.48 l 118.656
 308.48 l 123.613 315.258 129.777 321.066 136.93 325.734 c h
123.484 295.105 m 141.539 300.379 161.246 300.484 178.438 307.293 c 193.148
 313.121 197.93 310.156 206.766 306.836 c 223.703 300.469 242.863 300.262
 260.516 295.105 c 246.926 320.133 220.355 328.695 192 328.695 c 163.633
 328.695 137.07 320.129 123.484 295.105 c h
274.91 372.75 m 268.887 372.75 264.098 367.809 264.094 361.938 c 264.094
 356.383 268.613 351.867 274.168 351.867 c 274.172 351.867 l 283.555 351.867
 291.031 359.531 291.031 368.73 c 291.031 368.734 l 291.031 370.898 289.234
 372.75 287.016 372.75 c h
303.496 372.75 m 302.918 372.75 302.344 372.703 301.781 372.613 c 302.129
 371.301 302.281 369.836 302.281 368.734 c 302.281 363.133 300.555 357.652
 297.656 353.27 c 299.297 352.297 301.031 351.867 302.754 351.867 c 312.266
 351.867 319.621 359.664 319.621 368.734 c 319.621 370.883 317.832 372.75
 315.602 372.75 c h
344.188 372.75 m 332.082 372.75 l 331.504 372.75 330.93 372.703 330.367
 372.613 c 330.699 371.359 330.871 369.914 330.871 368.73 c 330.871 363.125
 329.133 357.641 326.246 353.27 c 327.816 352.34 329.535 351.867 331.34 
351.867 c 340.633 351.867 348.207 359.434 348.207 368.73 c 348.207 370.949
 346.402 372.75 344.188 372.75 c h
358.672 276.633 m 358.672 287.992 349.434 297.23 338.074 297.23 c 315.332
 297.23 l 312.227 297.23 309.707 299.75 309.707 302.855 c 309.707 305.957
 312.223 308.48 315.332 308.48 c 332.449 308.48 l 332.449 340.637 l 332.082
 340.625 331.711 340.617 331.34 340.617 c 326.523 340.617 321.781 342.312
 318.141 345.203 c 313.77 342.328 308.344 340.617 302.754 340.617 c 298.191
 340.617 293.414 342.172 289.57 345.203 c 285.207 342.332 279.789 340.617
 274.176 340.617 c 274.172 340.617 274.168 340.617 274.168 340.617 c 263.699
 340.617 254.863 348.254 253.148 358.34 c 249.375 354.98 247.07 350.094 
247.07 344.746 c 247.07 325.734 l 254.07 321.156 260.164 315.562 265.344
 308.48 c 293.066 308.48 l 296.168 308.48 298.691 305.969 298.691 302.855
 c 298.691 299.75 296.172 297.23 293.066 297.23 c 272.07 297.23 l 273.254
 294.766 274.539 291.562 275.359 289.125 c 285.508 283.629 293.926 274.82
 297.574 268.172 c 299.672 264.348 300.387 260.055 299.84 256.039 c 338.078
 256.039 l 349.434 256.039 358.672 265.277 358.672 276.633 c h
358.906 199.5 m 344.645 214.492 l 343.633 215.555 342.516 216.5 341.312
 217.316 c 339.078 204.844 335.258 192.648 330.043 181.234 c 330.84 181.227
 331.641 181.266 332.449 181.348 c 353.027 183.52 l 360.863 184.348 364.348
 193.781 358.906 199.5 c h
358.906 199.5 m f
Q Q
showpage
%%Trailer
end
%%EOF
