%!PS-Adobe-3.0 EPSF-3.0
%%Creator: cairo 1.16.0 (https://cairographics.org)
%%CreationDate: Mon Aug 23 08:35:09 2021
%%Pages: 1
%%DocumentData: Clean7Bit
%%LanguageLevel: 2
%%BoundingBox: 4 0 380 384
%%EndComments
%%BeginProlog
50 dict begin
/q { gsave } bind def
/Q { grestore } bind def
/cm { 6 array astore concat } bind def
/w { setlinewidth } bind def
/J { setlinecap } bind def
/j { setlinejoin } bind def
/M { setmiterlimit } bind def
/d { setdash } bind def
/m { moveto } bind def
/l { lineto } bind def
/c { curveto } bind def
/h { closepath } bind def
/re { exch dup neg 3 1 roll 5 3 roll moveto 0 rlineto
      0 exch rlineto 0 rlineto closepath } bind def
/S { stroke } bind def
/f { fill } bind def
/f* { eofill } bind def
/n { newpath } bind def
/W { clip } bind def
/W* { eoclip } bind def
/BT { } bind def
/ET { } bind def
/BDC { mark 3 1 roll /BDC pdfmark } bind def
/EMC { mark /EMC pdfmark } bind def
/cairo_store_point { /cairo_point_y exch def /cairo_point_x exch def } def
/Tj { show currentpoint cairo_store_point } bind def
/TJ {
  {
    dup
    type /stringtype eq
    { show } { -0.001 mul 0 cairo_font_matrix dtransform rmoveto } ifelse
  } forall
  currentpoint cairo_store_point
} bind def
/cairo_selectfont { cairo_font_matrix aload pop pop pop 0 0 6 array astore
    cairo_font exch selectfont cairo_point_x cairo_point_y moveto } bind def
/Tf { pop /cairo_font exch def /cairo_font_matrix where
      { pop cairo_selectfont } if } bind def
/Td { matrix translate cairo_font_matrix matrix concatmatrix dup
      /cairo_font_matrix exch def dup 4 get exch 5 get cairo_store_point
      /cairo_font where { pop cairo_selectfont } if } bind def
/Tm { 2 copy 8 2 roll 6 array astore /cairo_font_matrix exch def
      cairo_store_point /cairo_font where { pop cairo_selectfont } if } bind def
/g { setgray } bind def
/rg { setrgbcolor } bind def
/d1 { setcachedevice } bind def
/cairo_data_source {
  CairoDataIndex CairoData length lt
    { CairoData CairoDataIndex get /CairoDataIndex CairoDataIndex 1 add def }
    { () } ifelse
} def
/cairo_flush_ascii85_file { cairo_ascii85_file status { cairo_ascii85_file flushfile } if } def
/cairo_image { image cairo_flush_ascii85_file } def
/cairo_imagemask { imagemask cairo_flush_ascii85_file } def
%%EndProlog
%%BeginSetup
%%EndSetup
%%Page: 1 1
%%BeginPageSetup
%%PageBoundingBox: 4 0 380 384
%%EndPageSetup
q 4 0 376 384 rectclip
1 0 0 -1 0 384 cm q
0.92549 0.415686 0.384314 rg
84.148 232.051 m 84.148 232.051 50.176 238.23 27.891 205.836 c 22.527 198.039
 10.32 201.941 10.297 211.406 c 10.223 239.598 22.684 276.664 86.992 281.625
 c h
84.148 232.051 m f
0.909804 0.34902 0.309804 rg
176.77 345.867 m 166.918 345.867 l 170.996 336.449 176.816 327.887 184.07
 320.629 c 184.113 320.59 l 198.797 305.906 198.797 282.102 184.113 267.418
 c 173.727 257.031 156.891 257.031 146.504 267.418 c 141.023 272.898 138.434
 280.176 138.738 287.355 c 109.227 327.742 l 109.227 359.898 l 134.777 372.996
 l 141.68 376.531 149.32 378.375 157.07 378.375 c 176.77 378.375 l 185.746
 378.375 193.023 371.098 193.023 362.121 c 193.023 353.145 185.746 345.867
 176.77 345.867 c h
176.77 345.867 m f
0.92549 0.415686 0.384314 rg
295.457 244.074 m 282.977 253.316 244.41 256.57 220.879 242.09 c 240.367
 210.414 l 240.367 210.414 240.293 210.367 240.145 210.281 c 240.809 210.664
 256.711 219.578 277.91 211.699 c 287.535 208.125 298.238 213.027 301.816
 222.656 c 304.766 230.598 301.941 239.277 295.457 244.074 c h
295.457 244.074 m f
0.501961 0.772549 0.690196 rg
167.57 150.07 m 162.922 133.312 140.898 129.465 130.848 143.656 c 126.062
 150.406 l 121.035 157.5 112.098 160.684 103.715 158.359 c 89.16 154.328
 75.344 166.781 77.852 181.676 c 85.645 227.945 l 181.82 201.438 l h
167.57 150.07 m f
0.909804 0.34902 0.309804 rg
277.91 211.699 m 256.711 219.578 240.809 210.664 240.141 210.281 c 240.293
 210.367 240.367 210.414 240.367 210.414 c 220.879 242.09 l 234.453 250.441
 253.027 252.887 268.715 251.691 c 273.359 238.152 276.332 224.488 278.055
 211.652 c 278.008 211.668 277.957 211.684 277.91 211.699 c h
277.91 211.699 m f
84.148 232.051 m 84.148 232.051 70.875 234.465 55.48 228.367 c 53.461 235.914
 52.398 243.762 52.398 251.734 c 52.398 260.047 53.543 268.062 55.758 275.625
 c 64.488 278.59 74.809 280.684 86.992 281.625 c h
84.148 232.051 m f
0.313726 0.713726 0.572549 rg
117.914 185.875 m 117.914 175.191 119.234 164.82 121.707 154.902 c 116.672
 158.73 110.035 160.113 103.715 158.363 c 89.16 154.328 75.344 166.781 77.852
 181.676 c 85.648 227.941 l 121.98 217.93 l 119.328 207.688 117.914 196.945
 117.914 185.875 c h
117.914 185.875 m f
0.937255 0.501961 0.498039 rg
103.527 196.145 m 86.195 208.523 74.898 228.805 74.898 251.738 c 74.898
 289.445 105.477 312.586 143.184 312.586 c 179.477 312.586 205.246 300.328
 223.375 282.395 c 229.867 289.945 238.367 297.203 249.289 302.895 c 250.879
 303.723 252.539 304.301 254.211 304.637 c 262.117 306.234 270.457 302.508
 274.367 294.996 c 279.113 285.883 275.582 274.66 266.469 269.914 c 255.586
 264.238 249.422 256.414 246.031 250.324 c 266.773 208.098 265.07 157.754
 260.867 145.145 c 217.52 145.145 l 217.52 146.262 l 217.289 174.359 190.148
 194.727 163.301 186.461 c 156.941 184.5 150.188 183.449 143.188 183.449
 c 137.684 183.449 132.336 184.105 127.211 185.332 c 121.379 206.676 l h
103.527 196.145 m f
0.92549 0.415686 0.384314 rg
260.867 145.145 m 217.52 145.145 l 217.52 146.258 l 217.438 156.16 214.004
 165.094 208.43 172.16 c 218.18 176.867 229.016 179.695 240.465 180.168 
c 241.602 180.215 242.754 180.238 243.887 180.238 c 250.484 180.238 257.016
 179.414 263.352 177.855 c 263.973 162.523 262.641 150.469 260.867 145.145
 c h
260.867 145.145 m f
0.937255 0.501961 0.498039 rg
341.23 69.262 m 340.477 69.262 l 318.223 69.262 298.18 56.539 287.934 36.785
 c 283.418 28.078 276.723 20.598 267.566 15.285 c 255.828 8.473 242.801 
6.777 229.422 5.949 c 204.625 4.418 179.867 8.301 156.848 17.707 c 141.156
 24.121 125.617 32.48 111.848 42.77 c 105.926 47.195 104.449 55.465 108.383
 61.727 c 108.535 61.961 l 112.578 68.395 120.93 70.488 127.578 66.812 c
 142.316 58.66 169.18 48.84 194.566 65.836 c 188.164 75.473 184.5 87.086
 184.707 99.57 c 185.234 130.73 210.254 156.406 241.391 157.688 c 256.672
 158.316 270.734 153.145 281.559 144.195 c 289.391 137.723 299.242 134.207
 309.398 134.207 c 341.23 134.207 l 359.164 134.207 373.703 119.668 373.703
 101.734 c 373.703 83.797 359.164 69.262 341.23 69.262 c h
341.23 69.262 m f
0.921569 0.917647 0.960784 rg
249.832 96.41 m 249.832 106.016 240.059 113.797 228 113.797 c 215.941 113.797
 206.164 106.016 206.164 96.41 c 206.164 86.809 215.941 79.023 228 79.023
 c 240.059 79.023 249.832 86.809 249.832 96.41 c h
249.832 96.41 m f
0.92549 0.415686 0.384314 rg
119.422 205.523 m 103.527 196.145 l 86.195 208.523 74.898 228.805 74.898
 251.738 c 74.898 289.445 105.477 312.586 143.188 312.586 c 163.117 312.586
 179.867 308.883 193.926 302.578 c 154.898 285.316 126.152 249.059 119.422
 205.523 c h
119.422 205.523 m f
0.937255 0.501961 0.498039 rg
82.902 341.316 m 81.121 344.621 l 79.316 347.957 78.375 351.695 78.375 
355.488 c 78.375 368.129 88.621 378.375 101.262 378.375 c 132.754 378.375
 l 141.73 378.375 149.008 371.098 149.008 362.121 c 149.008 353.145 141.73
 345.867 132.754 345.867 c 122.902 345.867 l 126.98 336.449 132.801 327.887
 140.055 320.629 c 140.098 320.59 l 154.777 305.906 154.777 282.102 140.098
 267.418 c 129.711 257.031 112.871 257.031 102.488 267.418 c 97.004 272.898
 94.418 280.176 94.723 287.355 c 95.52 306.117 91.82 324.793 82.902 341.316
 c h
82.902 341.316 m f
0.976471 0.87451 0.603922 rg
165.742 249.371 m 157.902 231.816 l 154.969 225.254 157.914 217.559 164.48
 214.625 c 171.043 211.695 178.738 214.637 181.672 221.203 c 189.512 238.758
 l 192.441 245.32 189.496 253.02 182.934 255.949 c 176.367 258.879 168.672
 255.934 165.742 249.371 c h
165.742 249.371 m f
131.508 226.887 m 124.949 229.816 117.25 226.871 114.32 220.312 c 103.527
 196.145 l 110.547 191.125 118.559 187.406 127.207 185.332 c 138.09 209.691
 l 141.02 216.258 138.074 223.957 131.508 226.887 c h
131.508 226.887 m f
0.988235 0.792157 0.45098 rg
117.945 188.273 m 112.801 190.32 107.965 192.973 103.527 196.145 c 114.32
 220.312 l 116.309 224.766 120.496 227.543 125.031 227.957 c 120.676 215.5
 118.199 202.16 117.945 188.273 c h
117.945 188.273 m f
0 g
246.348 79.672 m 246.348 70.746 l 246.348 67.637 243.832 65.121 240.723
 65.121 c 237.617 65.121 235.098 67.637 235.098 70.746 c 235.098 79.672 
l 235.098 82.777 237.617 85.297 240.723 85.297 c 243.832 85.297 246.348 
82.777 246.348 79.672 c h
246.348 79.672 m f
285.363 101.195 m 283.023 103.238 282.777 106.789 284.82 109.133 c 288.977
 113.906 294.984 116.641 301.305 116.641 c 307.625 116.641 313.633 113.906
 317.793 109.133 c 319.832 106.789 319.59 103.238 317.246 101.195 c 314.906
 99.156 311.352 99.398 309.309 101.742 c 307.289 104.062 304.371 105.391
 301.305 105.391 c 298.238 105.391 295.32 104.062 293.301 101.742 c 291.258
 99.398 287.707 99.156 285.363 101.195 c h
285.363 101.195 m f
288.25 65.121 m 285.145 65.121 282.625 67.637 282.625 70.746 c 282.625 
79.672 l 282.625 82.777 285.145 85.297 288.25 85.297 c 291.359 85.297 293.875
 82.777 293.875 79.672 c 293.875 70.746 l 293.875 67.637 291.359 65.121 
288.25 65.121 c h
288.25 65.121 m f
162.184 209.488 m 152.801 213.68 148.574 224.727 152.766 234.109 c 160.605
 251.664 l 164.793 261.047 175.84 265.273 185.227 261.086 c 194.633 256.883
 198.848 245.871 194.648 236.461 c 186.809 218.906 l 182.617 209.523 171.574
 205.297 162.184 209.488 c h
180.641 250.812 m 176.918 252.473 172.539 250.797 170.875 247.078 c 163.039
 229.523 l 161.375 225.801 163.051 221.422 166.773 219.762 c 170.496 218.102
 174.875 219.773 176.535 223.496 c 184.375 241.051 l 186.039 244.777 184.371
 249.145 180.641 250.812 c h
180.641 250.812 m f
31.949 269.793 m 34.461 271.621 37.98 271.066 39.805 268.555 c 41.633 266.043
 41.078 262.523 38.566 260.695 c 23.484 249.723 15.863 233.141 15.918 211.418
 c 15.93 207.457 21.012 205.762 23.254 209.023 c 37.938 230.367 57.195 236.43
 70.59 237.801 c 68.312 249.723 68.918 262.691 72.957 274.191 c 67.27 273.168
 61.973 271.812 57.137 270.145 c 54.203 269.129 51 270.688 49.984 273.625
 c 48.969 276.559 50.527 279.762 53.465 280.777 c 61.055 283.398 69.605 
285.301 78.898 286.449 c 81.684 290.844 85.062 294.902 89.008 298.574 c 
88.156 313 84.406 326.684 77.953 338.645 c 77.129 340.566 72.75 346.219 
72.75 355.488 c 72.75 371.211 85.539 384 101.262 384 c 132.754 384 l 136.098
 384 139.266 383.242 142.102 381.898 c 146.969 383.289 151.992 384 157.07
 384 c 176.77 384 l 188.836 384 198.648 374.184 198.648 362.121 c 198.648
 350.055 188.836 340.238 176.77 340.238 c 176.035 340.238 l 179.332 334.535
 183.363 329.293 188.09 324.566 c 193.156 319.5 196.859 313.289 198.906 
306.473 c 207.691 302.242 215.762 296.879 223.074 290.387 c 229.93 297.402
 237.852 303.277 246.699 307.887 c 258.859 314.195 273.363 309.105 279.359
 297.594 c 285.527 285.746 280.91 271.094 269.066 264.926 c 264.906 262.754
 261.535 260.23 258.812 257.656 c 259.309 257.668 259.801 257.688 260.297
 257.688 c 271.328 257.688 282.367 255.719 292.82 251.832 c 305.504 247.117
 311.668 233.016 307.09 220.695 c 302.438 208.176 288.473 201.777 275.949
 206.426 c 272.457 207.723 268.918 208.582 265.375 209.004 c 269.227 188.918
 269.598 170.543 268.695 158.422 c 274.594 155.977 280.141 152.66 285.145
 148.523 c 291.93 142.914 300.543 139.828 309.398 139.828 c 341.23 139.828
 l 362.238 139.828 379.328 122.734 379.328 101.727 c 379.328 80.723 362.238
 63.629 341.23 63.629 c 340.477 63.629 l 320.566 63.629 302.348 52.348 292.926
 34.191 c 287.66 24.035 280.078 16.039 270.391 10.414 c 257.555 2.965 243.281
 1.164 229.77 0.332 c 217.629 -0.418 205.402 0.109 193.434 1.895 c 190.359
 2.355 188.242 5.219 188.699 8.289 c 189.16 11.363 192.016 13.48 195.094
 13.023 c 206.289 11.352 217.723 10.859 229.078 11.559 c 243.098 12.426 
254.531 14.219 264.742 20.145 c 272.551 24.676 278.672 31.145 282.941 39.371
 c 294.301 61.273 316.348 74.883 340.477 74.883 c 341.23 74.883 l 356.035
 74.883 368.078 86.926 368.078 101.73 c 368.078 116.535 356.035 128.578 
341.23 128.578 c 309.398 128.578 l 297.934 128.578 286.773 132.582 277.977
 139.855 c 267.793 148.273 254.879 152.609 241.621 152.066 c 213.68 150.914
 190.812 128.102 190.332 99.473 c 190.148 88.559 193.23 78.004 199.25 68.949
 c 200.969 66.367 200.273 62.883 197.695 61.16 c 169.547 42.312 139.977 
53.523 124.855 61.883 c 120.809 64.121 115.73 62.84 113.293 58.965 c 113.145
 58.73 l 110.77 54.945 111.676 49.914 115.215 47.27 c 127.906 37.785 142.629
 29.59 158.977 22.906 c 163.754 20.953 168.773 19.203 173.91 17.691 c 176.676
 17.203 178.734 14.703 178.539 11.758 c 178.309 8.176 174.816 5.715 171.359
 6.719 c 165.641 8.375 160.043 10.32 154.719 12.496 c 137.492 19.535 121.934
 28.203 108.48 38.258 c 100.281 44.387 98.148 56.008 103.621 64.715 c 103.77
 64.953 l 109.379 73.875 121.031 76.852 130.301 71.73 c 155.48 57.805 174.395
 61.176 186.848 67.766 c 181.566 77.52 178.895 88.434 179.082 99.66 c 179.473
 122.902 192.141 143.223 210.922 154.348 c 208.77 163.578 203.105 171.66
 194.992 176.895 c 191.055 179.434 186.734 181.152 182.266 182.016 c 172.984
 148.562 l 167.066 127.227 139.039 122.355 126.254 140.398 c 124.113 142.434
 118.621 156.656 105.211 152.938 c 86.68 147.801 69.109 163.672 72.301 182.609
 c 78.066 216.828 l 76.352 220.027 74.871 223.348 73.641 226.766 c 62.566
 226.012 45.461 221.453 32.52 202.648 c 24.051 190.332 4.707 196.375 4.664
 211.391 c 4.605 236.566 14.035 256.762 31.949 269.793 c h
101.258 372.75 m 91.742 372.75 84 365.008 84 355.488 c 84 349.477 86.949
 346.016 87.852 343.988 c 97.355 326.379 101.16 306.398 100.34 287.117 c
 99.48 266.895 125.914 255.863 139.723 275.703 c 148.578 288.41 147.051 
305.688 136.078 316.652 c 128.125 324.605 121.984 333.828 117.742 343.629
 c 116.168 347.266 118.793 351.492 122.902 351.492 c 132.754 351.492 l 138.617
 351.492 143.383 356.258 143.383 362.121 c 143.383 368.059 138.531 372.75
 132.754 372.75 c h
180.094 316.652 m 172.305 324.441 166.133 333.52 161.758 343.633 c 160.152
 347.34 162.871 351.492 166.918 351.492 c 176.77 351.492 l 182.629 351.492
 187.398 356.258 187.398 362.121 c 187.398 367.98 182.629 372.75 176.77 
372.75 c 157.07 372.75 l 155.387 372.75 153.711 372.652 152.051 372.457 
c 153.656 369.461 154.633 365.816 154.633 362.121 c 154.633 350.055 144.82
 340.242 132.754 340.242 c 132.02 340.242 l 135.227 334.699 139.129 329.594
 143.684 324.969 c 145.801 322.816 147.668 320.688 149.398 318.086 c 161.641
 317.617 173.062 315.734 183.629 312.465 c 182.578 313.945 181.398 315.348
 180.094 316.652 c h
262.812 220.504 m 268.547 220.238 274.266 219.055 279.867 216.973 c 286.57
 214.484 294.051 217.91 296.543 224.613 c 298.984 231.188 295.727 238.75
 288.902 241.289 c 275.625 246.223 263.438 246.906 254.121 246.199 c 257.422
 238.562 260.469 229.688 262.812 220.504 c h
201.094 186.348 m 210.977 179.969 218.078 170.352 221.266 159.289 c 227.863
 161.746 234.656 163.035 241.16 163.305 c 246.836 163.535 252.555 162.996
 257.656 161.887 c 259.16 189.289 253.586 222.184 240.98 247.84 c 240.137
 249.559 240.258 251.527 241.117 253.059 c 245.992 261.816 253.656 269.574
 263.867 274.902 c 263.867 274.902 263.871 274.902 263.871 274.902 c 270.211
 278.203 272.684 286.051 269.379 292.395 c 266.148 298.605 258.367 301.266
 251.887 297.906 c 242.562 293.047 234.406 286.594 227.641 278.727 c 225.508
 276.25 221.727 276.109 219.418 278.395 c 201.879 295.746 179.773 304.453
 154.891 306.48 c 158.172 295.559 157.047 283.312 151.219 272.891 c 151.211
 272.875 151.203 272.863 151.195 272.848 c 144.812 261.469 134.586 254 121.293
 254 c 105.176 254 91.562 265.867 89.371 281.867 c 74.656 260.297 78.039
 226.059 101.363 205.094 c 109.184 222.605 l 113.383 232.004 124.371 236.195
 133.754 232.039 c 133.77 232.035 133.785 232.027 133.801 232.023 c 138.145
 230.082 141.5 226.629 143.344 222.273 c 147.223 213.117 142.461 206.18 
142.102 204.875 c 135.266 189.574 l 144.539 188.426 153.441 189.305 161.645
 191.836 c 174.734 195.859 189.164 194.047 201.094 186.348 c h
124.055 192.066 m 124.246 192.492 123.555 190.941 132.953 211.98 c 134.586
 215.641 133.016 220.051 129.211 221.75 c 125.566 223.379 121.148 221.809
 119.453 218.016 c 117.199 212.973 112.867 203.27 110.613 198.215 c 114.73
 195.703 118.926 193.703 124.055 192.066 c h
87.227 203.469 m 83.398 180.738 l 81.574 169.926 91.562 160.828 102.211
 163.777 c 124.254 169.891 133.527 148.574 135.434 146.902 c 142.762 136.566
 158.754 139.344 162.148 151.57 c 170.684 182.344 l 168.727 182.078 166.68
 181.613 164.957 181.082 c 117.105 166.309 87.301 203.422 87.227 203.469
 c h
87.227 203.469 m f
Q Q
showpage
%%Trailer
end
%%EOF
