%!PS-Adobe-3.0 EPSF-3.0
%%Creator: cairo 1.16.0 (https://cairographics.org)
%%CreationDate: Mon Aug 23 08:35:09 2021
%%Pages: 1
%%DocumentData: Clean7Bit
%%LanguageLevel: 2
%%BoundingBox: 0 1 384 383
%%EndComments
%%BeginProlog
50 dict begin
/q { gsave } bind def
/Q { grestore } bind def
/cm { 6 array astore concat } bind def
/w { setlinewidth } bind def
/J { setlinecap } bind def
/j { setlinejoin } bind def
/M { setmiterlimit } bind def
/d { setdash } bind def
/m { moveto } bind def
/l { lineto } bind def
/c { curveto } bind def
/h { closepath } bind def
/re { exch dup neg 3 1 roll 5 3 roll moveto 0 rlineto
      0 exch rlineto 0 rlineto closepath } bind def
/S { stroke } bind def
/f { fill } bind def
/f* { eofill } bind def
/n { newpath } bind def
/W { clip } bind def
/W* { eoclip } bind def
/BT { } bind def
/ET { } bind def
/BDC { mark 3 1 roll /BDC pdfmark } bind def
/EMC { mark /EMC pdfmark } bind def
/cairo_store_point { /cairo_point_y exch def /cairo_point_x exch def } def
/Tj { show currentpoint cairo_store_point } bind def
/TJ {
  {
    dup
    type /stringtype eq
    { show } { -0.001 mul 0 cairo_font_matrix dtransform rmoveto } ifelse
  } forall
  currentpoint cairo_store_point
} bind def
/cairo_selectfont { cairo_font_matrix aload pop pop pop 0 0 6 array astore
    cairo_font exch selectfont cairo_point_x cairo_point_y moveto } bind def
/Tf { pop /cairo_font exch def /cairo_font_matrix where
      { pop cairo_selectfont } if } bind def
/Td { matrix translate cairo_font_matrix matrix concatmatrix dup
      /cairo_font_matrix exch def dup 4 get exch 5 get cairo_store_point
      /cairo_font where { pop cairo_selectfont } if } bind def
/Tm { 2 copy 8 2 roll 6 array astore /cairo_font_matrix exch def
      cairo_store_point /cairo_font where { pop cairo_selectfont } if } bind def
/g { setgray } bind def
/rg { setrgbcolor } bind def
/d1 { setcachedevice } bind def
/cairo_data_source {
  CairoDataIndex CairoData length lt
    { CairoData CairoDataIndex get /CairoDataIndex CairoDataIndex 1 add def }
    { () } ifelse
} def
/cairo_flush_ascii85_file { cairo_ascii85_file status { cairo_ascii85_file flushfile } if } def
/cairo_image { image cairo_flush_ascii85_file } def
/cairo_imagemask { imagemask cairo_flush_ascii85_file } def
%%EndProlog
%%BeginSetup
%%EndSetup
%%Page: 1 1
%%BeginPageSetup
%%PageBoundingBox: 0 1 384 383
%%EndPageSetup
q 0 1 384 382 rectclip
1 0 0 -1 0 384 cm q
0.270588 0.380392 0.47451 rg
185.602 343.484 m 166.656 343.484 154.074 323.594 162.48 306.613 c 169.797
 291.84 184.73 279.031 184.73 279.031 c 141.848 236.531 l 141.848 236.531
 99.875 272.508 114.223 320.031 c 118.039 332.66 115.152 346.215 107.266
 356.789 c 105.539 359.102 104.418 361.613 104.418 364.242 c 104.418 371.066
 109.953 376.598 116.777 376.598 c 197.762 376.598 l 203.547 376.598 208.238
 371.906 208.238 366.121 c 208.238 353.617 198.105 343.484 185.602 343.484
 c h
185.602 343.484 m f
0.239216 0.356863 0.462745 rg
112.855 314.762 m 119.91 315.746 127.133 316.254 134.414 316.254 c 143.113
 316.254 151.707 315.562 160.098 314.23 c 160.473 311.68 161.242 309.117
 162.48 306.613 c 169.797 291.84 184.73 279.031 184.73 279.031 c 141.848
 236.531 l 141.848 236.531 102.961 269.875 112.855 314.762 c h
112.855 314.762 m f
0.976471 0.87451 0.603922 rg
241.418 187.031 m 98.035 219.543 l 89.559 285.711 l 129.898 301.535 185.281
 293.898 218.309 263.805 c 268.047 219.543 l h
241.418 187.031 m f
0.988235 0.792157 0.45098 rg
93.113 257.957 m 89.559 285.711 l 114.938 295.668 146.27 296.328 174.246
 287.961 c 143.43 287.441 115.211 276.27 93.113 257.957 c h
93.113 257.957 m f
0.423529 0.501961 0.588235 rg
75.785 306.613 m 67.379 323.594 79.961 343.484 98.902 343.484 c 111.406
 343.484 121.539 353.617 121.539 366.121 c 121.539 371.906 116.848 376.598
 111.062 376.598 c 30.078 376.598 l 23.254 376.598 17.723 371.066 17.723
 364.242 c 17.723 361.613 18.84 359.102 20.566 356.789 c 28.543 346.098 
31.176 332.395 27.398 319.602 c 17.766 286.969 34.621 259.836 46.012 246.141
 c -44.375 144.504 42.402 93.309 61.961 62.027 c 72.695 44.844 74.516 30.555
 73.84 20.91 c 73.328 13.613 79.086 7.402 86.406 7.402 c 88.918 7.402 91.316
 8.145 93.328 9.465 c 95.352 10.789 96.984 12.691 97.965 14.996 c 101.16
 22.461 105.566 35.273 107.684 52.719 c 109.18 65.066 105.477 77.492 97.492
 87.031 c 90.418 95.48 86.977 105.734 86.977 115.922 c 86.977 124.52 89.422
 133.07 94.207 140.441 c 95.504 170.656 l 124.812 160.77 l 130.504 161.773
 136.402 161.676 142.191 160.406 c 146.574 159.441 151.539 158.168 157.039
 156.492 c 175.262 176.141 l 190.734 143.258 l 199.121 139.266 208.113 134.48
 217.625 128.746 c 237.734 140.746 l 248.066 108.262 l 258.016 101.105 269.25
 95.883 281.215 93.215 c 305.191 87.879 339.543 90.547 362.234 136.727 c
 358.918 143.695 359.898 151.945 364.754 157.949 c 373.133 168.336 383.676
 186.578 375.32 205.918 c 370.906 216.133 357.539 218.637 349.668 210.77
 c 320.742 181.844 l 316.73 177.832 309.844 180.008 308.898 185.602 c 307.324
 194.957 307.652 208.926 317.184 224.277 c 321.656 231.484 319.902 240.891
 313.008 245.832 c 310.184 247.855 306.93 248.836 303.703 248.836 c 298.766
 248.836 293.891 246.547 290.762 242.238 c 268.871 220.348 l 268.598 220.07
 268.32 219.812 268.047 219.543 c 257.043 209.18 240.957 206.168 226.914
 211.949 c 218.699 215.328 214.777 224.727 218.156 232.941 c 235.309 274.648
 l 239.211 284.137 234.684 294.992 225.195 298.895 c 222.887 299.844 220.492
 300.297 218.137 300.297 c 210.832 300.297 203.898 295.957 200.949 288.781
 c 182.551 244.047 l 179.711 237.141 171.965 233.652 164.926 236.133 c 142.676
 243.965 97.109 264.508 75.785 306.613 c h
75.785 306.613 m f
0.976471 0.87451 0.603922 rg
356.031 100.621 m 356.582 89.691 343.43 83.738 335.957 91.73 c 329.422 
98.723 325.648 108.332 326.383 118.816 c 327.629 136.613 342.082 150.941
 359.887 152.051 c 374.184 152.938 378.68 136.828 369.344 129.277 c 360.227
 121.906 355.531 110.559 356.031 100.621 c h
356.031 100.621 m f
249.086 168.691 m 244.316 176.004 233.07 174.121 231.117 165.609 c 228.75
 155.277 224.652 142.723 217.625 128.746 c 226.938 123.145 236.742 116.621
 246.977 109.047 c 247.34 108.781 247.695 108.52 248.066 108.262 c 252.965
 115.238 256.277 123.477 257.414 132.527 c 259.07 145.707 255.816 158.371
 249.086 168.691 c h
249.086 168.691 m f
192.777 176.656 m 189.441 189.512 181.734 200.074 171.668 207.172 c 164.527
 212.203 154.785 206.289 156.117 197.66 c 157.805 186.762 158.641 172.91
 157.039 156.488 c 166.711 153.523 178.035 149.297 190.734 143.258 c 194.812
 153.527 195.773 165.141 192.777 176.656 c h
192.777 176.656 m f
124.812 160.77 m 122.465 169.762 117.754 178.27 110.695 185.297 c 101.281
 194.668 89.281 199.848 77 200.836 c 68.289 201.539 62.902 191.496 68.445
 184.738 c 76.828 174.516 86.316 160.035 94.207 140.441 c 96.844 144.527
 100.211 148.25 104.27 151.422 c 104.863 151.883 l 110.746 156.492 117.621
 159.508 124.812 160.77 c h
124.812 160.77 m f
0.321569 0.419608 0.501961 rg
98.902 343.484 m 79.961 343.484 67.379 323.594 75.785 306.613 c 83.715 
290.953 95.004 278.277 107.199 268.129 c 70.277 245.012 45.719 203.98 45.719
 157.207 c 45.719 110.598 70.105 69.691 106.809 46.527 c 104.508 32.223 
100.77 21.551 97.965 14.996 c 96.984 12.691 95.352 10.789 93.328 9.469 c
 91.316 8.145 88.914 7.402 86.406 7.402 c 79.086 7.402 73.328 13.613 73.84
 20.91 c 74.516 30.555 72.695 44.844 61.961 62.031 c 42.402 93.309 -44.375
 144.504 46.012 246.141 c 34.621 259.84 17.766 286.973 27.398 319.602 c 
31.176 332.398 28.543 346.098 20.566 356.789 c 18.84 359.102 17.723 361.617
 17.723 364.242 c 17.723 371.066 23.254 376.602 30.078 376.602 c 111.062
 376.602 l 116.848 376.602 121.539 371.91 121.539 366.121 c 121.543 353.617
 111.406 343.484 98.902 343.484 c h
98.902 343.484 m f
0 g
359.93 195.316 m 362.613 193.746 363.512 190.301 361.945 187.621 c 358.719
 182.113 l 357.152 179.43 353.707 178.531 351.023 180.098 c 348.344 181.668
 347.441 185.113 349.012 187.793 c 352.234 193.305 l 353.801 195.98 357.246
 196.887 359.93 195.316 c h
359.93 195.316 m f
316.801 185.82 m 345.727 214.746 l 356.395 225.414 374.531 222 380.516 
208.148 c 387.555 191.863 383.852 173.262 370.117 155.621 c 373.973 153.676
 376.98 150.438 378.637 146.184 c 381.586 138.609 379.285 130.059 372.918
 124.906 c 365.656 119.035 361.246 109.613 361.688 100.906 c 362.504 84.688
 342.887 76.121 331.883 87.891 c 330.598 89.27 329.426 90.723 328.352 92.227
 c 301.613 79.441 268.988 86.324 244.82 103.695 c 244.816 103.695 244.812
 103.699 244.812 103.703 c 212.254 126.578 179.852 146.359 141.027 154.914
 c 105.582 162.695 77.07 120.234 101.844 90.645 c 110.805 79.945 114.984
 65.875 113.309 52.043 c 111.129 34.066 106.598 20.773 103.184 12.793 c 
100.387 6.23 93.863 1.777 86.445 1.777 c 75.91 1.777 67.527 10.73 68.27 
21.305 c 68.848 29.539 67.398 42.77 57.23 59.051 c 53.355 65.246 46.258 
72.699 38.688 81.09 c 36.609 83.398 36.789 86.953 39.098 89.035 c 41.402
 91.117 44.961 90.934 47.043 88.629 c 54.824 79.996 62.289 72.18 66.77 65.012
 c 78.539 46.168 80.184 30.414 79.492 20.52 c 79.207 16.469 82.383 13.027
 86.445 13.027 c 89.219 13.027 91.75 14.664 92.832 17.211 c 95.965 24.523
 100.117 36.742 102.141 53.395 c 103.441 64.152 100.188 75.094 93.215 83.422
 c 79.621 99.66 77.582 122.633 87.961 140.926 c 81.984 155.172 74.09 169.031
 64.137 181.172 c 55.734 191.41 63.438 207.59 77.488 206.441 c 89.75 205.453
 101.402 200.668 110.812 192.828 c 119.098 185.926 125.312 176.902 128.84
 166.938 c 133.719 167.305 138.609 166.961 143.441 165.898 c 146.242 165.281
 149.105 164.582 151.992 163.805 c 152.641 174.734 152.32 185.652 150.594
 196.805 c 148.527 210.199 163.562 219.789 174.945 211.77 c 186.441 203.668
 194.723 191.699 198.258 178.074 c 200.922 167.848 200.922 156.844 197.723
 146.133 c 203.535 143.242 209.395 140.09 215.242 136.711 c 224.562 156.938
 224.84 166.758 227.324 171.137 c 232.82 180.824 247.273 181.812 253.828
 171.77 c 262.109 158.422 264.672 144.879 263.031 131.828 c 262.094 124.344
 259.57 116.559 255.762 109.867 c 275.703 97.199 301.906 92.156 323.129 
102.172 c 321.199 107.531 320.391 113.301 320.805 119.211 c 320.809 119.219
 320.809 119.227 320.809 119.238 c 321.379 127.301 324.34 135.062 329.289
 141.5 c 325.234 147.367 l 323.469 149.922 324.109 153.426 326.668 155.191
 c 329.211 156.949 332.719 156.328 334.492 153.762 c 337.426 149.516 l 337.719
 149.672 345.742 156.27 357.777 157.512 c 358.527 158.914 359.41 160.242
 360.41 161.48 c 368.734 171.797 377.188 187.492 370.188 203.688 c 367.352
 210.25 358.762 211.875 353.68 206.793 c 324.754 177.867 l 317.508 170.621
 305.09 174.582 303.387 184.668 c 301.695 194.719 301.891 210.262 312.438
 227.242 c 315.355 231.941 314.18 238.098 309.77 241.258 c 305.039 244.645
 298.641 243.465 295.348 238.934 c 294.906 238.324 272.156 215.656 271.938
 215.449 c 259.516 203.75 241.074 200.059 224.809 206.746 c 224.809 206.746
 224.809 206.746 224.809 206.75 c 213.613 211.352 208.465 224.078 212.988
 235.078 c 230.145 276.785 l 232.859 283.391 229.695 290.973 223.09 293.691
 c 216.484 296.406 208.926 293.297 206.191 286.641 c 187.793 241.906 l 183.805
 232.211 172.953 227.355 163.094 230.828 c 155.715 233.426 148.348 236.496
 141.199 239.953 c 138.391 241.309 137.242 244.688 138.582 247.461 c 139.934
 250.258 143.297 251.43 146.094 250.078 c 152.883 246.801 159.859 243.891
 166.832 241.438 c 171.043 239.953 175.684 242.039 177.387 246.184 c 189.68
 276.074 l 162.094 289.133 127.5 291.684 99.387 283.152 c 107.535 274.57
 117.16 266.934 127.277 260.52 c 129.898 258.852 130.676 255.379 129.012
 252.754 c 127.348 250.137 123.875 249.352 121.246 251.02 c 100.375 264.273
 82.086 281.797 70.781 304.117 c 60.539 324.801 75.789 349.105 98.941 349.105
 c 107.133 349.105 113.992 354.926 115.598 362.648 c 115.602 362.68 115.609
 362.707 115.613 362.734 c 116.488 367.039 115.27 370.969 111.102 370.969
 c 30.117 370.969 l 25.395 370.969 20.957 365.723 25.117 360.148 c 34.293
 347.848 37.105 332.484 32.832 318.008 c 23.891 287.715 39.984 262.23 50.375
 249.734 c 52.152 247.594 52.102 244.477 50.254 242.398 c -8.062 176.824
 10.387 134.656 32.977 105.246 c 34.867 102.781 34.406 99.25 31.941 97.359
 c 29.48 95.465 25.945 95.93 24.055 98.395 c 1.176 128.18 -21.895 175.73
 38.727 246.309 c 27.113 261.547 12.469 288.766 22.043 321.191 c 25.305 
332.242 23.137 343.988 16.098 353.422 c 6.238 366.641 16.418 382.223 30.117
 382.223 c 111.102 382.223 l 112.051 382.223 112.977 382.125 113.879 381.965
 c 114.863 382.133 115.848 382.223 116.812 382.223 c 197.797 382.223 l 206.676
 382.223 213.898 375 213.898 366.121 c 213.898 350.535 201.223 337.859 185.641
 337.859 c 170.793 337.859 161.035 322.281 167.559 309.109 c 170.156 303.867
 174.293 298.039 179.543 292.188 c 184.484 290.559 189.301 288.648 193.957
 286.473 c 195.785 290.914 l 200.914 303.395 215.082 309.148 227.371 304.094
 c 239.711 299.02 245.621 284.852 240.547 272.504 c 234.246 257.184 l 267.871
 227.262 l 286.527 245.922 l 293.488 255.07 306.629 257.34 316.32 250.402
 c 325.531 243.801 328.023 231.023 321.996 221.309 c 313.305 207.309 313.109
 194.672 314.48 186.539 c 314.664 185.453 316.008 185.027 316.801 185.82
 c h
117.625 164.793 m 114.574 172.602 109.223 179.973 101.945 185.508 c 94.625
 191.082 85.816 194.484 76.582 195.227 c 72.82 195.535 70.43 191.238 72.836
 188.305 c 81.953 177.184 89.652 164.477 95.711 151.258 c 101.512 157.207
 109.035 162.121 117.625 164.793 c h
187.402 151.012 m 189.512 159.113 189.402 167.422 187.371 175.242 c 184.5
 186.297 177.785 196.004 168.465 202.574 c 165.418 204.719 161.129 202.293
 161.715 198.52 c 161.715 198.516 161.715 198.512 161.715 198.508 c 163.633
 186.102 163.977 173.016 163.062 160.488 c 171.051 157.859 179.199 154.688
 187.402 151.012 c h
246.508 116.387 m 249.352 121.789 251.125 127.324 251.863 133.203 c 251.867
 133.211 251.867 133.219 251.867 133.23 c 253.289 144.523 250.66 156.035
 244.41 165.617 c 242.367 168.75 237.492 168.074 236.637 164.348 c 234.027
 152.965 229.477 140.406 224.949 130.879 c 232.105 126.426 239.328 121.566
 246.508 116.387 c h
350.449 100.34 m 349.828 112.707 355.723 125.473 365.84 133.652 c 368.785
 136.031 369.121 139.613 368.152 142.105 c 366.652 145.953 362.988 146.766
 358.871 146.316 c 344.473 144.746 333.047 132.988 332.027 118.426 c 331.438
 109.984 334.34 101.738 340.102 95.574 c 344.031 91.371 350.734 94.676 350.449
 100.34 c h
80.84 309.156 m 83.793 303.332 87.336 297.738 91.457 292.387 c 96.082 294.004
 100.863 295.34 105.754 296.391 c 105.332 304.898 106.379 313.375 108.879
 321.656 c 110.637 327.48 110.746 333.754 109.258 339.816 c 106.059 338.559
 102.582 337.859 98.941 337.859 c 84.047 337.859 74.371 322.223 80.84 309.156
 c h
185.641 349.105 m 195.02 349.105 202.652 356.738 202.652 366.117 c 202.652
 368.793 200.473 370.973 197.797 370.973 c 126.453 370.973 l 127.148 368.773
 127.27 366.727 127.168 364.719 c 126.816 357.582 123.777 351.09 119.078
 346.297 c 122.145 337.16 122.363 327.402 119.648 318.406 c 117.652 311.801
 116.746 305.059 116.934 298.293 c 131.992 300.191 147.152 299.562 161.711
 296.789 c 160.082 299.27 158.668 301.715 157.48 304.117 c 147.238 324.801
 162.488 349.105 185.641 349.105 c h
223.395 230.801 m 221.203 225.469 223.73 219.355 229.09 217.152 c 239.191
 212.996 250.523 214.23 259.309 219.82 c 229.711 246.16 l h
223.395 230.801 m f
Q Q
showpage
%%Trailer
end
%%EOF
