%!PS-Adobe-3.0 EPSF-3.0
%%Creator: cairo 1.16.0 (https://cairographics.org)
%%CreationDate: Mon Aug 23 08:35:10 2021
%%Pages: 1
%%DocumentData: Clean7Bit
%%LanguageLevel: 2
%%BoundingBox: 0 13 384 371
%%EndComments
%%BeginProlog
50 dict begin
/q { gsave } bind def
/Q { grestore } bind def
/cm { 6 array astore concat } bind def
/w { setlinewidth } bind def
/J { setlinecap } bind def
/j { setlinejoin } bind def
/M { setmiterlimit } bind def
/d { setdash } bind def
/m { moveto } bind def
/l { lineto } bind def
/c { curveto } bind def
/h { closepath } bind def
/re { exch dup neg 3 1 roll 5 3 roll moveto 0 rlineto
      0 exch rlineto 0 rlineto closepath } bind def
/S { stroke } bind def
/f { fill } bind def
/f* { eofill } bind def
/n { newpath } bind def
/W { clip } bind def
/W* { eoclip } bind def
/BT { } bind def
/ET { } bind def
/BDC { mark 3 1 roll /BDC pdfmark } bind def
/EMC { mark /EMC pdfmark } bind def
/cairo_store_point { /cairo_point_y exch def /cairo_point_x exch def } def
/Tj { show currentpoint cairo_store_point } bind def
/TJ {
  {
    dup
    type /stringtype eq
    { show } { -0.001 mul 0 cairo_font_matrix dtransform rmoveto } ifelse
  } forall
  currentpoint cairo_store_point
} bind def
/cairo_selectfont { cairo_font_matrix aload pop pop pop 0 0 6 array astore
    cairo_font exch selectfont cairo_point_x cairo_point_y moveto } bind def
/Tf { pop /cairo_font exch def /cairo_font_matrix where
      { pop cairo_selectfont } if } bind def
/Td { matrix translate cairo_font_matrix matrix concatmatrix dup
      /cairo_font_matrix exch def dup 4 get exch 5 get cairo_store_point
      /cairo_font where { pop cairo_selectfont } if } bind def
/Tm { 2 copy 8 2 roll 6 array astore /cairo_font_matrix exch def
      cairo_store_point /cairo_font where { pop cairo_selectfont } if } bind def
/g { setgray } bind def
/rg { setrgbcolor } bind def
/d1 { setcachedevice } bind def
/cairo_data_source {
  CairoDataIndex CairoData length lt
    { CairoData CairoDataIndex get /CairoDataIndex CairoDataIndex 1 add def }
    { () } ifelse
} def
/cairo_flush_ascii85_file { cairo_ascii85_file status { cairo_ascii85_file flushfile } if } def
/cairo_image { image cairo_flush_ascii85_file } def
/cairo_imagemask { imagemask cairo_flush_ascii85_file } def
%%EndProlog
%%BeginSetup
%%EndSetup
%%Page: 1 1
%%BeginPageSetup
%%PageBoundingBox: 0 13 384 371
%%EndPageSetup
q 0 13 384 358 rectclip
1 0 0 -1 0 384 cm q
0.501961 0.772549 0.690196 rg
75.602 204.711 m 50.586 210.41 32.727 199.535 21.484 188.102 c 15.23 181.738
 4.383 187.137 5.742 195.953 c 13.805 248.227 82.949 241.633 82.949 241.633
 c h
75.602 204.711 m f
183.621 242.57 m 199.059 251.453 209.457 268.117 209.457 287.207 c 209.457
 287.324 209.457 287.441 209.457 287.559 c 209.359 301.789 227.676 307.441
 235.527 295.574 c 241.352 286.77 244.543 276.062 243.965 264.582 c 242.645
 238.215 221.164 216.926 194.789 215.82 c h
183.621 242.57 m f
93.203 253.555 m 93.203 253.555 70.055 274.531 76.027 310.375 c 79.039 
328.445 90.812 342.078 101.746 351.156 c 112.285 359.902 120.227 364.602
 133.926 364.602 c 160.438 364.602 l 165.922 364.602 170.371 360.152 170.371
 354.668 c 170.371 340.863 156.105 329.676 142.305 329.676 c 123.18 329.676
 l 116.379 315.809 117.664 299.312 126.629 286.734 c 132.668 278.262 138.551
 268.09 140.184 258.91 c h
93.203 253.555 m f
0.92549 0.415686 0.384314 rg
156.148 149.578 m 156.234 149.621 156.328 149.656 156.414 149.699 c 159.086
 100.004 l 159.73 88.027 148.363 84.695 147.895 84.309 c 141.133 81.16 133.086
 83.402 128.926 89.59 c 124.762 95.781 116.715 98.02 109.953 94.875 c 103.191
 91.727 95.145 93.965 90.984 100.156 c 86.82 106.344 78.777 108.586 72.012
 105.438 c 65.25 102.289 57.203 104.531 53.043 110.719 c 53.07 110.645 44.887
 120.102 51.574 129.941 c 78.113 168.996 l h
156.148 149.578 m f
0.313726 0.713726 0.572549 rg
82.949 241.633 m 75.602 204.711 l 63.168 207.543 52.504 206.281 43.539 
202.891 c 43.086 215.531 45.352 227.805 50.105 239.078 c 67.352 243.117 
82.949 241.633 82.949 241.633 c h
82.949 241.633 m f
123.934 291.062 m 124.738 289.578 125.633 288.133 126.629 286.734 c 132.668
 278.262 138.551 268.09 140.184 258.91 c 93.203 253.555 l 93.203 253.555
 84.668 261.289 79.301 275.391 c 92.344 284.648 107.863 290.148 123.934 
291.062 c h
123.934 291.062 m f
237.352 241.93 m 228.824 226.938 212.973 216.582 194.789 215.82 c 183.621
 242.57 l 194.148 248.629 202.324 258.301 206.469 269.895 c 218.023 262.457
 228.359 253.113 237.352 241.93 c h
237.352 241.93 m f
0.501961 0.772549 0.690196 rg
180.18 153.203 m 195.785 150.73 209.555 139.051 212.773 120.402 c 251.73
 139.535 l 250.945 167.41 233.242 268.699 128.703 268.699 c 92.945 268.699
 64.176 238.781 66.066 202.617 c 66.645 191.652 70.062 181.426 75.602 172.656
 c 76.398 171.391 77.238 170.168 78.113 168.977 c 78.113 169 l h
180.18 153.203 m f
0.313726 0.713726 0.572549 rg
194.48 147.965 m 196.84 150.609 199.371 153.117 202.078 155.461 c 214.5
 166.215 229.777 172.98 245.926 175.051 c 250.047 160.125 251.516 147.113
 251.73 139.535 c 212.773 120.402 l 210.598 133.004 203.602 142.418 194.48
 147.965 c h
194.48 147.965 m f
0.501961 0.772549 0.690196 rg
377.707 85.137 m 371.621 69.91 356.879 59.93 340.488 59.93 c 307.5 59.93
 l 296.723 43.145 277.902 32.012 256.473 32.012 c 231.07 32.012 215.055 
25.902 205.91 20.566 c 200.082 17.164 192.809 21.641 193.363 28.367 c 194.008
 36.227 197.68 45.938 209.152 54.754 c 209.152 54.754 197.68 58.504 183.43
 57.062 c 177.398 56.449 172.789 62.305 174.746 68.043 c 176.938 74.477 
180.859 81.871 187.844 86.895 c 192.672 90.363 195.672 95.789 196.547 101.668
 c 200.984 131.52 227.129 154.016 258.082 153.211 c 272.676 152.832 285.992
 147.207 296.273 138.203 c 315.375 150.949 l 329.012 160.047 346.816 159.93
 360.328 150.637 c 365.789 146.887 365.637 138.754 360.125 135.078 c 318.469
 107.281 l 316.832 106.191 315.965 104.246 316.289 102.309 c 316.293 102.281
 316.297 102.258 316.301 102.234 c 316.703 99.781 318.797 97.969 321.281
 97.969 c 368.898 97.969 l 375.523 97.969 380.164 91.289 377.707 85.137 
c h
377.707 85.137 m f
0.921569 0.917647 0.960784 rg
296.84 106.977 m 296.84 116.895 286.742 124.938 274.285 124.938 c 261.828
 124.938 251.73 116.895 251.73 106.977 c 251.73 97.055 261.828 89.016 274.285
 89.016 c 286.742 89.016 296.84 97.055 296.84 106.977 c h
296.84 106.977 m f
0.909804 0.34902 0.309804 rg
99.801 121.555 m 99.801 111.758 101.355 102.328 104.223 93.484 c 99.082
 93.262 94.008 95.66 90.984 100.156 c 86.82 106.344 78.777 108.586 72.012
 105.438 c 65.25 102.289 57.203 104.531 53.043 110.719 c 53.07 110.645 44.887
 120.102 51.574 129.941 c 78.113 168.996 l 108.938 161.324 l 103.09 149.312
 99.801 135.816 99.801 121.555 c h
99.801 121.555 m f
0.937255 0.501961 0.498039 rg
180.18 153.203 m 168.578 180.602 l 165.016 189.016 154.367 191.645 147.305
 185.852 c 140.688 180.434 130.785 182.332 126.645 189.816 c 121.832 198.504
 l 116.871 207.48 104.168 208.008 98.477 199.488 c 78.113 169 l 78.113 168.977
 l 96.062 144.477 128.941 136.309 156.148 149.578 c 163.879 153.348 172.266
 154.457 180.18 153.203 c h
180.18 153.203 m f
0 g
276.566 77.676 m 282.148 79.172 l 281.93 79.773 281.805 80.422 281.805 
81.102 c 281.805 89.062 l 281.805 92.172 284.32 94.688 287.43 94.688 c 290.535
 94.688 293.055 92.172 293.055 89.062 c 293.055 82.094 l 295.055 82.629 
l 298.074 83.441 301.145 81.633 301.945 78.652 c 302.75 75.652 300.969 72.566
 297.965 71.766 c 279.477 66.809 l 276.48 66.004 273.391 67.785 272.59 70.785
 c 271.785 73.789 273.566 76.871 276.566 77.676 c h
276.566 77.676 m f
74.418 247.52 m 75.879 249.418 77.445 251.258 79.125 253.023 c 80.383 254.352
 81.684 255.617 83.027 256.828 c 77.309 264.691 69.508 278.969 69.43 298.395
 c 69.418 301.5 71.926 304.027 75.035 304.043 c 75.055 304.043 l 78.152 
304.043 80.668 301.539 80.68 298.438 c 80.746 282.191 87.188 270.266 91.965
 263.652 c 103.008 270.727 115.523 274.211 127.977 274.324 c 126.289 277.25
 124.309 280.305 122.051 283.473 c 111.891 297.719 110.391 316.375 118.133
 332.152 c 119.078 334.078 121.039 335.301 123.184 335.301 c 142.305 335.301
 l 154.945 335.301 164.746 345.711 164.746 354.668 c 164.746 357.043 162.812
 358.977 160.438 358.977 c 133.926 358.977 l 122.062 358.977 115.258 355.059
 105.344 346.828 c 94.953 338.203 87.77 328.66 83.988 318.457 c 82.91 315.543
 79.676 314.059 76.762 315.137 c 73.848 316.215 72.359 319.453 73.441 322.367
 c 77.914 334.441 86.23 345.586 98.156 355.484 c 109.676 365.047 118.785
 370.227 133.926 370.227 c 160.438 370.227 l 169.02 370.227 175.996 363.246
 175.996 354.668 c 175.996 337.465 158.965 324.051 142.309 324.051 c 126.867
 324.051 l 122.559 312.715 124.121 299.949 131.211 290.004 c 135.254 284.336
 138.508 278.922 140.941 273.859 c 162.074 272.215 179.32 266.344 193.391
 258.094 c 200.152 266.281 203.836 276.465 203.836 287.211 c 203.832 287.523
 l 203.773 296.578 209.301 304.125 217.922 306.75 c 226.605 309.395 235.312
 306.098 240.219 298.68 c 246.965 288.488 250.203 276.602 249.586 264.305
 c 248.797 248.566 241.629 234.148 229.711 223.953 c 234.102 217.617 237.738
 211.184 240.734 204.984 c 242.086 202.188 240.914 198.824 238.117 197.473
 c 235.32 196.121 231.957 197.293 230.605 200.09 c 211.141 240.371 177.062
 263.078 128.707 263.078 c 113.395 263.078 98.383 256.977 87.285 245.281
 c 70.195 227.277 66.914 200.637 78.246 179.32 c 93.805 202.617 l 101.555
 214.469 119.656 214.078 126.762 201.234 c 131.57 192.543 l 134.039 188.082
 139.906 187.066 143.742 190.203 c 153.707 198.383 168.727 194.691 173.762
 182.801 c 184.199 158.152 l 194.973 155.656 204.328 149.316 210.59 140.398
 c 220.113 149.586 231.871 155.395 244.086 157.691 c 243.02 163.75 241.305
 171.512 238.574 180.039 c 237.629 183 239.258 186.164 242.219 187.113 c
 245.176 188.059 248.344 186.43 249.289 183.469 c 251.84 175.496 253.883
 167.082 255.293 158.848 c 256.266 158.867 257.246 158.867 258.227 158.84
 c 272.09 158.48 285.562 153.668 296.613 145.199 c 312.254 155.633 l 327.891
 166.07 348.012 165.938 363.516 155.277 c 372.227 149.293 372.078 136.301
 363.246 130.406 c 323.07 103.602 l 368.898 103.602 l 379.512 103.602 386.852
 92.883 382.93 83.059 c 375.949 65.594 359.289 54.312 340.484 54.312 c 310.484
 54.312 l 298.047 36.773 278.082 26.398 256.473 26.398 c 232.152 26.398 
217.094 20.59 208.746 15.715 c 199.004 10.031 186.832 17.574 187.758 28.836
 c 188.258 34.934 190.469 43.172 197.398 51.355 c 193.594 51.781 188.969
 51.977 183.996 51.473 c 173.895 50.449 166.145 60.25 169.422 69.867 c 172.637
 79.289 177.73 86.555 184.562 91.469 c 187.965 93.914 190.305 97.938 190.984
 102.504 c 192.594 113.324 196.801 123.195 202.887 131.555 c 197.887 140.137
 189.289 146.07 179.301 147.656 c 173.539 148.566 167.715 148.012 162.246
 146.055 c 164.707 100.312 l 165.562 84.379 150.723 79.559 150.516 79.34
 c 142.141 74.98 130.398 77.328 124.262 86.461 c 121.629 90.375 116.609 
91.773 112.332 89.781 c 103.004 85.438 92.062 88.484 86.32 97.023 c 83.688
 100.941 78.672 102.336 74.391 100.348 c 65.195 96.066 54.438 98.965 48.629
 107.227 c 45.48 110.848 39.391 122.023 46.926 133.109 c 71.301 168.977 
l 71.152 169.203 70.996 169.434 70.852 169.66 c 64.965 178.977 61.434 189.641
 60.574 200.613 c 47.625 200.199 35.844 194.688 25.5 184.164 c 15.422 173.914
 -2.004 182.594 0.188 196.816 c 7.191 242.227 55.488 247.305 74.418 247.52
 c h
191.129 82.332 m 186.234 78.812 182.512 73.398 180.07 66.234 c 179.445 
64.395 180.883 62.465 182.863 62.664 c 198.125 64.211 210.391 60.273 210.902
 60.105 c 215.195 58.703 216.164 53.051 212.582 50.297 c 204.242 43.895 
199.664 36.363 198.969 27.914 c 198.789 25.715 201.172 24.32 203.074 25.43
 c 212.621 31.004 229.637 37.645 256.473 37.645 c 275.273 37.645 292.578
 47.113 302.766 62.973 c 303.797 64.586 305.582 65.559 307.496 65.559 c 
340.484 65.559 l 354.66 65.559 367.219 74.066 372.48 87.23 c 373.473 89.719
 371.512 92.352 368.898 92.352 c 321.277 92.352 l 310.797 92.352 306.551
 106.102 315.344 111.969 c 357 139.762 l 359.18 141.215 359.344 144.496 
357.141 146.008 c 345.457 154.039 330.289 154.145 318.496 146.277 c 299.395
 133.527 l 297.277 132.117 294.477 132.301 292.566 133.977 c 282.918 142.43
 270.621 147.266 257.934 147.594 c 230.32 148.312 206.199 128.32 202.113
 100.848 c 200.988 93.289 196.984 86.543 191.129 82.332 c h
238.348 264.867 m 238.844 274.746 236.246 284.293 230.836 292.473 c 228.219
 296.43 224.141 296.883 221.195 295.984 c 218.219 295.078 215.051 292.398
 215.082 287.598 c 215.082 287.211 l 215.082 274.234 210.777 261.914 202.844
 251.883 c 209.77 246.793 216.715 240.363 222.906 232.938 c 232.172 241.102
 237.727 252.48 238.348 264.867 c h
153.977 154.77 m 159.539 157.438 165.473 158.957 171.508 159.27 c 163.402
 178.414 l 161.289 183.402 155.008 184.895 150.871 181.504 c 141.531 173.855
 127.562 176.551 121.727 187.094 c 116.914 195.785 l 113.996 201.062 106.52
 201.395 103.156 196.367 c 97.566 187.992 90.543 177.48 85.059 169.27 c 
100.621 150.77 125.914 142.824 153.977 154.77 c h
57.215 114.504 m 57.395 114.305 57.562 114.094 57.715 113.863 c 60.348 
109.949 65.367 108.551 69.645 110.543 c 78.973 114.887 89.914 111.84 95.656
 103.301 c 98.289 99.383 103.305 97.988 107.586 99.98 c 116.914 104.32 127.855
 101.277 133.598 92.734 c 136.191 88.875 141.105 87.461 145.348 89.332 c
 149.617 91.562 153.82 93.254 153.473 99.707 c 151.23 141.441 l 125.684 
132.469 97 139.637 78.547 159.625 c 56.23 126.785 l 52.293 120.992 56.5 
115.387 57.215 114.504 c h
17.477 192.047 m 29.875 204.656 44.684 211.438 60.609 211.871 c 61.316 
220.324 63.566 228.465 67.242 235.973 c 59.285 235.395 49.281 233.828 39.875
 229.977 c 23.453 223.254 13.84 211.52 11.309 195.102 c 10.781 191.691 15.023
 189.551 17.477 192.047 c h
17.477 192.047 m f
Q Q
showpage
%%Trailer
end
%%EOF
