%!PS-Adobe-3.0 EPSF-3.0
%%Creator: cairo 1.16.0 (https://cairographics.org)
%%CreationDate: Mon Aug 23 08:35:10 2021
%%Pages: 1
%%DocumentData: Clean7Bit
%%LanguageLevel: 2
%%BoundingBox: 19 0 365 384
%%EndComments
%%BeginProlog
50 dict begin
/q { gsave } bind def
/Q { grestore } bind def
/cm { 6 array astore concat } bind def
/w { setlinewidth } bind def
/J { setlinecap } bind def
/j { setlinejoin } bind def
/M { setmiterlimit } bind def
/d { setdash } bind def
/m { moveto } bind def
/l { lineto } bind def
/c { curveto } bind def
/h { closepath } bind def
/re { exch dup neg 3 1 roll 5 3 roll moveto 0 rlineto
      0 exch rlineto 0 rlineto closepath } bind def
/S { stroke } bind def
/f { fill } bind def
/f* { eofill } bind def
/n { newpath } bind def
/W { clip } bind def
/W* { eoclip } bind def
/BT { } bind def
/ET { } bind def
/BDC { mark 3 1 roll /BDC pdfmark } bind def
/EMC { mark /EMC pdfmark } bind def
/cairo_store_point { /cairo_point_y exch def /cairo_point_x exch def } def
/Tj { show currentpoint cairo_store_point } bind def
/TJ {
  {
    dup
    type /stringtype eq
    { show } { -0.001 mul 0 cairo_font_matrix dtransform rmoveto } ifelse
  } forall
  currentpoint cairo_store_point
} bind def
/cairo_selectfont { cairo_font_matrix aload pop pop pop 0 0 6 array astore
    cairo_font exch selectfont cairo_point_x cairo_point_y moveto } bind def
/Tf { pop /cairo_font exch def /cairo_font_matrix where
      { pop cairo_selectfont } if } bind def
/Td { matrix translate cairo_font_matrix matrix concatmatrix dup
      /cairo_font_matrix exch def dup 4 get exch 5 get cairo_store_point
      /cairo_font where { pop cairo_selectfont } if } bind def
/Tm { 2 copy 8 2 roll 6 array astore /cairo_font_matrix exch def
      cairo_store_point /cairo_font where { pop cairo_selectfont } if } bind def
/g { setgray } bind def
/rg { setrgbcolor } bind def
/d1 { setcachedevice } bind def
/cairo_data_source {
  CairoDataIndex CairoData length lt
    { CairoData CairoDataIndex get /CairoDataIndex CairoDataIndex 1 add def }
    { () } ifelse
} def
/cairo_flush_ascii85_file { cairo_ascii85_file status { cairo_ascii85_file flushfile } if } def
/cairo_image { image cairo_flush_ascii85_file } def
/cairo_imagemask { imagemask cairo_flush_ascii85_file } def
%%EndProlog
%%BeginSetup
%%EndSetup
%%Page: 1 1
%%BeginPageSetup
%%PageBoundingBox: 19 0 365 384
%%EndPageSetup
q 19 0 346 384 rectclip
1 0 0 -1 0 384 cm q
0.67451 0.862745 0.941176 rg
65.895 267.043 m 138.57 289.465 l 138.57 345.312 l 138.57 356.32 130.973
 365.547 120.738 368.055 c 43.684 347.75 l 43.684 347.75 65.895 322.266 
65.895 267.043 c h
65.895 267.043 m f
318.105 267.043 m 245.43 289.465 l 245.43 345.312 l 245.43 356.32 253.027
 365.547 263.262 368.055 c 340.316 347.75 l 340.316 347.75 318.105 322.266
 318.105 267.043 c h
318.105 267.043 m f
0.576471 0.827451 0.937255 rg
78.391 336.293 m 78.391 311.812 93.426 290.855 114.762 282.121 c 65.895
 267.043 l 65.895 322.266 43.684 347.75 43.684 347.75 c 82.562 357.996 l
 79.883 351.281 78.391 343.965 78.391 336.293 c h
78.391 336.293 m f
272.656 321.965 m 272.656 301.34 283.332 283.223 299.453 272.797 c 245.43
 289.465 l 245.43 345.309 l 245.43 356.316 253.027 365.547 263.262 368.055
 c 288.055 361.52 l 278.496 351.102 272.656 337.215 272.656 321.965 c h
272.656 321.965 m f
0.505882 0.807843 0.941176 rg
192 116.402 m 271.848 116.402 329.824 167.527 329.824 230.598 c 329.824
 293.664 271.848 333.672 192 333.672 c 112.152 333.672 54.176 293.664 54.176
 230.598 c 54.176 167.527 112.152 116.402 192 116.402 c h
192 116.402 m f
0.443137 0.772549 0.921569 rg
172.969 251.762 m 172.969 117.402 l 103.105 124.805 54.176 172.66 54.176
 230.598 c 54.176 287.75 101.785 325.961 170.141 332.629 c 164.664 321.207
 161.594 308.41 161.594 294.898 c 161.594 279.211 165.73 264.488 172.969
 251.762 c h
172.969 251.762 m f
0.67451 0.862745 0.941176 rg
309.355 183.809 m 309.355 233.352 256.812 273.516 192 273.516 c 127.188
 273.516 74.645 233.352 74.645 183.809 c 74.645 160.016 87.008 137.195 109.02
 120.375 c 131.027 103.551 160.875 94.098 192 94.098 c 256.812 94.098 309.355
 134.262 309.355 183.809 c h
309.355 183.809 m f
0.760784 0.898039 0.960784 rg
345.75 137.5 m 345.676 137.434 l 334.746 128.145 329.98 113.484 333.363
 99.547 c 333.387 99.461 l 338.914 76.699 322.711 54.418 299.355 52.652 
c 299.293 52.645 l 284.965 51.566 272.48 42.488 267.027 29.191 c 260.926
 14.309 246.656 5.629 231.852 5.629 c 225.086 5.629 218.215 7.441 211.957
 11.309 c 211.949 11.309 l 199.727 18.863 184.273 18.863 172.051 11.309 
c 172.043 11.309 l 152.102 -1.02 125.863 7.504 116.973 29.191 c 114.242 
35.84 109.762 41.43 104.164 45.496 c 98.578 49.562 91.867 52.105 84.703 
52.645 c 84.645 52.652 l 61.289 54.418 45.082 76.699 50.613 99.461 c 50.633
 99.547 l 54.02 113.484 49.254 128.145 38.324 137.434 c 38.246 137.5 l 20.398
 152.656 20.398 180.199 38.246 195.355 c 38.324 195.422 l 38.699 195.742
 39.07 196.07 39.434 196.402 c 56.078 211.699 78.754 218.359 100.902 213.82
 c 123.473 209.191 150.848 209.094 176.906 223.328 c 186.305 228.461 197.691
 228.461 207.09 223.328 c 233.152 209.094 260.523 209.191 283.098 213.82
 c 305.242 218.359 327.918 211.699 344.562 196.402 c 344.926 196.07 345.297
 195.742 345.676 195.422 c 345.75 195.355 l 363.602 180.199 363.602 152.656
 345.75 137.5 c h
345.75 137.5 m f
0.992157 0.94902 0.894118 rg
254.207 70.547 m 271.645 61.02 285.152 44.453 290.195 23.621 c 290.215 
23.539 290.234 23.457 290.254 23.371 c 292.254 14.992 303.723 14.043 307.027
 22 c 312.766 35.809 314.328 51.496 310.539 67.141 c 305.828 86.617 293.711
 102.363 277.906 112.117 c 264.73 120.246 247.414 113.801 242.641 99.074
 c 239.059 88.02 244.008 76.117 254.207 70.547 c h
254.207 70.547 m f
214.09 177.027 m 214.09 189.23 204.199 199.121 192 199.121 c 179.801 199.121
 169.91 189.23 169.91 177.027 c 169.91 164.828 179.801 129.453 192 129.453
 c 204.199 129.453 214.09 164.828 214.09 177.027 c h
214.09 177.027 m f
0.423529 0.501961 0.588235 rg
58.777 375.406 m 56.141 377.273 52.926 378.375 49.449 378.375 c 37.547 
378.375 l 32.309 378.375 28.066 374.129 28.066 368.895 c 28.066 356.68 37.965
 346.777 50.18 346.777 c 55.34 346.777 59.898 349.32 62.699 353.211 c h
58.777 375.406 m f
0.321569 0.419608 0.501961 rg
86.887 375.406 m 84.25 377.273 81.031 378.375 77.559 378.375 c 65.652 378.375
 l 60.418 378.375 56.172 374.129 56.172 368.895 c 56.172 356.68 66.074 346.777
 78.289 346.777 c 83.449 346.777 88.004 349.32 90.805 353.211 c h
86.887 375.406 m f
0.423529 0.501961 0.588235 rg
325.223 375.406 m 327.859 377.273 331.074 378.375 334.551 378.375 c 346.453
 378.375 l 351.691 378.375 355.938 374.129 355.938 368.895 c 355.938 356.68
 346.035 346.777 333.82 346.777 c 328.66 346.777 324.105 349.32 321.301 
353.211 c h
325.223 375.406 m f
0.321569 0.419608 0.501961 rg
297.113 375.406 m 299.75 377.273 302.965 378.375 306.441 378.375 c 318.348
 378.375 l 323.582 378.375 327.828 374.129 327.828 368.895 c 327.828 356.68
 317.926 346.777 305.711 346.777 c 300.551 346.777 295.996 349.32 293.195
 353.211 c h
297.113 375.406 m f
0.423529 0.501961 0.588235 rg
106.395 346.777 m 114.918 346.777 121.828 353.688 121.828 362.211 c 121.828
 371.141 114.594 378.375 105.664 378.375 c 93.762 378.375 l 88.523 378.375
 84.281 374.129 84.281 368.895 c 84.281 356.68 94.184 346.777 106.395 346.777
 c h
106.395 346.777 m f
277.605 346.777 m 269.082 346.777 262.172 353.688 262.172 362.211 c 262.172
 371.141 269.406 378.375 278.336 378.375 c 290.238 378.375 l 295.477 378.375
 299.719 374.129 299.719 368.895 c 299.719 356.68 289.816 346.777 277.605
 346.777 c h
277.605 346.777 m f
0.576471 0.827451 0.937255 rg
110.555 142.5 m 110.555 134.195 111.133 126.027 112.223 118.023 c 89.113
 134.406 74.645 157.812 74.645 183.809 c 74.645 226.211 113.137 261.742 
164.863 271.102 c 131.367 238.5 110.555 192.934 110.555 142.5 c h
110.555 142.5 m f
0.67451 0.862745 0.941176 rg
110.555 142.5 m 110.555 89.895 133.191 42.578 169.25 9.754 c 149.723 -0.191
 125.457 8.5 116.973 29.191 c 114.242 35.84 109.766 41.43 104.168 45.496
 c 98.578 49.562 91.871 52.105 84.707 52.645 c 84.645 52.652 l 61.289 54.418
 45.086 76.699 50.613 99.461 c 50.637 99.547 l 54.02 113.484 49.254 128.145
 38.324 137.434 c 38.25 137.5 l 20.402 152.656 20.402 180.199 38.25 195.355
 c 38.324 195.422 l 38.703 195.742 39.074 196.07 39.438 196.402 c 56.082
 211.699 78.758 218.359 100.902 213.82 c 108.215 212.32 116.031 211.301 
124.141 211.086 c 115.395 189.953 110.555 166.793 110.555 142.5 c h
110.555 142.5 m f
0.992157 0.94902 0.894118 rg
129.793 70.547 m 112.355 61.02 98.848 44.453 93.805 23.621 c 93.785 23.539
 93.766 23.457 93.746 23.371 c 91.746 14.992 80.277 14.043 76.973 22 c 71.234
 35.809 69.672 51.496 73.461 67.141 c 78.172 86.617 90.289 102.363 106.094
 112.117 c 119.27 120.246 136.586 113.801 141.359 99.074 c 144.941 88.02
 139.992 76.117 129.793 70.547 c h
129.793 70.547 m f
0 g
192 123.828 m 183.988 123.828 176.969 131.504 171.133 146.641 c 167.164
 156.934 164.285 169.711 164.285 177.027 c 164.285 192.312 176.719 204.742
 192 204.742 c 207.281 204.742 219.715 192.312 219.715 177.027 c 219.715
 169.711 216.836 156.93 212.867 146.641 c 207.031 131.504 200.012 123.828
 192 123.828 c h
192 193.492 m 182.922 193.492 175.535 186.109 175.535 177.027 c 175.535
 171.852 177.812 160.582 181.629 150.688 c 186.543 137.945 190.871 135.078
 192 135.078 c 193.129 135.078 197.457 137.945 202.371 150.688 c 206.184
 160.582 208.465 171.852 208.465 177.027 c 208.465 186.109 201.078 193.492
 192 193.492 c h
192 193.492 m f
140.219 170.43 m 137.113 170.43 134.594 172.945 134.594 176.055 c 134.594
 186.004 l 134.594 189.109 137.113 191.629 140.219 191.629 c 143.324 191.629
 145.844 189.109 145.844 186.004 c 145.844 176.055 l 145.844 172.945 143.324
 170.43 140.219 170.43 c h
140.219 170.43 m f
243.781 170.43 m 240.676 170.43 238.156 172.945 238.156 176.055 c 238.156
 186.004 l 238.156 189.109 240.676 191.629 243.781 191.629 c 246.887 191.629
 249.406 189.109 249.406 186.004 c 249.406 176.055 l 249.406 172.945 246.891
 170.43 243.781 170.43 c h
243.781 170.43 m f
349.32 199.707 m 349.359 199.672 349.398 199.641 349.434 199.605 c 349.453
 199.59 l 369.875 182.184 369.848 150.648 349.453 133.266 c 349.434 133.246
 l 349.398 133.215 349.359 133.18 349.32 133.148 c 339.969 125.203 335.945
 112.867 338.816 100.941 c 338.82 100.93 l 338.832 100.883 338.844 100.836
 338.855 100.789 c 343.457 81.844 334.836 62.238 318.188 52.691 c 318.594
 41.504 316.598 30.363 312.223 19.84 c 306.828 6.852 288.047 8.379 284.785
 22.066 c 284.68 22.414 283.219 29.406 279.07 37.41 c 276.16 34.445 273.828
 30.949 272.23 27.059 c 261.988 2.059 231.949 -7.496 209.188 6.406 c 209.121
 6.441 209.055 6.48 208.992 6.52 c 198.512 13 185.488 13 175.008 6.52 c 
174.945 6.48 174.883 6.445 174.82 6.406 c 151.941 -7.582 121.945 2.234 111.773
 27.055 c 110.176 30.938 107.84 34.441 104.93 37.41 c 100.898 29.633 99.723
 23.715 99.215 22.066 c 95.957 8.387 77.176 6.844 71.777 19.84 c 67.406 
30.363 65.41 41.504 65.816 52.691 c 49.164 62.234 40.543 81.844 45.148 100.789
 c 45.16 100.836 45.172 100.883 45.184 100.926 c 45.184 100.941 l 50.176
 121.695 34.75 132.938 34.547 133.266 c 14.129 150.664 14.148 182.203 34.547
 199.59 c 34.566 199.605 l 34.602 199.641 34.641 199.672 34.68 199.703 c
 36.625 201.363 41.621 206.32 50.34 211.172 c 49.156 217.566 48.547 224.078
 48.547 230.598 c 48.547 247.434 52.449 263.023 60 276.895 c 58.793 300.352
 53.387 317.238 49 327.332 c 45.359 335.707 41.824 340.902 40.27 342.988
 c 29.855 346.988 22.438 357.09 22.438 368.895 c 22.438 377.223 29.215 384
 37.547 384 c 49.449 384 l 52.547 384 55.551 383.34 58.328 382.094 c 60.5
 383.305 62.996 384 65.652 384 c 77.559 384 l 80.656 384 83.66 383.34 86.438
 382.094 c 88.609 383.305 91.105 384 93.762 384 c 105.668 384 l 113.871 
384 121.027 379.441 124.746 372.723 c 136.324 368.695 144.195 357.793 144.195
 345.312 c 144.195 334.117 l 159.086 337.535 175.16 339.297 192 339.297 
c 208.992 339.297 225.016 337.562 239.809 334.184 c 239.809 345.312 l 239.809
 357.793 247.68 368.695 259.258 372.723 c 262.973 379.441 270.129 384 278.336
 384 c 290.238 384 l 292.895 384 295.391 383.305 297.562 382.094 c 300.34
 383.34 303.348 384 306.441 384 c 318.348 384 l 321.004 384 323.5 383.305
 325.672 382.094 c 328.449 383.34 331.453 384 334.551 384 c 346.453 384 
l 354.785 384 361.562 377.223 361.562 368.895 c 361.562 357.09 354.145 346.988
 343.73 342.988 c 342.164 340.883 338.633 335.691 335 327.332 c 330.617 
317.246 325.219 300.387 324.004 276.965 c 331.555 263.113 335.453 247.52
 335.453 230.598 c 335.453 224.078 334.844 217.562 333.66 211.168 c 342.254
 206.383 347.07 201.621 349.32 199.707 c h
295.727 24.676 m 296.469 21.57 300.629 21.254 301.832 24.156 c 314.508 
54.664 303.113 89.953 274.953 107.328 c 264.84 113.566 251.625 108.543 247.992
 97.34 c 245.281 88.977 249.031 79.781 256.906 75.48 c 272.383 67.027 283.258
 53.336 285.637 48.527 c 293.27 36.496 295.184 26.32 295.727 24.676 c h
82.168 24.156 m 83.375 21.246 87.535 21.574 88.273 24.676 c 88.719 26.023
 90.754 36.797 98.672 49.082 c 110.941 68.105 126.77 74.852 129.848 77.312
 c 135.852 82.105 138.359 90.074 136.008 97.34 c 132.375 108.551 119.172
 113.578 109.047 107.328 c 80.566 89.754 69.617 54.363 82.168 24.156 c h
49.449 372.75 m 37.547 372.75 l 35.418 372.75 33.688 371.02 33.688 368.895
 c 33.688 359.812 41.082 352.402 50.18 352.402 c 51.898 352.402 53.527 352.84
 55.051 353.727 c 52.188 358.094 50.547 363.5 50.547 368.895 c 50.547 370.031
 50.711 371.445 51.016 372.637 c 50.5 372.711 49.977 372.75 49.449 372.75
 c h
77.559 372.75 m 65.652 372.75 l 63.504 372.75 61.797 370.953 61.797 368.895
 c 61.797 359.754 69.262 352.402 78.289 352.402 c 79.949 352.402 81.598 
352.809 83.164 353.719 c 80.352 358.004 78.664 363.395 78.656 368.859 c 
78.656 368.871 78.656 368.883 78.656 368.895 c 78.656 369.973 78.805 371.391
 79.125 372.637 c 78.609 372.711 78.086 372.75 77.559 372.75 c h
105.664 372.75 m 93.762 372.75 l 91.648 372.75 89.906 370.992 89.906 368.895
 c 89.906 368.891 89.906 368.883 89.906 368.879 c 89.914 359.996 97.098 
352.41 106.387 352.402 c 106.395 352.402 l 113.234 352.402 118.102 359.262
 115.48 366.016 c 115.473 366.031 115.469 366.051 115.461 366.07 c 113.918
 369.977 110.113 372.75 105.664 372.75 c h
278.336 372.75 m 273.883 372.75 270.074 369.969 268.531 366.059 c 268.527
 366.043 268.523 366.027 268.52 366.016 c 265.895 359.246 270.781 352.402
 277.605 352.402 c 277.613 352.402 l 286.844 352.41 294.094 359.953 294.094
 368.895 c 294.094 370.953 292.383 372.75 290.238 372.75 c h
306.441 372.75 m 305.914 372.75 305.391 372.711 304.875 372.633 c 305.191
 371.395 305.344 369.988 305.344 368.895 c 305.344 363.375 303.625 357.969
 300.836 353.719 c 302.398 352.812 304.051 352.402 305.711 352.402 c 314.883
 352.402 322.203 359.887 322.203 368.895 c 322.203 370.953 320.496 372.75
 318.348 372.75 c h
346.453 372.75 m 334.551 372.75 l 334.023 372.75 333.5 372.711 332.984 
372.633 c 333.305 371.379 333.453 369.949 333.453 368.895 c 333.453 363.461
 331.793 358.059 328.945 353.727 c 336.984 349.066 350.312 356.578 350.312
 368.895 c 350.312 371.02 348.582 372.75 346.453 372.75 c h
329.488 341.602 m 326.328 342.262 323.375 343.641 320.84 345.641 c 316.488
 342.797 311.176 341.152 305.711 341.152 c 301.141 341.152 296.441 342.734
 292.746 345.641 c 288.488 342.855 283.164 341.156 277.621 341.152 c 277.617
 341.152 277.609 341.152 277.605 341.152 c 267.34 341.152 258.648 348.586
 256.875 358.492 c 253.258 355.207 251.055 350.48 251.055 345.309 c 251.055
 331.227 l 275.316 323.969 298.07 311.148 314.016 291.742 c 317.09 315.727
 324.164 332.133 329.488 341.602 c h
192 328.047 m 163.895 328.047 134.316 322.816 109.77 309.59 c 106.992 308.062
 103.707 309.086 102.195 311.605 c 100.512 314.406 101.559 317.992 104.402
 319.477 c 113.406 324.332 123.258 328.266 132.945 331.168 c 132.945 345.309
 l 132.945 350.48 130.742 355.207 127.125 358.492 c 125.359 348.641 116.715
 341.152 106.395 341.152 c 106.391 341.152 106.383 341.152 106.379 341.152
 c 100.891 341.156 95.559 342.82 91.254 345.641 c 87.578 342.734 82.812 
341.152 78.289 341.152 c 72.766 341.152 67.441 342.836 63.16 345.641 c 60.625
 343.641 57.672 342.262 54.512 341.598 c 59.84 332.129 66.918 315.703 69.988
 291.691 c 74.43 297.105 79.527 302.168 85.285 306.828 c 87.707 308.789 
91.25 308.406 93.203 305.992 c 95.16 303.578 94.785 300.035 92.371 298.078
 c 71.102 280.863 59.801 257.566 59.801 230.594 c 59.801 225.742 60.172 
220.891 60.906 216.102 c 66.59 218.234 72.438 219.652 78.367 220.352 c 87.34
 237.172 102.215 251.535 121.602 262.023 c 142.293 273.223 166.637 279.141
 192 279.141 c 215.508 279.141 238.359 273.992 258.082 264.25 c 260.867 
262.875 262.008 259.504 260.633 256.715 c 259.258 253.934 255.887 252.789
 253.098 254.164 c 234.914 263.145 213.789 267.891 192 267.891 c 149.223
 267.891 110.246 249.258 91.633 220.719 c 102.152 220.059 137.512 208.223
 174.215 228.266 c 185.406 234.375 198.766 234.285 209.789 228.266 c 230.754
 216.816 255.039 213.809 281.969 219.328 c 285.262 220.004 289.047 220.508
 292.355 220.715 c 286.895 229.055 279.559 236.766 270.77 243.355 c 268.285
 245.219 267.777 248.746 269.641 251.23 c 271.504 253.715 275.031 254.219
 277.516 252.359 c 289.578 243.316 299.238 232.301 305.637 220.352 c 311.566
 219.652 317.414 218.234 323.098 216.102 c 323.832 220.891 324.203 225.742
 324.203 230.598 c 324.199 296.527 258.582 328.047 192 328.047 c h
342.109 191.066 m 342.07 191.098 342.031 191.133 341.992 191.168 c 341.973
 191.188 l 324.801 205.848 306.18 212.809 284.227 208.309 c 256.711 202.668
 229.344 204.77 204.395 218.391 c 196.633 222.629 187.367 222.629 179.605
 218.391 c 114.949 183.078 93.348 234.348 41.891 191.066 c 34.645 184.914
 30.488 175.934 30.488 166.426 c 30.488 150.773 40.953 143.113 42.027 141.668
 c 54.613 130.934 60.004 114.293 56.102 98.219 c 56.09 98.172 56.078 98.125
 56.066 98.078 c 56.062 98.066 l 53.086 85.691 57.703 72.945 67.289 65.258
 c 71.598 86.879 84.426 105.352 103.141 116.898 c 119.504 127 140.836 118.926
 146.711 100.805 c 151.094 87.281 145.086 72.488 132.488 65.605 c 132.484
 65.602 132.48 65.602 132.477 65.598 c 124.152 61.051 116.828 54.73 111.066
 47.129 c 115.887 42.773 119.691 37.383 122.18 31.324 c 129.758 12.836 152.117
 5.598 169.086 16.09 c 169.148 16.125 169.211 16.164 169.277 16.199 c 183.312
 24.785 200.688 24.785 214.723 16.199 c 214.789 16.164 214.852 16.129 214.914
 16.09 c 231.93 5.582 254.254 12.852 261.824 31.324 c 264.312 37.395 268.105
 42.773 272.934 47.129 c 267.254 54.625 260.004 60.965 251.512 65.605 c 
238.949 72.469 232.902 87.254 237.293 100.805 c 243.203 119.043 264.582 
126.926 280.84 116.914 c 280.848 116.906 280.855 116.902 280.863 116.898
 c 299.223 105.57 312.32 87.285 316.715 65.258 c 326.297 72.945 330.918 
85.691 327.938 98.066 c 327.934 98.078 l 327.922 98.125 327.91 98.168 327.898
 98.215 c 323.996 114.293 329.391 130.934 341.973 141.664 c 341.996 141.684
 l 342.035 141.719 342.074 141.754 342.113 141.785 c 357.32 154.703 357.301
 178.168 342.109 191.066 c h
342.109 191.066 m f
Q Q
showpage
%%Trailer
end
%%EOF
