%!PS-Adobe-3.0 EPSF-3.0
%%Creator: cairo 1.16.0 (https://cairographics.org)
%%CreationDate: Mon Aug 23 08:35:11 2021
%%Pages: 1
%%DocumentData: Clean7Bit
%%LanguageLevel: 2
%%BoundingBox: 0 42 384 342
%%EndComments
%%BeginProlog
50 dict begin
/q { gsave } bind def
/Q { grestore } bind def
/cm { 6 array astore concat } bind def
/w { setlinewidth } bind def
/J { setlinecap } bind def
/j { setlinejoin } bind def
/M { setmiterlimit } bind def
/d { setdash } bind def
/m { moveto } bind def
/l { lineto } bind def
/c { curveto } bind def
/h { closepath } bind def
/re { exch dup neg 3 1 roll 5 3 roll moveto 0 rlineto
      0 exch rlineto 0 rlineto closepath } bind def
/S { stroke } bind def
/f { fill } bind def
/f* { eofill } bind def
/n { newpath } bind def
/W { clip } bind def
/W* { eoclip } bind def
/BT { } bind def
/ET { } bind def
/BDC { mark 3 1 roll /BDC pdfmark } bind def
/EMC { mark /EMC pdfmark } bind def
/cairo_store_point { /cairo_point_y exch def /cairo_point_x exch def } def
/Tj { show currentpoint cairo_store_point } bind def
/TJ {
  {
    dup
    type /stringtype eq
    { show } { -0.001 mul 0 cairo_font_matrix dtransform rmoveto } ifelse
  } forall
  currentpoint cairo_store_point
} bind def
/cairo_selectfont { cairo_font_matrix aload pop pop pop 0 0 6 array astore
    cairo_font exch selectfont cairo_point_x cairo_point_y moveto } bind def
/Tf { pop /cairo_font exch def /cairo_font_matrix where
      { pop cairo_selectfont } if } bind def
/Td { matrix translate cairo_font_matrix matrix concatmatrix dup
      /cairo_font_matrix exch def dup 4 get exch 5 get cairo_store_point
      /cairo_font where { pop cairo_selectfont } if } bind def
/Tm { 2 copy 8 2 roll 6 array astore /cairo_font_matrix exch def
      cairo_store_point /cairo_font where { pop cairo_selectfont } if } bind def
/g { setgray } bind def
/rg { setrgbcolor } bind def
/d1 { setcachedevice } bind def
/cairo_data_source {
  CairoDataIndex CairoData length lt
    { CairoData CairoDataIndex get /CairoDataIndex CairoDataIndex 1 add def }
    { () } ifelse
} def
/cairo_flush_ascii85_file { cairo_ascii85_file status { cairo_ascii85_file flushfile } if } def
/cairo_image { image cairo_flush_ascii85_file } def
/cairo_imagemask { imagemask cairo_flush_ascii85_file } def
%%EndProlog
%%BeginSetup
%%EndSetup
%%Page: 1 1
%%BeginPageSetup
%%PageBoundingBox: 0 42 384 342
%%EndPageSetup
q 0 42 384 300 rectclip
1 0 0 -1 0 384 cm q
0.992157 0.913725 0.815686 rg
39.973 186.129 m 27.051 186.129 5.625 196.602 5.625 209.523 c 5.625 222.445
 27.051 232.922 39.973 232.922 c 52.895 232.922 63.367 222.445 63.367 209.523
 c 63.367 196.602 52.895 186.129 39.973 186.129 c h
39.973 186.129 m f
344.027 186.129 m 356.949 186.129 378.375 196.602 378.375 209.523 c 378.375
 222.445 356.949 232.922 344.027 232.922 c 331.105 232.922 320.633 222.445
 320.633 209.523 c 320.633 196.602 331.105 186.129 344.027 186.129 c h
344.027 186.129 m f
0.972549 0.780392 0.733333 rg
61.977 305.488 m 61.895 304.703 61.852 303.91 61.852 303.102 c 61.852 254.27
 l 154.809 254.27 l 154.809 303.102 l 154.809 313.871 147.379 322.902 137.363
 325.352 c h
61.977 305.488 m f
322.023 305.488 m 322.105 304.703 322.148 303.91 322.148 303.102 c 322.148
 254.27 l 229.191 254.27 l 229.191 303.102 l 229.191 313.871 236.621 322.902
 246.637 325.352 c h
322.023 305.488 m f
0.952941 0.615686 0.521569 rg
87.012 282.332 m 87.012 272.316 89.199 262.816 93.109 254.27 c 61.852 254.27
 l 61.852 303.102 l 61.852 303.91 61.895 304.703 61.977 305.488 c 94.992
 314.188 l 89.902 304.699 87.012 293.855 87.012 282.332 c h
87.012 282.332 m f
254.07 282.332 m 254.07 272.316 256.254 262.816 260.164 254.27 c 229.191
 254.27 l 229.191 303.102 l 229.191 313.871 236.621 322.902 246.637 325.352
 c 265.766 320.312 l 258.387 309.492 254.07 296.418 254.07 282.332 c h
254.07 282.332 m f
0.423529 0.501961 0.588235 rg
76.746 332.547 m 74.164 334.375 71.02 335.449 67.621 335.449 c 55.973 335.449
 l 50.852 335.449 46.695 331.297 46.695 326.176 c 46.695 314.227 56.383 
304.539 68.332 304.539 c 73.383 304.539 77.84 307.023 80.582 310.832 c h
76.746 332.547 m f
0.321569 0.419608 0.501961 rg
104.242 332.547 m 101.664 334.375 98.52 335.449 95.117 335.449 c 83.473
 335.449 l 78.348 335.449 74.195 331.297 74.195 326.176 c 74.195 314.227
 83.883 304.539 95.832 304.539 c 100.883 304.539 105.34 307.023 108.082 
310.832 c h
104.242 332.547 m f
0.423529 0.501961 0.588235 rg
307.254 332.547 m 309.836 334.375 312.98 335.449 316.379 335.449 c 328.027
 335.449 l 333.148 335.449 337.305 331.297 337.305 326.176 c 337.305 314.227
 327.617 304.539 315.668 304.539 c 310.617 304.539 306.16 307.023 303.418
 310.832 c h
307.254 332.547 m f
0.321569 0.419608 0.501961 rg
279.754 332.547 m 282.332 334.375 285.48 335.449 288.879 335.449 c 300.527
 335.449 l 305.648 335.449 309.805 331.297 309.805 326.176 c 309.805 314.227
 300.117 304.539 288.168 304.539 c 283.117 304.539 278.66 307.023 275.918
 310.832 c h
279.754 332.547 m f
0.423529 0.501961 0.588235 rg
123.332 304.539 m 131.672 304.539 138.434 311.297 138.434 319.637 c 138.434
 328.371 131.352 335.449 122.617 335.449 c 110.973 335.449 l 105.852 335.449
 101.695 331.297 101.695 326.176 c 101.695 314.227 111.383 304.539 123.332
 304.539 c h
123.332 304.539 m f
260.668 304.539 m 252.328 304.539 245.566 311.297 245.566 319.637 c 245.566
 328.371 252.648 335.449 261.383 335.449 c 273.027 335.449 l 278.148 335.449
 282.305 331.297 282.305 326.176 c 282.305 314.227 272.617 304.539 260.668
 304.539 c h
260.668 304.539 m f
0.937255 0.501961 0.498039 rg
192 66.621 m 105.695 66.621 35.73 136.586 35.73 222.891 c 35.73 247.559
 55.73 267.555 80.398 267.555 c 303.602 267.555 l 328.27 267.555 348.27 
247.559 348.27 222.891 c 348.27 136.586 278.305 66.621 192 66.621 c h
192 66.621 m f
0.92549 0.415686 0.384314 rg
138.98 129.27 m 138.98 109.086 142.984 89.844 150.223 72.277 c 84.207 90.547
 35.73 151.055 35.73 222.891 c 35.73 247.559 55.73 267.555 80.398 267.555
 c 231.348 267.555 l 177.121 245.07 138.98 191.625 138.98 129.27 c h
138.98 129.27 m f
0.898039 0.52549 0.431373 rg
253.883 263.516 m 238.203 276.344 216.273 284.312 192 284.312 c 167.727
 284.312 145.797 276.344 130.117 263.516 c 130.117 241.078 l 253.883 241.078
 l h
253.883 263.516 m f
0.992157 0.913725 0.815686 rg
114.457 205.316 m 90.102 199.164 l 80.754 196.801 71.633 203.934 71.812
 213.574 c 72.066 227.344 80.641 244.383 120.254 246.992 c h
114.457 205.316 m f
0.992157 0.94902 0.894118 rg
159.746 132.641 m 155.836 123.828 144.594 121.055 137.117 127.145 c 126.441
 135.844 118.328 153.105 140.723 185.883 c 169.934 155.602 l h
159.746 132.641 m f
0.992157 0.913725 0.815686 rg
269.543 205.316 m 293.898 199.164 l 303.246 196.801 312.363 203.934 312.188
 213.574 c 311.93 227.344 303.359 244.383 263.746 246.992 c h
269.543 205.316 m f
0.992157 0.94902 0.894118 rg
224.254 132.641 m 228.164 123.828 239.406 121.055 246.883 127.145 c 257.559
 135.844 265.672 153.105 243.277 185.883 c 214.066 155.602 l h
224.254 132.641 m f
0.972549 0.780392 0.733333 rg
278.297 215.715 m 278.297 234.309 268.992 251.172 253.883 263.516 c 243.109
 255.672 224.734 247.145 203.27 257.391 c 196.152 260.785 187.848 260.785
 180.73 257.391 c 159.266 247.145 140.891 255.672 130.117 263.516 c 115.008
 251.172 105.703 234.309 105.703 215.715 c 105.703 177.836 144.34 147.117
 192 147.117 c 239.66 147.117 278.297 177.836 278.297 215.715 c h
278.297 215.715 m f
0.898039 0.52549 0.431373 rg
161.758 197.953 m 149.996 195.332 l 143.148 193.805 136.363 198.117 134.84
 204.965 c 133.312 211.809 137.625 218.598 144.473 220.121 c 156.23 222.742
 l 163.094 224.273 169.867 219.938 171.391 213.109 c 172.914 206.262 168.602
 199.477 161.758 197.953 c h
161.758 197.953 m f
222.242 197.953 m 234.004 195.332 l 240.852 193.805 247.637 198.117 249.16
 204.965 c 250.688 211.809 246.375 218.598 239.527 220.121 c 227.77 222.742
 l 220.906 224.273 214.133 219.938 212.609 213.109 c 211.086 206.262 215.398
 199.477 222.242 197.953 c h
222.242 197.953 m f
0.992157 0.913725 0.815686 rg
215.398 82.895 m 215.398 95.816 204.922 106.293 192 106.293 c 179.078 106.293
 168.602 95.816 168.602 82.895 c 168.602 69.973 179.078 48.551 192 48.551
 c 204.922 48.551 215.398 69.973 215.398 82.895 c h
215.398 82.895 m f
0.992157 0.94902 0.894118 rg
97.508 102.637 m 91.293 98.973 85.887 94.945 81.801 91.605 c 76.75 87.48
 69.191 88.902 66.062 94.621 c 61.043 103.797 57.254 118.227 68.453 134.18
 c 77.246 146.707 95.852 146.609 104.516 133.988 c 111.723 123.488 108.48
 109.109 97.508 102.637 c h
97.508 102.637 m f
286.492 102.637 m 292.707 98.973 298.113 94.945 302.199 91.605 c 307.25
 87.48 314.809 88.902 317.938 94.621 c 322.957 103.797 326.746 118.227 315.547
 134.18 c 306.754 146.707 288.148 146.609 279.484 133.988 c 272.277 123.488
 275.52 109.109 286.492 102.637 c h
286.492 102.637 m f
0 g
143.246 225.609 m 145.477 226.105 l 145.477 233.023 l 145.477 236.133 147.996
 238.648 151.102 238.648 c 154.207 238.648 156.727 236.133 156.727 233.023
 c 156.727 228.523 l 157.496 228.621 158.266 228.676 159.031 228.676 c 167.188
 228.676 174.934 223.07 176.879 214.332 c 179.082 204.445 172.867 194.664
 162.98 192.461 c 151.219 189.84 l 141.336 187.633 131.551 193.852 129.348
 203.738 c 127.145 213.625 133.359 223.406 143.246 225.609 c h
140.328 206.188 m 141.18 202.375 144.953 199.969 148.773 200.82 c 160.531
 203.441 l 164.348 204.289 166.75 208.066 165.898 211.883 c 165.059 215.652
 161.312 218.109 157.453 217.25 c 145.695 214.629 l 141.879 213.781 139.477
 210.004 140.328 206.188 c h
140.328 206.188 m f
227.273 228.527 m 227.273 233.027 l 227.273 236.133 229.793 238.652 232.898
 238.652 c 236.004 238.652 238.523 236.133 238.523 233.027 c 238.523 226.109
 l 240.754 225.609 l 250.637 223.41 256.855 213.629 254.652 203.742 c 252.449
 193.855 242.668 187.637 232.781 189.84 c 221.02 192.461 l 211.137 194.664
 204.918 204.445 207.121 214.332 c 209.207 223.695 218.055 229.691 227.273
 228.527 c h
223.469 203.441 m 235.23 200.82 l 239.031 199.973 242.82 202.355 243.672
 206.188 c 244.523 210 242.125 213.781 238.305 214.629 c 226.543 217.25 
l 222.727 218.102 218.949 215.695 218.102 211.883 c 217.25 208.07 219.652
 204.293 223.469 203.441 c h
223.469 203.441 m f
32.336 237.695 m 36.215 250.262 44.898 260.738 56.227 266.977 c 56.227 
301.758 l 47.254 306.227 41.07 315.488 41.07 326.176 c 41.07 334.391 47.758
 341.074 55.973 341.074 c 67.621 341.074 l 70.645 341.074 73.582 340.434
 76.297 339.227 c 78.426 340.402 80.871 341.074 83.473 341.074 c 95.121 
341.074 l 98.145 341.074 101.082 340.434 103.797 339.227 c 105.93 340.402
 108.371 341.074 110.973 341.074 c 122.617 341.074 l 130.676 341.074 137.703
 336.609 141.367 330.02 c 152.719 326.051 160.434 315.348 160.434 303.102
 c 160.434 285.477 l 170.406 288.406 181.051 289.938 192 289.938 c 202.949
 289.938 213.594 288.406 223.566 285.477 c 223.566 303.102 l 223.566 315.348
 231.281 326.051 242.633 330.02 c 246.297 336.605 253.324 341.074 261.383
 341.074 c 273.027 341.074 l 275.629 341.074 278.07 340.402 280.203 339.227
 c 282.918 340.434 285.855 341.074 288.879 341.074 c 300.527 341.074 l 303.129
 341.074 305.57 340.402 307.703 339.227 c 310.418 340.434 313.355 341.074
 316.379 341.074 c 328.027 341.074 l 336.242 341.074 342.93 334.391 342.93
 326.176 c 342.93 315.488 336.746 306.223 327.773 301.758 c 327.773 266.977
 l 339.102 260.738 347.785 250.262 351.664 237.695 c 366.055 234.738 384
 224.117 384 209.527 c 384 194.422 363.832 182.73 348.355 180.793 c 347.27
 176.758 346.035 172.758 344.633 168.809 c 343.598 165.879 340.379 164.348
 337.453 165.387 c 334.523 166.422 332.992 169.641 334.031 172.566 c 339.711
 188.598 342.645 205.707 342.645 222.891 c 342.645 238.285 333.52 252.316
 319.379 258.59 c 314.418 260.789 309.035 261.93 303.602 261.93 c 263.977
 261.93 l 267.141 258.727 269.957 255.34 272.398 251.805 c 288.102 249.77
 299.938 245.008 307.602 237.621 c 314.105 231.348 317.637 223.07 317.812
 213.68 c 318.059 200.371 305.512 190.426 292.52 193.711 c 280.844 196.66
 l 277.023 185.059 269.809 174.566 260.105 165.922 c 263.336 156.637 264.008
 148.137 262.09 140.609 c 260.312 133.633 256.391 127.637 250.438 122.785
 c 240.094 114.359 224.539 118.129 219.113 130.359 c 213.281 143.504 l 206.445
 142.191 199.324 141.496 192 141.496 c 184.68 141.496 177.555 142.191 170.723
 143.504 c 164.891 130.359 l 159.457 118.117 143.898 114.371 133.566 122.785
 c 127.613 127.637 123.691 133.633 121.914 140.609 c 119.996 148.137 120.664
 156.637 123.895 165.922 c 114.195 174.566 106.977 185.059 103.156 196.66
 c 91.484 193.711 l 78.496 190.43 65.945 200.359 66.191 213.68 c 66.367 
223.07 69.895 231.348 76.402 237.621 c 84.062 245.008 95.902 249.77 111.605
 251.805 c 114.047 255.344 116.859 258.727 120.027 261.93 c 80.402 261.93
 l 58.57 261.93 41.359 244.09 41.359 222.891 c 41.359 193.574 49.684 165.051
 66.074 140.184 c 85.262 161.164 119.352 142.773 113.332 115.633 c 113.328
 115.613 113.324 115.598 113.32 115.582 c 112.016 109.758 108.773 104.395
 104.172 100.496 c 107.84 97.863 111.633 95.387 115.516 93.094 c 118.191
 91.512 119.078 88.062 117.5 85.391 c 115.922 82.715 112.473 81.828 109.797
 83.406 c 104.41 86.586 99.188 90.102 94.215 93.875 c 91.242 91.852 88.281
 89.641 85.363 87.254 c 77.57 80.883 65.938 83.137 61.129 91.926 c 54.305
 104.406 53.793 117.617 59.484 129.879 c 48.492 145.5 40.473 162.672 35.617
 180.797 c 20.141 182.746 0 194.434 0 209.527 c 0 224.117 17.945 234.738
 32.336 237.695 c h
372.75 209.527 m 372.75 214.836 364.453 222.238 353.82 225.59 c 353.82 
225.582 353.82 225.578 353.82 225.574 c 353.867 224.684 353.895 223.789 
353.895 222.891 c 353.895 212.949 352.961 202.703 351.082 192.734 c 361.418
 195.375 372.75 202.871 372.75 209.527 c h
229.395 134.922 m 231.82 129.461 238.758 127.781 243.328 131.508 c 251.219
 137.934 253.66 147 250.621 158.516 c 242.777 153.277 233.887 149.113 224.379
 146.227 c h
140.672 131.508 m 145.266 127.762 152.195 129.488 154.605 134.922 c 159.621
 146.227 l 150.113 149.113 141.223 153.277 133.379 158.516 c 130.34 147 
132.781 137.938 140.672 131.508 c h
67.621 329.824 m 55.973 329.824 l 53.961 329.824 52.32 328.188 52.32 326.176
 c 52.32 317.297 59.566 310.164 68.332 310.164 c 69.891 310.164 71.445 310.543
 72.93 311.375 c 70.199 315.574 68.57 320.832 68.57 326.176 c 68.57 327.32
 68.742 328.688 69 329.73 c 68.547 329.793 68.086 329.824 67.621 329.824
 c h
95.121 329.824 m 83.473 329.824 l 81.434 329.824 79.82 328.152 79.82 326.176
 c 79.82 317.367 87.055 310.164 95.832 310.164 c 97.535 310.164 99.059 310.598
 100.434 311.367 c 97.75 315.496 96.07 320.691 96.07 326.176 c 96.07 327.32
 96.246 328.684 96.5 329.734 c 96.047 329.793 95.586 329.824 95.121 329.824
 c h
122.617 329.824 m 110.973 329.824 l 108.91 329.824 107.32 328.117 107.32
 326.176 c 107.32 317.543 114.301 310.211 123.246 310.168 c 123.273 310.168
 123.305 310.164 123.332 310.164 c 128.793 310.164 133.301 314.832 132.758
 320.598 c 132.254 325.762 127.918 329.824 122.617 329.824 c h
140.09 263.855 m 153.207 256.773 166.211 256.715 178.23 262.434 c 178.254
 262.445 178.281 262.453 178.309 262.469 c 186.723 266.484 196.75 266.734
 205.691 262.469 c 205.695 262.469 205.695 262.465 205.695 262.465 c 218.152
 256.523 231.152 256.98 243.91 263.855 c 228.531 273.984 210.266 278.688
 192 278.688 c 173.691 278.688 155.438 273.961 140.09 263.855 c h
261.383 329.824 m 255.77 329.824 251.191 325.234 251.191 319.637 c 251.191
 313.602 256.801 308.191 265.422 310.883 c 272.09 312.965 276.68 319.188
 276.68 326.176 c 276.68 328.012 275.191 329.824 273.027 329.824 c h
288.879 329.824 m 288.414 329.824 287.953 329.793 287.5 329.734 c 287.785
 328.574 287.93 327.23 287.93 326.176 c 287.93 320.781 286.262 315.52 283.566
 311.367 c 284.961 310.59 286.492 310.164 288.168 310.164 c 297.141 310.164
 304.18 317.531 304.18 326.176 c 304.18 328.094 302.617 329.828 300.527 
329.828 c 288.879 329.828 l h
328.027 329.824 m 316.379 329.824 l 315.914 329.824 315.453 329.793 315
 329.734 c 315.273 328.617 315.43 327.25 315.43 326.176 c 315.43 320.949
 313.863 315.68 311.07 311.375 c 312.516 310.57 314.074 310.164 315.668 
310.164 c 324.402 310.164 331.68 317.27 331.68 326.176 c 331.68 328.188 
330.039 329.824 328.027 329.824 c h
316.523 271.5 m 316.523 298.926 l 316.238 298.918 315.953 298.914 315.664
 298.914 c 311.066 298.914 306.457 300.543 302.957 303.277 c 298.73 300.543
 293.57 298.914 288.164 298.914 c 283.816 298.914 279.281 300.34 275.473
 303.277 c 271.316 300.578 266.121 298.914 260.668 298.914 c 250.59 298.914
 242.098 306.203 240.305 315.758 c 231.727 307.766 235.922 298.078 234.816
 281.453 c 240.25 279.141 245.414 276.375 250.23 273.18 c 303.602 273.18
 l 307.758 273.18 312.145 272.656 316.523 271.5 c h
283.379 207.621 m 295.273 204.617 l 301.082 203.148 306.672 207.586 306.562
 213.473 c 306.32 226.621 297.141 235.258 279.246 239.227 c 282.395 231.559
 283.922 223.586 283.922 215.715 c 283.922 215.715 283.922 215.715 283.922
 215.711 c 283.922 212.934 283.707 210.062 283.379 207.621 c h
192 152.742 m 231.094 152.742 272.672 177.09 272.672 215.715 c 272.672 
231.699 265.012 245.855 253.477 256.434 c 237.289 246.125 218.715 243.781
 200.848 252.312 c 195.137 255.031 188.668 254.945 183.156 252.312 c 165.324
 243.801 146.727 246.113 130.523 256.434 c 118.945 245.816 111.328 231.641
 111.328 215.715 c 111.328 215.703 111.332 215.695 111.332 215.684 c 111.355
 176.773 153.262 152.742 192 152.742 c h
77.438 213.473 m 77.328 207.547 82.957 203.16 88.727 204.617 c 100.621 
207.621 l 100.262 210.305 100.078 213.195 100.078 215.715 c 100.078 215.727
 100.078 215.738 100.078 215.75 c 100.082 223.734 101.656 231.684 104.754
 239.227 c 86.859 235.258 77.68 226.621 77.438 213.473 c h
133.766 273.18 m 138.586 276.375 143.75 279.141 149.184 281.453 c 149.184
 303.102 l 149.184 308.047 147.109 312.574 143.691 315.758 c 141.801 305.945
 133.211 298.914 123.332 298.914 c 117.965 298.914 112.699 300.562 108.527
 303.277 c 104.785 300.395 100.281 298.914 95.836 298.914 c 90.695 298.914
 85.457 300.414 81.043 303.277 c 77.609 300.594 73.051 298.914 68.336 298.914
 c 68.051 298.914 67.766 298.918 67.48 298.93 c 67.48 271.504 l 71.711 272.621
 76.102 273.184 80.398 273.184 c 133.766 273.184 l h
70.996 97.324 m 72.445 94.676 75.93 94.074 78.242 95.965 c 83.777 100.484
 89.371 104.367 94.652 107.484 c 98.621 109.824 101.352 113.582 102.348 
118.066 c 103.965 125.348 100.445 132.641 94.074 136.016 c 86.473 140.043
 77.051 138.051 71.23 128.082 c 65.379 118.102 65.285 107.77 70.996 97.324
 c h
32.898 192.742 m 31.113 202.273 30.105 212.457 30.105 222.891 c 30.105 
223.789 30.133 224.684 30.18 225.574 c 30.18 225.59 l 19.547 222.238 11.25
 214.836 11.25 209.527 c 11.25 202.875 22.57 195.383 32.898 192.742 c h
32.898 192.742 m f
270.668 115.629 m 264.637 142.832 298.789 161.086 317.926 140.188 c 320.609
 144.273 323.105 148.5 325.379 152.816 c 326.824 155.562 330.227 156.625
 332.977 155.176 c 335.727 153.727 336.781 150.324 335.336 147.578 c 332.117
 141.465 328.484 135.527 324.516 129.883 c 330.211 117.617 329.699 104.406
 322.875 91.926 c 318.051 83.109 306.41 80.902 298.641 87.25 c 295.719 89.637
 292.758 91.848 289.789 93.875 c 268.133 77.438 242.738 66.734 215.922 62.758
 c 210.781 52.062 202.164 42.926 192 42.926 c 181.836 42.926 173.219 52.062
 168.078 62.758 c 155.152 64.672 142.504 68.152 130.426 73.125 c 127.551
 74.309 126.184 77.598 127.367 80.469 c 128.547 83.34 131.836 84.711 134.707
 83.527 c 144.117 79.656 153.902 76.754 163.895 74.863 c 163.355 77.395 
162.984 80.258 162.98 82.84 c 162.98 82.859 162.977 82.879 162.977 82.895
 c 162.977 98.898 175.996 111.918 192 111.918 c 205.004 111.918 216.035 
103.32 219.715 91.516 c 221.457 85.926 221.316 80.547 220.105 74.863 c 241.613
 78.93 261.996 87.672 279.832 100.492 c 275.223 104.395 271.965 109.781 
270.668 115.629 c h
192 54.176 m 201.633 54.176 211.562 75.984 209.41 86.473 c 207.75 94.562
 200.574 100.668 192 100.668 c 182.199 100.668 174.227 92.695 174.227 82.895
 c 174.227 82.883 174.23 82.871 174.23 82.855 c 174.254 72.477 183.262 54.176
 192 54.176 c h
305.758 95.965 m 308.059 94.086 311.547 94.656 313.004 97.324 c 318.715
 107.766 318.621 118.094 312.773 128.074 c 309.004 134.547 303.902 138.332
 296.484 137.855 c 286.371 137.203 279.523 127.656 281.652 118.066 c 282.648
 113.582 285.379 109.824 289.348 107.484 c 289.359 107.477 289.367 107.473
 289.379 107.465 c 295.156 104.055 300.727 100.074 305.758 95.965 c h
305.758 95.965 m f
Q Q
showpage
%%Trailer
end
%%EOF
