%!PS-Adobe-3.0 EPSF-3.0
%%Creator: cairo 1.16.0 (https://cairographics.org)
%%CreationDate: Mon Aug 23 08:35:11 2021
%%Pages: 1
%%DocumentData: Clean7Bit
%%LanguageLevel: 2
%%BoundingBox: 3 0 381 384
%%EndComments
%%BeginProlog
50 dict begin
/q { gsave } bind def
/Q { grestore } bind def
/cm { 6 array astore concat } bind def
/w { setlinewidth } bind def
/J { setlinecap } bind def
/j { setlinejoin } bind def
/M { setmiterlimit } bind def
/d { setdash } bind def
/m { moveto } bind def
/l { lineto } bind def
/c { curveto } bind def
/h { closepath } bind def
/re { exch dup neg 3 1 roll 5 3 roll moveto 0 rlineto
      0 exch rlineto 0 rlineto closepath } bind def
/S { stroke } bind def
/f { fill } bind def
/f* { eofill } bind def
/n { newpath } bind def
/W { clip } bind def
/W* { eoclip } bind def
/BT { } bind def
/ET { } bind def
/BDC { mark 3 1 roll /BDC pdfmark } bind def
/EMC { mark /EMC pdfmark } bind def
/cairo_store_point { /cairo_point_y exch def /cairo_point_x exch def } def
/Tj { show currentpoint cairo_store_point } bind def
/TJ {
  {
    dup
    type /stringtype eq
    { show } { -0.001 mul 0 cairo_font_matrix dtransform rmoveto } ifelse
  } forall
  currentpoint cairo_store_point
} bind def
/cairo_selectfont { cairo_font_matrix aload pop pop pop 0 0 6 array astore
    cairo_font exch selectfont cairo_point_x cairo_point_y moveto } bind def
/Tf { pop /cairo_font exch def /cairo_font_matrix where
      { pop cairo_selectfont } if } bind def
/Td { matrix translate cairo_font_matrix matrix concatmatrix dup
      /cairo_font_matrix exch def dup 4 get exch 5 get cairo_store_point
      /cairo_font where { pop cairo_selectfont } if } bind def
/Tm { 2 copy 8 2 roll 6 array astore /cairo_font_matrix exch def
      cairo_store_point /cairo_font where { pop cairo_selectfont } if } bind def
/g { setgray } bind def
/rg { setrgbcolor } bind def
/d1 { setcachedevice } bind def
/cairo_data_source {
  CairoDataIndex CairoData length lt
    { CairoData CairoDataIndex get /CairoDataIndex CairoDataIndex 1 add def }
    { () } ifelse
} def
/cairo_flush_ascii85_file { cairo_ascii85_file status { cairo_ascii85_file flushfile } if } def
/cairo_image { image cairo_flush_ascii85_file } def
/cairo_imagemask { imagemask cairo_flush_ascii85_file } def
%%EndProlog
%%BeginSetup
%%EndSetup
%%Page: 1 1
%%BeginPageSetup
%%PageBoundingBox: 3 0 381 384
%%EndPageSetup
q 3 0 378 384 rectclip
1 0 0 -1 0 384 cm q
0.443137 0.772549 0.921569 rg
198.547 346.004 m 188.742 346.004 l 192.801 336.629 198.594 328.102 205.82
 320.879 c 205.859 320.836 l 220.48 306.219 220.48 282.516 205.859 267.895
 c 195.52 257.555 178.754 257.555 168.41 267.895 c 162.953 273.352 160.379
 280.598 160.68 287.746 c 131.297 327.957 l 131.297 359.98 l 156.738 373.02
 l 163.605 376.539 171.215 378.375 178.934 378.375 c 198.547 378.375 l 207.484
 378.375 214.734 371.129 214.734 362.191 c 214.734 353.25 207.488 346.004
 198.547 346.004 c h
198.547 346.004 m f
0.67451 0.862745 0.941176 rg
248.758 130.645 m 222.074 130.645 l 207.312 162.195 l 134.254 179.09 l 
95.902 220.918 l 82.504 246.488 54.773 266.633 21.219 265.156 c 9.875 264.656
 4.234 278.629 12.816 286.059 c 29.156 300.211 55.016 311.148 90.539 292.555
 c 109.039 282.879 130.82 281.793 150.262 289.402 c 203.16 310.137 259.648
 268.324 255.348 211.773 c 253.09 182.117 266.77 155.254 289.965 139.871
 c h
248.758 130.645 m f
0.505882 0.807843 0.941176 rg
222.074 130.645 m 221.195 132.52 l 231.625 148.215 247.113 160.262 265.312
 166.305 c 271.297 155.746 279.695 146.684 289.965 139.871 c 248.758 130.645
 l h
222.074 130.645 m f
137.879 193.531 m 137.879 188.219 138.332 183.016 139.191 177.945 c 134.254
 179.09 l 95.902 220.918 l 82.504 246.488 54.773 266.633 21.219 265.156 
c 9.875 264.656 4.234 278.629 12.816 286.059 c 29.156 300.211 55.016 311.148
 90.539 292.555 c 109.039 282.879 130.82 281.793 150.262 289.402 c 173.137
 298.371 196.68 295.633 215.691 285.07 c 171.574 277.93 137.879 239.668 
137.879 193.531 c h
137.879 193.531 m f
0.937255 0.501961 0.498039 rg
230.711 97.641 m 207.156 113.512 196.918 132.441 193.027 141.84 c 191.031
 141.457 189.004 141.141 186.949 140.914 c 147.254 136.516 111.445 162.988
 103.109 200.918 c 101.578 207.887 99.211 214.637 95.902 220.918 c 108.402
 237.406 l 115.191 246.359 129.418 242.559 130.844 231.414 c 133.52 210.594
 l 134.914 199.684 148.68 195.727 155.652 204.234 c 158.215 207.355 161.777
 208.82 165.309 208.82 c 170.328 208.82 175.273 205.863 177.184 200.453 
c 179.523 193.848 l 182.352 185.84 192.148 182.906 198.914 188.027 c 203.711
 191.648 l 211.41 197.477 222.52 192.793 223.723 183.211 c 226.934 157.695
 l 226.934 157.695 231.328 143.566 248.758 130.645 c 248.809 130.695 248.859
 130.738 248.91 130.785 c h
230.711 97.641 m f
0.92549 0.415686 0.384314 rg
211.785 113.598 m 216.203 126.223 223.512 137.5 232.922 146.621 c 236.281
 141.867 241.336 136.148 248.758 130.645 c 248.809 130.691 248.859 130.738
 248.91 130.785 c 230.707 97.641 l 223.078 102.781 216.855 108.242 211.785
 113.598 c h
211.785 113.598 m f
0.760784 0.898039 0.960784 rg
375.32 117.453 m 374.867 102.441 366.648 89.242 354.555 81.797 c 352.617
 48.984 325.402 22.965 292.102 22.965 c 257.543 22.965 229.527 50.98 229.527
 85.539 c 229.527 122.777 261.973 152.105 299.535 147.66 c 307.484 156.574
 319.051 162.195 331.938 162.195 c 332.047 162.195 332.16 162.195 332.27
 162.195 c 336.414 162.16 338.879 157.664 336.883 154.031 c 333.461 147.812
 333.027 140.73 339.148 134.605 c 345.59 128.168 356.027 128.164 362.469
 134.605 c 365.91 138.047 371.816 136.629 373.293 131.992 c 374.75 127.43
 375.473 122.535 375.32 117.453 c h
375.32 117.453 m f
0.937255 0.533333 0.607843 rg
312.07 86.422 m 323.969 88.652 332.18 98.141 330.406 107.617 c 328.633 
117.094 317.547 122.973 305.645 120.742 c 293.742 118.516 285.535 109.027
 287.309 99.551 c 289.082 90.074 300.168 84.195 312.07 86.422 c h
312.07 86.422 m f
0.937255 0.501961 0.498039 rg
310.281 28.918 m 310.281 37.684 303.176 44.789 294.414 44.789 c 285.648
 44.789 278.543 37.684 278.543 28.918 c 278.543 20.156 285.648 5.625 294.414
 5.625 c 303.176 5.625 310.281 20.156 310.281 28.918 c h
310.281 28.918 m f
250.309 36.082 m 246.039 33.562 242.324 30.797 239.52 28.504 c 236.051 
25.668 230.855 26.645 228.707 30.574 c 225.262 36.879 222.656 46.789 230.352
 57.75 c 236.391 66.355 249.172 66.289 255.121 57.617 c 260.074 50.402 257.848
 40.527 250.309 36.082 c h
250.309 36.082 m f
338.516 36.082 m 342.785 33.562 346.5 30.797 349.305 28.504 c 352.777 25.668
 357.969 26.645 360.117 30.574 c 363.566 36.879 366.168 46.789 358.477 57.75
 c 352.434 66.355 339.652 66.289 333.703 57.617 c 328.754 50.402 330.977
 40.527 338.516 36.082 c h
338.516 36.082 m f
0.760784 0.898039 0.960784 rg
105.086 341.477 m 103.309 344.766 l 101.516 348.09 100.578 351.809 100.578
 355.586 c 100.578 368.172 110.777 378.375 123.363 378.375 c 154.723 378.375
 l 163.66 378.375 170.906 371.129 170.906 362.191 c 170.906 353.25 163.66
 346.004 154.723 346.004 c 144.914 346.004 l 148.973 336.629 154.77 328.102
 161.992 320.879 c 162.035 320.836 l 176.652 306.219 176.652 282.516 162.035
 267.895 c 151.691 257.555 134.926 257.555 124.586 267.895 c 119.129 273.352
 116.551 280.598 116.855 287.746 c 117.648 306.426 113.965 325.023 105.086
 341.477 c h
105.086 341.477 m f
289.992 255.074 m 273.73 230.543 253.184 221.68 237.633 218.734 c 226.184
 216.562 216.102 226.488 218.176 237.953 c 219.402 244.723 224.699 249.926
 231.441 251.289 c 243.93 253.824 255.426 263.75 261.984 273.641 c 267.117
 281.387 277.551 283.484 285.273 278.359 c 293.008 273.234 295.121 262.809
 289.992 255.074 c h
289.992 255.074 m f
0.92549 0.415686 0.384314 rg
230.621 100.793 m 231.234 100.793 231.844 100.805 232.453 100.816 c 230.711
 97.641 l 229.113 98.715 227.586 99.805 226.113 100.902 c 227.605 100.832
 229.109 100.793 230.621 100.793 c h
230.621 100.793 m f
137.879 193.531 m 137.879 175.875 142.816 159.371 151.383 145.324 c 127.445
 154.305 108.824 174.918 103.109 200.918 c 101.578 207.887 99.211 214.637
 95.902 220.918 c 108.402 237.406 l 115.191 246.359 129.418 242.559 130.844
 231.418 c 133.52 210.594 l 133.98 206.98 135.809 204.133 138.289 202.246
 c 138.023 199.375 137.879 196.473 137.879 193.531 c h
137.879 193.531 m f
0 g
327.02 75.008 m 323.969 74.438 321.027 76.453 320.461 79.504 c 318.816 
88.316 l 318.246 91.367 320.258 94.305 323.312 94.875 c 326.355 95.445 329.305
 93.441 329.875 90.379 c 331.52 81.57 l 332.09 78.516 330.074 75.578 327.02
 75.008 c h
327.02 75.008 m f
378.66 133.703 m 380.348 128.414 381.117 122.891 380.949 117.285 c 380.48
 101.762 372.688 87.508 359.945 78.605 c 359.523 74.457 358.715 70.359 357.543
 66.355 c 359.68 64.945 361.57 63.137 363.086 60.98 c 370.363 50.617 371.062
 38.859 365.059 27.875 c 361.215 20.848 351.941 19.094 345.754 24.148 c 
342.43 26.863 339.035 29.246 335.664 31.234 c 335.23 31.492 334.809 31.77
 334.398 32.055 c 328.492 27.387 321.816 23.695 314.746 21.199 c 312.047
 11.359 304.805 0 294.418 0 c 284.578 0 277.559 10.199 274.555 19.641 c 
266.445 21.805 258.738 25.488 251.922 30.461 c 248.961 28.633 245.996 26.527
 243.086 24.148 c 236.883 19.078 227.613 20.867 223.777 27.875 c 217.773
 38.859 218.473 50.613 225.754 60.98 c 226.328 61.801 226.965 62.566 227.641
 63.285 c 224.18 73.293 223.043 84.148 224.582 95.062 c 204.898 109.168 
194.668 125.172 189.672 135.586 c 147.383 129.738 106.992 157.07 97.621 
199.711 c 96.148 206.41 93.898 212.664 90.934 218.297 c 90.93 218.297 90.93
 218.301 90.93 218.301 c 90.93 218.305 90.93 218.305 90.93 218.305 c 84.895
 229.82 76.023 239.75 65.273 247.02 c 62.699 248.762 62.023 252.258 63.762
 254.832 c 65.508 257.41 69.004 258.078 71.574 256.34 c 81.465 249.648 89.965
 240.992 96.5 231.004 c 103.93 240.805 l 113.953 254.027 134.406 247.938
 136.43 232.133 c 139.105 211.309 l 139.883 205.223 147.508 203.16 151.312
 207.801 c 160.168 218.594 177.711 215.855 182.492 202.332 c 184.828 195.723
 l 186.402 191.27 191.824 189.707 195.531 192.516 c 200.32 196.137 l 211.469
 204.57 227.566 197.801 229.309 183.914 c 232.621 157.742 232.398 159.117
 232.48 158.906 c 234.707 153.148 239.898 145.379 248.535 137.996 c 254.316
 142.852 261.855 147.285 269.945 150.059 c 265.707 154.945 262.055 160.316
 259.035 166.109 c 257.602 168.863 258.668 172.262 261.426 173.695 c 264.18
 175.133 267.578 174.062 269.012 171.309 c 272.562 164.5 277.133 158.371
 282.598 153.043 c 287.449 153.727 292.395 153.898 297.348 153.523 c 306.512
 162.645 318.961 167.82 331.945 167.82 c 332.32 167.82 l 340.68 167.754 
345.895 158.727 341.82 151.32 c 338.188 144.719 340.832 140.887 343.137 
138.582 c 347.371 134.348 354.262 134.352 358.5 138.586 c 364.918 145.004
 375.898 142.355 378.66 133.703 c h
341.379 40.926 m 345.242 38.648 349.109 35.934 352.871 32.859 c 353.609
 32.254 354.727 32.426 355.188 33.273 c 359.141 40.5 358.699 47.648 353.879
 54.516 c 350.109 59.879 342.09 59.879 338.348 54.438 c 338.348 54.438 338.348
 54.434 338.348 54.434 c 338.348 54.434 338.344 54.43 338.344 54.43 c 335.273
 49.945 336.676 43.695 341.379 40.926 c h
294.418 11.25 m 298.754 11.25 304.66 21.875 304.66 28.922 c 304.66 34.566
 300.066 39.164 294.418 39.164 c 288.77 39.164 284.176 34.566 284.176 28.922
 c 284.176 21.828 290.121 11.25 294.418 11.25 c h
233.648 33.273 m 234.113 32.422 235.227 32.258 235.965 32.859 c 239.727
 35.934 243.594 38.648 247.457 40.926 c 251.781 43.473 253.445 49.148 250.973
 53.648 c 247.535 59.836 238.926 60.168 234.961 54.516 c 230.137 47.648 
229.695 40.5 233.648 33.273 c h
221.355 156.992 m 218.148 182.512 l 217.496 187.684 211.457 190.453 207.105
 187.16 c 207 187.082 202.008 183.309 202.316 183.543 c 192.5 176.113 178.324
 180.367 174.223 191.969 c 171.887 198.578 l 170.109 203.598 163.453 204.863
 160.008 200.668 c 149.902 188.344 129.965 194.078 127.945 209.879 c 125.27
 230.703 l 124.48 236.871 116.637 238.941 112.891 234.008 c 102.496 220.297
 l 105.145 214.652 107.195 208.559 108.609 202.125 c 116.941 164.211 153.848
 140.02 191.969 147.363 c 194.594 147.867 197.207 146.461 198.23 143.992
 c 201.629 135.781 209.75 120.797 227.359 107.023 c 230.254 115.793 234.93
 123.668 240.469 130.086 c 229.184 139.852 221.93 152.465 221.355 156.992
 c h
335.18 130.629 m 328.004 137.801 326.809 147.262 331.906 156.57 c 321.164
 156.559 310.898 151.949 303.738 143.914 c 302.539 142.57 300.738 141.852
 298.879 142.07 c 258.215 146.887 225.715 108.52 237.551 69.145 c 247.578
 71.684 258.012 66.477 261.891 56.816 c 261.906 56.773 261.922 56.73 261.941
 56.688 c 264.293 50.703 263.797 43.949 260.336 38.297 c 264.316 35.617 
268.621 33.445 273.121 31.848 c 274.57 42.324 283.559 50.414 294.418 50.414
 c 294.422 50.414 l 304.488 50.414 313.246 43.352 315.406 33.57 c 319.605
 35.461 323.59 37.867 327.227 40.715 c 326.672 41.965 326.234 43.273 325.934
 44.625 c 324.625 50.523 325.977 56.902 329.836 61.84 c 333.914 67.062 340.223
 70.012 346.828 69.781 c 347.988 73.805 348.699 77.941 348.945 82.129 c 
349.055 83.961 350.047 85.625 351.609 86.586 c 362.559 93.328 369.32 104.93
 369.703 117.621 c 369.832 121.953 369.242 126.211 367.941 130.281 c 367.742
 130.91 366.922 131.098 366.453 130.629 c 357.828 122.008 343.801 122.008
 335.18 130.629 c h
335.18 130.629 m f
9.141 290.312 m 19.727 299.48 34.84 308.059 54.312 308.059 c 65.766 308.059
 78.723 305.094 93.152 297.539 c 98.898 294.535 104.988 292.418 111.324 
291.211 c 111.551 308.391 107.707 324.781 100.141 338.805 c 99.305 340.754
 94.957 346.348 94.957 355.586 c 94.957 371.254 107.703 384 123.371 384 
c 154.727 384 l 158.055 384 161.211 383.246 164.035 381.906 c 168.883 383.293
 173.883 384 178.941 384 c 198.555 384 l 210.578 384 220.363 374.215 220.363
 362.188 c 220.363 350.164 210.578 340.379 198.555 340.379 c 197.863 340.379
 l 201.141 334.719 205.141 329.516 209.82 324.836 c 209.852 324.805 l 219.527
 315.121 223.977 301.289 221.953 287.867 c 231.457 281.98 239.824 274.188
 246.383 264.848 c 250.977 268.559 254.758 272.918 257.301 276.75 c 264.156
 287.09 278.066 289.895 288.383 283.051 c 298.715 276.199 301.535 262.297
 294.684 251.965 c 284.402 236.453 272.449 226.879 261.133 220.992 c 261.254
 217.781 261.203 214.551 260.961 211.344 c 260.438 204.48 260.832 197.633
 262.133 190.984 c 262.727 187.938 260.742 184.98 257.691 184.387 c 254.641
 183.789 251.688 185.777 251.09 188.824 c 249.598 196.465 249.145 204.328
 249.742 212.199 c 249.844 213.523 249.91 214.852 249.938 216.18 c 246.52
 215.016 240.703 213.418 237.328 212.992 c 222.41 211.113 209.977 224.207
 212.645 238.953 c 214.273 247.949 221.215 254.953 230.328 256.805 c 232.297
 257.203 234.543 257.902 236.812 258.91 c 223.91 276.953 202.785 288.91 
178.316 289.172 c 176.992 278.062 171.168 267.91 163.59 261.723 c 163.562
 261.699 163.531 261.68 163.508 261.656 c 157.809 257.031 150.758 254.512
 143.316 254.512 c 127.965 254.512 115.16 265.254 111.973 279.684 c 103.562
 280.973 95.492 283.617 87.938 287.57 c 61.145 301.594 37.113 299.652 16.504
 281.805 c 11.969 277.879 14.926 270.5 20.977 270.773 c 31.25 271.227 41.391
 269.789 51.113 266.504 c 54.055 265.508 55.637 262.316 54.641 259.375 c
 53.645 256.43 50.453 254.852 47.508 255.848 c 39.113 258.684 30.348 259.926
 21.469 259.535 c 4.793 258.797 -3.461 279.398 9.141 290.312 c h
285.309 258.18 m 288.723 263.328 287.32 270.258 282.168 273.676 c 277.035
 277.078 270.102 275.695 266.676 270.535 c 258.953 258.883 246.168 248.539
 232.562 245.777 c 227.992 244.852 224.52 241.387 223.715 236.953 c 222.359
 229.449 228.922 222.805 236.59 224.258 c 255.207 227.781 272.477 238.828
 285.309 258.18 c h
123.367 372.75 m 113.906 372.75 106.207 365.051 106.207 355.586 c 106.207
 349.609 109.141 346.164 110.039 344.148 c 119.043 327.469 123.344 307.883
 122.48 287.508 c 121.715 269.477 142.625 259.223 156.43 270.402 c 156.449
 270.418 156.465 270.43 156.484 270.445 c 169.691 281.195 171.617 303.305
 158.02 316.898 c 150.184 324.734 144.043 333.871 139.758 343.77 c 138.152
 347.477 140.875 351.629 144.918 351.629 c 154.727 351.629 l 160.551 351.629
 165.289 356.367 165.289 362.191 c 165.289 368.086 160.445 372.75 154.727
 372.75 c h
201.848 316.898 m 194.086 324.66 187.941 333.699 183.582 343.77 c 181.977
 347.477 184.699 351.629 188.746 351.629 c 198.555 351.629 l 204.375 351.629
 209.113 356.367 209.113 362.191 c 209.113 368.012 204.375 372.75 198.555
 372.75 c 178.941 372.75 l 177.273 372.75 175.617 372.652 173.973 372.465
 c 175.562 369.492 176.539 365.852 176.539 362.191 c 176.539 350.219 166.801
 340.379 154.727 340.379 c 154.039 340.379 l 157.316 334.719 161.32 329.508
 166.016 324.816 c 166.023 324.809 166.031 324.797 166.039 324.793 c 172.641
 318.18 176.91 309.648 178.203 300.426 c 189.273 300.469 200.531 298.215
 211.18 293.574 c 211.375 302.18 208.078 310.672 201.887 316.859 c f
Q Q
showpage
%%Trailer
end
%%EOF
