%!PS-Adobe-3.0 EPSF-3.0
%%Creator: cairo 1.16.0 (https://cairographics.org)
%%CreationDate: Mon Aug 23 08:35:12 2021
%%Pages: 1
%%DocumentData: Clean7Bit
%%LanguageLevel: 2
%%BoundingBox: 0 6 384 378
%%EndComments
%%BeginProlog
50 dict begin
/q { gsave } bind def
/Q { grestore } bind def
/cm { 6 array astore concat } bind def
/w { setlinewidth } bind def
/J { setlinecap } bind def
/j { setlinejoin } bind def
/M { setmiterlimit } bind def
/d { setdash } bind def
/m { moveto } bind def
/l { lineto } bind def
/c { curveto } bind def
/h { closepath } bind def
/re { exch dup neg 3 1 roll 5 3 roll moveto 0 rlineto
      0 exch rlineto 0 rlineto closepath } bind def
/S { stroke } bind def
/f { fill } bind def
/f* { eofill } bind def
/n { newpath } bind def
/W { clip } bind def
/W* { eoclip } bind def
/BT { } bind def
/ET { } bind def
/BDC { mark 3 1 roll /BDC pdfmark } bind def
/EMC { mark /EMC pdfmark } bind def
/cairo_store_point { /cairo_point_y exch def /cairo_point_x exch def } def
/Tj { show currentpoint cairo_store_point } bind def
/TJ {
  {
    dup
    type /stringtype eq
    { show } { -0.001 mul 0 cairo_font_matrix dtransform rmoveto } ifelse
  } forall
  currentpoint cairo_store_point
} bind def
/cairo_selectfont { cairo_font_matrix aload pop pop pop 0 0 6 array astore
    cairo_font exch selectfont cairo_point_x cairo_point_y moveto } bind def
/Tf { pop /cairo_font exch def /cairo_font_matrix where
      { pop cairo_selectfont } if } bind def
/Td { matrix translate cairo_font_matrix matrix concatmatrix dup
      /cairo_font_matrix exch def dup 4 get exch 5 get cairo_store_point
      /cairo_font where { pop cairo_selectfont } if } bind def
/Tm { 2 copy 8 2 roll 6 array astore /cairo_font_matrix exch def
      cairo_store_point /cairo_font where { pop cairo_selectfont } if } bind def
/g { setgray } bind def
/rg { setrgbcolor } bind def
/d1 { setcachedevice } bind def
/cairo_data_source {
  CairoDataIndex CairoData length lt
    { CairoData CairoDataIndex get /CairoDataIndex CairoDataIndex 1 add def }
    { () } ifelse
} def
/cairo_flush_ascii85_file { cairo_ascii85_file status { cairo_ascii85_file flushfile } if } def
/cairo_image { image cairo_flush_ascii85_file } def
/cairo_imagemask { imagemask cairo_flush_ascii85_file } def
%%EndProlog
%%BeginSetup
%%EndSetup
%%Page: 1 1
%%BeginPageSetup
%%PageBoundingBox: 0 6 384 378
%%EndPageSetup
q 0 6 384 372 rectclip
1 0 0 -1 0 384 cm q
0.501961 0.772549 0.690196 rg
246.328 352.301 m 241.477 337.215 227.445 326.984 211.598 326.984 c 210.152
 326.984 l 197.672 326.984 187.555 337.102 187.555 349.582 c 187.555 362.062
 197.672 372.18 210.152 372.18 c 231.836 372.18 l 242.156 372.18 249.484
 362.125 246.328 352.301 c h
246.328 352.301 m f
0.976471 0.87451 0.603922 rg
41.598 140.879 m 41.598 140.879 89.676 222.512 155.285 230.039 c 180.551
 251.391 l 234.938 263.637 l 221.609 292.453 l 186.98 322.707 l 140.93 344.676
 l 111.035 337.473 l 73.938 300.375 l 49.086 230.859 l 25.676 169.633 l 
h
41.598 140.879 m f
0.501961 0.772549 0.690196 rg
203.406 201.785 m 203.406 201.785 234.328 183.664 234.938 151.523 c 273.832
 173.484 l 273.832 173.484 287.523 269.148 212.297 254.445 c 180.551 251.391
 l 180.551 226.746 l h
203.406 201.785 m f
0.435294 0.74902 0.65098 rg
272.867 164.566 m 272.867 164.566 274.793 243.695 351.934 214.879 c 359.059
 198.043 l 330.496 164.566 l 292.109 158.73 l h
272.867 164.566 m f
0.313726 0.713726 0.572549 rg
234.938 151.523 m 234.703 163.836 230.02 174.09 224.332 182.055 c 238.555
 189.312 255.367 194.059 274.668 196.246 c 275.238 183.348 273.832 173.484
 273.832 173.484 c h
234.938 151.523 m f
0.501961 0.772549 0.690196 rg
334.652 118.789 m 322.707 111.121 313.879 99.418 309.746 85.84 c 301.383
 58.355 273.41 13.625 179.934 11.824 c 168.316 11.598 162.844 26.199 171.855
 33.531 c 172.113 33.742 172.371 33.953 172.629 34.164 c 186.898 45.961 
194.633 63.91 193.363 82.383 c 191.301 112.477 199.207 170.621 289.957 174.91
 c 303.738 175.562 317.184 179.688 328.621 187.406 c 337.633 193.492 346.66
 202.316 351.934 214.879 c 355.574 223.551 367.934 223.66 371.695 215.039
 c 382.301 190.719 386.613 152.133 334.652 118.789 c h
334.652 118.789 m f
0.921569 0.917647 0.960784 rg
273.555 118.355 m 284.965 124.77 290.074 137.332 284.969 146.414 c 279.863
 155.5 266.477 157.668 255.066 151.258 c 243.656 144.848 238.547 132.285
 243.652 123.199 c 248.758 114.113 262.145 111.945 273.555 118.355 c h
273.555 118.355 m f
0.313726 0.713726 0.572549 rg
230.809 360.496 m 216.336 360.496 204.602 348.762 204.602 334.289 c 204.602
 331.93 204.918 329.645 205.504 327.469 c 195.254 329.613 187.555 338.695
 187.555 349.582 c 187.555 362.062 197.672 372.18 210.152 372.18 c 231.84
 372.18 l 241.23 372.18 248.145 363.852 246.93 354.945 c 242.48 358.422 
236.891 360.496 230.809 360.496 c h
230.809 360.496 m f
0.988235 0.792157 0.45098 rg
117.926 245.812 m 117.926 236.664 118.855 227.734 120.625 219.113 c 73.426
 194.914 41.598 140.879 41.598 140.879 c 25.676 169.629 l 49.086 230.859
 l 73.938 300.375 l 111.035 337.473 l 140.93 344.676 l 155.27 337.836 l 
132.16 314.047 117.926 281.594 117.926 245.812 c h
117.926 245.812 m f
0.937255 0.501961 0.498039 rg
135.688 361.789 m 126.195 361.789 116.84 359.43 107.754 354.73 c 97.48 
349.414 87.527 340.988 78.176 329.688 c 63.836 312.359 50.242 287.516 37.777
 255.848 c 17.16 203.48 6.426 150.223 5.98 147.98 c 4.02 138.145 10.402 
128.582 20.238 126.621 c 30.074 124.66 39.637 131.043 41.598 140.879 c 41.703
 141.398 52.234 193.555 71.723 242.918 c 93.926 299.168 118.797 329.105 
139.949 325.051 c 178.742 317.617 203.809 293.094 217.98 273.887 c 180.34
 273.887 l 169.957 273.887 160.301 268.293 155.137 259.293 c 149.957 250.254
 150.012 239.043 155.285 230.039 c 168.438 207.566 190.93 191.09 191.879
 190.398 c 199.996 184.504 211.352 186.305 217.246 194.422 c 223.133 202.527
 221.34 213.871 213.246 219.77 c 213 219.949 203.172 227.23 194.414 237.562
 c 231.562 237.562 l 242.066 237.562 251.785 243.254 256.926 252.414 c 262.066
 261.57 261.859 272.828 256.391 281.793 c 241.441 306.293 207.32 349.125
 146.785 360.723 c 143.07 361.434 139.367 361.789 135.688 361.789 c h
135.688 361.789 m f
0.92549 0.415686 0.384314 rg
143.742 324.258 m 142.492 324.539 141.23 324.805 139.949 325.051 c 118.797
 329.105 93.926 299.168 71.723 242.918 c 52.234 193.555 41.703 141.398 41.598
 140.879 c 39.641 131.043 30.074 124.66 20.238 126.621 c 10.402 128.582 
4.02 138.145 5.98 147.98 c 6.426 150.223 17.16 203.48 37.777 255.848 c 50.242
 287.516 63.836 312.359 78.176 329.688 c 87.527 340.988 97.48 349.414 107.758
 354.73 c 116.844 359.43 126.195 361.789 135.688 361.789 c 139.371 361.789
 143.074 361.434 146.785 360.723 c 156.203 358.922 164.98 356.359 173.145
 353.23 c 161.895 345.168 151.969 335.383 143.742 324.258 c h
143.742 324.258 m f
0 g
284.676 115.141 m 280.578 122.434 l 279.055 125.141 280.02 128.57 282.727
 130.094 c 285.43 131.613 288.859 130.656 290.387 127.941 c 294.152 121.238
 l 295.973 123.02 l 298.203 125.195 301.762 125.141 303.93 122.926 c 306.098
 120.703 306.059 117.141 303.836 114.973 c 289.453 100.922 l 287.23 98.75
 283.668 98.793 281.5 101.016 c 279.328 103.238 279.367 106.797 281.59 108.969
 c 286.156 113.43 l 285.57 113.879 285.062 114.453 284.676 115.141 c h
284.676 115.141 m f
10.484 190.551 m 11.301 193.547 14.391 195.312 17.391 194.496 c 20.387 
193.68 22.156 190.59 21.34 187.59 c 14.973 164.223 11.637 147.582 11.496
 146.883 c 10.145 140.09 14.543 133.492 21.34 132.141 c 28.133 130.785 34.73
 135.188 36.082 141.984 c 36.188 142.508 46.797 195.098 66.488 244.98 c 
72.523 260.273 78.852 273.871 85.301 285.395 c 86.828 288.129 90.285 289.051
 92.953 287.559 c 95.664 286.043 96.633 282.613 95.117 279.902 c 89.609 
270.055 83.426 257.254 76.953 240.852 c 67.953 218.062 59.855 191.789 53.738
 167.945 c 58.27 173.695 63.637 180.047 69.754 186.504 c 94.738 212.879 
121.363 229.332 147.227 234.461 c 140.262 257 157.121 279.504 180.336 279.504
 c 206.27 279.504 l 192.004 295.934 170.07 313.547 138.891 319.52 c 126.684
 321.871 114.148 308.125 106.742 298.125 c 104.883 295.621 101.352 295.121
 98.871 296.957 c 96.375 298.809 95.855 302.332 97.703 304.828 c 108.301
 319.121 123.531 333.91 141.004 330.566 c 181.559 322.797 207.703 297.27
 222.496 277.219 c 225.227 273.523 222.594 268.258 217.973 268.258 c 180.336
 268.258 l 162.109 268.258 151.023 248.445 160.133 232.879 c 160.133 232.879
 160.133 232.875 160.133 232.875 c 172.695 211.418 194.266 195.609 195.18
 194.949 c 200.805 190.867 208.637 192.145 212.688 197.727 c 216.738 203.309
 215.504 211.16 209.902 215.242 c 209.473 215.559 199.27 223.125 190.117
 233.926 c 187.027 237.57 189.625 243.188 194.406 243.188 c 231.555 243.188
 l 249.781 243.188 261.125 263.215 251.578 278.859 c 228.203 317.164 191.672
 346.387 145.723 355.191 c 120.215 360.074 98.934 345.945 82.508 326.094
 c 68.547 309.223 55.258 284.895 43.012 253.785 c 37.582 239.992 32.352 
224.875 27.465 208.84 c 26.559 205.871 23.418 204.195 20.445 205.102 c 17.473
 206.004 15.801 209.148 16.703 212.121 c 21.676 228.434 27.004 243.84 32.543
 257.906 c 45.227 290.125 59.121 315.477 73.84 333.266 c 93.227 356.691 
118.34 371.887 147.84 366.238 c 160.504 363.812 172.051 360.066 182.539 
355.43 c 185.242 368.188 196.59 377.793 210.145 377.793 c 231.828 377.793
 l 245.977 377.793 256.004 364.039 251.672 350.57 c 247.902 338.836 239.414
 329.629 228.5 324.879 c 243.691 310.738 254.371 295.883 261.184 284.719
 c 267.699 274.039 268.152 260.23 261.316 248.82 c 271.266 239.184 277.535
 224.191 279.637 204.93 c 283.594 210.875 288.812 216.355 295.711 220.352
 c 303.141 224.664 311.703 226.816 321.328 226.816 c 329.926 226.816 339.379
 225.094 349.629 221.656 c 357.137 230.109 371.875 228.66 376.836 217.285
 c 384.07 200.688 385.84 184.434 382.086 168.969 c 377.047 148.211 362.105
 129.734 337.676 114.059 c 326.875 107.125 318.863 96.523 315.113 84.207
 c 306.496 55.883 277.488 8.09 180.035 6.211 c 163.77 5.883 154.355 26.375
 169.039 38.508 c 181.891 49.133 188.887 65.395 187.746 82.004 c 186.465
 100.68 188.91 127.402 207.828 148.648 c 213.254 154.742 219.695 159.977
 227.121 164.352 c 224.398 172.766 219.52 179.676 214.906 184.762 c 207.141
 180.039 196.73 179.922 188.566 185.848 c 187.621 186.531 166.301 202.168
 152.41 223.961 c 95.273 214.875 51.652 146.492 46.883 138.746 c 43.871 
126.465 31.699 118.602 19.141 121.109 c 6.25 123.676 -2.105 136.188 0.465
 149.082 c 0.605 149.793 4.016 166.809 10.484 190.551 c h
240.961 354.012 m 242.957 360.215 238.34 366.543 231.828 366.543 c 210.145
 366.543 l 201.008 366.543 193.535 359.289 193.184 350.238 c 202.613 345.199
 211.078 339.465 218.629 333.418 c 229.168 335.863 237.605 343.578 240.961
 354.012 c h
301.352 210.621 m 289.328 203.652 283.617 190.344 280.918 179.934 c 283.098
 180.129 286.766 180.391 289.676 180.527 c 289.68 180.527 l 302.402 181.129
 314.949 184.973 325.461 192.066 c 333.055 197.195 339.566 203.695 344.07
 211.637 c 326.457 217.195 312.105 216.859 301.352 210.621 c h
216.23 141.164 m 199.91 122.84 197.836 99.297 198.969 82.773 c 200.355 
62.559 191.848 42.77 176.207 29.84 c 169.926 24.637 173.988 17.457 179.668
 17.457 c 179.719 17.457 179.77 17.457 179.82 17.457 c 219.773 18.227 251.246
 27.059 273.363 43.703 c 292.301 57.957 300.668 75.379 304.352 87.48 c 308.875
 102.352 318.555 115.152 331.598 123.527 c 353.512 137.586 366.816 153.77
 371.152 171.625 c 374.312 184.645 372.754 198.496 366.523 212.789 c 364.746
 216.859 358.836 216.82 357.105 212.699 c 351.891 200.281 343.008 190.344
 331.754 182.746 c 319.871 174.723 305.523 170.016 290.215 169.293 c 263.289
 168.02 234.238 161.387 216.23 141.164 c h
237.254 169.516 m 247.199 173.875 258.133 176.73 268.684 178.418 c 269.109
 183.457 269.559 192.539 268.57 202.582 c 267.383 214.598 263.859 230.277
 254.035 240.211 c 247.598 234.73 239.523 231.938 231.555 231.938 c 207.574
 231.938 l 212.578 227.262 216.508 224.348 216.551 224.312 c 226.648 216.953
 229.18 203.105 222.863 192.734 c 228.133 187 233.797 179.18 237.254 169.516
 c h
237.254 169.516 m f
Q Q
showpage
%%Trailer
end
%%EOF
