%!PS-Adobe-3.0 EPSF-3.0
%%Creator: cairo 1.16.0 (https://cairographics.org)
%%CreationDate: Mon Aug 23 08:35:12 2021
%%Pages: 1
%%DocumentData: Clean7Bit
%%LanguageLevel: 2
%%BoundingBox: 0 4 384 380
%%EndComments
%%BeginProlog
50 dict begin
/q { gsave } bind def
/Q { grestore } bind def
/cm { 6 array astore concat } bind def
/w { setlinewidth } bind def
/J { setlinecap } bind def
/j { setlinejoin } bind def
/M { setmiterlimit } bind def
/d { setdash } bind def
/m { moveto } bind def
/l { lineto } bind def
/c { curveto } bind def
/h { closepath } bind def
/re { exch dup neg 3 1 roll 5 3 roll moveto 0 rlineto
      0 exch rlineto 0 rlineto closepath } bind def
/S { stroke } bind def
/f { fill } bind def
/f* { eofill } bind def
/n { newpath } bind def
/W { clip } bind def
/W* { eoclip } bind def
/BT { } bind def
/ET { } bind def
/BDC { mark 3 1 roll /BDC pdfmark } bind def
/EMC { mark /EMC pdfmark } bind def
/cairo_store_point { /cairo_point_y exch def /cairo_point_x exch def } def
/Tj { show currentpoint cairo_store_point } bind def
/TJ {
  {
    dup
    type /stringtype eq
    { show } { -0.001 mul 0 cairo_font_matrix dtransform rmoveto } ifelse
  } forall
  currentpoint cairo_store_point
} bind def
/cairo_selectfont { cairo_font_matrix aload pop pop pop 0 0 6 array astore
    cairo_font exch selectfont cairo_point_x cairo_point_y moveto } bind def
/Tf { pop /cairo_font exch def /cairo_font_matrix where
      { pop cairo_selectfont } if } bind def
/Td { matrix translate cairo_font_matrix matrix concatmatrix dup
      /cairo_font_matrix exch def dup 4 get exch 5 get cairo_store_point
      /cairo_font where { pop cairo_selectfont } if } bind def
/Tm { 2 copy 8 2 roll 6 array astore /cairo_font_matrix exch def
      cairo_store_point /cairo_font where { pop cairo_selectfont } if } bind def
/g { setgray } bind def
/rg { setrgbcolor } bind def
/d1 { setcachedevice } bind def
/cairo_data_source {
  CairoDataIndex CairoData length lt
    { CairoData CairoDataIndex get /CairoDataIndex CairoDataIndex 1 add def }
    { () } ifelse
} def
/cairo_flush_ascii85_file { cairo_ascii85_file status { cairo_ascii85_file flushfile } if } def
/cairo_image { image cairo_flush_ascii85_file } def
/cairo_imagemask { imagemask cairo_flush_ascii85_file } def
%%EndProlog
%%BeginSetup
%%EndSetup
%%Page: 1 1
%%BeginPageSetup
%%PageBoundingBox: 0 4 384 380
%%EndPageSetup
q 0 4 384 376 rectclip
1 0 0 -1 0 384 cm q
0.552941 0.556863 0.772549 rg
182.309 290.184 m 196.402 307.301 207.312 336.734 202.816 356.73 c 200.531
 366.879 191.879 373.672 181.48 373.48 c 160.93 373.098 134.941 355.453 
121.703 337.758 c 88.766 293.734 147.363 247.734 182.309 290.184 c h
182.309 290.184 m f
295.836 275.129 m 309.926 292.246 320.84 321.68 316.34 341.68 c 314.059
 351.824 305.406 358.617 295.008 358.426 c 274.453 358.047 248.469 340.398
 235.23 322.703 c 202.293 278.68 260.891 232.68 295.836 275.129 c h
295.836 275.129 m f
0.611765 0.619608 0.811765 rg
96.461 277.5 m 96.461 277.5 19.477 283.562 5.844 208.707 c 5.266 205.539
 5.848 202.262 7.488 199.488 c 12.215 191.504 23.387 190.691 29.312 197.824
 c 41.836 212.902 65.457 231.938 102.27 226.004 c h
96.461 277.5 m f
0.552941 0.556863 0.772549 rg
96.461 277.5 m 102.27 226.004 l 91.664 227.715 82.16 227.344 73.695 225.598
 c 69.105 236.277 66.711 247.621 66.711 259.238 c 66.711 264.582 67.219 
269.77 68.223 274.777 c 84.004 278.477 96.461 277.5 96.461 277.5 c h
96.461 277.5 m f
0.611765 0.619608 0.811765 rg
216.199 174.273 m 225.012 175.742 233.406 178.066 241.219 181.125 c 253.406
 168.125 260.445 150.527 262.168 128.668 c 263.754 108.516 260.082 92.559
 260.043 92.41 c 303.949 81.809 l 304.75 85.113 321.047 155.547 279.133 
206.402 c 288.445 216.586 294.699 228.516 296.898 241.426 c 305.352 239.129
 315.316 239.641 326.195 244.309 c 346.57 253.047 369.777 274.184 374.961
 294.02 c 377.59 304.082 373.02 314.086 363.695 318.684 c 345.262 327.785
 314.074 324.035 294.188 314.395 c 284.465 309.676 277.855 303.262 273.887
 296.172 c 254.828 309.547 226.059 315.98 193.871 315.98 c 178.727 315.98
 164.352 314.559 151.375 311.66 c 151.223 319.949 148.309 328.891 141.68
 337.758 c 128.438 355.453 102.453 373.098 81.898 373.48 c 71.504 373.672
 62.848 366.879 60.566 356.734 c 56.062 336.734 66.98 307.305 81.07 290.18
 c 85.855 284.367 91.09 280.227 96.461 277.496 c 92.254 270.043 89.961 261.461
 89.961 251.738 c 89.961 231.488 99.895 213.016 116.254 199 c 139.09 214.629
 l 145.316 181.613 l 156.027 177.27 167.844 174.336 180.363 173.102 c 200.609
 200.648 l h
216.199 174.273 m f
0.67451 0.862745 0.941176 rg
147.016 247.523 m 137.742 248.637 129.297 242.027 128.184 232.723 c 126.773
 221.02 121.973 209.293 116.25 199 c 124.473 191.965 134.309 186.047 145.312
 181.613 c 152.953 195.109 159.723 211.34 161.805 228.688 c 162.93 237.977
 156.297 246.406 147.016 247.523 c h
147.016 247.523 m f
220.676 212.965 m 220.105 222.246 212.133 229.398 202.73 228.832 c 193.398
 228.254 186.293 220.223 186.863 210.887 c 187.664 197.879 184.516 184.559
 180.363 173.102 c 184.789 172.656 189.297 172.43 193.871 172.43 c 201.535
 172.43 209.004 173.062 216.199 174.273 c 219.48 186.332 221.496 199.574
 220.676 212.965 c h
220.676 212.965 m f
0.552941 0.556863 0.772549 rg
287.52 132.562 m 307.164 132.562 l 309.367 105.125 304.383 83.602 303.949
 81.812 c 260.043 92.41 l 260.082 92.559 263.668 108.16 262.215 127.988 
c 270.094 130.941 278.621 132.562 287.52 132.562 c h
287.52 132.562 m f
0.611765 0.619608 0.811765 rg
347.168 47.648 m 335.668 47.648 l 330.074 26.281 310.641 10.516 287.52 
10.516 c 260.031 10.516 237.746 32.797 237.746 60.289 c 237.746 87.777 260.027
 110.062 287.52 110.062 c 347.168 110.062 l 364.402 110.062 378.375 96.09
 378.375 78.855 c 378.375 61.617 364.402 47.648 347.168 47.648 c h
347.168 47.648 m f
0 g
317.34 81.098 m 321.57 85.953 327.684 88.734 334.109 88.734 c 340.535 88.734
 346.645 85.953 350.875 81.098 c 352.914 78.758 352.672 75.203 350.328 73.164
 c 347.988 71.121 344.434 71.367 342.395 73.707 c 340.301 76.109 337.281
 77.484 334.109 77.484 c 330.934 77.484 327.914 76.109 325.82 73.707 c 323.781
 71.367 320.227 71.121 317.887 73.164 c 315.543 75.203 315.301 78.758 317.34
 81.098 c h
317.34 81.098 m f
310.68 63.668 m 313.789 63.668 316.305 61.148 316.305 58.043 c 316.305 
49.668 l 316.305 46.562 313.789 44.043 310.68 44.043 c 307.574 44.043 305.059
 46.562 305.059 49.668 c 305.059 58.043 l 305.059 61.148 307.574 63.668 
310.68 63.668 c h
310.68 63.668 m f
273.77 63.668 m 276.875 63.668 279.395 61.148 279.395 58.043 c 279.395 
49.668 l 279.395 46.562 276.875 44.043 273.77 44.043 c 270.664 44.043 268.145
 46.562 268.145 49.668 c 268.145 58.043 l 268.145 61.148 270.664 63.668 
273.77 63.668 c h
273.77 63.668 m f
0.336 209.715 m 2.789 223.164 7.402 235.074 14.051 245.109 c 15.77 247.699
 19.258 248.406 21.848 246.691 c 24.438 244.977 25.145 241.484 23.43 238.895
 c 17.625 230.137 13.578 219.641 11.406 207.699 c 9.973 199.848 19.898 195.262
 25.012 201.418 c 36.938 215.773 57.082 232.172 87.102 232.723 c 85.34 238.715
 84.355 245.203 84.355 251.734 c 84.355 258.957 85.59 265.863 87.738 271.844
 c 76.168 271.23 54.676 268.094 37.32 254.141 c 34.898 252.191 31.359 252.578
 29.41 254.996 c 27.465 257.418 27.848 260.957 30.27 262.906 c 47.113 276.449
 66.777 281.078 80.371 282.574 c 63.852 299.43 49.746 334.16 55.102 357.953
 c 57.914 370.469 68.73 379.098 81.512 379.098 c 98.953 379.098 118.398 
367.895 131.695 356.426 c 150.453 372.727 169.422 378.867 181.395 379.09
 c 194.383 379.332 205.461 370.641 208.316 357.953 c 210.625 347.691 209.473
 334.902 205.117 321.336 c 212.52 320.992 219.598 320.305 226.324 319.281
 c 238.098 340.355 270.445 364.039 295.434 364.039 c 308.203 364.039 319.02
 355.414 321.832 342.902 c 322.816 338.531 323.16 333.703 322.895 328.492
 c 336.938 330.41 353.477 329.992 366.184 323.719 c 377.84 317.973 383.691
 305.172 380.406 292.586 c 374.59 270.348 349.543 248.195 328.418 239.137
 c 319.207 235.184 309.922 233.73 301.238 234.844 c 298.598 224.707 293.562
 214.969 286.438 206.242 c 295.734 193.992 302.719 179.844 307.234 164.121
 c 308.09 161.137 306.367 158.02 303.379 157.164 c 300.391 156.309 297.277
 158.031 296.422 161.016 c 291.871 176.875 284.594 190.941 274.801 202.82
 c 273.02 204.984 273.102 208.125 274.992 210.195 c 283.746 219.773 289.406
 230.895 291.359 242.363 c 291.918 245.633 295.172 247.719 298.379 246.848
 c 306.188 244.73 315.039 245.637 323.984 249.473 c 342.141 257.262 364.715
 277.047 369.523 295.43 c 371.473 302.902 368.133 310.215 361.207 313.633
 c 340.715 323.746 292.199 317.379 278.805 293.414 c 277.18 290.512 273.395
 289.645 270.664 291.559 c 241.598 311.953 187.391 313.926 152.617 306.164
 c 149.156 305.391 145.832 307.98 145.77 311.551 c 145.262 339.457 104.137
 367.43 81.82 367.844 c 74.094 367.988 67.773 363.02 66.078 355.488 c 61.223
 333.906 77.547 293.43 99.035 282.504 c 99.035 282.504 99.035 282.504 99.039
 282.504 c 99.047 282.5 99.051 282.492 99.059 282.488 c 101.824 281.066 
102.996 277.578 101.336 274.641 c 97.43 267.691 95.605 259.895 95.605 251.734
 c 95.605 235.273 102.945 220.148 114.695 208.164 c 118.457 215.906 121.578
 224.754 122.617 233.371 c 122.617 233.379 122.617 233.383 122.617 233.391
 c 124.113 245.863 135.422 254.574 147.699 253.105 c 147.703 253.105 147.703
 253.105 147.703 253.102 c 160.074 251.617 168.902 240.398 167.41 228.016
 c 165.594 212.906 160.34 198.145 153.355 184.621 c 160.75 182.094 168.504
 180.281 176.527 179.211 c 179.785 189.203 181.906 200.133 181.266 210.543
 c 180.492 223.648 190.961 234.484 203.777 234.484 c 215.598 234.484 225.566
 225.25 226.305 213.309 c 226.945 202.84 225.93 192.016 223.742 181.539 
c 229.051 182.809 234.219 184.422 239.184 186.363 c 241.324 187.203 243.762
 186.652 245.336 184.973 c 258.406 171.027 265.961 152.234 267.785 129.117
 c 268.27 122.941 268.273 117.156 268.059 112.172 c 274.023 114.395 280.738
 115.695 287.527 115.695 c 302.086 115.695 l 302.219 124.18 301.738 132.531
 300.656 140.59 c 300.242 143.668 302.402 146.496 305.484 146.91 c 308.562
 147.324 311.395 145.164 311.805 142.086 c 312.953 133.531 313.457 124.68
 313.324 115.695 c 347.172 115.695 l 367.48 115.695 384 99.172 384 78.863
 c 384 58.555 367.48 42.035 347.172 42.035 c 339.836 42.035 l 332.148 19.965
 311.23 4.902 287.527 4.902 c 256.98 4.902 232.133 29.754 232.133 60.297
 c 232.133 79.301 241.754 96.094 256.379 106.078 c 256.898 111.75 257.25
 119.578 256.57 128.23 c 255.074 147.207 249.359 162.754 239.574 174.504
 c 197.172 159.449 145.367 166.684 112.613 194.727 c 112.613 194.727 112.613
 194.73 112.609 194.73 c 103.418 202.609 96.312 211.664 91.523 221.422 c
 63.348 222.457 44.574 207.363 33.664 194.23 c 21.156 179.172 -3.145 190.605
 0.336 209.715 c h
311.473 326.352 m 311.984 331.609 311.781 336.336 310.859 340.434 c 309.164
 347.965 302.852 352.934 295.117 352.789 c 275.316 352.422 249.051 333.41
 238.145 317.059 c 251.223 314.09 262.695 309.691 272.258 303.93 c 281.441
 316.148 296.57 322.758 311.473 326.352 c h
156.375 318.402 m 168.422 320.605 181.281 321.57 193.336 321.598 c 197.895
 334.336 199.355 346.527 197.34 355.484 c 195.645 363.02 189.34 367.988 
181.602 367.84 c 169.473 367.617 153.555 360.199 139.879 348.613 c 147.945
 340.027 154.32 330.258 156.375 318.402 c h
243.383 60.297 m 243.383 35.957 263.184 16.152 287.527 16.152 c 307.594
 16.152 325.152 29.695 330.23 49.082 c 330.879 51.559 333.113 53.281 335.672
 53.281 c 347.172 53.281 l 361.277 53.281 372.75 64.758 372.75 78.863 c 
372.75 92.969 361.277 104.445 347.172 104.445 c 287.527 104.445 l 263.09
 104.441 243.383 84.535 243.383 60.297 c h
211.688 179.273 m 214.332 190.062 215.762 201.391 215.074 212.609 c 215.074
 212.617 l 214.707 218.609 209.574 223.414 203.406 223.219 c 197.164 223.023
 192.102 217.656 192.492 211.23 c 193.176 200.125 191.191 188.707 188 178.191
 c 195.934 177.832 203.949 178.199 211.688 179.273 c h
142.84 188.805 m 149.453 201.383 154.492 215.016 156.223 229.234 c 156.227
 229.277 156.234 229.32 156.238 229.359 c 156.914 234.941 153.414 240.047
 148.16 241.559 c 141.316 243.527 134.605 238.875 133.785 232.051 c 133.781
 232.016 133.777 231.98 133.773 231.945 c 132.441 220.984 128.402 210.188
 123.418 200.438 c 129.238 195.938 135.742 192.043 142.84 188.805 c h
142.84 188.805 m f
Q Q
showpage
%%Trailer
end
%%EOF
