%!PS-Adobe-3.0 EPSF-3.0
%%Creator: cairo 1.16.0 (https://cairographics.org)
%%CreationDate: Mon Aug 23 08:35:13 2021
%%Pages: 1
%%DocumentData: Clean7Bit
%%LanguageLevel: 2
%%BoundingBox: 0 6 384 378
%%EndComments
%%BeginProlog
50 dict begin
/q { gsave } bind def
/Q { grestore } bind def
/cm { 6 array astore concat } bind def
/w { setlinewidth } bind def
/J { setlinecap } bind def
/j { setlinejoin } bind def
/M { setmiterlimit } bind def
/d { setdash } bind def
/m { moveto } bind def
/l { lineto } bind def
/c { curveto } bind def
/h { closepath } bind def
/re { exch dup neg 3 1 roll 5 3 roll moveto 0 rlineto
      0 exch rlineto 0 rlineto closepath } bind def
/S { stroke } bind def
/f { fill } bind def
/f* { eofill } bind def
/n { newpath } bind def
/W { clip } bind def
/W* { eoclip } bind def
/BT { } bind def
/ET { } bind def
/BDC { mark 3 1 roll /BDC pdfmark } bind def
/EMC { mark /EMC pdfmark } bind def
/cairo_store_point { /cairo_point_y exch def /cairo_point_x exch def } def
/Tj { show currentpoint cairo_store_point } bind def
/TJ {
  {
    dup
    type /stringtype eq
    { show } { -0.001 mul 0 cairo_font_matrix dtransform rmoveto } ifelse
  } forall
  currentpoint cairo_store_point
} bind def
/cairo_selectfont { cairo_font_matrix aload pop pop pop 0 0 6 array astore
    cairo_font exch selectfont cairo_point_x cairo_point_y moveto } bind def
/Tf { pop /cairo_font exch def /cairo_font_matrix where
      { pop cairo_selectfont } if } bind def
/Td { matrix translate cairo_font_matrix matrix concatmatrix dup
      /cairo_font_matrix exch def dup 4 get exch 5 get cairo_store_point
      /cairo_font where { pop cairo_selectfont } if } bind def
/Tm { 2 copy 8 2 roll 6 array astore /cairo_font_matrix exch def
      cairo_store_point /cairo_font where { pop cairo_selectfont } if } bind def
/g { setgray } bind def
/rg { setrgbcolor } bind def
/d1 { setcachedevice } bind def
/cairo_data_source {
  CairoDataIndex CairoData length lt
    { CairoData CairoDataIndex get /CairoDataIndex CairoDataIndex 1 add def }
    { () } ifelse
} def
/cairo_flush_ascii85_file { cairo_ascii85_file status { cairo_ascii85_file flushfile } if } def
/cairo_image { image cairo_flush_ascii85_file } def
/cairo_imagemask { imagemask cairo_flush_ascii85_file } def
%%EndProlog
%%BeginSetup
%%EndSetup
%%Page: 1 1
%%BeginPageSetup
%%PageBoundingBox: 0 6 384 378
%%EndPageSetup
q 0 6 384 372 rectclip
1 0 0 -1 0 384 cm q
0.909804 0.34902 0.309804 rg
351.234 191.762 m 290.988 138.461 252.008 196.723 252.008 196.723 c 243.344
 206.516 244.262 221.48 254.055 230.145 c 263.848 238.809 278.812 237.895
 287.477 228.098 c 278.812 237.895 279.727 252.855 289.523 261.52 c 299.316
 270.188 314.277 269.27 322.945 259.477 c 312.449 271.34 l 303.781 281.133
 304.699 296.098 314.492 304.762 c 324.289 313.426 339.25 312.512 347.914
 302.719 c 347.914 302.715 413.832 247.137 351.234 191.762 c h
351.234 191.762 m f
0.952941 0.615686 0.521569 rg
12.02 211.684 m 2.992 222.25 3.582 237.98 13.41 247.809 c 23.699 258.094
 40.352 258.223 50.773 248.07 c 59.426 239.645 67.691 228.793 68.559 217.562
 c 68.559 230.41 78.973 240.82 91.816 240.82 c 101.809 240.82 110.332 234.523
 113.625 225.676 c 118.133 213.566 122.805 201.516 128.41 189.871 c 138.027
 169.883 l 138.027 169.883 67.164 147.117 12.02 211.684 c h
12.02 211.684 m f
0.321569 0.419608 0.501961 rg
277.18 357.207 m 271.703 343.281 258.262 334.121 243.297 334.121 c 241.375
 334.121 l 233.977 320.664 l 227.031 308.027 226.727 292.773 233.164 279.871
 c 248.051 250.02 l 217.805 234.934 l 202.918 264.781 l 191.859 286.953 
192.047 313.031 203.32 334.996 c 191.953 337.988 183.57 348.332 183.57 360.641
 c 183.57 367.094 188.805 372.328 195.258 372.328 c 266.879 372.328 l 274.68
 372.328 280.035 364.469 277.18 357.207 c h
277.18 357.207 m f
0.423529 0.501961 0.588235 rg
201.637 357.207 m 196.16 343.281 182.719 334.121 167.754 334.121 c 165.832
 334.121 l 158.434 320.664 l 151.488 308.027 151.184 292.773 157.621 279.871
 c 172.508 250.02 l 142.262 234.934 l 127.375 264.781 l 116.316 286.953 
116.504 313.031 127.777 334.996 c 116.41 337.988 108.027 348.332 108.027
 360.641 c 108.027 367.094 113.262 372.328 119.715 372.328 c 191.336 372.328
 l 199.137 372.328 204.492 364.469 201.637 357.207 c h
201.637 357.207 m f
0.898039 0.52549 0.431373 rg
138.027 169.883 m 138.027 169.883 121.062 164.441 97.277 166.434 c 95.969
 172.637 95.293 179.168 95.293 185.992 c 95.293 186.852 95.297 187.699 95.312
 188.543 c 95.551 205.035 99.617 220.891 107.074 235.102 c 109.977 232.574
 112.258 229.352 113.625 225.676 c 118.133 213.566 122.805 201.516 128.41
 189.871 c h
138.027 169.883 m f
0.321569 0.419608 0.501961 rg
128.32 262.879 m 136.82 270.816 146.406 277.184 156.711 281.84 c 157.004
 281.18 157.297 280.52 157.621 279.871 c 172.508 250.02 l 142.262 234.934
 l h
128.32 262.879 m f
0.239216 0.356863 0.462745 rg
248.055 250.02 m 217.805 234.934 l 202.918 264.781 l 198.777 273.086 196.211
 281.938 195.219 290.918 c 196.578 290.969 197.941 291.004 199.312 291.004
 c 206.227 291.004 213.195 290.301 220.035 288.918 c 223.605 288.195 227.098
 287.379 230.523 286.496 c 231.223 284.238 232.094 282.02 233.164 279.867
 c h
248.055 250.02 m f
0.972549 0.780392 0.733333 rg
273.027 20.426 m 242.426 20.426 225.281 16.547 215.723 12.504 c 208.023
 9.25 199.75 16.043 201.559 24.203 c 203.242 31.816 208.145 40.566 219.734
 48.668 c 219.738 48.664 l 212.73 58.973 208.633 71.418 208.633 84.82 c 
208.633 119.684 l 208.633 119.684 117.793 114.191 117.793 185.992 c 117.793
 186.742 117.797 187.484 117.809 188.219 c 118.543 239.102 165.691 276.969
 215.566 266.867 c 301.695 249.422 323.148 183.465 323.148 119.684 c 337.422
 119.684 l 337.422 84.82 l 337.422 49.258 308.59 20.426 273.027 20.426 c
 h
273.027 20.426 m f
0.321569 0.419608 0.501961 rg
286.262 123.828 m 286.262 140.973 300.719 154.672 317.82 153.523 c 331.918
 152.578 347.02 148.941 354.527 138.695 c 332.129 114.281 l h
286.262 123.828 m f
0.423529 0.501961 0.588235 rg
377.754 120.609 m 381.602 134.18 366.824 145.605 354.527 138.695 c 342.324
 131.84 323.141 123.828 297.691 123.828 c 286.262 123.828 l 285.992 122.125
 285.863 120.387 285.887 118.602 c 286.102 101.426 300.5 87.789 317.684 
87.789 c 334.957 87.789 l 347.164 87.789 358.207 92.738 366.207 100.73 c
 371.465 105.992 375.664 113.246 377.754 120.609 c h
377.754 120.609 m f
0.937255 0.501961 0.498039 rg
307.066 191.762 m 246.816 138.461 207.84 196.723 207.84 196.723 c 199.172
 206.516 200.09 221.48 209.883 230.145 c 219.68 238.809 234.641 237.895 
243.305 228.098 c 234.641 237.895 235.559 252.855 245.352 261.52 c 255.145
 270.188 270.109 269.27 278.773 259.477 c 268.277 271.34 l 259.613 281.133
 260.527 296.098 270.324 304.762 c 280.117 313.426 295.078 312.512 303.746
 302.719 c 303.746 302.715 369.664 247.137 307.066 191.762 c h
307.066 191.762 m f
0.92549 0.415686 0.384314 rg
326.004 269.652 m 287.621 269.652 256.504 238.535 256.504 200.152 c 256.504
 189.219 259.031 178.883 263.527 169.68 c 228.719 165.527 207.84 196.723
 207.84 196.723 c 199.176 206.516 200.09 221.48 209.883 230.145 c 219.68
 238.809 234.641 237.895 243.309 228.102 c 234.641 237.895 235.559 252.855
 245.352 261.523 c 255.145 270.188 270.109 269.27 278.773 259.477 c 268.277
 271.34 l 259.613 281.137 260.527 296.098 270.324 304.762 c 280.117 313.43
 295.082 312.512 303.746 302.719 c 303.746 302.719 319.379 289.535 328.188
 269.617 c 327.461 269.637 326.734 269.652 326.004 269.652 c h
326.004 269.652 m f
0.952941 0.615686 0.521569 rg
162.008 174.074 m 162.008 156.129 165.566 139.016 171.996 123.387 c 146.773
 129.543 117.793 145.438 117.793 185.992 c 117.793 186.742 117.797 187.484
 117.809 188.219 c 118.473 234.18 157.004 269.516 201.207 268.477 c 176.992
 244.344 162.008 210.957 162.008 174.074 c h
162.008 174.074 m f
0 g
254.777 91.055 m 257.887 91.055 260.402 88.539 260.402 85.43 c 260.402 
76.414 l 260.402 73.309 257.887 70.789 254.777 70.789 c 251.672 70.789 249.152
 73.309 249.152 76.414 c 249.152 85.43 l 249.152 88.539 251.672 91.055 254.777
 91.055 c h
254.777 91.055 m f
354.949 187.551 m 344.672 178.457 334.273 171.906 323.969 168 c 324.652
 164.848 325.266 161.633 325.801 158.359 c 339.324 156.488 349.48 152.168
 356.105 145.461 c 371.805 150.309 387.898 135.805 383.156 119.07 c 380.805
 110.785 376.074 102.648 370.168 96.742 c 362.684 89.266 353.238 84.469 
343 82.812 c 341.938 45.121 310.949 14.785 273.004 14.785 c 242.066 14.785
 225.953 10.715 217.883 7.305 c 205.977 2.273 193.242 12.797 196.031 25.402
 c 198.074 34.629 203.508 42.895 212.211 50.035 c 206.152 60.594 202.973
 72.512 202.973 84.812 c 202.973 113.961 l 178.129 114.195 149.727 120.57
 131.59 137.641 c 124.676 144.152 119.602 151.855 116.363 160.652 c 98.504
 159.477 73.312 161.469 47.402 175.445 c 44.668 176.922 43.648 180.332 45.121
 183.066 c 46.598 185.801 50.012 186.824 52.746 185.348 c 75.262 173.199
 97.223 170.992 113.348 171.746 c 112.531 176.266 112.125 181.016 112.125
 185.996 c 112.125 193.117 112.715 199.836 114.555 207.469 c 112.184 213.383
 109.992 219.203 108.309 223.723 c 105.75 230.594 99.105 235.207 91.773 
235.207 c 82.047 235.207 74.133 227.297 74.133 217.57 c 74.133 214.547 71.746
 212.062 68.727 211.945 c 65.688 211.828 63.133 214.121 62.898 217.133 c
 62.285 225.078 56.715 234.387 46.793 244.051 c 38.625 252.012 25.406 251.914
 17.332 243.84 c 9.641 236.148 9.16 223.629 16.242 215.344 c 22.16 208.414
 28.57 202.195 35.293 196.871 c 37.727 194.941 38.137 191.402 36.211 188.969
 c 34.281 186.535 30.742 186.121 28.305 188.055 c 21.016 193.828 14.078 
200.555 7.684 208.035 c -3.18 220.758 -2.438 239.98 9.379 251.797 c 21.77
 264.191 42.078 264.355 54.648 252.113 c 60.672 246.246 65.32 240.449 68.57
 234.766 c 73.84 241.855 82.281 246.461 91.773 246.461 c 103.781 246.461
 114.664 238.902 118.852 227.652 c 119.301 226.449 119.785 225.152 120.297
 223.789 c 123.426 230.473 127.41 236.758 132.172 242.488 c 122.297 262.285
 l 111.438 284.059 110.715 309.652 120.094 331.922 c 109.398 337.285 102.359
 348.328 102.359 360.664 c 102.359 370.215 110.125 377.98 119.672 377.98
 c 266.855 377.98 l 272.383 377.98 277.539 375.254 280.652 370.684 c 283.766
 366.117 284.418 360.316 282.395 355.172 c 276.199 339.422 261.5 329.094
 244.688 328.543 c 238.883 317.977 l 232.824 306.953 232.559 293.652 238.172
 282.398 c 245.141 268.426 l 249.746 271.398 254.977 272.941 260.223 273.082
 c 253.871 284.797 256.176 299.793 266.574 308.992 c 278.582 319.617 296.895
 318.625 307.672 306.762 c 307.793 306.656 307.953 306.516 308.133 306.355
 c 319.742 319.586 340.137 319.648 351.848 306.766 c 355.359 303.711 383.43
 278.25 383.836 244.195 c 384.074 223.777 374.355 204.719 354.949 187.551
 c h
292.52 129.449 m 297.672 129.449 l 297.703 129.449 297.73 129.453 297.762
 129.453 c 313.836 129.461 329.879 132.883 345.047 140.121 c 337.598 145.375
 326.484 147.305 317.43 147.91 c 310.789 148.355 304.43 146.082 299.539 
141.508 c 296.148 138.34 293.656 134.246 292.52 129.449 c h
372.332 122.141 m 374.84 130.996 365.105 138.191 357.27 133.789 c 338.855
 123.441 318.805 118.199 297.672 118.199 c 291.508 118.199 l 291.941 104.379
 303.656 93.406 317.664 93.406 c 334.941 93.406 l 344.855 93.406 354.676
 97.168 362.215 104.699 c 366.801 109.289 370.488 115.645 372.332 122.141
 c h
139.273 145.863 m 156.199 129.902 187.227 124.066 208.262 125.293 c 211.484
 125.492 214.227 122.922 214.227 119.68 c 214.227 84.812 l 214.227 72.977
 217.73 61.566 224.359 51.816 c 226.133 49.211 225.41 45.668 222.797 43.953
 c 214.047 37.805 208.738 30.746 207.016 22.969 c 206.188 19.234 210.047
 16.211 213.5 17.668 c 226.633 23.223 246.652 26.035 273.004 26.035 c 304.523
 26.035 330.328 50.973 331.719 82.152 c 317.664 82.152 l 315.273 82.152 
312.934 82.387 310.66 82.816 c 310.66 76.414 l 310.66 73.309 308.141 70.789
 305.035 70.789 c 301.926 70.789 299.41 73.309 299.41 76.414 c 299.426 86.688
 299.371 86.164 299.453 86.859 c 288.035 93.176 280.406 105.113 280.238 
118.527 c 280.039 134.328 285.031 143.352 291.852 149.727 c 298.266 155.727
 306.297 158.875 314.262 159.188 c 312.684 168.062 310.484 176.633 307.586
 184.812 c 290.863 170.914 271.23 161.375 249.762 164.145 c 222.082 167.719
 205.539 190.145 203.355 193.273 c 186.473 212.828 201.555 243.25 227.332
 241.668 c 228.867 241.574 230.375 241.363 231.848 241.043 c 231.375 246.145
 232.234 251.332 234.391 256.039 c 224.707 259.301 212.086 262.527 201.555
 262.844 c 160.523 264.043 123.375 231.625 123.375 185.996 c 123.375 170.434
 128.039 156.453 139.273 145.863 c h
195.641 331.93 m 193.828 332.84 192.109 333.93 190.496 335.168 c 184.25
 331.152 176.922 328.797 169.133 328.543 c 163.324 317.977 l 157.266 306.953
 157.004 293.652 162.617 282.395 c 169.406 268.785 l 177.031 271.59 185.008
 273.309 193.117 273.895 c 186.945 292.938 187.82 313.449 195.641 331.93
 c h
113.609 360.664 m 113.609 351.18 120.008 342.871 129.168 340.457 c 132.641
 339.547 134.383 335.648 132.742 332.449 c 122.305 312.113 122.164 287.762
 132.367 267.309 c 140.43 251.141 l 146.168 256.387 152.566 260.805 159.102
 264.234 c 152.547 277.375 l 145.285 291.934 145.629 309.137 153.465 323.395
 c 160.863 336.855 l 161.852 338.652 163.742 339.77 165.793 339.77 c 166.316
 339.848 186.766 338.359 195.641 357.598 c 196.078 358.543 196.289 359.105
 196.367 359.289 c 197.773 362.863 195.125 366.73 191.301 366.73 c 119.672
 366.73 l 116.328 366.73 113.609 364.008 113.609 360.664 c h
236.418 336.855 m 238.449 340.551 242.633 339.648 243.27 339.77 c 256.012
 339.77 267.258 347.43 271.922 359.289 c 272.59 360.992 272.383 362.836 
271.355 364.348 c 270.324 365.859 268.684 366.727 266.852 366.727 c 207.09
 366.727 l 209.957 358.5 204.996 349.273 199.293 342.758 c 200.98 341.738
 202.805 340.961 204.723 340.457 c 208.195 339.543 209.938 335.648 208.297
 332.449 c 198.914 314.168 197.77 293.039 205.02 273.949 c 213.953 273.352
 224.062 270.961 232.566 268.426 c 228.102 277.375 l 220.84 291.934 221.184
 309.137 229.02 323.395 c h
344.273 298.434 m 344.066 298.609 343.867 298.801 343.688 299.008 c 336.234
 307.434 323.039 307.051 316.055 298.309 c 323.199 290.242 329.418 280.961
 333.633 271.18 c 334.863 268.324 333.547 265.016 330.695 263.785 c 330.695
 263.785 330.691 263.785 330.691 263.785 c 330.691 263.785 330.691 263.785
 330.688 263.781 c 327.836 262.555 324.527 263.867 323.297 266.723 c 315.234
 285.441 299.945 298.516 299.512 299.008 c 292.902 306.48 281.5 307.18 274.027
 300.566 c 266.57 293.969 265.871 282.535 272.465 275.082 c 282.953 263.227
 l 282.957 263.223 282.961 263.219 282.965 263.215 c 285.023 260.887 284.805
 257.332 282.477 255.273 c 280.152 253.215 276.598 253.434 274.539 255.762
 c 267.941 263.219 256.508 263.914 249.051 257.32 c 241.551 250.684 240.996
 239.18 247.492 231.836 c 249.555 229.508 249.316 225.938 247.008 223.895
 c 244.973 222.094 241.996 222.035 239.902 223.605 c 238.816 224.422 234.961
 229.93 226.645 230.438 c 210.734 231.406 201.328 212.539 212.02 200.453
 c 212.188 200.266 212.34 200.066 212.48 199.855 c 212.625 199.641 227.078
 178.418 251.203 175.301 c 267.848 173.152 285.379 180.109 303.316 195.977
 c 318.656 209.539 329.68 226.574 328.273 246.996 c 328.059 250.094 330.398
 252.781 333.496 252.992 c 333.504 252.992 l 333.504 252.992 333.508 252.996
 333.508 252.996 c 336.609 253.211 339.293 250.871 339.508 247.77 c 340.863
 228.156 333.141 209.766 316.543 193 c 318.121 188.969 319.859 183.875 321.246
 179.008 c 329.863 182.48 338.668 188.168 347.496 195.977 c 364.32 210.863
 372.762 227.02 372.582 243.992 c 372.262 274.367 344.551 298.203 344.273
 298.434 c h
344.273 298.434 m f
Q Q
showpage
%%Trailer
end
%%EOF
