%!PS-Adobe-3.0 EPSF-3.0
%%Creator: cairo 1.16.0 (https://cairographics.org)
%%CreationDate: Mon Aug 23 08:35:14 2021
%%Pages: 1
%%DocumentData: Clean7Bit
%%LanguageLevel: 2
%%BoundingBox: 6 0 378 384
%%EndComments
%%BeginProlog
50 dict begin
/q { gsave } bind def
/Q { grestore } bind def
/cm { 6 array astore concat } bind def
/w { setlinewidth } bind def
/J { setlinecap } bind def
/j { setlinejoin } bind def
/M { setmiterlimit } bind def
/d { setdash } bind def
/m { moveto } bind def
/l { lineto } bind def
/c { curveto } bind def
/h { closepath } bind def
/re { exch dup neg 3 1 roll 5 3 roll moveto 0 rlineto
      0 exch rlineto 0 rlineto closepath } bind def
/S { stroke } bind def
/f { fill } bind def
/f* { eofill } bind def
/n { newpath } bind def
/W { clip } bind def
/W* { eoclip } bind def
/BT { } bind def
/ET { } bind def
/BDC { mark 3 1 roll /BDC pdfmark } bind def
/EMC { mark /EMC pdfmark } bind def
/cairo_store_point { /cairo_point_y exch def /cairo_point_x exch def } def
/Tj { show currentpoint cairo_store_point } bind def
/TJ {
  {
    dup
    type /stringtype eq
    { show } { -0.001 mul 0 cairo_font_matrix dtransform rmoveto } ifelse
  } forall
  currentpoint cairo_store_point
} bind def
/cairo_selectfont { cairo_font_matrix aload pop pop pop 0 0 6 array astore
    cairo_font exch selectfont cairo_point_x cairo_point_y moveto } bind def
/Tf { pop /cairo_font exch def /cairo_font_matrix where
      { pop cairo_selectfont } if } bind def
/Td { matrix translate cairo_font_matrix matrix concatmatrix dup
      /cairo_font_matrix exch def dup 4 get exch 5 get cairo_store_point
      /cairo_font where { pop cairo_selectfont } if } bind def
/Tm { 2 copy 8 2 roll 6 array astore /cairo_font_matrix exch def
      cairo_store_point /cairo_font where { pop cairo_selectfont } if } bind def
/g { setgray } bind def
/rg { setrgbcolor } bind def
/d1 { setcachedevice } bind def
/cairo_data_source {
  CairoDataIndex CairoData length lt
    { CairoData CairoDataIndex get /CairoDataIndex CairoDataIndex 1 add def }
    { () } ifelse
} def
/cairo_flush_ascii85_file { cairo_ascii85_file status { cairo_ascii85_file flushfile } if } def
/cairo_image { image cairo_flush_ascii85_file } def
/cairo_imagemask { imagemask cairo_flush_ascii85_file } def
%%EndProlog
%%BeginSetup
%%EndSetup
%%Page: 1 1
%%BeginPageSetup
%%PageBoundingBox: 6 0 378 384
%%EndPageSetup
q 6 0 372 384 rectclip
1 0 0 -1 0 384 cm q
0.552941 0.556863 0.772549 rg
237.262 338.031 m 225.039 338.031 l 225.039 338.031 225.078 333.219 226.598
 325.516 c 221.363 313.473 l 238.316 293.203 l 241.539 287.246 245.543 281.07
 250.52 274.922 c 199.703 240.676 l 192.898 247.48 189.688 256.512 190.066
 265.422 c 153.441 315.539 l 153.441 355.449 l 185.152 371.699 l 193.715
 376.086 203.195 378.375 212.816 378.375 c 237.262 378.375 l 248.402 378.375
 257.434 369.344 257.434 358.203 c 257.434 347.062 248.402 338.031 237.262
 338.031 c h
237.262 338.031 m f
0.815686 0.811765 0.909804 rg
122.055 244.711 m 122.055 244.711 81.496 291.074 31.273 267.082 c 18.867
 261.156 6.512 275.504 14.512 286.684 c 32.816 312.266 68.027 330.527 134.551
 288.441 c h
122.055 244.711 m f
0.909804 0.34902 0.309804 rg
311.875 116.996 m 322.879 116.996 331.805 125.922 331.805 136.93 c 331.805
 147.789 323.113 156.617 312.309 156.848 c 311.691 170.633 300.324 181.625
 286.383 181.625 c 272.051 181.625 260.43 170.004 260.43 155.672 c 260.43
 117 l 289.875 110.523 l h
311.875 116.996 m f
0.552941 0.556863 0.772549 rg
114.52 299.805 m 120.863 296.645 127.531 292.883 134.551 288.441 c 122.055
 244.711 l 122.055 244.711 112.273 255.883 96.379 264.422 c 99.621 277.5
 105.828 289.586 114.52 299.805 c h
114.52 299.805 m f
0.407843 0.435294 0.694118 rg
250.523 274.922 m 199.703 240.676 l 192.898 247.48 189.688 256.512 190.066
 265.422 c 153.441 315.539 l 153.441 326.562 l 164.605 330.734 176.391 332.898
 188.309 332.898 c 188.32 332.898 l 201.453 332.898 214.441 330.352 226.598
 325.516 c 228.996 313.355 235.082 293.988 250.523 274.922 c h
250.523 274.922 m f
0.552941 0.556863 0.772549 rg
295.723 81.781 m 300.566 25.289 l 289.016 13.316 271.879 5.625 255.441 
5.625 c 241.199 5.625 228.305 11.398 218.969 20.73 c 209.637 30.066 203.863
 42.961 203.863 57.195 c 203.863 111.582 l 203.863 167.168 154.672 183.254
 145.891 188.891 c 106.145 214.398 106.527 272.672 146.371 298.027 c 197.781
 330.742 262.367 293.578 266.406 244.836 c 274.723 144.43 289.895 149.758
 295.723 81.781 c h
295.723 81.781 m f
0.94902 0.615686 0.666667 rg
358.348 90.102 m 348.398 85.582 334.801 82.727 321.754 90.777 c 321.754
 90.777 324.168 99.781 334.379 105.75 c 340.52 109.348 340.746 118.172 334.809
 122.09 c 323.703 129.418 307.383 134.688 292.598 118.238 c 291.586 117.105
 290.574 115.867 289.578 114.527 c 282.074 104.445 273.324 95.355 263.277
 87.809 c 262.852 87.484 262.414 87.156 261.98 86.832 c 247.551 75.984 243.285
 56.168 251.98 40.336 c 258.512 28.453 270.863 21.52 283.789 21.52 c 287.906
 21.52 292.066 22.223 296.121 23.684 c 300.57 25.289 l 309.039 34.066 314.512
 45.156 314.512 57.195 c 314.512 57.195 362.922 24.555 371.895 79.77 c 373.141
 87.395 365.387 93.297 358.348 90.102 c h
358.348 90.102 m f
0.321569 0.419608 0.501961 rg
289.645 241.082 m 299.414 245.121 307.129 252.988 311.027 262.707 c 314.203
 270.617 325.691 270.02 327.703 261.738 c 328.531 258.32 328.914 254.727
 328.777 251.023 c 328.098 232.426 314.188 217.051 296.332 213.961 c h
289.645 241.082 m f
0.239216 0.356863 0.462745 rg
296.332 213.961 m 289.645 241.082 l 296.934 244.094 303.074 249.238 307.344
 255.691 c 314.77 248.895 319.781 239.57 321.066 229.223 c 315.172 221.324
 306.375 215.699 296.332 213.961 c h
296.332 213.961 m f
0.815686 0.811765 0.909804 rg
298.824 222.242 m 297.91 210.91 287.984 202.48 276.652 203.387 c 265.07
 204.328 255.852 200.855 249.422 197.023 c 242.094 192.656 232.809 193.391
 226.164 198.738 c 215.027 207.695 216.203 225.023 228.473 232.355 c 244.219
 241.766 261.73 245.891 279.969 244.418 c 291.301 243.5 299.742 233.574 
298.824 222.242 c h
298.824 222.242 m f
0.407843 0.435294 0.694118 rg
146.371 298.027 m 106.527 272.672 106.148 214.398 145.891 188.891 c 149.445
 186.609 159.617 182.617 170.469 174.988 c 167.246 185.957 165.512 197.566
 165.512 209.578 c 165.512 237.625 174.934 263.469 190.785 284.121 c h
146.371 298.027 m f
0.815686 0.811765 0.909804 rg
120.777 332.387 m 118.562 336.484 l 116.328 340.629 115.156 345.266 115.156
 349.973 c 115.156 365.66 127.871 378.375 143.559 378.375 c 182.641 378.375
 l 193.781 378.375 202.812 369.344 202.812 358.203 c 202.812 347.062 193.781
 338.031 182.641 338.031 c 170.418 338.031 l 175.477 326.344 182.695 315.719
 191.703 306.715 c 191.754 306.664 l 209.973 288.441 209.973 258.898 191.754
 240.676 c 178.867 227.789 157.969 227.789 145.082 240.676 c 138.277 247.48
 135.066 256.512 135.445 265.422 c 136.43 288.703 131.84 311.879 120.777
 332.387 c h
120.777 332.387 m f
0 g
279.426 50.398 m 276.426 49.598 273.34 51.375 272.535 54.379 c 271.73 57.379
 273.512 60.461 276.512 61.266 c 281.816 62.688 l 281.629 63.25 281.523 
63.852 281.523 64.477 c 281.523 72.246 l 281.523 75.355 284.039 77.871 287.148
 77.871 c 290.254 77.871 292.773 75.355 292.773 72.246 c 292.773 65.621 
l 294.555 66.102 l 297.555 66.902 300.637 65.125 301.445 62.121 c 302.246
 59.121 300.465 56.039 297.465 55.234 c h
279.426 50.398 m f
42.512 315.387 m 45.441 316.418 48.656 314.883 49.691 311.953 c 50.723 
309.027 49.188 305.812 46.258 304.777 c 35.719 301.055 26.586 293.867 19.105
 283.41 c 14.492 276.969 21.66 268.715 28.863 272.156 c 57.98 286.066 87.75
 279.488 112.789 260.559 c 115.211 270.219 119.66 279.277 125.938 287.145
 c 103.582 300.477 83.621 307.43 66.535 307.824 c 63.43 307.898 60.969 310.473
 61.039 313.578 c 61.109 316.641 63.613 319.074 66.66 319.074 c 66.707 319.074
 66.75 319.074 66.793 319.07 c 84.57 318.66 104.77 312.102 126.953 299.559
 c 122.559 319.469 114.789 331.32 113.629 333.812 c 101.457 356.367 117.812
 384 143.574 384 c 182.656 384 l 186.773 384 190.668 383.023 194.125 381.301
 c 200.203 383.09 206.484 384 212.832 384 c 237.277 384 l 251.504 384 263.074
 372.426 263.074 358.203 c 263.074 343.977 251.504 332.406 237.277 332.406
 c 231.176 332.406 l 232.117 325.188 234.859 311.844 242.758 296.883 c 257.652
 285.098 268.414 268.898 271.414 250.312 c 274.113 250.352 276.801 250.32
 280.438 250.023 c 283.836 249.75 287.027 248.828 289.914 247.402 c 297.082
 251.066 302.805 257.285 305.82 264.801 c 311.043 277.82 329.887 276.645
 333.184 263.062 c 334.152 259.078 334.566 254.957 334.414 250.816 c 333.68
 230.699 319.293 213.48 299.82 208.941 c 294.891 201.891 286.613 197.426
 277.508 197.711 c 278.133 193.711 278.773 189.98 279.426 186.477 c 281.691
 186.988 284.023 187.25 286.398 187.25 c 301.699 187.25 314.484 176.438 
317.367 161.879 c 328.801 159.34 337.445 149.031 337.445 136.93 c 337.445
 133.879 336.895 130.895 335.855 128.086 c 336.543 127.668 337.23 127.242
 337.922 126.785 c 347.328 120.574 346.98 106.605 337.234 100.891 c 333.188
 98.527 330.672 95.617 329.176 93.309 c 337.152 90.098 346.164 90.738 356.035
 95.223 c 356.035 95.223 356.039 95.223 356.039 95.227 c 361.199 97.566 
367.191 96.883 371.68 93.449 c 376.156 90.023 378.371 84.434 377.465 78.871
 c 374.555 60.973 367.332 49.414 355.996 44.512 c 342.965 38.879 328.098
 43.906 319.23 48.156 c 317.277 38.559 312.262 29.293 304.633 21.383 c 304.629
 21.383 304.629 21.383 304.629 21.383 c 291.902 8.191 273.062 0 255.461 
0 c 223.852 0 198.254 25.574 198.254 57.195 c 198.254 111.582 l 198.254 
156.395 163.559 173.66 148.738 181.031 c 123.562 193.562 109.09 219.871 
110.809 247.715 c 97.77 258.867 68.023 278.398 33.711 262.008 c 16.059 253.57
 -1.41 274.078 9.953 289.957 c 18.801 302.324 29.758 310.879 42.512 315.387
 c h
225.055 343.656 m 237.277 343.656 l 245.301 343.656 251.824 350.184 251.824
 358.203 c 251.824 366.223 245.301 372.75 237.277 372.75 c 212.832 372.75
 l 210 372.75 207.184 372.531 204.402 372.102 c 206.938 368.145 208.453 
363.195 208.453 358.203 c 208.453 343.977 196.879 332.406 182.656 332.406
 c 179.43 332.406 l 182.43 326.918 186.281 321.234 190.797 315.98 c 202.465
 315.668 214.57 312.82 225.809 307.453 c 219.629 324.633 219.434 337.297
 219.43 337.984 c 219.402 341.113 221.938 343.656 225.055 343.656 c h
323.172 251.227 m 323.285 254.336 322.977 257.43 322.254 260.41 c 321.531
 263.379 317.406 263.461 316.266 260.613 c 312.836 252.07 306.797 244.781
 299.172 239.781 c 302.828 234.98 304.84 228.848 304.496 222.48 c 315.285
 227.832 322.719 238.793 323.172 251.227 c h
293.23 222.652 m 293.23 222.668 293.234 222.684 293.234 222.695 c 293.895
 230.828 287.82 238.141 279.531 238.812 c 262.551 240.184 246.203 236.371
 231.441 227.566 c 231.422 227.551 231.398 227.539 231.375 227.527 c 222.473
 222.207 221.598 209.648 229.707 203.121 c 236.965 197.289 243.172 200.309
 249.992 203.73 c 258.645 208.059 267.906 209.742 277.117 208.992 c 285.43
 208.328 292.555 214.59 293.23 222.652 c h
326.195 136.926 m 326.195 144.645 319.918 151.059 312.203 151.223 c 309.238
 151.285 306.836 153.637 306.703 156.598 c 306.219 167.477 297.297 176 286.398
 176 c 284.777 176 283.191 175.812 281.652 175.445 c 284.012 164.664 286.324
 156.496 289.09 146.828 c 290.953 140.336 292.695 134.227 294.316 127.523
 c 300.484 132.328 307.273 134.746 314.445 134.746 c 318.078 134.746 321.812
 134.121 325.609 132.875 c 325.996 134.18 326.195 135.539 326.195 136.926
 c h
317.668 61.867 m 317.863 61.734 337.516 48.75 351.559 54.848 c 359.129 
58.137 364.109 66.824 366.359 80.676 c 366.711 82.824 365.414 84.074 364.84
 84.516 c 364.262 84.957 362.699 85.891 360.691 84.98 c 345.531 78.09 331.047
 78.441 318.816 85.992 c 316.699 87.297 315.691 89.832 316.336 92.234 c 
316.461 92.691 319.488 103.551 331.551 110.602 c 334.102 112.098 334.18 
115.773 331.723 117.398 c 316.902 127.172 304.488 125.148 294.105 111.168
 c 285.254 99.277 275.734 90 265.375 82.336 c 253.258 73.227 249.625 56.336
 256.922 43.047 c 264.156 29.883 279.91 23.816 294.227 28.977 c 297.41 30.125
 l 302.848 36.035 308.902 45.293 308.902 57.199 c 308.902 61.676 313.922
 64.371 317.668 61.867 c h
153.754 191.105 m 161.898 187.051 175.527 180.27 187.422 167.953 c 202.074
 152.777 209.504 133.809 209.504 111.582 c 209.504 57.195 l 209.504 31.809
 230.055 11.25 255.461 11.25 c 262.961 11.25 270.75 13.051 277.996 16.297
 c 265.566 17.941 253.66 25.645 247.078 37.605 c 247.074 37.613 247.07 37.621
 247.066 37.629 c 237.09 55.793 242.055 78.879 258.648 91.352 c 268.309 
98.512 276.945 106.984 284.988 117.766 c 283.039 127.02 280.855 134.727 
278.273 143.734 c 273.227 161.363 269.59 175.242 266.176 197.348 c 261.207
 196.504 256.551 194.707 252.352 192.211 c 252.34 192.203 252.328 192.199
 252.316 192.191 c 243.047 186.668 231.129 187.535 222.652 194.352 c 209.094
 205.25 209.695 226.363 224.258 236.324 c 231.863 241.523 245.926 247.492
 260.145 249.465 c 255.109 277.242 229.246 298.473 201.711 303.523 c 211.152
 290.012 213.523 272.992 208.492 257.496 c 207.535 254.539 204.359 252.922
 201.406 253.879 c 198.449 254.84 196.832 258.012 197.789 260.969 c 202.641
 275.91 198.629 291.848 187.742 302.734 c 177.996 312.477 170.492 323.734
 165.273 335.789 c 165.273 335.789 165.273 335.793 165.27 335.797 c 163.652
 339.531 166.426 343.656 170.434 343.656 c 182.656 343.656 l 190.68 343.656
 197.203 350.18 197.203 358.203 c 197.203 366.348 190.535 372.75 182.656
 372.75 c 143.574 372.75 l 126.375 372.75 115.359 354.301 123.531 339.156
 c 124.441 336.727 142.969 309.695 141.078 265.18 c 140.031 240.48 169.809
 227.293 187.43 244.312 c 189.664 246.469 193.227 246.406 195.383 244.172
 c 197.543 241.934 197.48 238.375 195.242 236.219 c 170.363 212.203 128.363
 230.82 129.84 265.66 c 129.945 268.176 129.969 270.527 129.941 273.066 
c 125.793 265.898 123.137 257.84 122.262 249.469 c 122.254 249.414 122.242
 249.367 122.234 249.312 c 119.809 225.215 131.918 201.969 153.754 191.105
 c h
153.754 191.105 m f
Q Q
showpage
%%Trailer
end
%%EOF
