%!PS-Adobe-3.0 EPSF-3.0
%%Creator: cairo 1.16.0 (https://cairographics.org)
%%CreationDate: Mon Aug 23 08:35:14 2021
%%Pages: 1
%%DocumentData: Clean7Bit
%%LanguageLevel: 2
%%BoundingBox: 0 0 384 384
%%EndComments
%%BeginProlog
50 dict begin
/q { gsave } bind def
/Q { grestore } bind def
/cm { 6 array astore concat } bind def
/w { setlinewidth } bind def
/J { setlinecap } bind def
/j { setlinejoin } bind def
/M { setmiterlimit } bind def
/d { setdash } bind def
/m { moveto } bind def
/l { lineto } bind def
/c { curveto } bind def
/h { closepath } bind def
/re { exch dup neg 3 1 roll 5 3 roll moveto 0 rlineto
      0 exch rlineto 0 rlineto closepath } bind def
/S { stroke } bind def
/f { fill } bind def
/f* { eofill } bind def
/n { newpath } bind def
/W { clip } bind def
/W* { eoclip } bind def
/BT { } bind def
/ET { } bind def
/BDC { mark 3 1 roll /BDC pdfmark } bind def
/EMC { mark /EMC pdfmark } bind def
/cairo_store_point { /cairo_point_y exch def /cairo_point_x exch def } def
/Tj { show currentpoint cairo_store_point } bind def
/TJ {
  {
    dup
    type /stringtype eq
    { show } { -0.001 mul 0 cairo_font_matrix dtransform rmoveto } ifelse
  } forall
  currentpoint cairo_store_point
} bind def
/cairo_selectfont { cairo_font_matrix aload pop pop pop 0 0 6 array astore
    cairo_font exch selectfont cairo_point_x cairo_point_y moveto } bind def
/Tf { pop /cairo_font exch def /cairo_font_matrix where
      { pop cairo_selectfont } if } bind def
/Td { matrix translate cairo_font_matrix matrix concatmatrix dup
      /cairo_font_matrix exch def dup 4 get exch 5 get cairo_store_point
      /cairo_font where { pop cairo_selectfont } if } bind def
/Tm { 2 copy 8 2 roll 6 array astore /cairo_font_matrix exch def
      cairo_store_point /cairo_font where { pop cairo_selectfont } if } bind def
/g { setgray } bind def
/rg { setrgbcolor } bind def
/d1 { setcachedevice } bind def
/cairo_data_source {
  CairoDataIndex CairoData length lt
    { CairoData CairoDataIndex get /CairoDataIndex CairoDataIndex 1 add def }
    { () } ifelse
} def
/cairo_flush_ascii85_file { cairo_ascii85_file status { cairo_ascii85_file flushfile } if } def
/cairo_image { image cairo_flush_ascii85_file } def
/cairo_imagemask { imagemask cairo_flush_ascii85_file } def
%%EndProlog
%%BeginSetup
%%EndSetup
%%Page: 1 1
%%BeginPageSetup
%%PageBoundingBox: 0 0 384 384
%%EndPageSetup
q 0 0 384 384 rectclip
1 0 0 -1 0 384 cm q
0.92549 0.415686 0.384314 rg
107.25 214.453 m 107.25 214.453 67.113 229.621 30.688 213.988 c 20.352 
209.555 8.602 216.047 6.77 227.145 c 6.074 231.348 6.941 235.656 9.219 239.258
 c 18.352 253.672 47.199 287.449 112.969 277.641 c h
107.25 214.453 m f
0.239216 0.356863 0.462745 rg
131.734 167.512 m 131.277 166.926 l 127.297 161.07 114.863 154.531 108.129
 159.113 c 101.391 163.691 102.902 177.656 106.883 183.512 c 109.969 190.766
 119.219 192.914 125.184 187.766 c 130.16 183.469 l 134.855 179.418 135.547
 172.398 131.734 167.512 c h
131.734 167.512 m f
169.797 128.758 m 169.191 128.328 l 163.691 123.871 149.898 121.199 144.77
 127.527 c 139.645 133.855 145.121 146.793 150.621 151.25 c 155.668 157.301
 165.145 156.688 169.371 150.035 c 172.898 144.488 l 176.223 139.258 174.859
 132.336 169.797 128.758 c h
169.797 128.758 m f
178.492 69.434 m 177.75 69.426 l 170.688 68.918 157.848 74.613 157.262 
82.738 c 156.676 90.863 168.566 98.34 175.629 98.848 c 183.23 100.926 190.652
 95.004 190.316 87.133 c 190.035 80.562 l 189.766 74.371 184.691 69.477 
178.492 69.434 c h
178.492 69.434 m f
0.937255 0.501961 0.498039 rg
224.805 345.523 m 214.852 345.523 l 218.973 336.008 224.852 327.355 232.184
 320.023 c 232.227 319.984 l 247.062 305.148 247.062 281.094 232.227 266.254
 c 221.73 255.762 204.719 255.762 194.223 266.254 c 188.684 271.793 186.066
 279.148 186.375 286.402 c 156.555 327.211 l 156.555 359.707 l 182.375 372.938
 l 189.348 376.512 197.066 378.375 204.902 378.375 c 224.805 378.375 l 233.875
 378.375 241.23 371.02 241.23 361.949 c 241.23 352.879 233.879 345.523 224.805
 345.523 c h
224.805 345.523 m f
0.92549 0.415686 0.384314 rg
232.227 266.254 m 221.73 255.762 204.719 255.762 194.223 266.254 c 188.684
 271.793 186.066 279.148 186.375 286.402 c 156.555 327.211 l 156.555 337.855
 l 159.281 338.055 162.039 338.164 164.832 338.164 c 188.156 338.164 212.008
 331.281 233.391 318.758 c 247.047 303.848 246.66 280.691 232.227 266.254
 c h
232.227 266.254 m f
0.321569 0.419608 0.501961 rg
317.32 145.062 m 298.676 145.062 283.551 160.176 283.551 178.824 c 283.551
 193.258 l 283.551 281.691 194.758 330.598 139.004 311.594 c 216.086 145.062
 l 274.086 120.203 l h
317.32 145.062 m f
0.909804 0.34902 0.309804 rg
112.969 277.641 m 107.25 214.453 l 107.25 214.453 90.332 220.844 68.5 221.051
 c 68.309 222.012 68.125 222.973 67.961 223.941 c 64.801 242.5 67.043 261.375
 74.109 278.371 c 85.336 279.844 98.223 279.84 112.969 277.641 c h
112.969 277.641 m f
0.937255 0.501961 0.498039 rg
371.586 110.883 m 370.676 103.453 l 375.648 99.625 l 376.832 94.918 377.465
 89.992 377.465 84.918 c 377.465 77.328 376.574 70.082 374.574 63.582 c 
372.57 57.082 369.453 51.344 364.992 46.785 c 358.098 39.73 346.449 41.023
 340.832 49.137 c 336.609 55.227 330.512 61.348 323.039 61.348 c 316.988
 61.348 311.734 57.336 309.969 51.551 c 309.438 49.824 308.836 48.117 308.168
 46.453 c 291.496 22.484 l 279.965 12.012 264.676 5.625 247.867 5.625 c 
229.945 5.625 213.711 12.895 201.957 24.645 c 190.207 36.398 182.938 52.625
 182.938 70.555 c 182.938 100.848 l 182.938 131.848 152.195 157.992 125.391
 174.898 c 86.816 199.23 77.004 251.809 105.355 287.535 c 109.125 292.285
 113.57 296.73 118.77 300.75 c 124.918 305.5 131.762 309.129 139.004 311.594
 c 170.41 303.457 196.801 283.098 212.996 255.984 c 222.059 240.816 241.285
 235.246 256.848 243.609 c 273.711 252.664 l 276.863 254.359 280.254 255.16
 283.598 255.16 c 291.055 255.16 298.277 251.164 302.055 244.133 c 307.523
 233.949 303.703 221.258 293.52 215.789 c 293.52 215.789 264.094 199.98 
245.387 189.934 c 232.469 182.996 229.707 165.547 240.004 155.113 c 240.406
 154.703 240.828 154.301 241.262 153.898 c 247.602 148.086 256.016 145.062
 264.617 145.062 c 317.32 145.062 l 333.93 145.062 348.969 138.328 359.852
 127.441 c 364.641 122.652 368.625 117.062 371.586 110.883 c h
371.586 110.883 m f
0.92549 0.415686 0.384314 rg
130.508 194.051 m 130.508 185.801 131.336 177.75 132.91 169.965 c 130.391
 171.688 127.871 173.332 125.391 174.898 c 86.816 199.23 77.004 251.809 
105.359 287.535 c 109.125 292.285 113.57 296.73 118.77 300.75 c 124.918 
305.5 131.762 309.129 139.008 311.598 c 154.168 307.668 168.156 300.883 
180.398 291.871 c 150.168 269.902 130.508 234.273 130.508 194.051 c h
130.508 194.051 m f
0.94902 0.615686 0.666667 rg
180.328 345.523 m 170.375 345.523 l 174.496 336.008 180.375 327.355 187.707
 320.023 c 187.75 319.984 l 202.586 305.148 202.586 281.094 187.75 266.254
 c 174.098 252.602 l 161.395 239.902 140.867 239.691 127.91 252.129 c 114.566
 264.934 114.348 286.199 127.426 299.273 c 140.121 311.969 l 138.227 322.043
 134.879 331.809 129.957 340.93 c 128.156 344.266 l 126.332 347.641 125.379
 351.414 125.379 355.25 c 125.379 368.02 135.734 378.375 148.508 378.375
 c 180.328 378.375 l 189.402 378.375 196.754 371.02 196.754 361.949 c 196.754
 352.879 189.402 345.523 180.328 345.523 c h
180.328 345.523 m f
0.321569 0.419608 0.501961 rg
231.906 81.719 m 225.629 78.441 211.582 78.555 207.812 85.773 c 204.043
 92.996 211.977 104.59 218.25 107.867 c 224.527 111.145 232.672 107.945 
236.441 100.727 c 240.215 93.508 238.184 84.996 231.906 81.719 c h
231.906 81.719 m f
213.84 149.625 m 208.73 144.727 195.207 140.914 189.574 146.797 c 183.938
 152.68 188.32 166.023 193.434 170.922 c 198.543 175.82 207.258 175.023 
212.895 169.145 c 218.527 163.262 218.953 154.523 213.84 149.625 c h
213.84 149.625 m f
176.441 201.637 m 173.422 195.234 162.16 186.832 154.793 190.305 c 147.426
 193.781 146.738 207.809 149.758 214.215 c 152.777 220.621 161.195 222.996
 168.566 219.523 c 175.934 216.051 179.461 208.043 176.441 201.637 c h
176.441 201.637 m f
297.004 22.484 m 269.688 22.484 l 261.633 22.484 255.102 29.016 255.102
 37.07 c 255.102 45.125 261.633 51.656 269.688 51.656 c 297.004 51.656 l
 305.062 51.656 311.594 45.125 311.594 37.07 c 311.594 29.016 305.062 22.484
 297.004 22.484 c h
297.004 22.484 m f
0 g
350.281 79.508 m 352.664 81.492 356.211 81.18 358.203 78.789 c 360.195 
76.402 359.871 72.855 357.484 70.867 c 351.254 65.672 l 348.867 63.684 345.32
 64.008 343.328 66.395 c 341.34 68.781 341.664 72.328 344.051 74.316 c h
350.281 79.508 m f
241.484 103.332 m 246.684 93.371 243.582 81.441 234.566 76.734 c 225.812
 72.16 208.266 72.867 202.883 83.172 c 197.5 93.477 206.949 108.281 215.703
 112.852 c 224.906 117.66 236.395 113.078 241.484 103.332 c h
212.855 88.379 m 214.402 85.414 224.016 83.914 229.359 86.703 c 232.875
 88.539 233.84 93.664 231.512 98.125 c 229.184 102.582 224.426 104.715 220.91
 102.879 c 215.609 100.113 211.289 91.379 212.855 88.379 c h
212.855 88.379 m f
217.012 173.035 m 224.785 164.922 225.133 152.598 217.789 145.562 c 210.66
 138.73 193.609 134.512 185.57 142.906 c 177.547 151.277 182.32 168.012 
189.598 174.984 c 197.223 182.293 209.492 180.883 217.012 173.035 c h
193.691 150.688 m 195.957 148.32 205.578 149.441 210.008 153.684 c 212.871
 156.43 212.371 161.617 208.891 165.25 c 205.027 169.281 199.879 169.254
 197.383 166.863 c 193.812 163.445 190.93 153.57 193.691 150.688 c h
193.691 150.688 m f
152.453 185.219 m 141.938 190.176 140.516 207.68 144.727 216.613 c 149.047
 225.777 160.82 229.418 171.02 224.609 c 180.906 219.953 186.07 208.754 
181.586 199.238 c 177.375 190.305 162.969 180.262 152.453 185.219 c h
166.223 214.434 m 161.672 216.578 156.594 215.406 154.902 211.816 c 152.352
 206.406 154.188 196.836 157.25 195.395 c 160.293 193.961 168.848 198.602
 171.41 204.035 c 172.895 207.188 171.234 212.07 166.223 214.434 c h
166.223 214.434 m f
32.965 208.82 m 12.473 200.023 -7.594 223.129 4.527 242.266 c 9.387 249.941
 20.531 264.297 40.535 274.18 c 43.32 275.559 46.695 274.414 48.07 271.629
 c 49.445 268.844 48.305 265.473 45.52 264.094 c 27.977 255.426 18.262 242.926
 14.031 236.246 c 7.883 226.539 18.055 214.66 28.527 219.156 c 48.309 227.645
 68.941 227.672 84.895 225.469 c 81.816 241.934 83.902 258.93 90.516 273.766
 c 90.469 273.766 90.426 273.766 90.379 273.766 c 81.629 273.766 73.309 
272.883 65.551 271.125 c 62.523 270.441 59.508 272.34 58.824 275.371 c 58.137
 278.402 60.039 281.414 63.07 282.098 c 73.922 284.555 85.062 285.355 96.582
 284.863 c 105.477 298.559 118.449 309.543 133.645 315.578 c 131.734 323.602
 128.863 331.215 125.066 338.258 c 124.223 340.223 119.812 345.895 119.812
 355.25 c 119.812 371.102 132.711 384 148.566 384 c 180.387 384 l 183.762
 384 186.965 383.234 189.828 381.871 c 194.75 383.281 199.828 384 204.961
 384 c 224.863 384 l 237.023 384 246.914 374.109 246.914 361.949 c 246.914
 349.789 237.023 339.898 224.863 339.898 c 224.02 339.898 l 227.363 334.098
 231.457 328.766 236.262 323.961 c 246.172 314.051 250.637 300.266 248.527
 286.543 c 257.613 278.113 265.5 268.465 271.758 257.945 c 284.602 264.395
 300.238 259.508 307.07 246.793 c 313.996 233.895 309.141 217.762 296.242
 210.832 c 288.551 206.703 l 289.582 196.5 289.117 190.551 289.234 178.824
 c 289.234 163.309 301.859 150.688 317.379 150.688 c 334.945 150.688 351.465
 143.844 363.891 131.418 c 376.309 119 383.148 102.484 383.148 84.918 c 
383.148 69.641 379.715 53.734 369.074 42.855 c 359.754 33.32 343.938 34.859
 336.27 45.93 c 333.172 50.398 328.371 55.723 323.098 55.723 c 316.926 55.723
 315.66 50.461 314.523 47.234 c 316.27 44.246 317.277 40.773 317.277 37.07
 c 317.277 25.926 308.211 16.859 297.066 16.859 c 293.652 16.859 l 280.887
 5.98 264.746 0 247.926 0 c 233.887 0 220.324 4.117 208.699 11.91 c 206.117
 13.641 205.426 17.133 207.156 19.715 c 208.887 22.293 212.379 22.984 214.961
 21.254 c 224.727 14.711 236.125 11.25 247.926 11.25 c 256.719 11.25 265.297
 13.191 273.105 16.859 c 269.746 16.859 l 258.602 16.859 249.535 25.926 
249.535 37.07 c 249.535 48.215 258.602 57.285 269.746 57.285 c 282.613 57.285
 l 282.613 64.379 l 282.613 67.484 285.133 70.004 288.238 70.004 c 291.344
 70.004 293.863 67.484 293.863 64.379 c 293.863 57.285 l 297.062 57.285 
l 300.023 57.285 302.957 56.609 305.484 55.445 c 308.566 62.43 315.375 66.973
 323.094 66.973 c 331.121 66.973 338.871 61.914 345.516 52.34 c 349.109 
47.148 356.578 46.172 361.027 50.723 c 369.469 59.352 371.898 72.805 371.898
 84.922 c 371.898 88.543 371.543 92.113 370.859 95.59 c 362 88.211 l 359.914
 86.473 356.887 86.473 354.797 88.211 c 341.395 99.379 l 327.992 88.211 
l 325.906 86.473 322.875 86.473 320.789 88.211 c 307.387 99.379 l 293.984
 88.211 l 291.598 86.223 288.047 86.543 286.059 88.93 c 284.07 91.316 284.395
 94.867 286.781 96.852 c 303.785 111.023 l 305.871 112.762 308.898 112.762
 310.988 111.023 c 324.391 99.855 l 337.793 111.023 l 339.879 112.762 342.91
 112.762 344.996 111.023 c 358.398 99.855 l 367.168 107.16 l 364.484 113.156
 360.715 118.68 355.93 123.465 c 345.629 133.766 331.938 139.438 317.375
 139.438 c 264.672 139.438 l 254.41 139.438 244.77 143.102 237.516 149.754
 c 222.391 163.629 226.566 186.18 242.777 194.891 c 290.914 220.746 l 298.348
 224.738 301.148 234.035 297.156 241.473 c 293.188 248.855 283.945 251.75
 276.43 247.711 c 258.727 238.203 260.18 238.984 259.566 238.656 c 241.434
 228.914 218.879 235.262 208.223 253.102 c 204.793 258.844 201.082 263.945
 197.07 268.68 c 195.617 266.535 193.754 264.25 191.781 262.281 c 178.129
 248.625 l 163.379 233.875 139.367 233.391 124.07 248.07 c 116.535 255.301
 112.301 265.047 112.191 275.543 c 112.141 280.359 113.047 285.289 114.617
 289.488 c 82.91 256.98 90.344 203.695 128.445 179.656 c 131.039 178.023
 133.723 176.262 136.324 174.484 c 136.336 174.477 136.344 174.473 136.355
 174.465 c 136.355 174.465 136.359 174.461 136.359 174.461 c 161.77 157.102
 188.617 131.48 188.617 100.852 c 188.617 95.539 188.617 78.324 188.617 
70.543 c 188.617 70.527 l 188.625 57.645 192.691 45.395 200.379 35.105 c
 202.238 32.617 201.727 29.09 199.238 27.234 c 196.75 25.375 193.227 25.883
 191.367 28.371 c 183.566 38.812 178.91 50.949 177.695 63.797 c 167.77 63.375
 152.535 70.824 151.703 82.336 c 150.883 93.715 164.895 103.391 174.727 
104.414 c 175.539 104.609 176.352 104.738 177.168 104.812 c 176.648 110.121
 175.023 116.242 171.523 123.031 c 163.352 117.492 147.395 115.418 140.453
 123.988 c 133.73 132.289 138.379 146.52 145.188 153.789 c 141.969 156.473
 138.445 159.203 134.59 161.977 c 127.961 154.359 113.945 148.395 105.02
 154.461 c 95.949 160.629 96.168 176.113 102.672 187.527 c 96.289 195.242
 91.312 204.07 88.027 213.59 c 73.117 216.219 52.418 217.168 32.965 208.82
 c h
269.746 46.031 m 264.805 46.031 260.785 42.012 260.785 37.07 c 260.785 
32.113 264.816 28.109 269.746 28.109 c 297.062 28.109 l 302.004 28.109 306.023
 32.129 306.023 37.07 c 306.023 42.066 301.918 46.031 297.062 46.031 c h
245.121 158.047 m 250.293 153.301 257.238 150.688 264.672 150.688 c 289.836
 150.688 l 282.527 157.844 277.98 167.812 277.98 178.824 c 277.93 191.633
 278.125 194.816 277.742 200.898 c 248.102 184.977 l 238.613 179.879 235.805
 166.578 245.121 158.047 c h
148.562 372.75 m 138.914 372.75 131.062 364.898 131.062 355.25 c 131.062
 349.148 134.051 345.652 134.965 343.602 c 140.043 334.188 143.656 323.895
 145.703 313.008 c 146.047 311.184 145.469 309.305 144.152 307.992 c 136.344
 298.527 123.27 292.504 123.441 275.656 c 123.52 268.227 126.516 261.312
 131.859 256.188 c 142.402 246.07 159.602 245.992 170.176 256.582 c 170.434
 256.84 182.926 269.332 183.828 270.234 c 183.852 270.254 183.871 270.277
 183.891 270.301 c 194.098 280.574 196.066 296.277 189.379 308.574 c 189.371
 308.586 189.363 308.602 189.355 308.617 c 184.066 318.309 174.516 321.93
 165.27 343.293 c 163.664 347 166.387 351.152 170.434 351.152 c 180.387 
351.152 l 185.598 351.152 189.957 354.859 190.965 359.777 c 192.352 366.539
 187.125 372.75 180.387 372.75 c h
237.691 295.676 m 237.105 303.258 233.848 310.461 228.262 316.047 c 220.395
 323.914 214.168 333.082 209.746 343.289 c 208.141 346.996 210.863 351.148
 214.91 351.148 c 224.863 351.148 l 230.816 351.148 235.66 355.996 235.66
 361.949 c 235.66 367.906 230.816 372.75 224.863 372.75 c 204.957 372.75
 l 203.227 372.75 201.5 372.648 199.789 372.445 c 201.461 369.355 202.434
 365.664 202.434 361.949 c 202.434 349.793 192.543 339.902 180.387 339.902
 c 179.543 339.902 l 186.785 327.332 193.094 324.078 198.062 316.02 c 212.406
 311.539 225.848 304.535 237.691 295.676 c h
219.398 256.59 m 224.754 249.316 233.113 245.305 241.652 245.352 c 246.051
 245.375 250.352 246.473 254.242 248.562 c 261.832 252.641 l 248.789 274.344
 227.871 292.32 203.602 302.094 c 205.211 294.391 204.648 286.555 202.418
 279.645 c 213.848 266.863 216.715 260.23 219.398 256.59 c h
176.09 93.238 m 170.125 92.809 162.684 86.52 162.93 83.141 c 163.238 78.824
 172.961 74.742 177.371 75.035 c 177.371 93.477 l 177.09 93.406 176.711 
93.285 176.09 93.238 c h
149.199 131.07 m 151.289 128.492 160.832 128.895 165.57 132.59 c 162.246
 137.137 158.223 141.707 153.539 146.25 c 150.176 142.801 146.719 134.129
 149.199 131.07 c h
111.348 163.762 m 114.539 161.594 122.008 165.426 125.176 168.391 c 125.133
 168.418 125.094 168.445 125.051 168.473 c 124.188 169.031 123.32 169.59
 122.445 170.141 c 118.395 172.695 114.172 175.93 110.809 178.984 c 108.301
 173.797 108.789 165.504 111.348 163.762 c h
111.348 163.762 m f
Q Q
showpage
%%Trailer
end
%%EOF
