%!PS-Adobe-3.0 EPSF-3.0
%%Creator: cairo 1.16.0 (https://cairographics.org)
%%CreationDate: Mon Aug 23 08:35:14 2021
%%Pages: 1
%%DocumentData: Clean7Bit
%%LanguageLevel: 2
%%BoundingBox: 4 0 380 384
%%EndComments
%%BeginProlog
50 dict begin
/q { gsave } bind def
/Q { grestore } bind def
/cm { 6 array astore concat } bind def
/w { setlinewidth } bind def
/J { setlinecap } bind def
/j { setlinejoin } bind def
/M { setmiterlimit } bind def
/d { setdash } bind def
/m { moveto } bind def
/l { lineto } bind def
/c { curveto } bind def
/h { closepath } bind def
/re { exch dup neg 3 1 roll 5 3 roll moveto 0 rlineto
      0 exch rlineto 0 rlineto closepath } bind def
/S { stroke } bind def
/f { fill } bind def
/f* { eofill } bind def
/n { newpath } bind def
/W { clip } bind def
/W* { eoclip } bind def
/BT { } bind def
/ET { } bind def
/BDC { mark 3 1 roll /BDC pdfmark } bind def
/EMC { mark /EMC pdfmark } bind def
/cairo_store_point { /cairo_point_y exch def /cairo_point_x exch def } def
/Tj { show currentpoint cairo_store_point } bind def
/TJ {
  {
    dup
    type /stringtype eq
    { show } { -0.001 mul 0 cairo_font_matrix dtransform rmoveto } ifelse
  } forall
  currentpoint cairo_store_point
} bind def
/cairo_selectfont { cairo_font_matrix aload pop pop pop 0 0 6 array astore
    cairo_font exch selectfont cairo_point_x cairo_point_y moveto } bind def
/Tf { pop /cairo_font exch def /cairo_font_matrix where
      { pop cairo_selectfont } if } bind def
/Td { matrix translate cairo_font_matrix matrix concatmatrix dup
      /cairo_font_matrix exch def dup 4 get exch 5 get cairo_store_point
      /cairo_font where { pop cairo_selectfont } if } bind def
/Tm { 2 copy 8 2 roll 6 array astore /cairo_font_matrix exch def
      cairo_store_point /cairo_font where { pop cairo_selectfont } if } bind def
/g { setgray } bind def
/rg { setrgbcolor } bind def
/d1 { setcachedevice } bind def
/cairo_data_source {
  CairoDataIndex CairoData length lt
    { CairoData CairoDataIndex get /CairoDataIndex CairoDataIndex 1 add def }
    { () } ifelse
} def
/cairo_flush_ascii85_file { cairo_ascii85_file status { cairo_ascii85_file flushfile } if } def
/cairo_image { image cairo_flush_ascii85_file } def
/cairo_imagemask { imagemask cairo_flush_ascii85_file } def
%%EndProlog
%%BeginSetup
%%EndSetup
%%Page: 1 1
%%BeginPageSetup
%%PageBoundingBox: 4 0 380 384
%%EndPageSetup
q 4 0 376 384 rectclip
1 0 0 -1 0 384 cm q
0.898039 0.52549 0.431373 rg
31.078 174.469 m 27.961 166.078 15.98 166.492 13.461 175.082 c 4.453 205.812
 6.738 254.66 103.215 268.652 c 106.438 206.961 l 59.727 224.965 39.586 
197.363 31.078 174.469 c h
31.078 174.469 m f
0.835294 0.454902 0.356863 rg
106.438 206.961 m 92.969 212.152 81.711 213.547 72.301 212.359 c 70.758
 218.934 69.957 225.727 69.957 232.629 c 69.957 243.16 71.809 253.402 75.328
 263.012 c 83.613 265.246 92.867 267.152 103.215 268.652 c h
106.438 206.961 m f
0.898039 0.52549 0.431373 rg
283.266 213.082 m 274.703 212.863 266.227 210.859 258.465 207.293 c 250.457
 203.613 240.984 205.809 235.539 212.738 c 227.941 222.402 231.453 236.574
 242.625 241.707 c 255.047 247.41 268.602 250.617 282.305 250.965 c 292.75
 251.23 301.461 242.98 301.727 232.504 c 301.992 222.043 293.727 213.348
 283.266 213.082 c h
283.266 213.082 m f
257.836 361.109 m 251.727 352.426 241.773 347.258 231.152 347.258 c 225.637
 347.258 l 215.191 336.547 211.992 311.727 215.566 300.062 c 218.59 290.191
 225.387 283.211 225.387 283.211 c 201.684 259.102 l 200.453 260.312 189.477
 271.434 183.777 288.477 c 178.734 303.562 179.355 333.129 185.352 347.258
 c 178.855 347.258 l 167.785 347.258 158.016 354.512 154.82 365.109 c 152.824
 371.715 157.77 378.375 164.672 378.375 c 248.871 378.375 l 257.75 378.375
 262.945 368.371 257.836 361.109 c h
257.836 361.109 m f
0.835294 0.454902 0.356863 rg
235.539 212.738 m 227.941 222.402 231.449 236.574 242.625 241.707 c 253.832
 246.852 265.969 249.957 278.297 250.773 c 280.547 239.113 278.914 224.969
 276.266 212.492 c 270.117 211.637 264.102 209.883 258.465 207.293 c 250.457
 203.613 240.984 205.809 235.539 212.738 c h
235.539 212.738 m f
214.488 317.875 m 213.82 311.023 214.188 304.562 215.566 300.062 c 218.59
 290.191 225.387 283.211 225.387 283.211 c 201.684 259.102 l 200.453 260.312
 189.477 271.434 183.777 288.477 c 181.059 296.609 179.992 308.953 180.52
 320.816 c 192.012 320.816 l 199.625 320.816 207.184 319.809 214.488 317.875
 c h
214.488 317.875 m f
0.972549 0.780392 0.733333 rg
315.574 124.777 m 276.988 124.777 245.535 157.98 249.832 197.672 c 250.137
 200.453 250.719 203.199 251.469 205.887 c 253.652 213.68 258.93 234.812
 256.02 247.398 c 249.121 277.242 222.578 298.316 192.012 298.316 c 158.148
 298.316 l 154.883 298.316 151.676 298.082 148.547 297.609 c 148.547 247.371
 l 192.949 134.09 l 256.77 102.5 l 315.574 102.5 l h
315.574 124.777 m f
0.952941 0.615686 0.521569 rg
373.961 96.172 m 371.609 89.816 l 371.609 83.52 l 366.953 72.785 356.035
 65.203 343.672 65.203 c 316.551 65.203 l 311.578 65.203 307.445 61.508 
306.734 56.586 c 302.555 27.766 277.746 5.625 247.762 5.625 c 247.117 5.625
 l 220.316 5.625 196.902 23.488 189.734 49.141 c 199.926 64.898 l 181.371
 80.355 l 173.137 111.051 l 181.371 127.379 l 165.379 139.949 l 163.672 
146.332 l 160.699 157.402 152.148 166.215 141.082 169.18 c 139.496 169.605
 137.93 170.086 136.398 170.633 c 127.418 188.375 l 110.809 187.078 l 99.449
 198.891 92.457 214.941 92.457 232.629 c 92.457 250.762 99.816 267.188 111.695
 279.082 c 113.27 280.656 114.934 282.141 116.66 283.547 c 113.277 288.488
 109.551 295.059 106.941 302.871 c 101.895 317.961 102.516 333.129 108.508
 347.258 c 102.012 347.258 l 90.941 347.258 81.18 354.512 77.977 365.113
 c 77.676 366.113 77.531 367.117 77.531 368.102 c 77.531 373.582 81.98 378.375
 87.832 378.375 c 172.031 378.375 l 180.914 378.375 186.102 368.371 180.996
 361.109 c 177.941 356.766 173.922 353.301 169.34 350.926 c 164.766 348.547
 159.621 347.258 154.309 347.258 c 148.797 347.258 l 138.352 336.547 135.156
 326.121 138.727 314.469 c 141.746 304.59 148.543 297.609 148.543 297.609
 c 159.32 296.031 169.34 291.816 177.836 285.578 c 190.176 276.512 199.316
 263.168 202.961 247.402 c 205.871 234.809 200.602 213.684 198.418 205.891
 c 197.668 203.199 197.082 200.453 196.773 197.672 c 192.477 157.98 223.934
 124.777 262.52 124.777 c 344.211 124.777 l 360.238 124.777 373.332 112.09
 373.961 96.172 c h
373.961 96.172 m f
0.898039 0.52549 0.431373 rg
216.023 222.723 m 207.75 220.5 199.984 216.559 193.277 211.266 c 186.359
 205.809 176.637 205.715 169.715 211.172 c 160.059 218.781 160.137 233.379
 169.789 240.992 c 180.52 249.457 192.945 255.758 206.18 259.32 c 216.273
 262.035 226.68 256.062 229.398 245.941 c 232.117 235.836 226.129 225.441
 216.023 222.723 c h
216.023 222.723 m f
0.972549 0.780392 0.733333 rg
129.336 203.805 m 110.812 187.078 l 117.859 179.754 126.598 174.059 136.402
 170.633 c 143.633 194.773 l 146.18 203.281 135.93 209.762 129.336 203.805
 c h
129.336 203.805 m f
185.285 143.551 m 165.383 139.949 l 173.137 111.051 l 192.672 128.34 l 
199.32 134.227 194.023 145.141 185.285 143.551 c h
185.285 143.551 m f
209.594 80.656 m 181.371 80.355 l 189.238 51.023 l 189.395 50.391 189.562
 49.762 189.734 49.141 c 214.32 64.426 l 221.863 69.113 218.473 80.754 209.594
 80.656 c h
209.594 80.656 m f
0 g
247.477 73.352 m 250.586 73.352 253.102 70.836 253.102 67.727 c 253.102
 58.633 l 253.102 55.527 250.586 53.008 247.477 53.008 c 244.371 53.008 
241.852 55.527 241.852 58.633 c 241.852 67.727 l 241.852 70.836 244.371 
73.352 247.477 73.352 c h
247.477 73.352 m f
284.613 73.352 m 287.723 73.352 290.238 70.836 290.238 67.727 c 290.238
 58.633 l 290.238 55.527 287.723 53.008 284.613 53.008 c 281.508 53.008 
278.988 55.527 278.988 58.633 c 278.988 67.727 l 278.988 70.836 281.508 
73.352 284.613 73.352 c h
284.613 73.352 m f
43.379 256.785 m 46.121 258.242 49.527 257.199 50.988 254.457 c 52.445 
251.715 51.402 248.309 48.66 246.852 c 32.266 238.133 21.859 226.578 17.734
 212.508 c 14.617 201.879 14.992 189.816 18.848 176.664 c 19.844 173.27 
24.551 173.09 25.793 176.43 c 37.336 207.48 59.367 221.855 88.402 217.645
 c 87.371 222.434 86.82 227.668 86.82 232.629 c 86.82 242.488 88.824 252.207
 92.766 261.211 c 83.766 259.508 75.477 257.414 68.012 254.957 c 65.059 
253.984 61.879 255.59 60.91 258.543 c 59.938 261.492 61.543 264.672 64.492
 265.645 c 74.934 269.078 86.848 271.824 99.914 273.836 c 102.781 277.871
 106.031 281.547 109.285 284.59 c 98.844 301.832 94.793 321.75 100.551 341.668
 c 87.52 342.266 76.387 350.883 72.578 363.496 c 69.496 373.742 77.188 384
 87.82 384 c 248.859 384 l 262.281 384 270.148 368.855 262.426 357.875 c
 249.602 339.645 228.797 341.77 228.18 341.633 c 220.348 331.562 218.094
 310.973 220.934 301.711 c 221.414 300.137 222.059 298.523 222.844 296.898
 c 227.637 294.602 232.191 291.781 236.379 288.453 c 247.598 279.535 255.891
 267.32 260.125 253.664 c 267.387 255.41 274.77 256.398 282.148 256.586 
c 295.68 256.934 306.992 246.27 307.34 232.648 c 307.684 219.07 296.977 
207.805 283.398 207.457 c 275.703 207.262 267.891 205.438 260.801 202.18
 c 259.242 201.465 257.621 200.922 255.957 200.547 c 255.719 199.348 255.535
 198.191 255.414 197.066 c 253.555 179.914 258.852 163.418 270.32 150.625
 c 281.82 137.793 298.285 130.422 315.488 130.402 c 344.199 130.402 l 363.57
 130.402 379.457 114.637 379.605 95.254 c 379.75 75.398 363.047 59.578 343.66
 59.578 c 316.539 59.578 l 314.395 59.578 312.609 57.984 312.289 55.781 
c 307.66 23.855 280.172 0 247.75 0 c 247.105 0 l 217.965 0 192.141 19.586
 184.305 47.625 c 184.305 47.629 184.305 47.629 184.305 47.633 c 184.305
 47.633 184.301 47.637 184.301 47.637 c 184.25 47.828 158.227 144.875 158.227
 144.875 c 155.75 154.105 148.621 161.336 139.602 163.75 c 118.531 169.434
 100.734 184.664 92.164 205.504 c 65.523 211.602 46.746 200.512 36.34 172.508
 c 31.332 159.035 12.09 159.73 8.055 173.5 c 3.582 188.754 3.207 202.945
 6.938 215.672 c 11.949 232.762 24.207 246.594 43.379 256.785 c h
151.219 341.633 m 143.523 333.086 141.328 325.141 144.094 316.113 c 145.781
 310.594 148.902 306.043 150.848 303.562 c 156.84 304.176 159.379 303.844
 175.223 303.941 c 174.227 315.703 174.793 330.273 177.621 341.656 c 174.078
 341.801 170.562 342.574 167.273 343.914 c 159.176 341 153.031 341.754 151.219
 341.633 c h
209.359 301.805 m 206.867 315.301 210.027 339.316 221.598 351.184 c 222.656
 352.27 224.109 352.883 225.625 352.883 c 227.758 353.285 243.305 350.242
 253.223 364.348 c 255.715 367.887 253.191 372.75 248.859 372.75 c 187.727
 372.75 l 188.445 370.645 188.727 368.375 188.566 366.188 c 188.168 360.852
 185.141 356.641 181.391 352.883 c 185.34 352.883 l 189.355 352.883 192.098
 348.777 190.52 345.059 c 186.734 336.145 185.109 318.59 186.504 303.941
 c 192 303.941 l 197.668 303.941 203.613 303.25 209.359 301.805 c h
283.109 218.703 m 290.473 218.891 296.277 225 296.09 232.359 c 295.902 
239.723 289.801 245.523 282.434 245.34 c 275.703 245.168 268.965 244.262
 262.34 242.641 c 262.965 233.641 261.23 222.664 259.25 213.812 c 259.246
 213.793 259.238 213.77 259.234 213.746 c 266.84 216.793 275.027 218.5 283.109
 218.703 c h
209.641 75.031 m 188.672 74.809 l 193.199 57.926 l 211.34 69.203 l 214.113
 70.926 212.781 75.051 209.641 75.031 c h
186.277 138.016 m 186.277 138.016 186.277 138.016 186.273 138.016 c 186.004
 137.965 182.555 137.344 172.387 135.504 c 176.203 121.285 l 188.93 132.551
 l 191.395 134.734 189.371 138.57 186.277 138.016 c h
202.859 264.234 m 218.797 268.855 231.492 259.781 234.816 247.402 c 238.344
 234.32 230.539 220.809 217.473 217.293 c 213.418 216.195 209.648 214.691
 205.961 212.781 c 203.863 203.652 201.211 198.188 202.18 185.75 c 202.402
 182.82 200.363 180.285 197.578 179.781 c 194.301 179.184 191.223 181.555
 190.965 184.879 c 190.492 190.93 190.754 197.766 192.121 203.953 c 183.773
 199.91 173.691 200.867 166.223 206.75 c 153.727 216.598 153.762 235.523
 166.297 245.41 c 166.305 245.414 166.312 245.422 166.32 245.43 c 174.121
 251.578 183.117 256.809 192.133 260.496 c 183.125 277.695 166.488 289.297
 147.723 292.043 c 147.719 292.043 147.719 292.043 147.719 292.043 c 146.562
 292.211 145.426 292.758 144.5 293.684 c 144.184 294.008 136.719 301.77 
133.336 312.82 c 129.156 326.469 132.895 339.02 144.762 351.184 c 145.82
 352.27 147.273 352.883 148.789 352.883 c 152.512 353.109 157.969 352.012
 165.152 355.164 c 165.629 355.453 171.703 357.688 176.383 364.348 c 178.875
 367.883 176.352 372.75 172.023 372.75 c 87.816 372.75 l 84.605 372.75 82.473
 369.648 83.348 366.742 c 85.852 358.453 93.348 352.883 102 352.883 c 108.496
 352.883 l 112.508 352.883 115.25 348.777 113.676 345.062 c 105.195 325.07
 109.141 304.477 121.289 286.723 c 122.941 284.305 122.465 281.027 120.195
 279.18 c 106.121 267.734 98.07 250.621 98.07 232.629 c 98.07 218.934 102.73
 205.684 111.254 195.07 c 112.777 196.445 124.422 206.961 125.555 207.98
 c 136.277 217.68 153.199 207.145 149.008 193.16 c 143.379 174.371 l 155.848
 170.707 165.656 160.598 169.09 147.789 c 169.461 146.406 l 171 146.688 
182.723 148.805 184.266 149.086 c 184.27 149.086 l 184.285 149.09 184.301
 149.09 184.316 149.094 c 198.523 151.617 207.309 133.805 196.387 124.129
 c 179.457 109.148 l 185.66 86.027 l 209.52 86.281 l 224 86.473 229.676 
67.355 217.273 59.648 c 196.414 46.68 l 204.117 25.625 224.395 11.25 247.105
 11.25 c 247.75 11.25 l 274.543 11.25 297.324 30.957 301.152 57.395 c 302.281
 65.18 308.75 70.828 316.539 70.828 c 343.66 70.828 l 354.055 70.828 363.613
 77.562 367.035 87.285 c 362.723 90.879 l 359.902 93.23 355.812 93.23 352.992
 90.879 c 346 85.055 335.852 85.055 328.859 90.879 c 326.039 93.23 321.945
 93.23 319.125 90.879 c 310.66 83.824 l 308.273 81.836 304.727 82.16 302.738
 84.547 c 300.75 86.934 301.07 90.48 303.457 92.469 c 311.926 99.523 l 318.918
 105.348 329.066 105.348 336.059 99.523 c 338.879 97.172 342.973 97.172 
345.789 99.523 c 351.871 104.59 360.566 105.383 367.539 101.199 c 364.781
 111.516 355.336 119.152 344.199 119.152 c 335.406 119.152 271.492 119.152
 262.508 119.152 c 234.293 119.152 208.578 135.711 196.996 161.34 c 195.715
 164.172 196.973 167.504 199.805 168.781 c 202.633 170.062 205.965 168.805
 207.246 165.973 c 217.066 144.25 238.824 130.402 262.508 130.402 c 276.945
 130.402 l 271.438 133.902 266.379 138.164 261.941 143.113 c 248.312 158.316
 242.023 177.906 244.227 198.281 c 245.297 208.074 253.961 231.188 250.523
 246.133 c 244.148 273.723 219.902 292.691 192 292.691 c 188.59 292.691 
180.773 292.691 177.395 292.691 c 188.473 285.562 197.176 275.746 202.859
 264.234 c h
173.277 236.586 m 173.27 236.582 173.266 236.578 173.262 236.574 c 166.578
 231.305 166.402 221.348 172.797 215.914 c 177.676 211.758 184.691 211.707
 189.781 215.684 c 189.781 215.684 189.785 215.688 189.785 215.688 c 197.055
 221.422 205.641 225.746 214.484 228.137 c 214.508 228.145 214.527 228.148
 214.547 228.156 c 221.641 230.062 225.863 237.387 223.953 244.48 c 222.043
 251.586 214.746 255.801 207.629 253.887 c 207.625 253.887 207.621 253.887
 207.617 253.883 c 195.109 250.516 183.168 244.391 173.277 236.586 c h
132.773 178.172 m 138.23 196.391 l 139.137 199.418 135.504 201.812 133.094
 199.633 c 133.094 199.633 133.094 199.633 133.094 199.629 c 119.09 186.988
 l 123.234 183.441 127.852 180.469 132.773 178.172 c h
132.773 178.172 m f
Q Q
showpage
%%Trailer
end
%%EOF
