%!PS-Adobe-3.0 EPSF-3.0
%%Creator: cairo 1.16.0 (https://cairographics.org)
%%CreationDate: Mon Aug 23 08:35:15 2021
%%Pages: 1
%%DocumentData: Clean7Bit
%%LanguageLevel: 2
%%BoundingBox: 21 0 363 384
%%EndComments
%%BeginProlog
50 dict begin
/q { gsave } bind def
/Q { grestore } bind def
/cm { 6 array astore concat } bind def
/w { setlinewidth } bind def
/J { setlinecap } bind def
/j { setlinejoin } bind def
/M { setmiterlimit } bind def
/d { setdash } bind def
/m { moveto } bind def
/l { lineto } bind def
/c { curveto } bind def
/h { closepath } bind def
/re { exch dup neg 3 1 roll 5 3 roll moveto 0 rlineto
      0 exch rlineto 0 rlineto closepath } bind def
/S { stroke } bind def
/f { fill } bind def
/f* { eofill } bind def
/n { newpath } bind def
/W { clip } bind def
/W* { eoclip } bind def
/BT { } bind def
/ET { } bind def
/BDC { mark 3 1 roll /BDC pdfmark } bind def
/EMC { mark /EMC pdfmark } bind def
/cairo_store_point { /cairo_point_y exch def /cairo_point_x exch def } def
/Tj { show currentpoint cairo_store_point } bind def
/TJ {
  {
    dup
    type /stringtype eq
    { show } { -0.001 mul 0 cairo_font_matrix dtransform rmoveto } ifelse
  } forall
  currentpoint cairo_store_point
} bind def
/cairo_selectfont { cairo_font_matrix aload pop pop pop 0 0 6 array astore
    cairo_font exch selectfont cairo_point_x cairo_point_y moveto } bind def
/Tf { pop /cairo_font exch def /cairo_font_matrix where
      { pop cairo_selectfont } if } bind def
/Td { matrix translate cairo_font_matrix matrix concatmatrix dup
      /cairo_font_matrix exch def dup 4 get exch 5 get cairo_store_point
      /cairo_font where { pop cairo_selectfont } if } bind def
/Tm { 2 copy 8 2 roll 6 array astore /cairo_font_matrix exch def
      cairo_store_point /cairo_font where { pop cairo_selectfont } if } bind def
/g { setgray } bind def
/rg { setrgbcolor } bind def
/d1 { setcachedevice } bind def
/cairo_data_source {
  CairoDataIndex CairoData length lt
    { CairoData CairoDataIndex get /CairoDataIndex CairoDataIndex 1 add def }
    { () } ifelse
} def
/cairo_flush_ascii85_file { cairo_ascii85_file status { cairo_ascii85_file flushfile } if } def
/cairo_image { image cairo_flush_ascii85_file } def
/cairo_imagemask { imagemask cairo_flush_ascii85_file } def
%%EndProlog
%%BeginSetup
%%EndSetup
%%Page: 1 1
%%BeginPageSetup
%%PageBoundingBox: 21 0 363 384
%%EndPageSetup
q 21 0 342 384 rectclip
1 0 0 -1 0 384 cm q
0.941176 0.556863 0.619608 rg
87.984 273.004 m 83.918 318.926 55.305 344.875 55.305 344.875 c 139.594
 367.082 l 150.789 364.344 159.098 354.246 159.098 342.207 c 159.098 281.117
 l h
87.984 273.004 m f
296.016 273.004 m 300.082 318.926 328.695 344.875 328.695 344.875 c 244.406
 367.082 l 233.211 364.344 224.902 354.246 224.902 342.207 c 224.902 281.117
 l h
296.016 273.004 m f
0.933333 0.490196 0.564706 rg
94.738 350.371 m 94.738 314.156 123.285 284.617 159.098 283.008 c 159.098
 281.117 l 87.984 273.004 l 83.918 318.93 55.305 344.875 55.305 344.875 
c 94.922 355.312 l 94.801 353.68 94.738 352.031 94.738 350.371 c h
94.738 350.371 m f
255.082 313.336 m 255.082 299.707 259.129 287.027 266.082 276.418 c 224.902
 281.117 l 224.902 342.207 l 224.902 354.25 233.211 364.344 244.406 367.086
 c 273.332 359.465 l 262.016 347.402 255.082 331.18 255.082 313.336 c h
255.082 313.336 m f
0.423529 0.501961 0.588235 rg
71.816 375.129 m 68.934 377.172 65.414 378.375 61.613 378.375 c 48.594 
378.375 l 42.863 378.375 38.223 373.73 38.223 368.004 c 38.223 354.645 49.051
 343.812 62.414 343.812 c 68.059 343.812 73.039 346.594 76.105 350.848 c
 h
71.816 375.129 m f
0.321569 0.419608 0.501961 rg
102.562 375.129 m 99.68 377.172 96.16 378.375 92.359 378.375 c 79.34 378.375
 l 73.609 378.375 68.969 373.73 68.969 368.004 c 68.969 354.645 79.797 343.812
 93.16 343.812 c 98.805 343.812 103.789 346.594 106.852 350.848 c h
102.562 375.129 m f
0.423529 0.501961 0.588235 rg
312.184 375.129 m 315.066 377.172 318.586 378.375 322.387 378.375 c 335.406
 378.375 l 341.137 378.375 345.777 373.73 345.777 368.004 c 345.777 354.645
 334.949 343.812 321.586 343.812 c 315.941 343.812 310.961 346.594 307.895
 350.848 c h
312.184 375.129 m f
0.321569 0.419608 0.501961 rg
281.438 375.129 m 284.32 377.172 287.84 378.375 291.641 378.375 c 304.66
 378.375 l 310.391 378.375 315.031 373.73 315.031 368.004 c 315.031 354.645
 304.203 343.812 290.84 343.812 c 285.195 343.812 280.211 346.594 277.148
 350.848 c h
281.438 375.129 m f
0.423529 0.501961 0.588235 rg
123.906 343.812 m 133.23 343.812 140.789 351.371 140.789 360.695 c 140.789
 370.457 132.871 378.375 123.105 378.375 c 110.086 378.375 l 104.355 378.375
 99.715 373.73 99.715 368.004 c 99.715 354.645 110.547 343.812 123.906 343.812
 c h
123.906 343.812 m f
260.094 343.812 m 250.77 343.812 243.211 351.371 243.211 360.695 c 243.211
 370.457 251.129 378.375 260.895 378.375 c 273.914 378.375 l 279.645 378.375
 284.285 373.73 284.285 368.004 c 284.285 354.645 273.453 343.812 260.094
 343.812 c h
260.094 343.812 m f
0.94902 0.615686 0.666667 rg
311.945 244.457 m 297.781 297.441 249.449 320.238 192 320.238 c 134.551
 320.238 86.219 297.441 72.055 244.457 c 72.055 211.547 l 311.945 211.547
 l h
311.945 244.457 m f
0.941176 0.556863 0.619608 rg
228.688 211.547 m 72.055 211.547 l 72.055 217.379 l 72.363 217.691 72.664
 218.008 72.977 218.316 c 85.738 230.992 100.191 241.375 115.836 249.266
 c 125.367 254.07 133.871 260.613 141.414 268.168 c 153.227 279.992 170.938
 286.758 192 286.758 c 213.086 286.758 230.816 279.977 242.629 268.125 c
 250.129 260.598 258.566 254.035 268.051 249.238 c 284.098 241.129 298.91
 230.387 311.938 217.227 c 311.941 217.219 311.945 217.211 311.945 217.207
 c 311.945 211.547 l h
228.688 211.547 m f
0.992157 0.94902 0.894118 rg
328.145 219.875 m 321.031 192.953 304.91 175.07 304.91 175.07 c 259.391
 219.09 l 259.391 219.09 276.723 235.801 303.395 243.812 c 318.16 248.25
 332.086 234.781 328.145 219.875 c h
328.145 219.875 m f
55.855 219.875 m 62.969 192.953 79.09 175.07 79.09 175.07 c 124.609 219.09
 l 124.609 219.09 107.277 235.801 80.605 243.812 c 65.84 248.25 51.914 234.781
 55.855 219.875 c h
55.855 219.875 m f
0.992157 0.913725 0.815686 rg
60.945 205.027 m 64.695 209.633 68.703 214.074 72.977 218.316 c 80.254 
225.543 88.082 232.02 96.367 237.719 c 113.898 229.41 124.609 219.09 124.609
 219.09 c 79.09 175.07 l 79.09 175.07 68.723 186.582 60.945 205.027 c h
60.945 205.027 m f
323.004 204.91 m 315.234 186.535 304.91 175.07 304.91 175.07 c 259.391 
219.09 l 259.391 219.09 270.055 229.367 287.523 237.668 c 295.957 231.852
 303.93 225.234 311.332 217.836 c 315.469 213.699 319.359 209.383 323.004
 204.91 c h
323.004 204.91 m f
0.94902 0.615686 0.666667 rg
312.281 15.266 m 303.68 2.859 285.57 2.34 276.371 14.312 c 256.93 39.605
 226.367 55.914 192 55.914 c 157.633 55.914 127.07 39.609 107.633 14.312
 c 98.465 2.383 80.371 2.809 71.789 15.164 c 55.195 39.059 45.539 68.133
 45.742 99.477 c 46.266 180.102 111.375 244.762 192 244.762 c 272.777 244.762
 338.262 179.285 338.262 98.508 c 338.262 67.578 328.66 38.895 312.281 15.266
 c h
312.281 15.266 m f
0.992157 0.94902 0.894118 rg
136.648 92.949 m 118.242 77.242 86.172 55.863 44.895 52.164 c 36.863 51.441
 29.461 56.551 27.398 64.344 c 25.148 72.863 29.98 81.707 38.41 84.27 c 
67.953 93.246 89.98 112.16 103.641 127.055 c 113.133 137.402 129.453 137.375
 138.855 126.941 c 147.812 117.008 146.824 101.633 136.648 92.949 c h
136.648 92.949 m f
247.352 92.949 m 265.758 77.242 297.828 55.863 339.105 52.164 c 347.137
 51.441 354.539 56.551 356.602 64.344 c 358.852 72.863 354.02 81.707 345.59
 84.27 c 316.047 93.246 294.02 112.16 280.359 127.055 c 270.867 137.402 
254.547 137.375 245.145 126.941 c 236.188 117.008 237.176 101.633 247.352
 92.949 c h
247.352 92.949 m f
215.297 140.73 m 215.297 151.395 204.867 160.043 192 160.043 c 179.133 
160.043 168.703 151.395 168.703 140.73 c 168.703 130.062 179.133 99.133 
192 99.133 c 204.867 99.133 215.297 130.062 215.297 140.73 c h
215.297 140.73 m f
0.423529 0.501961 0.588235 rg
149.395 238.398 m 148.586 235.391 148.164 232.098 148.164 228.535 c 148.164
 204.324 167.789 184.695 192 184.695 c 216.211 184.695 235.836 204.324 235.836
 228.535 c 235.836 232.098 235.414 235.391 234.605 238.398 c h
149.395 238.398 m f
0.321569 0.419608 0.501961 rg
234.605 238.398 m 229.961 255.887 212.648 264.258 192 264.258 c 171.352
 264.258 154.039 255.887 149.395 238.398 c 150.793 237.555 166.32 228.535
 192 228.535 c 217.68 228.535 233.207 237.555 234.605 238.398 c h
234.605 238.398 m f
0.992157 0.913725 0.815686 rg
185.754 119.367 m 185.754 112 187.754 105.102 191.23 99.176 c 178.723 100.367
 168.703 130.277 168.703 140.73 c 168.703 151.395 179.133 160.043 192 160.043
 c 198.035 160.043 203.531 158.141 207.668 155.02 c 194.668 148.426 185.754
 134.941 185.754 119.367 c h
185.754 119.367 m f
0 g
192 93.512 m 183.984 93.512 176.527 100.445 170.426 113.559 c 166.168 122.715
 163.078 134.141 163.078 140.73 c 163.078 154.48 176.055 165.668 192 165.668
 c 207.945 165.668 220.922 154.48 220.922 140.73 c 220.922 134.141 217.832
 122.715 213.574 113.559 c 207.473 100.445 200.016 93.512 192 93.512 c h
192 154.418 m 182.258 154.418 174.328 148.277 174.328 140.73 c 174.328 
136.363 176.688 126.781 180.629 118.305 c 184.977 108.949 189.477 104.762
 192 104.762 c 194.523 104.762 199.023 108.949 203.371 118.305 c 207.316
 126.781 209.672 136.363 209.672 140.73 c 209.672 148.277 201.742 154.418
 192 154.418 c h
192 154.418 m f
130.711 180.355 m 127.605 180.355 125.086 182.875 125.086 185.98 c 125.086
 196.344 l 125.086 199.453 127.605 201.969 130.711 201.969 c 133.82 201.969
 136.336 199.453 136.336 196.344 c 136.336 185.98 l 136.336 182.875 133.82
 180.355 130.711 180.355 c h
130.711 180.355 m f
253.289 180.355 m 250.18 180.355 247.664 182.875 247.664 185.98 c 247.664
 196.344 l 247.664 199.453 250.18 201.969 253.289 201.969 c 256.395 201.969
 258.914 199.453 258.914 196.344 c 258.914 185.98 l 258.914 182.875 256.395
 180.355 253.289 180.355 c h
253.289 180.355 m f
362.039 62.906 m 359.277 52.465 349.422 45.59 338.605 46.562 c 337.359 
46.672 336.125 46.801 334.895 46.945 c 330.441 34.598 324.402 22.879 316.902
 12.062 c 311.75 4.633 303.629 0.242 294.625 0.023 c 285.672 -0.191 277.383
 3.762 271.91 10.883 c 252.664 35.926 223.539 50.289 192 50.289 c 160.461
 50.289 131.336 35.926 112.09 10.887 c 106.613 3.758 98.316 -0.215 89.348
 0.008 c 80.375 0.227 72.293 4.582 67.168 11.957 c 59.633 22.809 53.57 34.559
 49.102 46.949 c 47.867 46.809 46.629 46.672 45.395 46.559 c 34.578 45.586
 24.723 52.465 21.961 62.906 c 18.91 74.449 25.414 86.199 36.777 89.652 
c 37.973 90.012 39.148 90.402 40.32 90.797 c 40.172 93.719 40.098 96.637
 40.117 99.516 c 40.312 129.84 49.223 158.688 65.957 183.469 c 60.645 191.781
 54.277 203.832 50.414 218.438 c 46.723 232.414 55.254 245.469 67.562 249.223
 c 70.824 260.109 75.531 269.926 81.652 278.637 c 76.594 313.98 56.402 335.84
 52.301 339.957 c 40.824 344.105 32.598 355.109 32.598 368.004 c 32.598 
376.824 39.773 384 48.594 384 c 61.613 384 l 65.02 384 68.324 383.254 71.363
 381.848 c 73.715 383.207 76.434 384 79.34 384 c 92.359 384 l 95.766 384
 99.07 383.254 102.109 381.848 c 104.461 383.207 107.18 384 110.086 384 
c 123.109 384 l 131.957 384 139.668 379.043 143.613 371.762 c 156.172 367.48
 164.727 355.699 164.727 342.207 c 164.727 324.039 l 173.441 325.246 182.559
 325.863 192 325.863 c 201.508 325.863 210.605 325.258 219.277 324.07 c 
219.277 342.207 l 219.277 355.699 227.828 367.48 240.387 371.762 c 244.336
 379.043 252.047 384 260.895 384 c 273.914 384 l 276.82 384 279.539 383.207
 281.891 381.848 c 284.93 383.254 288.234 384 291.641 384 c 304.66 384 l
 307.566 384 310.285 383.207 312.637 381.848 c 315.676 383.254 318.98 384
 322.387 384 c 335.41 384 l 344.227 384 351.402 376.824 351.402 368.004 
c 351.402 355.113 343.18 344.109 331.703 339.957 c 327.5 335.73 307.371 
313.875 302.336 278.574 c 308.465 269.859 313.18 260.059 316.43 249.227 
c 328.742 245.473 337.281 232.418 333.586 218.438 c 329.711 203.781 323.316
 191.695 317.977 183.367 c 334.949 158.27 343.887 129.098 343.887 98.508
 c 343.887 95.945 343.812 93.367 343.684 90.797 c 344.852 90.398 346.031
 90.012 347.223 89.648 c 358.586 86.199 365.09 74.449 362.039 62.906 c h
61.293 221.312 m 64.254 210.105 68.863 200.527 73.145 193.258 c 83.051 
205.699 94.66 216.359 107.633 225 c 98.148 231.168 88.352 235.609 79.02 
238.418 c 79.008 238.422 79 238.422 78.988 238.426 c 68.449 241.59 58.469
 231.996 61.293 221.312 c h
61.613 372.75 m 48.594 372.75 l 45.977 372.75 43.848 370.621 43.848 368.004
 c 43.848 357.691 52.266 349.438 62.414 349.438 c 66.02 349.438 68.352 351.195
 68.492 351.238 c 65.301 355.91 63.344 361.91 63.344 368.004 c 63.344 369.406
 63.578 371.113 63.992 372.516 c 63.215 372.672 62.418 372.75 61.613 372.75
 c h
92.359 372.75 m 79.34 372.75 l 76.957 372.75 74.418 371.035 74.617 367.055
 c 74.617 367.02 74.625 366.984 74.625 366.949 c 75.176 357.164 83.332 349.438
 93.16 349.438 c 95.164 349.438 97.301 350 99.234 351.25 c 95.984 356.012
 94.09 361.977 94.09 368.004 c 94.09 369.391 94.32 371.102 94.738 372.516
 c 93.961 372.672 93.168 372.75 92.359 372.75 c h
123.105 372.75 m 110.086 372.75 l 107.547 372.75 105.172 370.852 105.363
 367.055 c 105.363 367.02 105.367 366.984 105.371 366.949 c 105.902 357.512
 113.508 349.945 122.961 349.461 c 130.207 349.105 135.16 354.586 135.16
 360.695 c 135.164 367.309 129.758 372.75 123.105 372.75 c h
153.473 322.141 m 153.473 342.207 l 153.473 348.355 150.703 353.945 146.207
 357.645 c 144.703 346.609 135.215 338.188 123.906 338.188 c 118.062 338.188
 112.148 339.973 107.316 343.223 c 103.312 339.98 98.273 338.188 93.16 338.188
 c 87.41 338.188 81.531 339.902 76.582 343.223 c 74.086 341.184 71.195 339.719
 68.09 338.91 c 75.641 329.148 85.953 312.551 91.023 289.969 c 107.711 307.23
 130.012 317.293 153.473 322.141 c h
260.895 372.75 m 254.195 372.75 248.836 367.262 248.836 360.695 c 248.836
 354.488 253.887 349.438 260.094 349.438 c 260.102 349.438 l 269.594 349.438
 277.562 356.656 278.555 366.035 c 278.559 366.062 278.562 366.09 278.566
 366.117 c 279.027 370.645 276.715 372.75 273.914 372.75 c h
291.641 372.75 m 290.832 372.75 290.039 372.672 289.262 372.516 c 289.676
 371.105 289.906 369.441 289.91 368.027 c 289.91 368.02 289.91 368.012 289.91
 368.004 c 289.91 362.047 288.074 356.094 284.766 351.25 c 286.707 349.996
 288.848 349.438 290.84 349.438 c 300.871 349.438 308.836 357.352 309.375
 366.949 c 309.379 366.984 309.383 367.02 309.383 367.055 c 309.57 370.797
 307.262 372.75 304.66 372.75 c h
340.152 368.004 m 340.152 370.621 338.023 372.75 335.406 372.75 c 322.387
 372.75 l 321.582 372.75 320.785 372.672 320.008 372.516 c 320.414 371.145
 320.656 369.438 320.656 368.004 c 320.656 362.055 318.777 356.027 315.508
 351.238 c 315.629 351.199 318.012 349.438 321.586 349.438 c 331.695 349.438
 340.152 357.656 340.152 368.004 c h
274.77 291.074 m 270.469 294.336 273.672 298.883 273.691 298.957 c 273.766
 298.996 277.285 303.293 281.574 300.039 c 285.562 297.012 289.867 293.145
 292.969 289.93 c 298.031 312.547 308.352 329.152 315.902 338.914 c 312.801
 339.719 309.91 341.184 307.418 343.223 c 302.672 340.043 296.863 338.188
 290.84 338.188 c 285.547 338.188 280.52 340.109 276.684 343.223 c 272.047
 340.102 266.223 338.188 260.094 338.188 c 248.906 338.188 239.312 346.496
 237.793 357.645 c 233.297 353.945 230.527 348.355 230.527 342.207 c 230.527
 322.148 l 241.723 319.84 252.113 316.465 261.605 312.02 c 264.418 310.703
 265.629 307.355 264.312 304.543 c 264.312 304.543 264.312 304.539 264.312
 304.539 c 262.996 301.727 259.645 300.512 256.832 301.828 c 240.844 309.312
 219.469 314.613 192 314.613 c 142.652 314.613 95.855 297.086 79.578 249.848
 c 91.266 247.641 108.312 238.387 118.199 231.418 c 132.09 239.094 144.293
 242.742 144.949 242.996 c 151.809 262.105 171.754 269.883 192.004 269.883
 c 212.363 269.883 232.176 262.176 239.078 242.938 c 247.938 240.055 257.137
 236.086 265.688 231.332 c 280.602 242 297.945 248.613 304.426 249.848 c
 298.418 267.254 288.125 280.941 274.77 291.074 c h
192 258.633 m 191.98 258.633 191.961 258.633 191.938 258.633 c 177.395 
258.625 162.582 254.332 156.379 241.164 c 167.086 236.344 180.137 234.16
 192 234.16 c 203.77 234.16 216.953 236.371 227.625 241.168 c 221.512 254.164
 206.254 258.633 192 258.633 c h
230.168 230.016 m 218.277 225.152 204.934 222.91 192 222.91 c 179.203 222.91
 165.613 225.168 153.832 230.016 c 152.969 208.152 170.574 190.32 192 190.32
 c 213.375 190.32 231.027 208.094 230.168 230.016 c h
304.965 238.414 m 294.711 235.324 284.566 230.414 276.215 224.902 c 288.91
 216.414 300.785 205.656 310.789 193.152 c 315.098 200.441 319.73 210.055
 322.707 221.312 c 325.535 232.02 315.5 241.637 304.965 238.414 c h
332.637 98.508 m 332.637 159.406 293.988 210.59 241.434 230.188 c 242.516
 202.934 220.387 179.074 192 179.074 c 164.066 179.074 141.594 202.312 142.566
 230.25 c 89.621 210.469 51.758 159.711 51.367 99.441 c 51.359 98.031 51.371
 96.609 51.406 95.18 c 51.453 95.203 51.504 95.227 51.555 95.246 c 77.922
 107.234 93.199 124.738 100.566 131.965 c 112.547 143.727 131.848 143.117
 143.035 130.711 c 154.113 118.422 152.91 99.43 140.301 88.672 c 128.254
 78.391 115.266 69.734 101.695 62.941 c 98.918 61.551 95.539 62.676 94.148
 65.453 c 92.758 68.234 93.879 71.617 96.66 73.008 c 109.426 79.398 121.652
 87.547 132.996 97.23 c 140.734 103.832 141.559 115.543 134.68 123.176 c
 127.598 131.031 115.191 131.305 107.805 123.27 c 107.797 123.266 107.789
 123.258 107.785 123.25 c 107.781 123.246 107.777 123.242 107.773 123.238
 c 89.27 103.074 66.047 86.789 40.047 78.887 c 34.508 77.203 31.34 71.445
 32.836 65.785 c 34.191 60.66 39.051 57.289 44.391 57.766 c 54.805 58.699
 65.84 60.98 76.848 64.707 c 79.789 65.707 82.984 64.129 83.98 61.188 c 
84.98 58.246 83.406 55.051 80.465 54.055 c 80.398 54.031 80.336 54.012 80.273
 53.992 c 74.008 51.875 67.121 50.016 60.441 48.707 c 64.496 37.996 69.852
 27.816 76.41 18.375 c 79.461 13.98 84.277 11.383 89.617 11.254 c 94.953
 11.125 99.906 13.488 103.172 17.738 c 124.562 45.574 156.938 61.539 192
 61.539 c 227.062 61.539 259.438 45.574 280.828 17.738 c 284.09 13.496 289.027
 11.133 294.348 11.27 c 299.727 11.402 304.574 14.027 307.656 18.473 c 314.184
 27.883 319.516 38.027 323.559 48.699 c 293.605 54.523 266.242 69.422 243.699
 88.672 c 230.648 99.809 229.871 119.695 242.031 131.828 c 242.051 131.852
 242.074 131.871 242.098 131.891 c 254.059 143.75 273.297 143.074 284.504
 130.855 c 295.207 119.184 307.668 108.883 321.047 101.129 c 321.055 101.125
 321.059 101.121 321.066 101.117 c 325.031 98.82 329.164 96.723 332.598 
95.18 c 332.621 96.289 332.637 97.402 332.637 98.508 c h
316.777 90.613 m 316.766 90.621 316.754 90.625 316.746 90.633 c 303.582
 98.074 292.621 106.969 284 115.273 c 277.254 121.762 276.043 123.875 273.363
 125.785 c 266.34 130.84 255.859 130.43 249.32 123.176 c 242.473 115.582
 243.234 103.859 251.004 97.23 c 276.273 75.672 306.879 60.699 339.609 57.766
 c 344.934 57.285 349.805 60.648 351.164 65.785 c 352.66 71.445 349.492 
77.203 343.953 78.887 c 334.504 81.758 325.34 85.773 316.777 90.613 c h
316.777 90.613 m f
Q Q
showpage
%%Trailer
end
%%EOF
