%!PS-Adobe-3.0 EPSF-3.0
%%Creator: cairo 1.16.0 (https://cairographics.org)
%%CreationDate: Mon Aug 23 08:35:15 2021
%%Pages: 1
%%DocumentData: Clean7Bit
%%LanguageLevel: 2
%%BoundingBox: 0 6 384 378
%%EndComments
%%BeginProlog
50 dict begin
/q { gsave } bind def
/Q { grestore } bind def
/cm { 6 array astore concat } bind def
/w { setlinewidth } bind def
/J { setlinecap } bind def
/j { setlinejoin } bind def
/M { setmiterlimit } bind def
/d { setdash } bind def
/m { moveto } bind def
/l { lineto } bind def
/c { curveto } bind def
/h { closepath } bind def
/re { exch dup neg 3 1 roll 5 3 roll moveto 0 rlineto
      0 exch rlineto 0 rlineto closepath } bind def
/S { stroke } bind def
/f { fill } bind def
/f* { eofill } bind def
/n { newpath } bind def
/W { clip } bind def
/W* { eoclip } bind def
/BT { } bind def
/ET { } bind def
/BDC { mark 3 1 roll /BDC pdfmark } bind def
/EMC { mark /EMC pdfmark } bind def
/cairo_store_point { /cairo_point_y exch def /cairo_point_x exch def } def
/Tj { show currentpoint cairo_store_point } bind def
/TJ {
  {
    dup
    type /stringtype eq
    { show } { -0.001 mul 0 cairo_font_matrix dtransform rmoveto } ifelse
  } forall
  currentpoint cairo_store_point
} bind def
/cairo_selectfont { cairo_font_matrix aload pop pop pop 0 0 6 array astore
    cairo_font exch selectfont cairo_point_x cairo_point_y moveto } bind def
/Tf { pop /cairo_font exch def /cairo_font_matrix where
      { pop cairo_selectfont } if } bind def
/Td { matrix translate cairo_font_matrix matrix concatmatrix dup
      /cairo_font_matrix exch def dup 4 get exch 5 get cairo_store_point
      /cairo_font where { pop cairo_selectfont } if } bind def
/Tm { 2 copy 8 2 roll 6 array astore /cairo_font_matrix exch def
      cairo_store_point /cairo_font where { pop cairo_selectfont } if } bind def
/g { setgray } bind def
/rg { setrgbcolor } bind def
/d1 { setcachedevice } bind def
/cairo_data_source {
  CairoDataIndex CairoData length lt
    { CairoData CairoDataIndex get /CairoDataIndex CairoDataIndex 1 add def }
    { () } ifelse
} def
/cairo_flush_ascii85_file { cairo_ascii85_file status { cairo_ascii85_file flushfile } if } def
/cairo_image { image cairo_flush_ascii85_file } def
/cairo_imagemask { imagemask cairo_flush_ascii85_file } def
%%EndProlog
%%BeginSetup
%%EndSetup
%%Page: 1 1
%%BeginPageSetup
%%PageBoundingBox: 0 6 384 378
%%EndPageSetup
q 0 6 384 372 rectclip
1 0 0 -1 0 384 cm q
0.964706 0.65098 0.254902 rg
97.07 260.352 m 97.137 260.125 l 97.105 260.223 93.883 270.273 85.031 279.953
 c 76.301 289.504 65.074 295.473 51.559 297.77 c 44.883 298.906 40.109 304.863
 40.242 311.629 c 40.59 329.266 l 40.754 337.543 48.141 343.789 56.332 342.605
 c 88.004 338.035 108.254 321.945 120.109 308.258 c 134.645 291.488 139.777
 274.742 140.316 272.887 c h
97.07 260.352 m f
0.945098 0.552941 0.105882 rg
120.109 308.258 m 134.645 291.488 139.777 274.742 140.316 272.887 c 97.07
 260.352 l 97.137 260.125 l 97.105 260.223 93.879 270.273 85.031 279.953
 c 80.551 284.855 75.414 288.805 69.648 291.805 c 73.391 297.707 77.812 
303.242 82.883 308.312 c 89.023 314.453 95.855 319.652 103.203 323.84 c 
110.105 318.793 115.691 313.359 120.109 308.258 c h
120.109 308.258 m f
0.964706 0.65098 0.254902 rg
95.406 236.676 m 38.793 220.34 15.055 181.648 6.902 163.953 c 4.492 158.715
 5.551 152.539 9.586 148.422 c 14.875 143.023 23.496 142.863 29 148.039 
c 51.168 168.898 87.109 192.797 134.582 191.465 c h
95.406 236.676 m f
218.281 302.629 m 218.043 302.637 l 218.148 302.637 228.703 302.551 240.668
 307.922 c 252.473 313.219 261.66 322.008 268.078 334.125 c 271.246 340.109
 278.398 342.777 284.781 340.531 c 301.422 334.676 l 309.23 331.926 312.848
 322.957 309.16 315.547 c 294.895 286.898 273.27 272.711 256.559 265.738
 c 236.074 257.191 218.566 257.562 216.637 257.633 c h
218.281 302.629 m f
0.976471 0.87451 0.603922 rg
319.73 115.16 m 319.73 115.16 277.121 146.062 260.062 202.422 c 215.008
 202.422 l 215.008 130.426 l 289.219 72.91 l h
319.73 115.16 m f
0.945098 0.552941 0.105882 rg
283.82 282.555 m 274.527 274.531 264.926 269.23 256.559 265.738 c 236.074
 257.191 218.566 257.566 216.637 257.633 c 218.285 302.629 l 218.043 302.637
 l 218.148 302.637 228.703 302.551 240.668 307.922 c 245.949 310.289 250.695
 313.359 254.914 317.109 c 258.684 314.289 262.281 311.176 265.672 307.773
 c 273.172 300.254 279.262 291.742 283.82 282.555 c h
283.82 282.555 m f
57.297 219.965 m 67.945 226.555 80.539 232.387 95.41 236.676 c 134.582 
191.465 l 112.93 192.07 93.688 187.422 77.047 180.215 c 67.305 191.828 60.59
 205.398 57.297 219.965 c h
57.297 219.965 m f
0.976471 0.729412 0.427451 rg
367.188 63.938 m 354.055 51.758 l 353.746 40.848 349.207 31 342.008 23.812
 c 334.82 16.621 324.973 12.082 314.062 11.773 c 292.242 12.391 274.695 
29.934 274.082 51.758 c 274.082 51.766 l 263.168 52.074 253.332 56.605 246.137
 63.801 c 238.945 70.992 234.406 80.836 234.098 91.75 c 223.188 92.055 213.348
 96.594 206.152 103.785 c 198.965 110.98 194.422 120.82 194.117 131.73 c
 173.516 132.309 156.723 147.977 154.395 168.09 c 151.219 168.09 l 111.164
 168.09 77.914 200.043 77.473 240.094 c 77.25 260.527 85.441 279.051 98.797
 292.406 c 111.98 305.59 130.188 313.738 150.289 313.738 c 197.41 313.738
 l 237.566 313.738 271.164 280.887 271.062 240.73 c 271.031 226.668 267.012
 213.539 260.062 202.422 c 257.121 197.691 253.648 193.332 249.73 189.418
 c 249.262 188.949 248.785 188.484 248.305 188.031 c 234.387 174.848 232.121
 153.461 243.59 138.102 c 250.043 129.465 256.629 122.07 262.824 115.875
 c 270.766 107.934 281.188 103.957 291.625 103.957 c 301.727 103.957 311.844
 107.688 319.73 115.16 c 326.414 121.352 334.941 124.457 343.465 124.457
 c 346.02 124.457 348.574 124.18 351.082 123.621 c 354.984 118.867 l 366.121
 116.098 l 366.285 115.961 366.449 115.828 366.609 115.688 c 382.066 101.996
 382.328 77.961 367.188 63.938 c h
367.188 63.938 m f
238.016 280.957 m 238.016 359.148 l 238.016 366.371 232.16 372.227 224.938
 372.227 c 205.684 372.227 l 198.461 372.227 192.605 366.371 192.605 359.148
 c 192.605 280.957 l h
238.016 280.957 m f
0.976471 0.87451 0.603922 rg
190.652 191.094 m 190.574 191.035 183.93 180.969 172.414 184.848 c 171.762
 185.289 156.18 187.879 157.527 202.641 c 158.52 213.559 168.613 216.223
 169.473 216.875 c 184.062 223.754 201.348 204.91 190.652 191.094 c h
190.652 191.094 m f
0.964706 0.65098 0.254902 rg
115.809 219.242 m 115.809 203.043 118.75 187.531 124.117 173.203 c 97.191
 183.766 77.809 209.578 77.473 240.09 c 77.25 260.527 85.438 279.047 98.797
 292.402 c 102.355 295.965 106.285 299.152 110.516 301.918 c 110.516 359.148
 l 110.516 366.371 116.371 372.227 123.594 372.227 c 142.848 372.227 l 150.07
 372.227 155.926 366.371 155.926 359.148 c 155.926 313.738 l 155.965 313.738
 l 131.211 289.863 115.809 256.352 115.809 219.242 c h
115.809 219.242 m f
0.976471 0.87451 0.603922 rg
147.562 225.672 m 141.23 223.312 134.008 215.855 123.871 220.605 c 121.906
 221.523 l 105.812 229.062 112.902 253.199 128.258 254.891 c 138.547 256.023
 l 146.75 256.926 154.305 251.477 156.035 243.41 c 157.57 236.258 154.09
 228.973 147.562 225.672 c h
147.562 225.672 m f
0 g
339.566 82.035 m 345.934 75.672 l 348.129 73.473 348.129 69.914 345.934
 67.719 c 343.734 65.523 340.176 65.523 337.98 67.719 c 331.613 74.082 l
 329.418 76.277 329.418 79.84 331.613 82.035 c 333.812 84.234 337.371 84.23
 339.566 82.035 c h
339.566 82.035 m f
149.602 220.395 m 148.414 219.949 146.961 219.145 145.418 218.293 c 139.984
 215.277 131.77 210.723 121.566 215.504 c 121.332 215.711 104.512 221.578
 107.566 240.008 c 109.379 250.941 117.668 259.355 127.723 260.461 c 137.91
 261.543 138.387 261.727 140.426 261.727 c 150.555 261.727 159.43 254.699
 161.605 244.574 c 164.004 233.398 156.98 223.148 149.602 220.395 c h
150.609 242.215 m 149.477 247.477 144.594 251.004 139.238 250.414 c 128.953
 249.281 l 123.301 248.66 119.496 243.219 118.66 238.168 c 116.988 228.07
 125.941 226.176 126.336 225.688 c 131.27 223.375 134.965 225.355 139.969
 228.129 c 141.695 229.086 143.477 230.07 145.328 230.801 c 149.422 232.996
 151.586 237.652 150.609 242.215 c h
150.609 242.215 m f
170.379 179.633 m 156.504 183.738 151.023 192.457 151.996 203.148 c 152.766
 211.582 157.625 217.793 166.449 221.617 c 169.406 222.898 171.652 223.922
 176 223.922 c 182.812 223.922 189.664 220.668 194.438 214.723 c 209.566
 195.871 188.734 172.277 170.379 179.633 c h
185.668 207.684 m 182.746 211.324 177.301 214.152 172.16 211.883 c 169.867
 210.617 163.828 209.059 163.195 202.129 c 162.398 193.355 169.961 191.906
 174.496 190.109 c 183.363 187.305 193.141 198.367 185.668 207.684 c h
185.668 207.684 m f
310.746 115.238 m 306.195 119.156 299.348 125.547 291.789 134.316 c 289.762
 136.672 290.023 140.223 292.379 142.25 c 294.73 144.277 298.281 144.012
 300.309 141.66 c 308.395 132.277 315.664 125.766 319.707 122.398 c 346.5
 141.82 383.633 122.641 383.996 90.035 c 384.125 78.617 379.395 67.613 371.016
 59.852 c 359.555 49.223 l 357.672 25.527 338.215 6.887 314.242 6.211 c 
314.137 6.207 314.031 6.207 313.926 6.211 c 290.852 6.859 271.961 24.207
 268.906 46.602 c 258.82 47.973 249.48 52.586 242.199 59.863 c 234.922 67.145
 230.309 76.484 228.938 86.57 c 218.859 87.945 209.52 92.555 202.227 99.836
 c 194.949 107.125 190.34 116.465 188.965 126.547 c 169.809 129.199 154.027
 143.652 149.73 162.488 c 130.461 162.859 112.801 170.121 99.191 181.875
 c 69.773 174.297 47.023 157.188 32.965 143.957 c 17.461 129.371 -7.035 
146.891 1.914 166.312 c 6.324 175.891 14.586 190.305 28.906 204.582 c 31.105
 206.777 34.668 206.77 36.859 204.57 c 39.051 202.371 39.047 198.812 36.848
 196.621 c 23.711 183.516 16.152 170.348 12.125 161.609 c 8.324 153.355 
18.719 145.996 25.258 152.148 c 48.945 174.438 72.387 185.504 90.137 190.992
 c 82.434 200.207 76.93 211.066 74.113 222.637 c 66.668 219.117 59.629 215
 53.113 210.355 c 50.586 208.551 47.074 209.141 45.27 211.668 c 43.469 214.195
 44.055 217.707 46.586 219.512 c 54.488 225.148 63.102 230.062 72.23 234.152
 c 72.062 236.086 71.965 238.043 71.941 240.016 c 71.801 252.969 74.77 265.449
 80.504 276.625 c 72.727 284.91 62.715 290.152 50.715 292.195 c 41.41 293.777
 34.539 302.164 34.727 311.703 c 35.07 329.332 l 35.301 340.98 45.703 349.789
 57.234 348.125 c 75.051 345.555 91.059 339.305 104.977 329.512 c 104.977
 359.094 l 104.977 369.406 113.363 377.793 123.672 377.793 c 142.922 377.793
 l 153.23 377.793 161.617 369.402 161.617 359.094 c 161.617 319.324 l 187.039
 319.324 l 187.039 359.094 l 187.039 369.406 195.43 377.793 205.738 377.793
 c 224.984 377.793 l 235.293 377.793 243.684 369.402 243.684 359.094 c 243.684
 315.766 l 251.801 320.617 258.332 327.637 263.141 336.715 c 267.559 345.051
 277.676 348.957 286.68 345.789 c 303.312 339.934 l 314.289 336.07 319.41
 323.438 314.215 313 c 304.379 293.246 290.207 277.863 272.066 267.195 c
 275.125 258.801 276.742 249.859 276.723 240.699 c 276.688 226.93 273.062
 213.496 266.223 201.684 c 271.07 186.52 278.281 171.863 287.684 158.086
 c 289.434 155.52 288.773 152.023 286.207 150.273 c 283.641 148.52 280.145
 149.184 278.391 151.746 c 270.02 164.02 263.27 176.961 258.254 190.344 
c 256.762 188.566 254.5 186.113 252.211 183.945 c 240.262 172.629 238.508
 154.371 248.137 141.48 c 253.828 133.863 260.117 126.594 266.836 119.871
 c 273.043 113.664 281.176 110.074 289.898 109.648 c 297.578 109.277 304.777
 111.371 310.746 115.238 c h
55.629 336.996 m 50.73 337.699 46.414 333.965 46.316 329.113 c 45.969 311.484
 l 45.891 307.465 48.742 303.938 52.602 303.281 c 66.004 301.004 77.406 
295.371 86.555 286.52 c 91.625 293.57 97.859 299.797 104.977 304.855 c 104.977
 315.332 l 91.098 326.984 74.508 334.27 55.629 336.996 c h
304.148 318.012 m 306.336 322.41 304.199 327.703 299.578 329.328 c 282.945
 335.18 l 279.156 336.516 274.914 334.91 273.082 331.453 c 266.395 318.828
 256.883 309.461 244.789 303.582 c 253.969 296.762 261.797 287.941 267.43
 277.512 c 283.164 287.043 295.496 300.645 304.148 318.012 c h
258.883 111.922 m 251.785 119.023 245.137 126.707 239.129 134.754 c 226.09
 152.215 228.387 176.871 244.48 192.113 c 257.73 204.676 265.43 222.086 
265.477 240.727 c 265.531 263.762 253.512 284.48 234.957 296.742 c 233.383
 297.785 232.438 299.547 232.438 301.434 c 232.438 359.094 l 232.438 363.203
 229.094 366.547 224.988 366.547 c 205.738 366.547 l 201.629 366.547 198.289
 363.203 198.289 359.094 c 198.289 313.699 l 198.289 310.594 195.77 308.078
 192.664 308.078 c 155.996 308.078 l 152.891 308.078 150.371 310.594 150.371
 313.699 c 150.371 359.094 l 150.371 363.203 147.031 366.547 142.922 366.547
 c 123.676 366.547 l 119.566 366.547 116.223 363.203 116.223 359.094 c 116.223
 342.297 116.223 319.457 116.223 301.883 c 116.223 299.984 115.266 298.215
 113.676 297.176 c 95.047 285 82.93 263.984 83.191 240.137 c 83.586 203.863
 113.805 173.719 151.289 173.719 c 154.465 173.719 l 157.32 173.719 159.723
 171.578 160.051 168.742 c 162.062 151.348 176.801 137.859 194.332 137.371
 c 197.312 137.285 199.711 134.891 199.793 131.906 c 200.051 122.805 203.742
 114.234 210.18 107.789 c 216.633 101.348 225.199 97.656 234.301 97.398 
c 237.285 97.316 239.68 94.918 239.766 91.938 c 240.023 82.824 243.711 74.258
 250.152 67.816 c 256.594 61.375 265.16 57.684 274.273 57.43 c 277.27 57.344
 279.664 54.918 279.734 51.938 c 280.277 33.18 295.344 18.066 314.086 17.457
 c 332.824 18.066 347.91 33.141 348.441 51.957 c 348.484 53.469 349.133 
54.895 350.238 55.922 c 363.367 68.098 l 363.367 68.098 363.367 68.102 363.371
 68.102 c 369.426 73.707 372.844 81.656 372.75 89.91 c 372.641 99.879 367.402
 109.383 358.504 114.707 c 352.43 112.434 348.328 106.652 348.328 100.004
 c 348.328 96.895 345.812 94.379 342.707 94.379 c 339.602 94.379 337.082
 96.895 337.082 100.004 c 337.082 107.266 339.938 113.934 344.703 118.828
 c 336.77 119.156 329.238 116.309 323.617 111.102 c 314.945 102.887 303.594
 98.359 291.652 98.359 c 279.266 98.359 267.629 103.176 258.883 111.922 
c h
258.883 111.922 m f
Q Q
showpage
%%Trailer
end
%%EOF
