%!PS-Adobe-3.0 EPSF-3.0
%%Creator: cairo 1.16.0 (https://cairographics.org)
%%CreationDate: Mon Aug 23 08:35:16 2021
%%Pages: 1
%%DocumentData: Clean7Bit
%%LanguageLevel: 2
%%BoundingBox: 3 0 381 384
%%EndComments
%%BeginProlog
50 dict begin
/q { gsave } bind def
/Q { grestore } bind def
/cm { 6 array astore concat } bind def
/w { setlinewidth } bind def
/J { setlinecap } bind def
/j { setlinejoin } bind def
/M { setmiterlimit } bind def
/d { setdash } bind def
/m { moveto } bind def
/l { lineto } bind def
/c { curveto } bind def
/h { closepath } bind def
/re { exch dup neg 3 1 roll 5 3 roll moveto 0 rlineto
      0 exch rlineto 0 rlineto closepath } bind def
/S { stroke } bind def
/f { fill } bind def
/f* { eofill } bind def
/n { newpath } bind def
/W { clip } bind def
/W* { eoclip } bind def
/BT { } bind def
/ET { } bind def
/BDC { mark 3 1 roll /BDC pdfmark } bind def
/EMC { mark /EMC pdfmark } bind def
/cairo_store_point { /cairo_point_y exch def /cairo_point_x exch def } def
/Tj { show currentpoint cairo_store_point } bind def
/TJ {
  {
    dup
    type /stringtype eq
    { show } { -0.001 mul 0 cairo_font_matrix dtransform rmoveto } ifelse
  } forall
  currentpoint cairo_store_point
} bind def
/cairo_selectfont { cairo_font_matrix aload pop pop pop 0 0 6 array astore
    cairo_font exch selectfont cairo_point_x cairo_point_y moveto } bind def
/Tf { pop /cairo_font exch def /cairo_font_matrix where
      { pop cairo_selectfont } if } bind def
/Td { matrix translate cairo_font_matrix matrix concatmatrix dup
      /cairo_font_matrix exch def dup 4 get exch 5 get cairo_store_point
      /cairo_font where { pop cairo_selectfont } if } bind def
/Tm { 2 copy 8 2 roll 6 array astore /cairo_font_matrix exch def
      cairo_store_point /cairo_font where { pop cairo_selectfont } if } bind def
/g { setgray } bind def
/rg { setrgbcolor } bind def
/d1 { setcachedevice } bind def
/cairo_data_source {
  CairoDataIndex CairoData length lt
    { CairoData CairoDataIndex get /CairoDataIndex CairoDataIndex 1 add def }
    { () } ifelse
} def
/cairo_flush_ascii85_file { cairo_ascii85_file status { cairo_ascii85_file flushfile } if } def
/cairo_image { image cairo_flush_ascii85_file } def
/cairo_imagemask { imagemask cairo_flush_ascii85_file } def
%%EndProlog
%%BeginSetup
%%EndSetup
%%Page: 1 1
%%BeginPageSetup
%%PageBoundingBox: 3 0 381 384
%%EndPageSetup
q 3 0 378 384 rectclip
1 0 0 -1 0 384 cm q
0.898039 0.52549 0.431373 rg
14.262 83.723 m 21.059 56.395 32.426 32.988 32.996 19.324 c 33.191 14.699
 35.723 10.48 39.609 7.973 c 48.91 1.961 61.281 8.141 62.008 19.184 c 63.258
 38.355 53.109 62.273 51.48 86.988 c 32.207 103.734 l h
14.262 83.723 m f
55.148 117.504 m 62.809 139.285 83.445 160.422 130.699 178.215 c 53.535
 204.629 l 19.73 178.926 9.387 149.465 9.266 121.25 c 32.207 103.738 l h
55.148 117.504 m f
175.895 346.555 m 179.336 350 181.438 354.777 181.352 360.055 c 181.184
 370.293 172.539 378.375 162.301 378.375 c 126.594 378.375 l 112.105 378.375
 100.352 366.629 100.352 352.133 c 100.352 347.781 101.434 343.496 103.504
 339.664 c 105.551 335.879 l 111.133 325.531 114.934 314.449 117.082 303.02
 c 102.676 288.605 l 95.355 281.285 91.711 271.707 91.711 262.129 c 91.711
 253.988 94.352 245.84 99.617 239.105 c 100.707 237.707 101.902 236.371 
103.227 235.105 c 117.93 220.996 141.223 221.234 155.637 235.648 c 171.129
 251.141 l 183.633 263.645 186.852 281.926 180.773 297.402 c 178.676 302.754
 175.461 307.773 171.129 312.109 c 171.082 312.16 l 166.918 316.324 163.172
 320.852 159.883 325.699 c 158.793 327.309 157.75 328.949 156.758 330.621
 c 154.023 335.246 157.336 341.094 162.711 341.094 c 167.863 341.094 172.52
 343.18 175.895 346.555 c h
175.895 346.555 m f
0.992157 0.94902 0.894118 rg
368.027 184.902 m 365.828 175.84 353.562 174.418 349.195 182.652 c 343.008
 194.312 333.664 206.488 321.113 208.191 c 362.922 233.094 l 362.922 233.09
 375.281 214.82 368.027 184.902 c h
368.027 184.902 m f
0.976471 0.87451 0.603922 rg
267.602 274.062 m 255.414 282.465 243.242 288.555 231.449 292.887 c 205.922
 286.566 l 205.922 236.363 l 260.906 236.363 l h
267.602 274.062 m f
0.835294 0.454902 0.356863 rg
167.383 247.395 m 155.637 235.648 l 141.223 221.234 117.93 220.996 103.227
 235.105 c 101.902 236.375 100.707 237.711 99.617 239.109 c 94.352 245.844
 91.711 253.992 91.711 262.133 c 91.711 271.707 95.355 281.285 102.676 288.605
 c 117.082 303.02 l 116.754 304.758 116.375 306.484 115.973 308.203 c 129.867
 316.363 145.242 321.68 161.191 323.824 c 164.156 319.68 167.461 315.785
 171.082 312.164 c 171.129 312.109 l 175.461 307.777 178.676 302.758 180.777
 297.402 c 186.852 281.926 183.633 263.645 171.129 251.141 c h
167.383 247.395 m f
0.976471 0.87451 0.603922 rg
137.859 297.402 m 148.785 300.277 167.91 303.812 191.125 301.82 c 205.922
 288.375 l 205.922 236.363 l 103.547 236.363 l 103.547 271.773 l h
137.859 297.402 m f
0.988235 0.792157 0.45098 rg
138.59 236.363 m 103.547 236.363 l 103.547 271.773 l 137.859 297.402 l 
148.785 300.277 167.91 303.812 191.125 301.82 c 203.582 290.5 l 174.793 
282.895 151.082 262.801 138.59 236.363 c h
138.59 236.363 m f
0.992157 0.913725 0.815686 rg
353.715 195.633 m 353.715 188.715 356.172 182.371 360.258 177.426 c 356.148
 176.602 351.535 178.238 349.195 182.652 c 343.008 194.312 333.664 206.488
 321.113 208.191 c 362.922 233.094 l 362.922 233.094 365.949 228.609 368.129
 220.453 c 359.52 215.527 353.715 206.262 353.715 195.633 c h
353.715 195.633 m f
0.898039 0.52549 0.431373 rg
239.621 120.785 m 271.109 112.598 306.898 131.461 313.766 167.867 c 318.391
 192.398 334.148 214.082 359.465 224.656 c 373.738 230.629 379.211 248.113
 370.672 261.012 c 364.176 270.828 351.41 272.148 343 265.574 c 313.656 
242.645 l 308.227 238.398 300.359 239.125 295.801 244.477 c 291.004 250.113
 292.148 258.703 297.984 263.266 c 315.535 276.977 l 320.723 281.031 319.805
 289.203 313.805 291.914 c 304.691 296.023 294.055 294.742 286.184 288.586
 c 267.602 274.066 l 264.805 271.641 262.434 268.875 260.449 266.031 c 251.848
 253.738 236.453 248.152 221.887 251.738 c 221.887 251.836 l 221.91 253.391
 222.43 272.051 231.449 292.887 c 234.074 298.949 237.418 305.199 241.684
 311.262 c 248.156 320.465 245.945 333.188 236.73 339.66 c 227.465 346.176
 214.766 343.852 208.34 334.707 c 200.617 323.727 195.086 312.426 191.125
 301.824 c 181.133 275.102 181.117 252.855 181.125 251.566 c 181.125 251.566
 154.871 256.547 124.465 247.395 c 56.699 239.109 l 26.008 190.141 74.254
 128.523 128.703 145.07 c 143.457 171.535 l 159.828 159.117 l 185.426 171.406
 l 206.855 143.074 l 206.91 143.008 206.965 142.938 207.027 142.867 c 230.359
 150.027 l h
239.621 120.785 m f
0.992157 0.94902 0.894118 rg
275.781 208.09 m 286.938 213.773 292.312 225.586 287.785 234.469 c 283.258
 243.355 270.543 245.949 259.387 240.262 c 248.23 234.578 242.855 222.77
 247.383 213.883 c 251.91 205 264.625 202.406 275.781 208.09 c h
275.781 208.09 m f
0.976471 0.87451 0.603922 rg
55.148 117.504 m 34.961 126.422 18.285 123.961 9.266 121.25 c 9.211 108.312
 11.305 95.645 14.262 83.723 c 22.18 86.973 35.055 90.172 51.48 86.988 c
 50.816 97.121 51.582 107.387 55.148 117.504 c h
55.148 117.504 m f
247.84 178.227 m 245.145 179.531 242 179.629 239.258 178.434 c 223.188 
171.406 212.043 158.129 207.027 142.867 c 215.98 131.121 227.48 123.945 
239.621 120.785 c 238.191 135.445 242.262 150.438 251.516 162.484 c 255.547
 167.734 253.801 175.352 247.84 178.227 c h
247.84 178.227 m f
0.835294 0.454902 0.356863 rg
129.031 193.609 m 129.031 180.922 131.395 168.785 135.699 157.613 c 128.707
 145.066 l 74.258 128.523 26.008 190.141 56.699 239.109 c 124.465 247.395
 l 132.723 249.879 140.668 251.316 147.871 252.102 c 136.02 235.641 129.031
 215.441 129.031 193.609 c h
129.031 193.609 m f
0.976471 0.87451 0.603922 rg
157.258 186.109 m 158.172 192.668 152.895 198.43 146.293 197.98 c 143.305
 197.781 140.523 196.32 138.73 193.926 c 127.777 179.277 124.836 161.355
 128.707 145.07 c 132.02 146.066 135.348 147.355 138.691 148.961 c 159.832
 159.117 l 156.934 167.652 155.977 176.879 157.258 186.109 c h
157.258 186.109 m f
103.426 228.855 m 102.406 220.66 103.086 212.211 105.629 204.066 c 107.602
 197.746 103.34 191.199 96.746 190.555 c 93.77 190.266 90.785 191.254 88.625
 193.324 c 78.59 202.949 72.812 215.195 71.125 227.855 c h
103.426 228.855 m f
0.952941 0.615686 0.521569 rg
119.793 341.094 m 114.418 341.094 111.105 335.246 113.844 330.621 c 114.832
 328.949 115.875 327.309 116.965 325.703 c 120.258 320.852 124.004 316.324
 128.164 312.164 c 128.211 312.109 l 132.543 307.777 135.758 302.758 137.859
 297.402 c 143.938 281.926 140.715 263.645 128.211 251.141 c 112.719 235.648
 l 98.309 221.238 75.012 220.996 60.309 235.109 c 58.988 236.375 57.789 
237.711 56.703 239.109 c 51.434 245.844 48.793 253.992 48.793 262.133 c 
48.793 271.707 52.438 281.285 59.762 288.609 c 74.164 303.02 l 72.016 314.449
 68.219 325.531 62.633 335.883 c 60.586 339.668 l 58.516 343.496 57.434 
347.785 57.434 352.133 c 57.434 366.629 69.191 378.375 83.68 378.375 c 119.383
 378.375 l 129.625 378.375 138.266 370.297 138.434 360.059 c 138.523 354.781
 136.422 350 132.977 346.555 c 129.602 343.18 124.945 341.094 119.793 341.094
 c h
119.793 341.094 m f
0 g
286.18 204.5 m 282.547 211.633 l 281.133 214.398 282.234 217.785 285.004
 219.195 c 287.766 220.605 291.152 219.516 292.566 216.742 c 295.77 210.465
 l 297.344 211.883 l 299.652 213.961 303.211 213.777 305.289 211.469 c 307.367
 209.16 307.18 205.605 304.875 203.523 c 290.578 190.648 l 288.27 188.566
 284.711 188.754 282.633 191.062 c 280.555 193.371 280.738 196.926 283.047
 199.004 c 287.391 202.918 l 286.91 203.359 286.496 203.883 286.18 204.5
 c h
286.18 204.5 m f
372.07 226.703 m 375.176 217.906 378.184 202.949 373.484 183.578 c 370.062
 169.465 350.996 167.246 344.223 180.02 c 340.48 187.066 336.359 192.676
 332.125 196.535 c 325.793 187.996 321.383 177.938 319.289 166.828 c 316.527
 152.184 309.277 139.359 298.328 129.746 c 295.992 127.695 292.441 127.926
 290.391 130.262 c 288.34 132.594 288.57 136.148 290.906 138.199 c 299.949
 146.141 305.941 156.758 308.234 168.914 c 317.379 217.398 358.086 229.57
 361.809 232.508 c 369.465 238.559 371.48 249.586 365.973 257.906 c 361.418
 264.789 352.469 265.84 346.457 261.141 c 317.121 238.215 l 309.25 232.059
 298.004 233.207 291.516 240.828 c 284.562 249 286.266 261.242 294.52 267.695
 c 312.066 281.402 l 313.938 282.863 313.617 285.816 311.488 286.781 c 304.258
 290.039 295.891 289.031 289.645 284.148 c 271.223 269.383 270 269.891 265.059
 262.805 c 255.246 248.781 237.355 242.137 220.547 246.27 c 216.402 247.289
 216.293 251.75 216.266 251.832 c 216.266 269.711 223.875 295.707 237.082
 314.488 c 241.773 321.16 240.176 330.359 233.496 335.051 c 226.75 339.797
 217.574 338.051 212.945 331.465 c 196.418 307.965 186.598 275.812 186.754
 251.598 c 186.773 248.309 183.902 245.379 179.988 246.055 c 166.781 248.406
 145.957 247.734 127.426 242.391 c 116.707 231.668 l 114.277 229.242 111.602
 227.145 108.746 225.387 c 108.258 218.723 109.016 212.125 111.008 205.742
 c 112.461 201.082 111.754 196.078 109.062 192.023 c 103.531 183.68 91.801
 182.496 84.742 189.266 c 74.883 198.723 68.461 210.703 66.047 224.062 c
 63.207 225.574 60.246 227.637 57.945 229.656 c 53.27 219.703 52.055 209.785
 53.09 200.605 c 53.098 200.547 53.113 200.492 53.117 200.438 c 56.703 168.543
 87.566 141.855 122.191 149.195 c 118.57 173.215 130.18 194.527 136.816 
199.992 c 143.254 205.297 152.875 204.777 158.676 198.555 c 161.977 195.008
 163.512 190.188 162.836 185.336 c 162.008 179.359 162.227 173.09 163.48
 167.105 c 182.996 176.477 l 185.41 177.633 188.301 176.934 189.918 174.801
 c 205.625 154.039 l 214.652 172.09 233.613 184.035 241.773 184.82 c 249.676
 185.59 257.008 180.5 258.887 172.605 c 260.012 167.871 258.953 162.934 
255.977 159.059 c 248.832 149.754 244.703 138.051 244.992 125.371 c 254.766
 123.629 265.129 124.645 274.59 128.316 c 277.488 129.441 280.742 128.008
 281.867 125.109 c 282.992 122.215 281.559 118.957 278.66 117.832 c 265.73
 112.809 251.363 111.926 238.207 115.348 c 238.207 115.348 238.203 115.348
 238.203 115.348 c 207.395 123.367 197.41 149 183.719 164.344 c 141.137 
143.895 l 137.594 142.191 133.965 140.777 130.352 139.691 c 130.352 139.691
 130.352 139.688 130.348 139.688 c 130.344 139.688 130.34 139.688 130.336
 139.684 c 130.328 139.684 130.324 139.684 130.32 139.68 c 113.703 134.641
 96.27 135.973 80.492 143.98 c 70.711 135.371 64.137 126.07 60.469 115.641
 c 60.469 115.641 60.469 115.641 60.465 115.641 c 60.465 115.641 60.465 
115.641 60.465 115.637 c 57.508 107.25 56.41 98 57.105 87.363 c 57.105 87.363
 57.105 87.363 57.105 87.359 c 58.703 63.16 68.957 39.125 67.633 18.828 
c 67.156 11.645 63.027 5.422 56.586 2.184 c 43.293 -4.5 27.98 5.016 27.391
 19.102 c 26.871 31.496 15.566 55.23 8.816 82.371 c 8.816 82.375 8.812 82.379
 8.812 82.383 c 5.293 96.582 3.602 109.301 3.652 121.273 c 3.652 121.281
 l 3.703 132.926 5.465 144.066 8.883 154.391 c 9.863 157.34 13.043 158.941
 15.992 157.961 c 18.941 156.984 20.539 153.801 19.562 150.855 c 17.219 
143.777 15.75 136.25 15.176 128.391 c 26.629 130.363 39.273 129.398 52.027
 124.82 c 56.141 134.004 62.25 142.359 70.527 150.137 c 57.812 159.562 48.195
 173.137 43.898 188.891 c 37.797 182.863 32.629 176.477 28.484 169.82 c 
26.844 167.184 23.375 166.379 20.738 168.02 c 18.102 169.664 17.297 173.133
 18.938 175.77 c 24.793 185.172 32.434 194.043 41.672 202.184 c 40.832 214.867
 43.707 227.438 50.031 238.824 c 39.379 255.395 41.039 277.824 55.793 292.578
 c 68.066 304.859 l 65.906 314.918 62.422 324.441 57.695 333.199 c 56.75
 335.398 51.82 341.73 51.82 352.121 c 51.82 369.695 66.117 383.988 83.688
 383.988 c 121.117 383.906 119.699 384.176 122.766 383.754 c 126.211 384.168
 124.992 383.91 162.305 383.988 c 175.695 383.988 186.762 373.289 186.98
 360.141 c 187.207 346.43 176.148 335.461 162.715 335.461 c 161.699 335.461
 161.082 334.367 161.605 333.48 c 162.531 331.914 163.52 330.359 164.543
 328.852 c 171.969 317.902 176.48 316.004 181.641 307.965 c 183.531 307.918
 185.449 307.84 187.398 307.723 c 191.785 318.578 197.27 328.727 203.742
 337.934 c 211.977 349.656 228.18 352.543 239.965 344.254 c 251.727 335.992
 254.555 319.777 246.285 308.016 c 243.641 304.258 241.234 300.207 239.086
 295.93 c 248.836 291.922 258.301 286.914 267.34 280.992 c 282.719 293.008
 l 292.262 300.477 305.059 302.016 316.117 297.031 c 325.961 292.586 327.527
 279.203 318.992 272.539 c 301.449 258.832 l 298.137 256.242 297.355 251.324
 300.082 248.121 c 302.645 245.105 307.086 244.645 310.191 247.078 c 339.527
 270.004 l 350.547 278.617 367.062 276.645 375.352 264.113 c 383.137 252.359
 381.656 236.887 372.07 226.703 c h
233.746 128.719 m 234.18 142.418 239.09 155.602 247.051 165.914 c 247.75
 166.82 248.094 167.934 248.07 168.93 c 248.043 171.754 245.633 173.848 
242.941 173.637 c 240.617 173.457 221.703 165.172 213.391 143.93 c 219.09
 137.172 226.004 132.016 233.746 128.719 c h
153.086 162.117 m 151.016 170.273 150.578 178.875 151.695 186.887 c 151.695
 186.914 151.695 186.945 151.699 186.973 c 151.875 188.41 151.422 189.832
 150.441 190.883 c 148.367 193.109 144.867 192.73 143.242 190.559 c 135.23
 179.84 131.492 166.285 133.094 152.613 c 135.84 153.758 136.207 154.039
 153.086 162.117 c h
14.969 116.906 m 14.969 116.906 14.969 116.906 14.969 116.902 c 15.238 
108.84 16.348 100.328 18.336 91.113 c 26.93 93.602 35.953 94.543 45.652 
93.543 c 45.664 100.93 46.523 107.766 48.254 114.219 c 37.602 118.066 26.137
 119.258 14.969 116.906 c h
38.629 19.57 m 38.883 13.562 45.613 9.258 51.535 12.234 c 54.375 13.66 
56.199 16.402 56.406 19.562 c 57.508 36.434 48.668 58.832 46.262 82.133 
c 37.332 83.297 28.855 82.582 21.016 80.172 c 27.91 54.859 38.047 33.535
 38.629 19.57 c h
183.379 296.664 m 170.875 297.145 157.73 296.086 145.051 293.336 c 148.059
 281.16 146.281 267.855 139.59 256.652 c 151.809 258.699 164.652 259.039
 175.746 257.945 c 176.562 269.887 179.188 283.762 183.379 296.664 c h
92.527 197.387 m 94.488 195.508 97.996 195.691 99.688 198.242 c 100.496
 199.461 100.707 200.977 100.266 202.391 c 98.422 208.305 97.449 214.363
 97.355 220.496 c 90.988 218.801 84.594 218.625 78.664 219.707 c 81.297 
211.25 86 203.648 92.527 197.387 c h
63.07 352.125 m 63.07 344.938 66.535 340.922 67.594 338.547 c 73.324 327.926
 77.398 316.32 79.703 304.051 c 80.043 302.227 79.465 300.352 78.152 299.039
 c 63.746 284.625 l 52.102 272.98 51.527 254.863 61.152 242.562 c 72.758
 227.652 95.211 226.102 108.75 239.625 c 124.137 255.012 131.156 260.066
 134.219 273.008 c 135.926 280.246 135.504 288.027 132.629 295.344 c 128.859
 304.953 124.242 307.285 117.34 315.793 c 114.34 319.492 111.578 323.41 
109.012 327.75 c 104.055 336.125 110.074 346.711 119.801 346.711 c 121.199
 346.711 122.562 346.941 123.852 347.363 c 129.094 349.074 132.918 354.02
 132.816 359.953 c 132.816 359.973 132.816 359.992 132.816 360.008 c 132.664
 367.184 126.477 372.742 119.391 372.742 c 83.691 372.742 l 72.32 372.742
 63.07 363.492 63.07 352.125 c h
155.238 322.535 m 151.266 328.375 147.926 333.551 151.82 340.383 c 154.078
 344.348 158.152 346.711 162.715 346.711 c 169.93 346.711 175.855 352.598
 175.73 359.953 c 175.613 367.004 169.594 372.742 162.305 372.742 c 140.203
 372.742 l 142.531 369.16 143.988 364.715 144.066 360.141 c 144.242 349.445
 137.477 340.25 127.992 336.875 c 125.398 335.945 122.637 335.465 119.801
 335.465 c 118.789 335.465 118.168 334.367 118.691 333.48 c 122.559 326.949
 127.133 321.152 132.148 316.133 c 137.969 310.34 140.84 304.293 141.059
 303.973 c 149.477 305.883 158.23 307.176 167.547 307.73 c 163.125 312.277
 159.516 316.223 155.238 322.535 c h
234.59 285.629 m 231.125 276.41 228.715 265.98 227.812 256.43 c 238.734
 255.43 249.574 260.297 255.84 269.254 c 255.855 269.273 l 256.664 270.43
 257.793 271.91 258.812 273.121 c 251.02 278.035 242.91 282.223 234.59 285.629
 c h
354.16 185.293 m 356.098 181.637 361.57 182.172 362.555 186.227 c 366.078
 200.77 364.617 212.25 362.461 219.832 c 353.992 215.996 347.578 212.797
 339.555 204.996 c 344.832 200.242 349.73 193.641 354.16 185.293 c h
354.16 185.293 m f
Q Q
showpage
%%Trailer
end
%%EOF
