%!PS-Adobe-3.0 EPSF-3.0
%%Creator: cairo 1.16.0 (https://cairographics.org)
%%CreationDate: Mon Aug 23 08:35:17 2021
%%Pages: 1
%%DocumentData: Clean7Bit
%%LanguageLevel: 2
%%BoundingBox: 0 0 384 384
%%EndComments
%%BeginProlog
50 dict begin
/q { gsave } bind def
/Q { grestore } bind def
/cm { 6 array astore concat } bind def
/w { setlinewidth } bind def
/J { setlinecap } bind def
/j { setlinejoin } bind def
/M { setmiterlimit } bind def
/d { setdash } bind def
/m { moveto } bind def
/l { lineto } bind def
/c { curveto } bind def
/h { closepath } bind def
/re { exch dup neg 3 1 roll 5 3 roll moveto 0 rlineto
      0 exch rlineto 0 rlineto closepath } bind def
/S { stroke } bind def
/f { fill } bind def
/f* { eofill } bind def
/n { newpath } bind def
/W { clip } bind def
/W* { eoclip } bind def
/BT { } bind def
/ET { } bind def
/BDC { mark 3 1 roll /BDC pdfmark } bind def
/EMC { mark /EMC pdfmark } bind def
/cairo_store_point { /cairo_point_y exch def /cairo_point_x exch def } def
/Tj { show currentpoint cairo_store_point } bind def
/TJ {
  {
    dup
    type /stringtype eq
    { show } { -0.001 mul 0 cairo_font_matrix dtransform rmoveto } ifelse
  } forall
  currentpoint cairo_store_point
} bind def
/cairo_selectfont { cairo_font_matrix aload pop pop pop 0 0 6 array astore
    cairo_font exch selectfont cairo_point_x cairo_point_y moveto } bind def
/Tf { pop /cairo_font exch def /cairo_font_matrix where
      { pop cairo_selectfont } if } bind def
/Td { matrix translate cairo_font_matrix matrix concatmatrix dup
      /cairo_font_matrix exch def dup 4 get exch 5 get cairo_store_point
      /cairo_font where { pop cairo_selectfont } if } bind def
/Tm { 2 copy 8 2 roll 6 array astore /cairo_font_matrix exch def
      cairo_store_point /cairo_font where { pop cairo_selectfont } if } bind def
/g { setgray } bind def
/rg { setrgbcolor } bind def
/d1 { setcachedevice } bind def
/cairo_data_source {
  CairoDataIndex CairoData length lt
    { CairoData CairoDataIndex get /CairoDataIndex CairoDataIndex 1 add def }
    { () } ifelse
} def
/cairo_flush_ascii85_file { cairo_ascii85_file status { cairo_ascii85_file flushfile } if } def
/cairo_image { image cairo_flush_ascii85_file } def
/cairo_imagemask { imagemask cairo_flush_ascii85_file } def
%%EndProlog
%%BeginSetup
%%EndSetup
%%Page: 1 1
%%BeginPageSetup
%%PageBoundingBox: 0 0 384 384
%%EndPageSetup
q 0 0 384 384 rectclip
1 0 0 -1 0 384 cm q
0.505882 0.807843 0.941176 rg
371.234 314.406 m 346.406 301.699 334.453 280.449 334.453 280.449 c 310.855
 317.641 l 310.855 317.641 323.645 340.367 350.23 352.867 c 356.152 355.652
 363.223 353.629 366.73 348.102 c 376.363 332.922 l 380.469 326.449 378.059
 317.898 371.234 314.406 c h
371.234 314.406 m f
0.67451 0.862745 0.941176 rg
262.211 302.766 m 262.211 363.895 l 262.211 371.586 268.445 377.82 276.133
 377.82 c 296.93 377.82 l 304.621 377.82 310.855 371.586 310.855 363.895
 c 310.855 302.766 l h
262.211 302.766 m f
0.505882 0.807843 0.941176 rg
168.121 286.703 m 166.391 286.785 167.223 286.723 144.223 285.684 c 141.348
 285.273 108.309 286.281 73.07 267.48 c 43.129 251.5 20.574 227.152 6.883
 198.262 c 3.805 191.766 6.574 184.004 13.07 180.922 c 19.176 178.031 26.398
 180.301 29.805 185.977 c 29.922 186.18 l 43.371 208.777 63.258 226.371 
87.852 236.66 c 113.645 247.445 134.766 246.5 166.148 244.355 c h
168.121 286.703 m f
0.937255 0.501961 0.498039 rg
345.738 52.672 m 345.738 73.969 320.547 83.309 299.246 83.309 c 277.949
 83.309 260.684 66.043 260.684 44.746 c 260.684 23.445 277.949 6.18 299.246
 6.18 c 320.547 6.18 345.738 31.375 345.738 52.672 c h
345.738 52.672 m f
0.443137 0.772549 0.921569 rg
168.121 286.707 m 166.148 244.355 l 149.945 245.465 136.477 246.246 123.691
 245.262 c 122.07 251.867 121.23 258.672 121.23 265.531 c 121.23 271.77 
121.902 277.906 123.207 283.859 c 134.91 285.609 142.875 285.492 144.219
 285.684 c 167.223 286.723 166.391 286.785 168.121 286.707 c h
168.121 286.707 m f
334.453 280.449 m 310.855 317.641 l 310.855 317.641 315.551 325.969 325.145
 335.312 c 337.734 327.641 348.57 317.371 356.926 305.262 c 341.797 293.5
 334.453 280.449 334.453 280.449 c h
334.453 280.449 m f
0.92549 0.415686 0.384314 rg
321.504 69.18 m 302.973 69.18 287.953 54.16 287.953 35.629 c 287.953 23.289
 294.617 12.516 304.535 6.688 c 302.758 6.367 300.988 6.18 299.25 6.18 c
 277.949 6.18 260.688 23.445 260.688 44.746 c 260.688 66.043 277.949 83.309
 299.25 83.309 c h
321.504 69.18 m f
0.67451 0.862745 0.941176 rg
300.547 51.195 m 276.559 51.195 256.363 67.355 250.211 89.379 c 238.793
 89.379 l 222.969 89.379 209.617 102.324 209.727 118.145 c 209.785 125.945
 212.973 133.004 218.09 138.129 c 223.258 143.289 230.402 146.488 238.285
 146.488 c 269.938 146.488 l 269.938 185.062 l 269.938 195.016 261.871 203.086
 251.914 203.086 c 239.117 227.578 l 226.316 203.086 l 206.184 203.086 l
 203.973 203.086 201.793 203.195 199.641 203.422 c 186.84 227.746 l 174.039
 211.984 l 155.879 222.902 143.73 242.793 143.73 265.531 c 143.73 282.77
 150.719 298.387 162.023 309.688 c 166.914 314.574 172.609 318.648 178.895
 321.707 c 178.895 363.895 l 178.895 371.586 185.129 377.82 192.82 377.82
 c 213.617 377.82 l 221.309 377.82 227.543 371.586 227.543 363.895 c 227.543
 327.98 l 271.039 327.98 l 316.199 327.98 352.816 291.363 352.816 246.195
 c 352.816 103.461 l 352.816 74.598 329.418 51.195 300.547 51.195 c h
300.547 51.195 m f
0.937255 0.501961 0.498039 rg
251.914 203.086 m 251.914 239.273 l 251.914 242.809 250.48 246.004 248.164
 248.32 c 245.848 250.637 242.652 252.07 239.117 252.07 c 232.047 252.07
 226.316 246.34 226.316 239.273 c 226.316 203.082 l 251.914 203.082 l h
251.914 203.086 m f
0.505882 0.807843 0.941176 rg
209.34 249.121 m 209.34 232.938 211.867 217.43 216.59 203.086 c 206.184
 203.086 l 203.973 203.086 201.793 203.195 199.641 203.422 c 186.84 227.746
 l 174.039 211.984 l 155.883 222.902 143.73 242.793 143.73 265.531 c 143.73
 282.77 150.719 298.387 162.023 309.684 c 166.914 314.574 172.613 318.648
 178.895 321.707 c 178.895 363.895 l 178.895 371.586 185.129 377.82 192.82
 377.82 c 213.617 377.82 l 221.309 377.82 227.543 371.586 227.543 363.895
 c 227.543 327.977 l 227.938 327.977 l 215.168 305.91 209.34 278.641 209.34
 249.121 c h
209.34 249.121 m f
0.937255 0.501961 0.498039 rg
199.641 203.422 m 199.641 239.273 l 199.641 242.809 198.203 246.008 195.891
 248.32 c 193.57 250.641 190.375 252.074 186.84 252.074 c 179.77 252.074
 174.039 246.34 174.039 239.273 c 174.039 211.984 l 181.668 207.395 190.352
 204.391 199.641 203.422 c h
199.641 203.422 m f
0 g
272.719 112.883 m 270.379 110.844 266.824 111.086 264.781 113.43 c 262.715
 115.805 259.727 117.164 256.586 117.164 c 253.449 117.164 250.461 115.805
 248.391 113.43 c 246.352 111.086 242.797 110.844 240.457 112.883 c 238.113
 114.926 237.871 118.477 239.91 120.82 c 244.117 125.645 250.195 128.414
 256.586 128.414 c 262.98 128.414 269.059 125.645 273.266 120.82 c 275.305
 118.477 275.062 114.926 272.719 112.883 c h
272.719 112.883 m f
283.227 96.41 m 283.227 88.094 l 283.227 84.988 280.711 82.469 277.602 
82.469 c 274.496 82.469 271.977 84.988 271.977 88.094 c 271.977 96.41 l 
271.977 99.516 274.496 102.035 277.602 102.035 c 280.711 102.035 283.227
 99.516 283.227 96.41 c h
283.227 96.41 m f
308.621 88.094 m 308.621 96.41 l 308.621 99.516 311.141 102.035 314.246
 102.035 c 317.355 102.035 319.871 99.516 319.871 96.41 c 319.871 88.094
 l 319.871 84.988 317.355 82.469 314.246 82.469 c 311.141 82.469 308.621
 84.988 308.621 88.094 c h
308.621 88.094 m f
276.137 383.441 m 296.93 383.441 l 307.711 383.441 316.48 374.672 316.48
 363.891 c 316.48 334.438 l 323.398 342.105 333.785 351.348 347.836 357.957
 c 356.266 361.918 366.449 359.043 371.48 351.113 c 381.113 335.934 l 387.02
 326.625 383.52 314.371 373.797 309.395 c 361.953 303.332 353.211 295.188
 347.445 288.586 c 354.531 275.82 358.441 261.277 358.441 246.191 c 358.441
 155.5 l 358.441 152.395 355.922 149.875 352.816 149.875 c 349.711 149.875
 347.191 152.395 347.191 155.5 c 347.191 246.191 l 347.191 273.484 332.52
 299.023 308.117 312.723 c 308.117 312.723 308.117 312.723 308.113 312.723
 c 308.02 312.82 305.23 314.352 305.23 317.637 c 305.23 363.891 l 305.23
 368.469 301.508 372.191 296.93 372.191 c 276.137 372.191 l 271.559 372.191
 267.836 368.469 267.836 363.891 c 267.836 327.977 l 267.836 324.871 265.316
 322.352 262.211 322.352 c 227.543 322.352 l 224.438 322.352 221.918 324.871
 221.918 327.977 c 221.918 363.891 l 221.918 368.469 218.195 372.191 213.617
 372.191 c 192.824 372.191 l 188.246 372.191 184.523 368.469 184.523 363.891
 c 184.523 321.703 l 184.523 319.551 183.293 317.59 181.359 316.648 c 162.48
 307.457 149.359 288.121 149.359 265.527 c 149.359 249.566 155.965 234.043
 168.418 223.043 c 168.418 239.273 l 168.418 249.43 176.68 257.695 186.84
 257.695 c 197.031 257.695 205.266 249.43 205.266 239.273 c 205.266 208.715
 l 206.027 208.703 205.656 208.711 220.691 208.707 c 220.691 239.273 l 220.691
 249.43 228.957 257.695 239.117 257.695 c 244.195 257.695 248.797 255.648
 252.145 252.297 c 255.609 248.84 257.543 244.199 257.543 239.273 c 257.543
 208.035 l 267.875 205.504 275.566 196.164 275.566 185.062 c 275.566 146.488
 l 275.566 143.383 273.047 140.863 269.941 140.863 c 238.285 140.863 l 225.664
 140.863 215.445 130.695 215.352 118.105 c 215.262 105.285 226.223 95.004
 238.793 95.004 c 250.211 95.004 l 252.738 95.004 254.953 93.324 255.629
 90.891 c 261.27 70.699 279.855 56.82 300.547 56.82 c 326.148 56.82 347.191
 77.664 347.191 103.465 c 347.191 133.527 l 347.191 136.633 349.707 139.152
 352.816 139.152 c 355.922 139.152 358.441 136.633 358.441 133.527 c 358.441
 103.465 l 358.441 90.398 354.086 78.332 346.754 68.633 c 349.812 63.867
 351.363 58.52 351.363 52.676 c 351.363 28.32 323.602 0.559 299.25 0.559
 c 274.883 0.559 255.062 20.383 255.062 44.746 c 255.062 51.109 256.438 
57.383 259.07 63.133 c 253.426 68.914 248.953 75.902 246.113 83.754 c 238.793
 83.754 l 220.16 83.754 203.969 98.949 204.105 118.184 c 204.238 136.934
 219.449 152.113 238.289 152.113 c 264.316 152.113 l 264.316 185.062 l 264.316
 191.898 258.754 197.461 251.918 197.461 c 251.914 197.461 251.914 197.461
 251.914 197.461 c 246.453 197.461 210.844 197.461 206.188 197.461 c 178.137
 197.461 153.195 214.668 143.016 239.984 c 118.109 240.703 96.539 237.402
 73.07 222.695 c 70.438 221.043 66.969 221.84 65.316 224.473 c 63.668 227.105
 64.465 230.578 67.098 232.227 c 90.977 247.191 113.727 251.711 139.586 
251.316 c 138.59 256.047 138.109 260.902 138.109 265.531 c 138.109 270.16
 138.602 275.039 139.621 279.82 c 80.613 276.641 34.254 242.875 11.969 195.852
 c 10.219 192.16 11.793 187.758 15.484 186.008 c 18.938 184.371 23.023 185.602
 24.965 188.84 c 26.328 190.801 33.539 204.246 48.66 218.156 c 50.945 220.258
 54.504 220.109 56.609 217.824 c 58.711 215.539 58.562 211.98 56.277 209.875
 c 42.578 197.277 36.102 185.199 34.633 183.086 c 29.68 174.828 19.375 171.715
 10.668 175.84 c 1.355 180.254 -2.609 191.359 1.805 200.672 c 26.383 252.539
 77.66 288.695 141.828 291.184 c 142.281 291.203 142.77 291.223 143.117 
291.238 c 149.004 305.684 159.77 317.656 173.273 325.121 c 173.273 363.891
 l 173.273 374.672 182.043 383.441 192.82 383.441 c 213.617 383.441 l 224.398
 383.441 233.168 374.672 233.168 363.891 c 233.168 333.602 l 256.586 333.602
 l 256.586 363.891 l 256.586 374.672 265.355 383.441 276.137 383.441 c h
341.133 298.387 m 347.566 305.309 356.703 313.285 368.672 319.41 c 372.582
 321.41 373.93 326.25 371.613 329.906 c 361.98 345.086 l 360.004 348.199
 355.98 349.355 352.621 347.773 c 335.055 339.512 323.797 326.312 318.781
 319.406 c 319.727 318.664 330.988 311.996 341.133 298.387 c h
268.121 55.516 m 266.93 52.066 266.312 48.426 266.312 44.746 c 266.312 
26.586 281.086 11.809 299.25 11.809 c 317.582 11.809 340.113 34.344 340.113
 52.676 c 340.113 55.285 339.645 57.688 338.688 59.926 c 328.582 51.074 
315.07 45.57 300.547 45.57 c 288.844 45.57 277.543 49.133 268.121 55.516
 c h
231.941 208.711 m 246.293 208.711 l 246.293 239.273 l 246.293 243.234 243.078
 246.449 239.117 246.449 c 235.176 246.449 231.941 243.242 231.941 239.273
 c h
179.668 215.262 m 184.215 212.855 189.016 211.098 194.016 210.008 c 194.016
 239.273 l 194.016 243.258 190.773 246.449 186.84 246.449 c 182.898 246.449
 179.668 243.242 179.668 239.273 c h
179.668 215.262 m f
Q Q
showpage
%%Trailer
end
%%EOF
