%!PS-Adobe-3.0 EPSF-3.0
%%Creator: cairo 1.16.0 (https://cairographics.org)
%%CreationDate: Mon Aug 23 08:35:18 2021
%%Pages: 1
%%DocumentData: Clean7Bit
%%LanguageLevel: 2
%%BoundingBox: 17 0 367 384
%%EndComments
%%BeginProlog
50 dict begin
/q { gsave } bind def
/Q { grestore } bind def
/cm { 6 array astore concat } bind def
/w { setlinewidth } bind def
/J { setlinecap } bind def
/j { setlinejoin } bind def
/M { setmiterlimit } bind def
/d { setdash } bind def
/m { moveto } bind def
/l { lineto } bind def
/c { curveto } bind def
/h { closepath } bind def
/re { exch dup neg 3 1 roll 5 3 roll moveto 0 rlineto
      0 exch rlineto 0 rlineto closepath } bind def
/S { stroke } bind def
/f { fill } bind def
/f* { eofill } bind def
/n { newpath } bind def
/W { clip } bind def
/W* { eoclip } bind def
/BT { } bind def
/ET { } bind def
/BDC { mark 3 1 roll /BDC pdfmark } bind def
/EMC { mark /EMC pdfmark } bind def
/cairo_store_point { /cairo_point_y exch def /cairo_point_x exch def } def
/Tj { show currentpoint cairo_store_point } bind def
/TJ {
  {
    dup
    type /stringtype eq
    { show } { -0.001 mul 0 cairo_font_matrix dtransform rmoveto } ifelse
  } forall
  currentpoint cairo_store_point
} bind def
/cairo_selectfont { cairo_font_matrix aload pop pop pop 0 0 6 array astore
    cairo_font exch selectfont cairo_point_x cairo_point_y moveto } bind def
/Tf { pop /cairo_font exch def /cairo_font_matrix where
      { pop cairo_selectfont } if } bind def
/Td { matrix translate cairo_font_matrix matrix concatmatrix dup
      /cairo_font_matrix exch def dup 4 get exch 5 get cairo_store_point
      /cairo_font where { pop cairo_selectfont } if } bind def
/Tm { 2 copy 8 2 roll 6 array astore /cairo_font_matrix exch def
      cairo_store_point /cairo_font where { pop cairo_selectfont } if } bind def
/g { setgray } bind def
/rg { setrgbcolor } bind def
/d1 { setcachedevice } bind def
/cairo_data_source {
  CairoDataIndex CairoData length lt
    { CairoData CairoDataIndex get /CairoDataIndex CairoDataIndex 1 add def }
    { () } ifelse
} def
/cairo_flush_ascii85_file { cairo_ascii85_file status { cairo_ascii85_file flushfile } if } def
/cairo_image { image cairo_flush_ascii85_file } def
/cairo_imagemask { imagemask cairo_flush_ascii85_file } def
%%EndProlog
%%BeginSetup
%%EndSetup
%%Page: 1 1
%%BeginPageSetup
%%PageBoundingBox: 17 0 367 384
%%EndPageSetup
q 17 0 350 384 rectclip
1 0 0 -1 0 384 cm q
0.501961 0.772549 0.690196 rg
34.375 283.945 m 44.66 264.305 68.918 256.719 88.562 267 c 108.203 277.285
 115.789 301.547 105.508 321.188 c 95.223 340.828 54.715 379.453 35.07 369.168
 c 15.43 358.883 24.09 303.59 34.375 283.945 c h
34.375 283.945 m f
0.921569 0.917647 0.960784 rg
212.602 27.527 m 204.258 48.082 l 220.832 59.25 l 226.949 63.371 235.227
 59.262 235.645 51.898 c 236.715 32.922 l h
212.602 27.527 m f
0.435294 0.74902 0.65098 rg
352.844 145.02 m 345.629 141.664 337.078 145.219 334.379 152.707 c 308.328
 224.938 249.074 206.715 249.074 206.715 c 262.633 250.777 l 262.633 250.777
 344.34 263.281 360.531 159.336 c 361.457 153.391 358.297 147.559 352.844
 145.02 c h
352.844 145.02 m f
0.313726 0.713726 0.572549 rg
45.715 340.586 m 45.715 308.367 67.27 281.188 96.746 272.672 c 94.316 270.496
 91.582 268.582 88.562 267 c 68.918 256.719 44.66 264.305 34.375 283.945
 c 24.09 303.59 15.43 358.883 35.07 369.168 c 39.695 371.59 45.477 371.297
 51.742 369.188 c 47.871 360.441 45.715 350.766 45.715 340.586 c h
45.715 340.586 m f
0.921569 0.917647 0.960784 rg
134.359 314.812 m 89.699 307.902 54.027 273.824 44.738 230 c 60.516 197.5
 l 170.215 197.5 l 170.215 293.004 l h
134.359 314.812 m f
0.313726 0.713726 0.572549 rg
292.906 203 m 270.285 213.23 249.07 206.715 249.07 206.715 c 262.633 250.777
 l 262.633 250.777 288.719 254.77 314.332 239.488 c 309.664 226.164 302.434
 213.801 292.906 203 c h
292.906 203 m f
0.435294 0.74902 0.65098 rg
217.801 316.098 m 258.113 316.098 l 280.184 316.098 298.133 298.039 298.059
 275.969 c 297.977 251.68 288.102 229.695 272.172 213.766 c 256.18 197.773
 234.086 187.879 209.676 187.879 c 133.125 187.879 l 112.922 187.879 97.75
 169.328 101.863 149.547 c 115.148 85.66 164.301 60.012 164.301 60.012 c
 131.398 44.207 l 131.398 44.207 42.371 72.23 42.371 187.879 c 42.371 207.336
 l 42.371 215.109 43.188 222.691 44.738 230 c 51.418 223.676 60.434 219.793
 70.348 219.793 c 89.992 219.793 108.105 230.863 116.629 248.566 c 127.113
 270.352 146.539 280.996 146.539 280.996 c h
217.801 316.098 m f
0.313726 0.713726 0.572549 rg
117.98 107.301 m 137.363 74.074 164.301 60.016 164.301 60.016 c 131.402
 44.207 l 131.402 44.207 116.234 48.988 98.426 62.723 c 99.695 79.422 106.508
 94.996 117.98 107.301 c h
117.98 107.301 m f
0.501961 0.772549 0.690196 rg
238.949 20.75 m 238.922 20.723 238.898 20.699 238.875 20.676 c 229.582 
11.375 216.734 5.625 202.547 5.625 c 172.844 5.625 l 144.418 5.625 120.805
 28.391 120.707 56.816 c 120.656 71.078 126.414 83.992 135.754 93.328 c 
145.047 102.629 157.895 108.379 172.082 108.379 c 202.547 108.379 l 202.621
 108.379 202.695 108.379 202.773 108.375 c 212.359 108.336 217.414 96.961
 211.148 89.703 c 198.496 75.039 l 191 66.363 193.879 52.93 204.258 48.082
 c 236.715 32.922 l 241.445 30.711 242.633 24.449 238.949 20.75 c h
238.949 20.75 m f
316.836 291.441 m 306.551 271.797 282.293 264.211 262.648 274.496 c 243.008
 284.781 235.422 309.039 245.707 328.684 c 255.988 348.324 296.5 386.949
 316.141 376.664 c 335.781 366.379 327.121 311.082 316.836 291.441 c h
316.836 291.441 m f
209.105 376.664 m 189.469 386.945 148.953 348.328 138.672 328.684 c 136.34
 324.223 134.922 319.523 134.359 314.809 c 132.875 302.34 137.359 289.727
 146.539 280.996 c 149.184 278.469 152.223 276.273 155.617 274.496 c 175.258
 264.215 199.52 271.797 209.801 291.441 c 212.836 297.242 215.73 306.152
 217.797 316.098 c 222.73 339.82 222.949 369.418 209.105 376.664 c h
209.105 376.664 m f
0.313726 0.713726 0.572549 rg
161.902 289.383 m 161.902 283.086 162.73 276.984 164.277 271.176 c 161.332
 271.934 158.426 273.027 155.617 274.496 c 152.223 276.273 149.184 278.469
 146.539 280.996 c 137.359 289.727 132.875 302.34 134.359 314.809 c 134.922
 319.523 136.34 324.223 138.672 328.684 c 148.953 348.328 189.469 386.945
 209.105 376.664 c 214.68 373.746 217.973 367.195 219.598 358.871 c 186.766
 352.77 161.902 323.98 161.902 289.383 c h
161.902 289.383 m f
268.938 289.379 m 268.938 283.086 269.766 276.984 271.309 271.176 c 268.367
 271.934 265.461 273.023 262.652 274.496 c 259.254 276.273 256.219 278.469
 253.574 280.992 c 244.395 289.727 239.91 302.34 241.395 314.809 c 241.957
 319.523 243.375 324.223 245.707 328.684 c 255.988 348.324 296.504 386.945
 316.141 376.664 c 321.715 373.746 325.008 367.195 326.633 358.871 c 293.801
 352.77 268.938 323.98 268.938 289.379 c h
268.938 289.379 m f
0 g
164.641 33.641 m 169.941 35.062 l 169.75 35.625 169.645 36.223 169.645 
36.848 c 169.645 44.617 l 169.645 47.723 172.164 50.242 175.27 50.242 c 
178.375 50.242 180.895 47.723 180.895 44.617 c 180.895 37.996 l 182.672 
38.473 l 185.68 39.281 188.762 37.488 189.562 34.496 c 190.367 31.496 188.586
 28.41 185.586 27.609 c 167.551 22.773 l 164.551 21.973 161.465 23.75 160.66
 26.754 c 159.859 29.754 161.637 32.836 164.641 33.641 c h
164.641 33.641 m f
334.285 213.551 m 332.461 216.066 333.016 219.582 335.531 221.41 c 338.043
 223.234 341.559 222.676 343.387 220.164 c 354.664 204.645 362.301 184.465
 366.082 160.191 c 367.383 151.832 362.914 143.496 355.211 139.91 c 345.008
 135.168 332.902 140.203 329.086 150.789 c 314.215 192.02 288.438 202.129
 268.672 203.051 c 252.012 189.57 231.41 182.242 209.68 182.242 c 133.137
 182.242 l 116.469 182.242 104 166.941 107.379 150.684 c 111.512 130.812
 119.648 112.812 131.562 97.066 c 131.641 97.141 131.711 97.223 131.785 
97.297 c 142.543 108.066 156.855 113.996 172.09 113.996 c 202.551 113.996
 l 202.801 113.992 l 217.156 113.934 224.836 96.941 215.41 86.023 c 202.754
 71.359 l 198.387 66.301 199.219 58.832 204.133 54.773 c 217.691 63.91 l
 227.43 70.473 240.598 63.941 241.262 52.211 c 242.176 36.004 l 247.918 
31.012 248.32 22.184 242.938 16.777 c 242.934 16.773 242.859 16.699 242.855
 16.695 c 232.098 5.93 217.785 0 202.551 0 c 172.852 0 l 145.363 0 122.262
 19.117 116.492 44.578 c 104.543 50.723 84.375 63.531 67.48 86.27 c 65.629
 88.762 66.148 92.285 68.641 94.137 c 71.133 95.992 74.656 95.473 76.508
 92.977 c 89.309 75.746 104.133 64.715 115.105 58.199 c 115.312 68.555 118.348
 78.957 124.289 88.059 c 110.426 105.656 101.039 125.934 96.367 148.391 
c 91.523 171.684 109.387 193.492 133.137 193.492 c 209.68 193.492 l 251.859
 193.492 286.48 224.977 291.738 265.48 c 281.418 263.027 270.141 264.207
 260.043 269.496 c 244.469 277.652 235.363 293.684 235.496 310.453 c 222.312
 310.453 l 220.637 303.453 218.094 295.125 214.789 288.816 c 206.852 273.648
 191.367 264.547 174.895 264.285 c 164.191 264.117 154.074 267.715 146.031
 273.996 c 135.309 266.629 126.73 256.547 121.707 246.109 c 112.363 226.695
 92.211 214.152 70.363 214.152 c 62.797 214.152 55.242 216.184 48.781 219.973
 c 47.578 210.145 48.168 204.578 48.012 187.867 c 48.012 158.93 53.777 133.125
 65.148 111.18 c 66.578 108.422 65.5 105.027 62.742 103.598 c 59.984 102.168
 56.59 103.246 55.16 106.004 c 42.953 129.566 36.762 157.109 36.762 187.867
 c 37.105 202.398 35.613 214.012 39.254 231.148 c 39.254 231.152 l 41.508
 241.801 45.277 251.891 50.289 261.215 c 41.355 265.438 34.078 272.402 29.406
 281.316 c 23.621 292.367 18.891 312.273 17.902 329.727 c 16.227 359.238
 24.902 370.16 32.477 374.125 c 46.43 381.43 64.918 370.453 77.273 360.809
 c 91.051 350.055 104.715 334.824 110.5 323.773 c 111.902 321.098 113.016
 318.309 113.863 315.445 c 118.926 317.199 124.141 318.617 129.484 319.645
 c 130.352 323.668 131.758 327.562 133.695 331.27 c 139.48 342.316 153.145
 357.547 166.926 368.305 c 179.297 377.961 197.781 388.922 211.719 381.621
 c 229.07 372.539 227.727 341.023 224.562 321.703 c 237.012 321.703 l 241.539
 338.758 260.84 358.07 273.953 368.305 c 286.328 377.965 304.805 388.918
 318.746 381.621 c 326.32 377.656 334.996 366.734 333.324 337.219 c 332.336
 319.77 327.602 299.863 321.816 288.812 c 317.602 280.766 311.246 274.297
 303.473 270.008 c 303.066 263.863 302.074 257.828 300.516 251.973 c 310.32
 248.66 319.285 243.742 327.23 237.301 c 329.641 235.344 330.012 231.801
 328.055 229.391 c 326.098 226.977 322.555 226.605 320.145 228.566 c 313.262
 234.145 305.488 238.418 296.977 241.301 c 292.855 231.004 286.906 221.457
 279.312 213.094 c 288.395 211.379 296.98 207.953 304.602 202.961 c 319.914
 192.934 331.711 176.664 339.668 154.602 c 341.246 150.227 346.234 148.141
 350.465 150.109 c 353.652 151.59 355.5 155.023 354.969 158.457 c 351.465
 180.953 344.508 199.488 334.285 213.551 c h
223.977 54.582 m 215.648 48.969 l 230.57 41.996 l 230.031 51.578 l 229.859
 54.59 226.477 56.266 223.977 54.582 c h
172.852 11.25 m 202.555 11.25 l 214.68 11.25 226.172 15.922 234.965 24.715
 c 235.918 25.672 235.516 27.273 234.336 27.824 c 201.883 42.984 l 188.113
 49.414 184.305 67.203 194.242 78.711 c 206.895 93.371 l 210.027 97.004 
207.52 102.727 202.75 102.746 c 172.09 102.746 l 143.957 102.746 122.199
 77.469 126.996 49.379 c 130.703 27.777 149.875 11.25 172.852 11.25 c h
111.57 250.988 m 117.156 262.598 126.309 273.609 137.996 282.098 c 132.41
 289.371 128.988 298.473 128.523 307.961 c 90.684 299.469 60.305 269.867
 50.992 232.035 c 56.629 227.656 63.445 225.402 70.363 225.402 c 87.914 
225.402 104.09 235.445 111.57 250.988 c h
100.535 318.559 m 96.215 326.812 84.457 340.934 70.352 351.945 c 56.277
 362.93 44.07 367.5 37.695 364.16 c 31.324 360.824 28.121 348.191 29.133
 330.363 c 30.148 312.496 35.055 294.793 39.375 286.535 c 43.059 279.496
 48.906 274.07 56.082 270.941 c 67.789 288.375 84.328 302.48 103.363 311.262
 c 102.703 313.777 101.758 316.223 100.535 318.559 c h
206.5 371.656 m 200.129 374.992 187.926 370.426 173.848 359.438 c 159.742
 348.426 147.984 334.309 143.664 326.059 c 131.691 303.152 148.227 275.867
 173.754 275.543 c 186.582 275.379 198.703 282.344 204.824 294.031 c 214.398
 312.328 221.895 363.598 206.5 371.656 c h
311.852 294.031 m 316.172 302.285 321.078 319.992 322.094 337.859 c 323.102
 355.684 319.902 368.32 313.527 371.656 c 307.156 374.992 294.949 370.426
 280.875 359.438 c 269.332 350.426 249.715 331.562 247.16 315.391 c 247.156
 315.34 247.152 315.285 247.145 315.234 c 244.996 301.098 251.824 286.5 
265.262 279.461 c 282.262 270.559 303.051 277.227 311.852 294.031 c h
311.852 294.031 m f
Q Q
showpage
%%Trailer
end
%%EOF
