%!PS-Adobe-3.0 EPSF-3.0
%%Creator: cairo 1.16.0 (https://cairographics.org)
%%CreationDate: Mon Aug 23 08:35:19 2021
%%Pages: 1
%%DocumentData: Clean7Bit
%%LanguageLevel: 2
%%BoundingBox: 21 0 363 384
%%EndComments
%%BeginProlog
50 dict begin
/q { gsave } bind def
/Q { grestore } bind def
/cm { 6 array astore concat } bind def
/w { setlinewidth } bind def
/J { setlinecap } bind def
/j { setlinejoin } bind def
/M { setmiterlimit } bind def
/d { setdash } bind def
/m { moveto } bind def
/l { lineto } bind def
/c { curveto } bind def
/h { closepath } bind def
/re { exch dup neg 3 1 roll 5 3 roll moveto 0 rlineto
      0 exch rlineto 0 rlineto closepath } bind def
/S { stroke } bind def
/f { fill } bind def
/f* { eofill } bind def
/n { newpath } bind def
/W { clip } bind def
/W* { eoclip } bind def
/BT { } bind def
/ET { } bind def
/BDC { mark 3 1 roll /BDC pdfmark } bind def
/EMC { mark /EMC pdfmark } bind def
/cairo_store_point { /cairo_point_y exch def /cairo_point_x exch def } def
/Tj { show currentpoint cairo_store_point } bind def
/TJ {
  {
    dup
    type /stringtype eq
    { show } { -0.001 mul 0 cairo_font_matrix dtransform rmoveto } ifelse
  } forall
  currentpoint cairo_store_point
} bind def
/cairo_selectfont { cairo_font_matrix aload pop pop pop 0 0 6 array astore
    cairo_font exch selectfont cairo_point_x cairo_point_y moveto } bind def
/Tf { pop /cairo_font exch def /cairo_font_matrix where
      { pop cairo_selectfont } if } bind def
/Td { matrix translate cairo_font_matrix matrix concatmatrix dup
      /cairo_font_matrix exch def dup 4 get exch 5 get cairo_store_point
      /cairo_font where { pop cairo_selectfont } if } bind def
/Tm { 2 copy 8 2 roll 6 array astore /cairo_font_matrix exch def
      cairo_store_point /cairo_font where { pop cairo_selectfont } if } bind def
/g { setgray } bind def
/rg { setrgbcolor } bind def
/d1 { setcachedevice } bind def
/cairo_data_source {
  CairoDataIndex CairoData length lt
    { CairoData CairoDataIndex get /CairoDataIndex CairoDataIndex 1 add def }
    { () } ifelse
} def
/cairo_flush_ascii85_file { cairo_ascii85_file status { cairo_ascii85_file flushfile } if } def
/cairo_image { image cairo_flush_ascii85_file } def
/cairo_imagemask { imagemask cairo_flush_ascii85_file } def
%%EndProlog
%%BeginSetup
%%EndSetup
%%Page: 1 1
%%BeginPageSetup
%%PageBoundingBox: 21 0 363 384
%%EndPageSetup
q 21 0 342 384 rectclip
1 0 0 -1 0 384 cm q
0.964706 0.65098 0.254902 rg
222.18 361.301 m 216.137 352.711 206.293 347.598 195.789 347.598 c 190.332
 347.598 l 180.004 337.004 176.836 319.203 180.371 307.668 c 183.363 297.906
 190.109 290.977 190.176 290.906 c 190.086 291 l 166.641 267.152 l 165.422
 268.352 154.566 279.348 148.934 296.207 c 143.945 311.129 144.559 333.625
 150.488 347.598 c 144.066 347.598 l 133.113 347.598 123.453 354.773 120.289
 365.258 c 118.32 371.789 123.211 378.375 130.035 378.375 c 213.312 378.375
 l 222.094 378.375 227.23 368.48 222.18 361.301 c h
222.18 361.301 m f
0.835294 0.454902 0.356863 rg
268.543 231.023 m 222.754 175.09 179.809 221.176 179.809 221.176 c 170.719
 228.617 169.379 242.023 176.824 251.117 c 184.27 260.211 197.672 261.547
 206.766 254.102 c 197.672 261.547 196.336 274.949 203.781 284.043 c 211.227
 293.137 224.629 294.473 233.723 287.027 c 222.707 296.047 l 213.617 303.488
 212.277 316.895 219.723 325.988 c 227.168 335.078 240.57 336.414 249.664
 328.973 c 249.664 328.973 316.121 289.133 268.543 231.023 c h
268.543 231.023 m f
0.976471 0.729412 0.427451 rg
150.98 361.301 m 144.938 352.711 135.09 347.598 124.59 347.598 c 119.133
 347.598 l 108.801 337.004 105.637 319.203 109.172 307.668 c 112.16 297.906
 118.906 290.977 118.977 290.906 c 118.883 291 l 95.441 267.152 l 94.223
 268.352 83.367 279.348 77.73 296.207 c 72.742 311.129 73.359 333.625 79.289
 347.598 c 72.863 347.598 l 61.914 347.598 52.254 354.773 49.09 365.258 
c 47.117 371.789 52.008 378.375 58.832 378.375 c 142.113 378.375 l 150.895
 378.375 156.031 368.48 150.98 361.301 c h
150.98 361.301 m f
0.898039 0.52549 0.431373 rg
80.09 78.469 m 80.09 63.82 82.355 49.871 86.672 37.18 c 90.445 26.078 85.449
 13.883 75.082 8.406 c 63.645 2.363 49.527 6.492 43.027 17.676 c 33.02 34.891
 27.613 55.852 27.613 78.469 c 27.613 137.055 63.863 184.547 122.449 184.547
 c 131.641 184.547 140.555 183.379 149.059 181.184 c 105.859 169.375 80.09
 127.867 80.09 78.469 c h
80.09 78.469 m f
0.835294 0.454902 0.356863 rg
122.453 184.547 m 131.641 184.547 140.559 183.379 149.059 181.184 c 128.121
 175.461 111.277 162.758 99.477 145.566 c 89.168 152.441 80.344 161.062 
73.332 171.02 c 87.09 179.633 103.613 184.547 122.453 184.547 c h
122.453 184.547 m f
0.945098 0.552941 0.105882 rg
155.258 328.406 m 163.496 328.406 171.688 327.387 179.648 325.426 c 178.562
 319.059 178.812 312.754 180.371 307.668 c 183.363 297.902 190.109 290.977
 190.176 290.906 c 190.086 290.996 l 166.641 267.152 l 165.422 268.352 154.566
 279.348 148.934 296.203 c 145.922 305.215 144.953 316.984 145.965 327.969
 c 149.035 328.254 152.133 328.406 155.258 328.406 c h
155.258 328.406 m f
0.964706 0.65098 0.254902 rg
118.977 290.906 m 118.883 291 l 95.441 267.152 l 94.293 268.281 84.598 
278.105 78.766 293.328 c 86.918 302.898 96.797 310.77 107.812 316.621 c 
107.898 313.41 108.344 310.363 109.172 307.668 c 112.164 297.906 118.91 
290.977 118.977 290.906 c h
118.977 290.906 m f
0.952941 0.615686 0.521569 rg
234.168 136.059 m 226.844 145.078 215.68 150.746 204.047 153.555 c 193.832
 156.023 183.184 155.66 172.957 153.238 c 154.77 148.938 134.973 151.16 
117.363 160.98 c 80.16 181.719 66.676 228.543 87.035 265.859 c 108.102 304.477
 157.312 317.184 195.344 295.07 c 242.633 267.57 256.797 225.582 260.246
 194.621 c h
234.168 136.059 m f
0.898039 0.52549 0.431373 rg
201.117 154.176 m 201.152 154.188 201.188 154.199 201.223 154.215 c 207.738
 156.57 212.711 161.906 214.418 168.621 c 219.547 188.816 231.195 205.633
 250.48 214.891 c 252.25 215.746 254.074 216.523 255.945 217.227 c 258.113
 209.32 259.461 201.684 260.246 194.621 c 234.168 136.059 l 226.18 145.895
 213.344 151.879 201.117 154.176 c h
201.117 154.176 m f
0.92549 0.415686 0.384314 rg
354.227 158.047 m 349.785 152.66 l 356.379 146.629 l 356.488 140.27 354.879
 134.102 351.875 128.707 c 347.438 120.754 339.973 114.488 330.52 111.801
 c 325.641 110.41 l 325.641 110.41 337.398 46.613 254.551 48.91 c 242.488
 49.242 234.262 46.68 229.012 42.062 c 223.59 37.293 214.957 40.219 213.328
 47.262 c 210.5 59.445 213.168 75.262 238.254 86.207 c 238.254 86.207 217.918
 100.438 202.781 90.227 c 196.473 85.961 187.895 90.262 187.645 97.867 c
 187.043 115.926 194.312 137.98 234.168 136.059 c 234.168 136.059 228.91
 179.578 260.246 194.625 c 263.203 196.047 266.492 197.219 270.141 198.066
 c 277.887 199.879 284.32 192.023 281.176 184.715 c 281.137 184.633 281.105
 184.547 281.074 184.473 c 275.648 171.645 287.613 158.27 301.004 162.074
 c 329.289 170.109 l 339.574 173.027 350.242 167.688 354.227 158.047 c h
354.227 158.047 m f
0.909804 0.34902 0.309804 rg
289.262 163.047 m 265.207 150.051 248.867 124.613 248.867 95.355 c 248.867
 77.934 254.664 61.863 264.438 48.969 c 261.297 48.844 258.012 48.812 254.551
 48.91 c 242.488 49.242 234.262 46.68 229.012 42.062 c 223.59 37.293 214.957
 40.219 213.328 47.262 c 210.5 59.445 213.164 75.262 238.254 86.207 c 238.254
 86.207 217.914 100.438 202.781 90.227 c 196.473 85.961 187.895 90.262 187.645
 97.867 c 187.043 115.926 194.312 137.98 234.168 136.059 c 234.168 136.059
 228.91 179.578 260.246 194.625 c 263.203 196.047 266.492 197.219 270.141
 198.066 c 277.887 199.879 284.32 192.023 281.172 184.715 c 281.137 184.633
 281.105 184.547 281.07 184.473 c 277.359 175.691 281.797 166.656 289.262
 163.047 c h
289.262 163.047 m f
0.929412 0.627451 0.666667 rg
297.523 136.059 m 297.523 145.285 288.129 152.766 276.539 152.766 c 264.953
 152.766 255.555 145.285 255.555 136.059 c 255.555 126.828 264.953 119.348
 276.539 119.348 c 288.129 119.348 297.523 126.828 297.523 136.059 c h
297.523 136.059 m f
0.898039 0.52549 0.431373 rg
105.797 203.613 m 105.797 188.914 109.035 174.973 114.836 162.457 c 79.562
 183.875 67.145 229.398 87.035 265.855 c 106.324 301.215 149.199 314.844
 185.488 299.926 c 140.113 291.34 105.797 251.488 105.797 203.613 c h
105.797 203.613 m f
0.972549 0.780392 0.733333 rg
224.465 225.105 m 178.676 169.172 135.73 215.258 135.73 215.258 c 126.641
 222.703 125.305 236.105 132.746 245.199 c 140.191 254.293 153.598 255.629
 162.688 248.184 c 153.598 255.629 152.258 269.035 159.703 278.125 c 167.148
 287.219 180.555 288.555 189.645 281.109 c 178.629 290.129 l 169.539 297.57
 168.203 310.977 175.645 320.07 c 183.09 329.16 196.496 330.496 205.586 
323.055 c 205.586 323.055 272.043 283.215 224.465 225.105 c h
224.465 225.105 m f
0 g
304.848 109.508 m 286.777 104.797 l 283.77 104.016 280.699 105.816 279.914
 108.824 c 279.133 111.828 280.934 114.902 283.941 115.684 c 289.254 117.066
 l 289.066 117.633 288.965 118.23 288.969 118.859 c 289.023 126.629 l 289.047
 129.723 291.559 132.215 294.648 132.215 c 294.688 132.215 l 297.797 132.191
 300.297 129.656 300.273 126.551 c 300.227 119.926 l 302.012 120.391 l 305.023
 121.176 308.09 119.367 308.871 116.367 c 309.656 113.359 307.855 110.289
 304.848 109.508 c h
304.848 109.508 m f
356.773 125.98 m 351.414 116.363 342.629 109.41 332.051 106.406 c 331.723
 106.312 l 332.242 97.664 331.488 79.75 318.867 65.012 c 305.824 49.781 
284.129 42.473 254.391 43.301 c 244.434 43.574 237.141 41.742 232.719 37.852
 c 224.109 30.281 210.43 34.805 207.844 46.004 c 205.852 54.578 206.676 
62.566 210.293 69.742 c 213.461 76.035 218.738 81.527 226.039 86.148 c 219.332
 88.66 211.863 89.586 205.926 85.578 c 196.027 78.887 182.414 85.574 182.016
 97.691 c 181.562 111.34 185.27 122.137 193.027 129.781 c 199.395 136.051
 208.305 139.883 219.613 141.242 c 207.574 148.645 191.793 151.926 174.246
 147.773 c 154.254 143.043 133.367 145.859 115.328 155.691 c 96.465 137.383
 85.715 109.504 85.715 78.48 c 85.715 64.547 87.828 51.266 91.996 39.004
 c 96.672 25.246 90.664 10.289 77.707 3.445 c 63.59 -4.008 46.219 1.004 
38.164 14.863 c 27.586 33.066 21.992 55.066 21.992 78.48 c 21.992 91.434
 23.707 103.996 27.086 115.82 c 27.938 118.805 31.051 120.535 34.039 119.68
 c 37.027 118.828 38.754 115.715 37.902 112.727 c 34.809 101.906 33.242 
90.387 33.242 78.48 c 33.242 57.051 38.309 37.004 47.891 20.52 c 52.902 
11.895 63.691 8.766 72.453 13.395 c 80.492 17.645 84.234 26.891 81.344 35.387
 c 76.777 48.812 74.465 63.312 74.465 78.48 c 74.465 111.52 85.73 141.477
 105.602 161.887 c 100.75 165.465 96.34 169.527 92.426 174.008 c 72.273 
166.949 56.148 152.602 45.637 132.32 c 44.207 129.562 40.812 128.484 38.055
 129.914 c 35.297 131.344 34.219 134.738 35.648 137.496 c 46.93 159.262 
64.016 174.992 85.352 183.379 c 80.945 190.172 77.52 197.656 75.211 205.648
 c 69.086 226.852 71.531 249.195 82.098 268.559 c 82.73 269.719 83.395 270.852
 84.078 271.977 c 80.121 277.426 75.523 285.082 72.398 294.43 c 67.789 308.211
 67.582 327.262 71.48 342.008 c 58.539 342.578 47.48 351.125 43.707 363.633
 c 40.641 373.785 48.227 384 58.836 384 c 213.309 384 l 226.629 384 234.441
 368.965 226.773 358.062 c 214.043 339.969 193.48 342.117 192.836 341.973
 c 190.754 339.449 188.996 336.434 187.648 333.117 c 198.246 334.879 204.426
 330.953 212.469 325.211 c 213.289 326.742 214.258 328.199 215.363 329.551
 c 224.688 340.938 241.449 342.68 252.906 333.578 c 256.625 331.266 285.219
 312.605 290.492 282.309 c 294.902 256.961 280.715 233.082 262.102 215.969
 c 263.215 211.562 264.125 207.051 264.852 202.445 c 266.16 202.855 267.488
 203.234 268.852 203.551 c 280.961 206.383 291.406 194.219 286.23 182.262
 c 282.672 173.793 290.578 164.973 299.453 167.496 c 327.742 175.531 l 341.777
 179.512 356.438 171.336 360.426 157.309 c 363.422 146.762 362.141 135.609
 356.773 125.98 c h
146.738 369.938 m 146.297 370.785 144.969 372.75 142.109 372.75 c 58.836
 372.75 l 55.781 372.75 53.594 369.809 54.477 366.883 c 56.941 358.715 64.332
 353.223 72.863 353.223 c 79.289 353.223 l 83.309 353.223 86.039 349.113
 84.465 345.402 c 79.145 332.867 78.52 311.602 83.066 297.992 c 85.207 291.59
 88.168 286.086 91.02 281.719 c 95.859 287.555 101.5 292.695 107.723 296.941
 c 106.047 299.922 104.73 302.961 103.793 306.023 c 99.961 318.531 102.621
 338.727 115.105 351.527 c 116.164 352.613 117.617 353.223 119.133 353.223
 c 124.586 353.223 l 133.129 353.223 141.371 357.422 146.375 364.535 c 148.02
 366.875 147.176 369.094 146.738 369.938 c h
142.68 342.008 m 140.031 342.129 137.414 342.605 134.867 343.414 c 131.555
 342.48 128.105 341.973 124.586 341.973 c 121.633 341.973 l 113.891 332.609
 111.855 318.109 114.547 309.316 c 115.305 306.852 116.352 304.594 117.438
 302.645 c 124.41 306.125 132.008 308.719 140.398 310.199 c 139.328 321.031
 140.16 332.477 142.68 342.008 c h
190.328 353.223 m 192.48 353.633 207.77 350.605 217.57 364.535 c 220.004
 367.996 217.539 372.75 213.309 372.75 c 157.73 372.75 l 158.621 370.09 
158.848 367.098 158.23 364.164 c 157.352 359.973 154.516 356.227 151.453
 353.141 c 152.961 352.875 154.312 352.004 155.176 350.703 c 156.215 349.129
 156.398 347.137 155.664 345.402 c 151.934 336.613 150.41 323.504 151.574
 311.449 c 156.211 311.652 161.379 311.418 165.543 310.91 c 166.281 315.484
 168.23 319.898 171.289 323.633 c 172.031 324.539 173.133 325.715 174.156
 326.637 c 175.859 336.422 180.125 345.195 186.301 351.527 c 187.359 352.613
 188.812 353.223 190.328 353.223 c h
202.02 318.703 m 195.281 324.219 185.43 323.148 179.992 316.508 c 174.5
 309.797 175.527 299.938 182.191 294.484 c 182.191 294.484 193.191 285.477
 193.203 285.465 c 195.609 283.5 195.961 279.953 193.992 277.551 c 192.023
 275.148 188.48 274.793 186.078 276.762 c 179.363 282.254 169.523 281.25
 164.055 274.566 c 158.527 267.82 159.645 257.949 166.246 252.543 c 168.641
 250.582 169.016 247.039 167.035 244.625 c 165.07 242.223 161.523 241.867
 159.121 243.836 c 152.43 249.316 142.578 248.336 137.098 241.641 c 134.391
 238.336 133.18 234.035 133.766 229.805 c 134.391 225.254 136.844 222.316
 139.844 219.102 c 147.742 210.633 162.715 202.605 177.262 203.07 c 177.281
 203.07 177.305 203.07 177.328 203.07 c 180.441 203.164 183.031 200.742 
183.133 197.637 c 183.234 194.547 180.816 191.934 177.699 191.828 c 159.387
 191.227 144.34 199.566 130.902 212.016 c 120.566 221.586 119.32 237.688
 128.391 248.77 c 133.711 255.266 141.656 258.84 149.941 258.625 c 149.684
 259.766 149.504 260.906 149.395 261.984 c 148.684 269.133 150.797 276.133
 155.348 281.695 c 159.047 286.211 164.207 289.531 170.254 290.887 c 168.348
 293.523 166.957 296.559 166.164 299.465 c 135.258 304.078 106.18 289.215
 91.973 263.172 c 82.836 246.426 80.723 227.109 86.016 208.773 c 91.43 190.039
 103.855 174.957 120.098 165.902 c 135.836 157.129 154.145 154.582 171.656
 158.727 c 193.598 163.914 214.121 158.973 228.355 149.012 c 229.246 163.531
 234.078 185.977 254.18 197.777 c 253.309 204.137 252.035 210.297 250.383
 216.242 c 250.371 216.281 250.355 216.316 250.344 216.355 c 247.988 224.785
 244.828 232.801 240.941 240.316 c 237.762 233.633 233.504 227.277 228.812
 221.551 c 221.363 212.453 212.34 203.984 201.91 198.473 c 199.164 197.02
 195.758 198.07 194.309 200.816 c 192.855 203.562 193.906 206.965 196.652
 208.418 c 205.699 213.199 213.594 220.719 220.109 228.676 c 235.055 246.93
 241.234 267.031 230.598 288.414 c 221.332 306.664 203.684 317.34 202.02
 318.703 c h
279.422 280.316 m 274.824 306.945 247.039 323.984 246.766 324.148 c 246.531
 324.289 246.305 324.449 246.094 324.621 c 239.418 330.09 229.535 329.102
 224.07 322.426 c 222.965 321.074 222.098 319.551 221.5 317.93 c 229.219
 310.945 238.434 300.48 243.484 287.07 c 247.422 276.664 248.355 265.625
 245.871 254.441 c 250.762 246.582 255.148 237.531 258.445 228.117 c 272.25
 242.453 282.809 260.688 279.422 280.316 c h
322.254 144.637 m 322.66 145.168 331.203 156.066 348.035 157.836 c 344.598
 163.617 337.582 166.629 330.816 164.711 c 302.527 156.672 l 284.922 151.672
 268.637 168.961 275.891 186.695 c 277.395 190.453 274.41 193.297 271.406
 192.598 c 258.684 189.637 249.941 182.098 244.758 170.496 c 240.113 160.105
 238.672 145.871 239.746 136.742 c 239.746 136.738 239.746 136.734 239.746
 136.73 c 240.16 133.262 237.32 130.281 233.891 130.449 c 218.605 131.184
 207.516 128.266 200.922 121.766 c 195.492 116.418 192.914 108.445 193.262
 98.062 c 193.363 94.898 196.961 93.098 199.629 94.902 c 217.758 107.133
 240.508 91.5 241.469 90.828 c 245.047 88.324 244.535 82.828 240.492 81.066
 c 222.875 73.379 215.578 62.438 218.801 48.539 c 219.477 45.609 223.086
 44.363 225.289 46.301 c 231.914 52.125 241.812 54.898 254.695 54.547 c 
280.809 53.82 299.508 59.777 310.246 72.242 c 323.738 87.906 320.129 109.207
 320.094 109.402 c 319.57 112.254 321.297 115.039 324.086 115.832 c 328.969
 117.227 l 336.664 119.41 343.047 124.465 346.945 131.457 c 349.598 136.211
 350.879 141.473 350.742 146.77 c 337.922 146.027 331.516 138.215 331.168
 137.777 c 329.277 135.336 325.766 134.875 323.309 136.754 c 320.84 138.641
 320.371 142.168 322.254 144.637 c h
322.254 144.637 m f
Q Q
showpage
%%Trailer
end
%%EOF
