%!PS-Adobe-3.0 EPSF-3.0
%%Creator: cairo 1.16.0 (https://cairographics.org)
%%CreationDate: Mon Aug 23 08:35:20 2021
%%Pages: 1
%%DocumentData: Clean7Bit
%%LanguageLevel: 2
%%BoundingBox: 0 8 384 376
%%EndComments
%%BeginProlog
50 dict begin
/q { gsave } bind def
/Q { grestore } bind def
/cm { 6 array astore concat } bind def
/w { setlinewidth } bind def
/J { setlinecap } bind def
/j { setlinejoin } bind def
/M { setmiterlimit } bind def
/d { setdash } bind def
/m { moveto } bind def
/l { lineto } bind def
/c { curveto } bind def
/h { closepath } bind def
/re { exch dup neg 3 1 roll 5 3 roll moveto 0 rlineto
      0 exch rlineto 0 rlineto closepath } bind def
/S { stroke } bind def
/f { fill } bind def
/f* { eofill } bind def
/n { newpath } bind def
/W { clip } bind def
/W* { eoclip } bind def
/BT { } bind def
/ET { } bind def
/BDC { mark 3 1 roll /BDC pdfmark } bind def
/EMC { mark /EMC pdfmark } bind def
/cairo_store_point { /cairo_point_y exch def /cairo_point_x exch def } def
/Tj { show currentpoint cairo_store_point } bind def
/TJ {
  {
    dup
    type /stringtype eq
    { show } { -0.001 mul 0 cairo_font_matrix dtransform rmoveto } ifelse
  } forall
  currentpoint cairo_store_point
} bind def
/cairo_selectfont { cairo_font_matrix aload pop pop pop 0 0 6 array astore
    cairo_font exch selectfont cairo_point_x cairo_point_y moveto } bind def
/Tf { pop /cairo_font exch def /cairo_font_matrix where
      { pop cairo_selectfont } if } bind def
/Td { matrix translate cairo_font_matrix matrix concatmatrix dup
      /cairo_font_matrix exch def dup 4 get exch 5 get cairo_store_point
      /cairo_font where { pop cairo_selectfont } if } bind def
/Tm { 2 copy 8 2 roll 6 array astore /cairo_font_matrix exch def
      cairo_store_point /cairo_font where { pop cairo_selectfont } if } bind def
/g { setgray } bind def
/rg { setrgbcolor } bind def
/d1 { setcachedevice } bind def
/cairo_data_source {
  CairoDataIndex CairoData length lt
    { CairoData CairoDataIndex get /CairoDataIndex CairoDataIndex 1 add def }
    { () } ifelse
} def
/cairo_flush_ascii85_file { cairo_ascii85_file status { cairo_ascii85_file flushfile } if } def
/cairo_image { image cairo_flush_ascii85_file } def
/cairo_imagemask { imagemask cairo_flush_ascii85_file } def
%%EndProlog
%%BeginSetup
%%EndSetup
%%Page: 1 1
%%BeginPageSetup
%%PageBoundingBox: 0 8 384 376
%%EndPageSetup
q 0 8 384 368 rectclip
1 0 0 -1 0 384 cm q
0.941176 0.556863 0.619608 rg
256.395 14.48 m 232.09 14.48 212.391 24.891 212.391 49.191 c 212.391 73.496
 232.09 93.195 256.395 93.195 c 280.695 93.195 300.398 73.496 300.398 49.191
 c 300.398 24.891 280.695 14.48 256.395 14.48 c h
256.395 14.48 m f
0.933333 0.490196 0.564706 rg
271.77 60.27 m 249.109 60.27 230.566 42.695 228.992 20.438 c 218.879 25.895
 212.391 35.254 212.391 49.191 c 212.391 73.496 232.09 93.195 256.395 93.195
 c 280.656 93.195 300.332 73.562 300.395 49.312 c 292.805 56.121 282.773
 60.27 271.77 60.27 c h
271.77 60.27 m f
0.741176 0.815686 0.396078 rg
203.25 334.211 m 192.551 334.211 l 196.98 323.98 203.301 314.68 211.184
 306.797 c 211.227 306.754 l 227.176 290.805 227.176 264.949 211.227 249
 c 199.945 237.723 181.656 237.723 170.375 249 c 164.422 254.953 161.613
 262.859 161.941 270.656 c 129.891 314.523 l 129.891 349.453 l 157.641 363.676
 l 165.137 367.516 173.434 369.52 181.855 369.52 c 203.25 369.52 l 213 369.52
 220.906 361.613 220.906 351.863 c 220.906 342.113 213 334.211 203.25 334.211
 c h
203.25 334.211 m f
0.654902 0.776471 0.392157 rg
211.227 306.754 m 227.176 290.805 227.176 264.949 211.227 249 c 199.945
 237.719 181.656 237.719 170.375 249 c 164.422 254.953 161.613 262.859 161.941
 270.656 c 149.402 287.816 l 158.828 306.898 l 165.621 308.191 178.691 312.625
 198.836 312.625 c 199.766 312.621 l 201.859 312.609 203.945 312.543 206.023
 312.43 c 207.66 310.484 209.379 308.602 211.184 306.797 c h
211.227 306.754 m f
0.976471 0.87451 0.603922 rg
174.27 287.355 m 182.406 289.223 190.891 290.184 199.605 290.125 c 258.816
 289.703 307.297 241.578 308.129 182.363 c 308.203 176.633 307.844 171.008
 307.074 165.512 c 280.566 145.793 l 259.355 187.086 l 202.551 227.445 l
 158.602 255.645 l h
174.27 287.355 m f
0.988235 0.792157 0.45098 rg
308.129 182.363 m 308.203 176.633 307.844 171.008 307.074 165.512 c 280.566
 145.793 l 259.355 187.086 l 259.129 187.246 l 262.555 187.75 266.023 188.012
 269.52 188.012 c 307.902 188.012 l 308.027 186.141 308.105 184.258 308.129
 182.363 c h
308.129 182.363 m f
0.741176 0.815686 0.396078 rg
277.086 290.102 m 276.848 290.148 276.609 290.184 276.367 290.215 c 266.43
 291.527 257.152 284.746 255.441 274.785 c 252.645 258.422 244.246 246.707
 237.047 239.363 c 219.113 253.523 197.016 262.586 173.062 264.285 c 101.887
 231.398 l 93.977 216.273 89.496 199.059 89.496 180.805 c 89.496 180.594
 l 89.52 167.223 78.809 156.461 65.438 156.668 c 55.289 156.836 43.027 158.949
 30.301 165.543 c 22.215 169.727 12.285 166.824 7.906 158.844 c 7.672 158.418
 l 3.727 151.215 5.625 142.215 12.141 137.223 c 30.148 123.406 68.438 98.508
 114.238 95.043 c 155.34 91.93 192.711 120.668 198.66 161.875 c 200.047 
171.496 206.543 179.695 215.578 183.277 c 215.762 183.355 215.934 183.422
 216.105 183.488 c 229.086 188.508 243.789 183.098 250.461 170.883 c 254.664
 163.195 l 269.391 145.793 l 280.566 165.512 l 277.914 182.355 271.598 198.055
 262.484 211.766 c 274.238 223.301 287.859 241.855 292.41 268.457 c 294.156
 278.664 287.297 288.355 277.086 290.102 c h
277.086 290.102 m f
0.654902 0.776471 0.392157 rg
269.391 145.793 m 254.664 163.195 l 250.461 170.883 l 247.949 175.484 244.293
 179.121 240.023 181.594 c 242.52 182.738 245.102 183.754 247.762 184.609
 c 254.77 186.867 262.09 188.012 269.52 188.012 c 274.629 188.012 l 277.328
 180.809 279.344 173.285 280.566 165.512 c h
269.391 145.793 m f
0.741176 0.815686 0.396078 rg
342.016 92.992 m 338.805 165.512 l 269.52 165.512 l 264.336 165.512 259.344
 164.703 254.664 163.195 c 234.48 156.699 220.078 137.336 221.121 114.758
 c 222.277 90.07 242.227 69.992 266.918 68.695 c 281.211 67.945 294.246 
73.41 303.562 82.621 c 310.395 89.387 319.734 92.992 329.34 92.992 c h
342.016 92.992 m f
0.423529 0.501961 0.588235 rg
378.375 117.504 m 378.375 123.988 373.113 129.25 366.629 129.25 c 364.773
 129.25 l 358.43 129.25 354.062 134.453 354.062 139.988 c 354.062 142.227
 354.777 144.512 356.359 146.527 c 362.398 154.242 356.902 165.516 347.113
 165.516 c 338.801 165.516 l 329.703 156.387 324.152 144.168 324.152 130.746
 c 324.152 115.789 331.039 102.336 342.02 92.992 c 353.863 92.992 l 360.633
 92.992 366.758 95.738 371.199 100.172 c 375.629 104.609 378.375 110.734
 378.375 117.504 c h
378.375 117.504 m f
0.992157 0.94902 0.894118 rg
311.359 131.02 m 311.359 140.25 301.965 147.73 290.375 147.73 c 278.789
 147.73 269.391 140.25 269.391 131.02 c 269.391 121.793 278.789 114.309 
290.375 114.309 c 301.965 114.309 311.359 121.793 311.359 131.02 c h
311.359 131.02 m f
0.654902 0.776471 0.392157 rg
116.715 170.73 m 116.715 142.922 127.414 117.617 144.91 98.691 c 135.254
 95.566 124.871 94.238 114.238 95.043 c 68.438 98.508 30.148 123.406 12.141
 137.223 c 5.625 142.219 3.727 151.219 7.672 158.418 c 7.906 158.844 l 12.285
 166.824 22.215 169.727 30.301 165.543 c 43.027 158.949 55.289 156.836 65.438
 156.668 c 78.809 156.461 89.52 167.223 89.496 180.594 c 89.496 180.805 
l 89.496 199.059 93.977 216.273 101.887 231.398 c 170.668 263.18 l 138.457
 244.953 116.715 210.383 116.715 170.73 c h
116.715 170.73 m f
0.843137 0.87451 0.486275 rg
152.762 319.621 m 149.648 324.211 146.953 329.094 144.742 334.211 c 155.445
 334.211 l 160.32 334.211 164.73 336.18 167.926 339.375 c 171.121 342.57
 173.102 346.988 173.102 351.863 c 173.102 361.613 165.195 369.52 155.445
 369.52 c 121.238 369.52 l 107.504 369.52 96.375 358.391 96.375 344.664 
c 96.375 340.539 97.402 336.48 99.359 332.859 c 101.297 329.266 l 106.59
 319.465 110.184 308.973 112.223 298.141 c 98.574 284.492 l 91.641 277.562
 88.184 268.488 88.184 259.41 c 88.184 250.098 91.828 240.789 99.098 233.812
 c 99.996 232.953 100.926 232.148 101.887 231.398 c 115.836 220.531 135.969
 221.551 148.738 234.324 c 163.418 249 l 167.879 253.465 171.098 258.707
 173.062 264.285 c 175.68 271.711 176.078 279.742 174.27 287.355 c 172.582
 294.465 168.961 301.211 163.418 306.75 c 163.371 306.797 l 159.434 310.742
 155.879 315.031 152.762 319.621 c h
152.762 319.621 m f
0 g
302.641 100.773 m 299.539 100.773 297.02 103.289 297.02 106.395 c 297.02
 114.969 l 297.02 118.074 299.535 120.59 302.641 120.59 c 305.746 120.59
 308.266 118.074 308.266 114.969 c 308.266 106.395 l 308.266 103.289 305.746
 100.773 302.641 100.773 c h
302.641 100.773 m f
353.875 87.414 m 351.785 87.414 331.637 87.414 329.363 87.414 c 321.113
 87.414 313.164 84.23 307.551 78.672 c 305.277 76.422 302.812 74.41 300.207
 72.621 c 304.047 65.461 306.059 57.488 306.059 49.258 c 306.059 36.016 
300.781 25.277 290.801 18.211 c 282.238 12.145 270.359 8.938 256.449 8.938
 c 242.543 8.938 230.664 12.145 222.098 18.211 c 212.117 25.277 206.844 
36.016 206.844 49.258 c 206.844 64.062 213.379 77.875 224.57 87.25 c 219.176
 95.34 216.035 104.738 215.578 114.535 c 214.559 136.621 227.117 156.949
 246.73 166.102 c 245.586 168.195 l 235.484 186.691 207.289 181.77 204.309
 161.086 c 198.027 117.57 158.328 86.117 113.934 89.48 c 95.879 90.844 77.281
 95.57 58.656 103.527 c 55.801 104.746 54.477 108.051 55.695 110.906 c 56.914
 113.762 60.219 115.09 63.074 113.867 c 80.562 106.398 97.961 101.965 114.785
 100.691 c 153.305 97.773 187.738 125.008 193.176 162.691 c 197.711 194.117
 240.211 201.496 255.457 173.586 c 257.523 169.801 l 265.703 171.664 272.18
 171.012 273.828 171.148 c 271.004 184.039 265.781 196.719 257.855 208.645
 c 256.551 210.609 256.625 213.145 257.953 215.012 c 259.445 217.109 281.055
 235.164 286.906 269.371 c 288.129 276.5 283.32 283.297 276.188 284.516 
c 276.156 284.523 276.121 284.527 276.09 284.535 c 263.777 286.883 260.391
 272.445 260.934 273.254 c 258.32 258.734 251.281 245.762 241.125 235.406
 c 239.113 233.355 235.879 233.152 233.625 234.93 c 216.582 248.391 196.453
 256.234 176.793 258.285 c 174.625 253.602 171.48 248.992 167.492 245 c 
152.82 230.332 l 152.797 230.309 152.773 230.285 152.75 230.266 c 139.867
 217.445 120.098 214.688 104.293 223.203 c 94.594 201.535 95.578 183.676
 95.25 180.609 c 95.277 164.109 82.035 150.801 65.488 151.062 c 52.281 151.277
 39.625 154.473 27.871 160.562 c 15.727 166.848 5.078 149.871 15.73 141.707
 c 21.773 137.07 31.539 130.125 43.734 123.355 c 46.449 121.848 47.43 118.426
 45.922 115.711 c 44.418 112.996 40.992 112.016 38.277 113.523 c 25.48 120.625
 15.23 127.918 8.887 132.785 c -12.641 149.281 8.684 183.156 33.043 170.547
 c 43.238 165.266 54.215 162.496 65.664 162.309 c 75.797 162.145 84.023 
170.266 84.004 180.602 c 84.004 180.809 l 84.004 197.82 87.824 214.734 95.059
 230.012 c 87.086 237.805 82.691 248.219 82.691 259.383 c 82.691 270.355
 86.965 280.668 94.723 288.426 c 106.234 299.938 l 104.184 309.395 100.906
 318.328 96.469 326.539 c 95.559 328.664 90.879 334.699 90.879 344.598 c
 90.879 361.398 104.551 375.066 121.355 375.066 c 155.547 375.066 l 159.164
 375.066 162.594 374.234 165.648 372.754 c 170.949 374.285 176.418 375.066
 181.945 375.066 c 203.332 375.066 l 216.16 375.066 226.602 364.625 226.602
 351.793 c 226.602 338.965 216.16 328.523 203.332 328.523 c 201.699 328.523
 l 205.371 322.02 209.898 316.059 215.219 310.742 c 215.223 310.734 215.273
 310.688 215.277 310.68 c 220.457 305.504 224.316 299.203 226.574 292.305
 c 235.449 290.086 244.047 286.801 252.184 282.516 c 257.141 292.461 268.02
 297.473 278.129 295.594 c 291.348 293.305 300.258 280.703 297.992 267.477
 c 296.742 260.16 294.832 253.43 292.488 247.27 c 297.863 239.73 302.316
 231.59 305.73 223.012 c 306.879 220.129 305.469 216.859 302.582 215.711
 c 299.699 214.562 296.43 215.973 295.281 218.855 c 293.023 224.531 290.262
 230 287.035 235.195 c 282.402 226.422 276.426 218.164 269.684 211.016 c
 277.375 198.48 282.59 184.957 285.324 171.148 c 302.102 171.148 l 302.969
 180.504 302.566 189.66 301.027 198.523 c 300.496 201.582 302.543 204.492
 305.602 205.023 c 308.664 205.559 311.574 203.508 312.105 200.449 c 313.891
 190.172 314.16 180.617 313.371 171.148 c 316.176 171.148 302.086 171.145
 347.133 171.148 c 361.602 171.148 369.719 154.477 360.797 143.082 c 360.07
 142.152 359.699 141.121 359.699 140.012 c 359.699 137.5 361.602 134.902
 364.781 134.902 c 366.641 134.902 l 376.211 134.902 384 127.113 384 117.539
 c 384 101.047 370.672 87.414 353.875 87.414 c h
121.355 363.816 m 110.75 363.816 102.125 355.195 102.125 344.598 c 102.125
 337.918 105.375 334.105 106.367 331.879 c 111.801 321.82 115.672 310.801
 117.867 299.137 c 118.211 297.309 117.633 295.434 116.316 294.121 c 102.676
 280.473 l 97.043 274.84 93.938 267.348 93.938 259.383 c 93.938 251.18 97.199
 243.531 103.117 237.855 c 114.895 226.559 133.391 226.891 144.785 238.199
 c 144.812 238.227 144.84 238.254 144.867 238.281 c 159.539 252.949 l 165.715
 259.129 167.441 265.27 167.852 266.121 c 167.852 266.125 l 170.105 272.512
 170.465 279.391 168.891 286.012 c 168.891 286.012 168.891 286.016 168.891
 286.016 c 165.559 300.051 158.086 301.879 148.211 316.402 c 148.211 316.406
 148.211 316.406 148.207 316.41 c 144.883 321.316 142.016 326.535 139.688
 331.914 c 138.074 335.645 140.832 339.77 144.848 339.77 c 155.547 339.77
 l 162.195 339.77 167.57 345.156 167.57 351.793 c 167.57 358.453 162.137
 363.816 155.547 363.816 c h
213.285 294.801 m 211.695 297.691 209.699 300.355 207.344 302.711 c 207.34
 302.715 207.289 302.766 207.281 302.773 c 198.867 311.188 192.203 320.992
 187.477 331.914 c 185.871 335.617 188.594 339.77 192.637 339.77 c 203.332
 339.77 l 209.961 339.77 215.355 345.16 215.355 351.793 c 215.355 358.422
 209.961 363.816 203.332 363.816 c 181.945 363.816 l 179.855 363.816 177.777
 363.68 175.723 363.406 c 177.641 360.078 178.816 355.977 178.816 351.793
 c 178.816 338.957 168.434 328.523 155.547 328.523 c 153.918 328.523 l 155.762
 325.258 157.73 322.285 159.773 319.566 c 167.5 309.289 173.391 307.098 
178.258 293.852 c 189.402 295.871 201.445 296.297 213.285 294.801 c h
180.824 282.879 m 181.328 278.285 181.113 273.531 180.293 269.195 c 200.445
 266.629 219.805 258.941 236.406 246.922 c 242.395 254.027 246.805 262.371
 249.055 271.434 c 228.527 282.863 204.523 287.059 180.824 282.879 c h
218.09 49.258 m 218.09 23.016 244.918 20.184 256.449 20.184 c 267.984 20.184
 294.812 23.016 294.812 49.258 c 294.812 55.582 293.281 61.711 290.348 67.219
 c 282.613 63.992 274.461 62.727 266.672 63.133 c 253.34 63.836 240.996 
69.484 231.734 78.586 c 223.117 71.336 218.09 60.676 218.09 49.258 c h
280.613 159.902 m 272.652 159.566 266 160.934 256.445 157.855 c 256.441
 157.855 256.441 157.855 256.441 157.855 c 238.105 151.953 225.922 134.352
 226.812 115.055 c 227.832 93.258 245.727 75.492 267.266 74.363 c 278.359
 73.781 290.371 77.496 299.641 86.664 c 307.414 94.359 317.898 98.613 329.184
 98.66 c 322.477 107.832 318.559 119.09 318.559 130.77 c 318.559 140.891
 321.473 151.062 327.125 159.898 c 320.504 159.902 287.215 159.902 280.613
 159.902 c h
366.637 123.656 m 364.781 123.656 l 355.777 123.656 348.453 130.992 348.453
 140.012 c 348.453 143.641 349.66 147.102 351.945 150.016 c 355.082 154.023
 352.258 159.902 347.133 159.902 c 341.234 159.902 l 333.977 151.879 329.867
 141.652 329.809 131 c 329.746 118.453 335.336 106.848 344.188 98.66 c 353.879
 98.66 l 364.414 98.66 372.754 107.211 372.754 117.539 c 372.754 120.91 
370.012 123.656 366.637 123.656 c h
366.637 123.656 m f
Q Q
showpage
%%Trailer
end
%%EOF
