%!PS-Adobe-3.0 EPSF-3.0
%%Creator: cairo 1.16.0 (https://cairographics.org)
%%CreationDate: Mon Aug 23 08:35:21 2021
%%Pages: 1
%%DocumentData: Clean7Bit
%%LanguageLevel: 2
%%BoundingBox: 1 0 383 384
%%EndComments
%%BeginProlog
50 dict begin
/q { gsave } bind def
/Q { grestore } bind def
/cm { 6 array astore concat } bind def
/w { setlinewidth } bind def
/J { setlinecap } bind def
/j { setlinejoin } bind def
/M { setmiterlimit } bind def
/d { setdash } bind def
/m { moveto } bind def
/l { lineto } bind def
/c { curveto } bind def
/h { closepath } bind def
/re { exch dup neg 3 1 roll 5 3 roll moveto 0 rlineto
      0 exch rlineto 0 rlineto closepath } bind def
/S { stroke } bind def
/f { fill } bind def
/f* { eofill } bind def
/n { newpath } bind def
/W { clip } bind def
/W* { eoclip } bind def
/BT { } bind def
/ET { } bind def
/BDC { mark 3 1 roll /BDC pdfmark } bind def
/EMC { mark /EMC pdfmark } bind def
/cairo_store_point { /cairo_point_y exch def /cairo_point_x exch def } def
/Tj { show currentpoint cairo_store_point } bind def
/TJ {
  {
    dup
    type /stringtype eq
    { show } { -0.001 mul 0 cairo_font_matrix dtransform rmoveto } ifelse
  } forall
  currentpoint cairo_store_point
} bind def
/cairo_selectfont { cairo_font_matrix aload pop pop pop 0 0 6 array astore
    cairo_font exch selectfont cairo_point_x cairo_point_y moveto } bind def
/Tf { pop /cairo_font exch def /cairo_font_matrix where
      { pop cairo_selectfont } if } bind def
/Td { matrix translate cairo_font_matrix matrix concatmatrix dup
      /cairo_font_matrix exch def dup 4 get exch 5 get cairo_store_point
      /cairo_font where { pop cairo_selectfont } if } bind def
/Tm { 2 copy 8 2 roll 6 array astore /cairo_font_matrix exch def
      cairo_store_point /cairo_font where { pop cairo_selectfont } if } bind def
/g { setgray } bind def
/rg { setrgbcolor } bind def
/d1 { setcachedevice } bind def
/cairo_data_source {
  CairoDataIndex CairoData length lt
    { CairoData CairoDataIndex get /CairoDataIndex CairoDataIndex 1 add def }
    { () } ifelse
} def
/cairo_flush_ascii85_file { cairo_ascii85_file status { cairo_ascii85_file flushfile } if } def
/cairo_image { image cairo_flush_ascii85_file } def
/cairo_imagemask { imagemask cairo_flush_ascii85_file } def
%%EndProlog
%%BeginSetup
%%EndSetup
%%Page: 1 1
%%BeginPageSetup
%%PageBoundingBox: 1 0 383 384
%%EndPageSetup
q 1 0 382 384 rectclip
1 0 0 -1 0 384 cm q
0.501961 0.772549 0.690196 rg
95.098 231.273 m 88.508 228.465 62.398 212.316 47.262 189.008 c 28.898 
160.695 30.785 133.039 31.621 105.762 c 32.391 82.371 31.145 66.625 12.535
 52.656 c 12.266 52.453 l 6.648 48.238 5.516 40.27 9.73 34.656 c 13.57 29.543
 20.527 28.148 25.977 31.129 c 55.871 47.43 63.754 71.27 67.461 104.227 
c 69.867 125.895 70.84 146.266 84.762 161.73 c 93.977 171.902 105.555 177.57
 116.07 182.051 c 116.082 182.059 l h
95.098 231.273 m f
0.921569 0.917647 0.960784 rg
374.059 57.488 m 369.387 32.539 l 344.637 29.996 l 338.617 56.105 l 365.086
 65.23 l 370.055 66.945 375.027 62.656 374.059 57.488 c h
374.059 57.488 m f
0.435294 0.74902 0.65098 rg
77.492 178.281 m 72 188.754 68.641 200.312 67.594 212.133 c 79.422 222.66
 91.012 229.531 95.098 231.273 c 116.082 182.059 l 116.07 182.051 l 106.355
 177.91 95.738 172.75 86.91 163.969 c 83.336 168.371 80.18 173.156 77.492
 178.281 c h
77.492 178.281 m f
199.43 160.977 m 195.727 160.773 191.844 160.391 187.766 159.797 c 182.527
 159.035 176.969 157.945 171.07 156.48 c 169.223 156.023 167.375 155.641
 165.52 155.34 c 150.426 177.852 l 135.336 157.438 l 119.418 162.336 105.555
 173.211 97.418 188.727 c 92.43 198.242 89.645 209.105 89.742 220.625 c 
90.074 257.797 121.586 287.793 158.75 287.523 c 293.707 286.547 318.316 
154.414 307.949 119.91 c 271.941 114.895 l 271.941 114.895 265.844 147.723
 229.527 158.074 c 216.566 179.496 l h
199.43 160.977 m f
0.313726 0.713726 0.572549 rg
307.949 119.914 m 271.941 114.895 l 271.941 114.895 268.84 131.57 253.91
 144.902 c 263.176 149.547 273.457 152.02 284.121 152.02 c 293.016 152.02
 301.398 151.75 309.293 151.203 c 310.719 138.012 310.059 126.938 307.949
 119.914 c h
307.949 119.914 m f
0.501961 0.772549 0.690196 rg
365.594 86.742 m 324.031 79.965 l 318.863 79.121 317.203 72.508 321.359
 69.324 c 369.387 32.539 l 377.746 26.137 375.703 13.086 365.828 9.434 c
 343.113 1.027 301.902 2.984 252.266 52.613 c 234.68 70.211 234.68 98.734
 252.266 116.32 c 261.062 125.117 272.598 129.52 284.121 129.52 c 334.898
 129.52 359.75 119.961 371.891 110.203 c 380.836 103.016 376.922 88.59 365.594
 86.742 c h
365.594 86.742 m f
0.921569 0.917647 0.960784 rg
309.223 79.5 m 312.879 88.48 306.699 99.484 295.422 104.078 c 284.145 108.668
 272.035 105.109 268.379 96.129 c 264.723 87.148 270.902 76.145 282.18 71.551
 c 293.457 66.961 305.566 70.52 309.223 79.5 c h
309.223 79.5 m f
0.313726 0.713726 0.572549 rg
236.152 222.461 m 222.281 232.332 205.312 238.141 186.988 238.141 c 148.32
 238.141 115.699 212.285 105.453 176.922 c 102.391 180.484 99.68 184.418
 97.418 188.727 c 92.43 198.246 89.645 209.109 89.742 220.625 c 90.07 257.797
 121.586 287.793 158.75 287.523 c 205.039 287.188 238.344 271.422 261.711
 249.461 c h
236.152 222.461 m f
0.501961 0.772549 0.690196 rg
173.43 330.137 m 170.422 334.574 167.82 339.293 165.68 344.238 c 176.027
 344.238 l 180.738 344.238 185 346.145 188.09 349.234 c 191.18 352.324 193.094
 356.594 193.094 361.305 c 193.094 370.734 185.453 378.375 176.027 378.375
 c 142.957 378.375 l 129.68 378.375 118.922 367.613 118.922 354.348 c 118.922
 350.359 119.914 346.434 121.809 342.934 c 123.676 339.461 l 128.797 329.984
 132.27 319.84 134.242 309.371 c 121.043 296.176 l 114.344 289.477 111.004
 280.703 111.004 271.93 c 111.004 262.922 114.527 253.926 121.551 247.184
 c 122.422 246.348 123.32 245.574 124.25 244.848 c 137.734 234.344 157.195
 235.328 169.543 247.676 c 183.734 261.863 l 188.047 266.18 191.156 271.246
 193.059 276.641 c 195.59 283.82 195.973 291.586 194.223 298.945 c 192.594
 305.816 189.09 312.336 183.734 317.695 c 183.688 317.738 l 179.883 321.551
 176.445 325.699 173.43 330.137 c h
173.43 330.137 m f
290.902 244.211 m 278.039 240.449 266.738 231.367 258.918 223.609 c 251.812
 216.559 240.68 215.621 232.484 221.367 c 221.91 228.781 220.652 243.953
 229.836 253.035 c 241.301 264.371 258.324 277.73 279.297 283.867 c 290.207
 287.062 301.711 280.828 304.926 269.844 c 308.133 258.895 301.852 247.418
 290.902 244.211 c h
290.902 244.211 m f
0.976471 0.729412 0.427451 rg
165.52 155.34 m 165.52 186.121 l 165.52 190.281 163.828 194.059 161.102
 196.789 c 158.367 199.523 154.598 201.211 150.426 201.211 c 142.098 201.211
 135.336 194.449 135.336 186.121 c 135.336 157.438 l 144.914 154.477 155.242
 153.688 165.52 155.34 c h
165.52 155.34 m f
233.703 185.84 m 233.703 193.145 228.383 199.566 220.945 200.73 c 212.715
 202.023 204.992 196.398 203.699 188.164 c 199.434 160.977 l 211.25 161.645
 221.18 160.449 229.527 158.074 c 233.516 183.484 l 233.645 184.277 233.703
 185.059 233.703 185.84 c h
233.703 185.84 m f
0 g
289.105 69.371 m 290.277 72.25 293.559 73.633 296.438 72.461 c 299.312 
71.289 300.695 68.004 299.523 65.129 c 296.125 56.777 l 294.953 53.902 291.668
 52.52 288.793 53.691 c 285.914 54.863 284.531 58.145 285.703 61.023 c h
289.105 69.371 m f
227.918 152.668 m 190.059 163.434 168.723 141.215 133.605 152.066 c 122.188
 155.582 112.125 161.75 104.09 169.984 c 97.898 166.395 92.996 162.516 88.879
 157.969 c 77.398 145.215 75.637 128.574 73.602 109.301 c 69.613 71.57 62.523
 44.688 28.613 26.199 c 20.68 21.863 10.602 24.047 5.168 31.285 c -0.91 
39.383 1.098 51.148 9.098 57.16 c 25.875 69.75 26.652 83.852 25.934 105.59
 c 25.035 132.969 24.082 156.766 36.766 182.086 c 38.16 184.863 41.539 185.984
 44.316 184.594 c 47.094 183.203 48.215 179.82 46.824 177.047 c 35.602 154.645
 36.309 132.898 37.055 109.875 c 37.906 83.602 38.035 64.812 15.852 48.16
 c 12.703 45.801 11.676 41.355 14.164 38.039 c 16.266 35.242 20.156 34.398
 23.223 36.07 c 53.367 52.508 58.832 76.617 62.414 110.484 c 64.562 130.82
 66.594 150.031 80.527 165.508 c 85.02 170.465 90.395 174.836 96.848 178.766
 c 89.281 189.598 84.469 203.43 84.078 218.113 c 75.695 212.184 66.117 204.023
 58.324 194.613 c 56.344 192.223 52.797 191.887 50.402 193.871 c 48.012 
195.852 47.68 199.398 49.66 201.789 c 60.566 214.957 74.676 225.871 85.098
 232.254 c 87.602 246.809 94.566 260.23 105.336 271.039 c 105.098 281.906
 109.293 292.441 117.004 300.152 c 128.062 311.215 l 124.973 325.371 119.75
 334.844 117.703 338.551 c 105.074 361.453 121.652 384 142.895 384 c 175.961
 384 l 185.293 384 193.309 378.637 196.887 370.004 c 200.477 361.34 198.605
 351.859 192.004 345.258 c 186.309 339.562 180.016 338.625 174.723 338.582
 c 185.215 320.195 195.129 319.227 199.633 300.246 c 200.668 295.895 201.059
 291.863 200.965 288.102 c 215.879 284.445 229.742 278.766 242.277 271.172
 c 252.086 278.418 264.047 285.285 277.652 289.266 c 291.586 293.348 306.176
 285.375 310.258 271.426 c 314.34 257.484 306.359 242.898 292.418 238.816
 c 288.945 237.801 285.59 236.332 282.398 234.602 c 292.516 221.117 300.586
 205.746 306.418 188.82 c 307.43 185.883 305.867 182.684 302.93 181.672 
c 299.996 180.656 296.793 182.219 295.781 185.156 c 290.246 201.227 282.574
 215.766 272.949 228.457 c 269.336 225.715 265.934 222.715 262.812 219.617
 c 253.742 210.613 239.578 209.484 229.191 216.766 c 215.75 226.188 214.137
 245.488 225.816 257.039 c 225.824 257.043 225.828 257.051 225.836 257.055
 c 228.125 259.32 230.457 261.484 232.902 263.629 c 222.523 269.469 211.207
 273.941 199.113 276.98 c 196.816 269.738 193.02 263.266 187.645 257.891
 c 187.57 257.812 172.422 242.664 173.457 243.703 c 159.242 229.484 136.574
 228.07 120.723 240.418 c 120.715 240.426 120.707 240.434 120.695 240.441
 c 114.938 244.949 110.688 250.746 108.121 257.227 c 83.57 225.664 96.238
 180.777 129.645 165.578 c 129.645 186.121 l 129.645 197.547 138.941 206.84
 150.363 206.84 c 161.805 206.84 171.082 197.566 171.082 186.121 c 171.082
 162.293 l 178.75 164.137 186.676 165.559 194.504 166.266 c 197.172 183.27
 l 198.219 189.898 198.504 196.855 206.344 202.566 c 210.918 205.902 216.418
 207.125 221.754 206.293 c 233.332 204.477 240.785 193.734 239.008 182.613
 c 235.766 161.961 l 253.938 155.461 264.457 143.633 270.457 133.297 c 279.445
 135.789 291.328 135.336 304.309 134.598 c 304.613 143.312 303.648 153.602
 301.504 164.195 c 300.887 167.238 302.852 170.207 305.898 170.824 c 308.945
 171.441 311.91 169.473 312.527 166.43 c 314.879 154.824 315.91 143.449 
315.527 133.734 c 342.742 131.078 362.805 124.676 375.348 114.594 c 388.07
 104.371 382.586 83.828 366.434 81.195 c 324.871 74.418 l 324.559 74.367
 324.465 73.988 324.715 73.793 c 339.574 62.414 l 363.184 70.555 l 372.23
 73.676 381.285 65.875 379.52 56.457 c 375.414 34.531 l 383.973 24.973 380.691
 8.965 367.715 4.164 c 351.254 -1.926 306.656 -9.781 248.223 48.645 c 228.473
 68.406 228.473 100.551 248.227 120.305 c 251.73 123.809 255.66 126.727 
259.891 129.031 c 254.336 137.973 244.637 147.902 227.918 152.668 c h
289.258 249.613 m 297.23 251.945 301.797 260.289 299.461 268.266 c 297.117
 276.281 288.742 280.789 280.809 278.469 c 263.156 273.305 246.938 262.098
 233.746 249.059 c 233.742 249.051 233.734 249.047 233.727 249.039 c 227.02
 242.406 227.969 231.363 235.648 225.977 c 235.66 225.969 235.672 225.961
 235.68 225.957 c 241.613 221.816 249.715 222.473 254.891 227.602 c 264.43
 237.066 276.461 245.867 289.258 249.613 c h
188.688 297.648 m 184.695 314.465 171.719 315.965 160.453 342.008 c 158.945
 345.5 161.27 349.465 165.062 349.836 c 167.23 350.051 169.363 349.977 171.426
 349.902 c 177.004 349.699 180.594 349.754 184.051 353.211 c 188.02 357.184
 187.914 362.266 186.492 365.699 c 184.664 370.113 180.727 372.75 175.961
 372.75 c 142.891 372.75 l 130.039 372.75 119.148 359.227 127.555 343.984
 c 129.973 339.598 136.402 327.945 139.703 310.414 c 140.047 308.586 139.469
 306.707 138.156 305.395 c 124.961 292.199 l 112.715 279.953 114.09 259.871
 127.645 249.289 c 138.828 240.574 155.086 241.293 165.457 251.609 c 165.539
 251.703 165.57 251.898 178.137 264.289 c 187.406 274.258 191.836 284.387
 188.688 297.648 c h
150.363 195.59 m 145.145 195.59 140.898 191.344 140.898 186.121 c 140.898
 161.738 l 147.062 160.289 153.484 159.812 159.832 160.324 c 159.832 186.121
 l 159.832 191.246 155.688 195.59 150.363 195.59 c h
224.852 164.973 m 227.898 184.375 l 228.727 189.527 225.086 194.383 220.008
 195.176 c 219.996 195.18 219.984 195.18 219.973 195.18 c 214.77 195.977
 209.988 192.379 209.191 187.293 c 205.973 166.785 l 212.617 166.77 218.93
 166.164 224.852 164.973 c h
366.852 59.918 m 350.289 54.207 l 365.477 42.574 l 368.465 58.527 l 368.637
 59.465 367.75 60.227 366.852 59.918 c h
256.18 56.598 m 277.848 34.93 299.539 20.824 320.652 14.664 c 334.789 10.543
 350.105 9.641 363.809 14.711 c 369.551 16.836 370.738 24.375 365.898 28.078
 c 355.621 35.949 327.945 57.148 317.875 64.863 c 309.793 71.055 313.031
 83.883 323.059 85.52 c 364.621 92.297 l 371.203 93.371 373.434 101.699 
368.301 105.824 c 359.656 112.773 342.004 120.844 306.129 123.215 c 286.316
 124.512 269.895 126.062 256.18 112.348 c 240.812 96.98 240.812 71.969 256.18
 56.598 c h
256.18 56.598 m f
Q Q
showpage
%%Trailer
end
%%EOF
