%!PS-Adobe-3.0 EPSF-3.0
%%Creator: cairo 1.16.0 (https://cairographics.org)
%%CreationDate: Mon Aug 23 08:35:21 2021
%%Pages: 1
%%DocumentData: Clean7Bit
%%LanguageLevel: 2
%%BoundingBox: 0 5 384 379
%%EndComments
%%BeginProlog
50 dict begin
/q { gsave } bind def
/Q { grestore } bind def
/cm { 6 array astore concat } bind def
/w { setlinewidth } bind def
/J { setlinecap } bind def
/j { setlinejoin } bind def
/M { setmiterlimit } bind def
/d { setdash } bind def
/m { moveto } bind def
/l { lineto } bind def
/c { curveto } bind def
/h { closepath } bind def
/re { exch dup neg 3 1 roll 5 3 roll moveto 0 rlineto
      0 exch rlineto 0 rlineto closepath } bind def
/S { stroke } bind def
/f { fill } bind def
/f* { eofill } bind def
/n { newpath } bind def
/W { clip } bind def
/W* { eoclip } bind def
/BT { } bind def
/ET { } bind def
/BDC { mark 3 1 roll /BDC pdfmark } bind def
/EMC { mark /EMC pdfmark } bind def
/cairo_store_point { /cairo_point_y exch def /cairo_point_x exch def } def
/Tj { show currentpoint cairo_store_point } bind def
/TJ {
  {
    dup
    type /stringtype eq
    { show } { -0.001 mul 0 cairo_font_matrix dtransform rmoveto } ifelse
  } forall
  currentpoint cairo_store_point
} bind def
/cairo_selectfont { cairo_font_matrix aload pop pop pop 0 0 6 array astore
    cairo_font exch selectfont cairo_point_x cairo_point_y moveto } bind def
/Tf { pop /cairo_font exch def /cairo_font_matrix where
      { pop cairo_selectfont } if } bind def
/Td { matrix translate cairo_font_matrix matrix concatmatrix dup
      /cairo_font_matrix exch def dup 4 get exch 5 get cairo_store_point
      /cairo_font where { pop cairo_selectfont } if } bind def
/Tm { 2 copy 8 2 roll 6 array astore /cairo_font_matrix exch def
      cairo_store_point /cairo_font where { pop cairo_selectfont } if } bind def
/g { setgray } bind def
/rg { setrgbcolor } bind def
/d1 { setcachedevice } bind def
/cairo_data_source {
  CairoDataIndex CairoData length lt
    { CairoData CairoDataIndex get /CairoDataIndex CairoDataIndex 1 add def }
    { () } ifelse
} def
/cairo_flush_ascii85_file { cairo_ascii85_file status { cairo_ascii85_file flushfile } if } def
/cairo_image { image cairo_flush_ascii85_file } def
/cairo_imagemask { imagemask cairo_flush_ascii85_file } def
%%EndProlog
%%BeginSetup
%%EndSetup
%%Page: 1 1
%%BeginPageSetup
%%PageBoundingBox: 0 5 384 379
%%EndPageSetup
q 0 5 384 374 rectclip
1 0 0 -1 0 384 cm q
0.239216 0.356863 0.462745 rg
194.992 315.621 m 215.203 315.621 l 231.02 315.621 245.484 324.543 252.578
 338.684 c 258.629 350.738 249.863 364.945 236.371 364.945 c 175.668 364.945
 l h
194.992 315.621 m f
0.321569 0.419608 0.501961 rg
175.668 364.945 m 104.004 364.945 l 68.922 364.945 37.199 344.07 23.316
 311.852 c 19.461 302.898 28.082 293.59 37.281 296.816 c 54.41 302.832 78.965
 307.91 107.398 303.289 c 138.547 332.188 l h
175.668 364.945 m f
0.239216 0.356863 0.462745 rg
138.547 332.188 m 107.398 303.289 l 80.074 307.727 56.34 303.215 39.328
 297.52 c 66.016 333.117 101.777 355.586 144.047 363.23 c 144.309 363.785
 144.578 364.359 144.855 364.945 c 175.668 364.945 l h
138.547 332.188 m f
0.921569 0.917647 0.960784 rg
126.227 223.266 m 96.234 193.555 77.098 154.824 70.719 113.094 c 66.391
 84.758 53.352 66.562 40.074 55.059 c 26.598 43.383 5.637 52.973 5.637 70.805
 c 5.637 163.621 l 5.637 201.797 31.395 315.242 138.547 332.188 c 139.738
 332.379 149.508 357.078 149.508 357.078 c 170.652 310.004 l h
126.227 223.266 m f
0.423529 0.501961 0.588235 rg
187.062 186.637 m 187.062 186.637 205.102 197.461 216.523 224.859 c 230.707
 258.875 220.027 298.57 189.762 319.602 c 181.652 325.238 172.133 329.582
 161.152 331.152 c 170.652 310.004 l 126.227 223.266 l h
187.062 186.637 m f
187.887 186.625 m 211.984 158.941 207.707 119.598 207.707 119.598 c 172.316
 113.531 l 172.316 113.531 173.973 153.074 148.09 179.098 c h
187.887 186.625 m f
0.937255 0.501961 0.498039 rg
378.363 80.523 m 376.152 75.152 l 377.422 67.32 l 373.758 45.883 360.098
 35.145 345.695 29.879 c 327.672 23.285 307.773 26.406 291.816 37.348 c 
288.801 39.418 285.348 41.578 281.504 43.68 c 278.246 45.457 274.656 46.109
 271.16 45.75 c 146.008 82.996 l 151.715 104.797 166.863 131.895 206.938
 131.895 c 235.078 131.895 250.578 119.625 259.105 105.383 c 272.668 109.312
 283.789 115.484 291.816 120.988 c 307.773 131.938 327.672 135.051 345.695
 128.465 c 362.277 122.406 377.883 109.086 378.363 80.523 c h
378.363 80.523 m f
0.423529 0.501961 0.588235 rg
271.16 45.75 m 261.469 58.434 228.633 90.141 146.008 82.996 c 144.445 77.039
 143.59 71.48 143.125 66.98 c 142.406 60.043 137.98 54.043 131.598 51.238
 c 125.141 48.398 l 117.477 45.027 112.75 37.102 113.598 28.621 c 114.598
 18.598 123.305 11.105 133.375 11.105 c 186.695 11.105 l 214.219 11.105 
240.477 21.773 260.125 40.551 c 260.156 40.582 260.188 40.605 260.215 40.633
 c 263.285 43.582 267.152 45.336 271.16 45.75 c h
271.16 45.75 m f
0.815686 0.811765 0.909804 rg
30.367 146.203 m 30.367 117.871 38.863 91.531 53.438 69.57 c 49.246 63.836
 44.676 59.043 40.074 55.059 c 26.598 43.383 5.637 52.973 5.637 70.805 c
 5.637 163.621 l 5.637 201.797 31.395 315.246 138.547 332.188 c 139.738 
332.379 149.508 357.078 149.508 357.078 c 170.652 310.004 l 157.578 284.48
 l 86.348 278.613 30.367 218.949 30.367 146.203 c h
30.367 146.203 m f
0.321569 0.419608 0.501961 rg
138.547 332.191 m 147.895 321.598 147.922 305.711 138.613 295.082 c 117.43
 270.898 l 106.207 258.086 100.48 241.219 102.191 224.27 c 104.109 205.285
 114.707 188.488 130.867 178.586 c 159.438 161.074 l 171.285 153.812 186.848
 157.715 193.828 169.84 c 200.562 181.527 196.367 196.504 184.867 203.555
 c 156.738 220.797 l 150.824 224.422 149.594 232.484 154.168 237.707 c 175.852
 262.465 l 201.48 291.723 201.402 335.781 175.668 364.945 c 167.086 374.672
 152.238 375.602 142.512 367.016 c 140.617 365.348 l 130.891 356.762 129.965
 341.918 138.547 332.191 c h
138.547 332.191 m f
0.92549 0.415686 0.384314 rg
170.953 75.57 m 146.008 82.996 l 151.715 104.797 166.863 131.895 206.938
 131.895 c 207.199 131.895 207.449 131.887 207.711 131.883 c 187.414 120.637
 173.145 99.848 170.953 75.57 c h
170.953 75.57 m f
0.321569 0.419608 0.501961 rg
170.652 69.027 m 170.652 45.684 181.793 24.949 199.039 11.828 c 194.965
 11.352 190.844 11.105 186.695 11.105 c 133.375 11.105 l 123.305 11.105 
114.598 18.598 113.598 28.621 c 112.75 37.102 117.477 45.027 125.141 48.398
 c 131.598 51.238 l 137.98 54.043 142.406 60.043 143.125 66.98 c 143.59 
71.48 144.445 77.039 146.008 82.996 c 155.375 83.805 164.094 84.109 172.223
 84.008 c 171.195 79.176 170.652 74.164 170.652 69.027 c h
170.652 69.027 m f
0 g
212.797 45.879 m 218.184 47.32 l 217.988 47.898 217.875 48.512 217.875 
49.152 c 217.875 56.984 l 217.875 60.09 220.395 62.609 223.5 62.609 c 226.605
 62.609 229.125 60.09 229.125 56.984 c 229.125 50.254 l 230.973 50.75 l 
233.988 51.559 237.062 49.758 237.863 46.773 c 238.668 43.77 236.887 40.688
 233.887 39.883 c 215.707 35.012 l 212.711 34.207 209.621 35.988 208.816
 38.988 c 208.016 41.988 209.793 45.074 212.797 45.879 c h
212.797 45.879 m f
343.281 61.879 m 349.422 66.996 l 351.805 68.98 355.352 68.668 357.348 
66.277 c 359.336 63.891 359.012 60.344 356.625 58.352 c 350.484 53.234 l
 348.098 51.246 344.551 51.566 342.559 53.953 c 340.57 56.344 340.895 59.891
 343.281 61.879 c h
343.281 61.879 m f
257.656 336.203 m 249.555 320.059 233.301 310.031 215.242 310.031 c 208.637
 310.031 l 225.699 289.832 232.441 261.832 225.883 235.238 c 225.141 232.223
 222.09 230.379 219.074 231.125 c 216.059 231.867 214.215 234.918 214.961
 237.934 c 220.664 261.051 214.809 285.375 199.98 302.859 c 197.883 286.609
 190.961 271.164 180.117 258.781 c 158.426 234.016 l 156.113 231.379 156.797
 227.387 159.703 225.605 c 187.84 208.359 l 187.848 208.355 187.855 208.348
 187.863 208.344 c 190.641 206.637 193.348 204.344 195.586 201.637 c 199.281
 205.777 203.512 211.391 207.383 218.629 c 208.848 221.371 212.258 222.402
 214.996 220.938 c 217.734 219.473 218.77 216.066 217.305 213.324 c 211.969
 203.344 205.98 196.066 201.219 191.199 c 202.773 186.277 203.102 181.004
 202.074 175.902 c 209.336 162.395 212.184 148.242 213.184 137.301 c 234.309
 135.906 250.879 127.246 261.57 112 c 271.016 115.16 280.129 119.727 288.707
 125.613 c 306.387 137.742 328.449 140.777 347.719 133.738 c 369.5 125.773
 381.996 109.121 383.855 85.574 c 384.332 79.531 383.711 65.484 380.539 
56.477 c 375.199 41.301 364.156 30.562 347.723 24.555 c 328.457 17.504 306.398
 20.539 288.707 32.672 c 285.559 34.832 282.25 36.863 278.879 38.703 c 274.539
 41.074 268.891 40.812 264.008 36.402 c 243.094 16.438 215.648 5.441 186.727
 5.441 c 133.398 5.441 l 120.211 5.441 109.301 15.152 108.016 28.027 c 106.934
 38.887 112.914 49.133 122.895 53.516 c 129.355 56.359 l 133.906 58.359 
137.047 62.645 137.555 67.535 c 138.152 73.32 139.172 78.996 140.59 84.398
 c 140.602 84.453 140.625 84.496 140.641 84.547 c 144.863 100.574 152.77
 115.215 166.117 125.156 c 165.172 133.484 162.906 144.594 157.66 155.617
 c 157.277 155.832 156.898 156.047 156.523 156.277 c 127.945 173.793 l 119.883
 178.734 113.137 185.172 107.961 192.668 c 91.637 168.938 80.73 141.305 
76.285 112.23 c 72.398 86.785 61.453 66.109 43.754 50.777 c 26.629 35.941
 0 48.129 0 70.781 c 0 163.621 l 0 179.734 4.207 207.184 16.02 235.902 c
 17.199 238.777 20.488 240.148 23.359 238.965 c 26.234 237.785 27.605 234.496
 26.426 231.625 c 15.227 204.391 11.25 177.973 11.25 163.621 c 11.25 70.781
 l 11.25 57.812 26.477 50.695 36.391 59.281 c 52.008 72.816 61.691 91.199
 65.164 113.93 c 70.148 146.539 82.824 177.449 101.887 203.555 c 92.578 
224.77 94.902 249.477 108.871 269.129 c 112.344 274.016 113.742 275.074 
134.406 298.82 c 141.238 306.621 141.633 318.164 136.191 326.113 c 90.504
 317.895 57.277 290.535 35.773 251.246 c 34.281 248.523 30.863 247.523 28.137
 249.012 c 25.41 250.504 24.41 253.922 25.902 256.648 c 32.844 269.328 42.371
 283.305 55.203 296.133 c 49.785 294.918 44.418 293.395 39.141 291.543 c
 25.32 286.691 12.34 300.645 18.145 314.113 c 32.934 348.441 66.641 370.621
 104.02 370.621 c 138.059 370.621 l 138.812 371.285 l 150.172 381.309 167.23
 380.859 178.066 370.621 c 236.418 370.621 l 254.117 370.621 265.574 351.984
 257.656 336.203 c 104.02 359.371 m 71.141 359.371 41.484 339.859 28.477
 309.664 c 26.578 305.258 30.781 300.531 35.414 302.16 c 47.031 306.238 
59.039 308.895 71.125 310.059 c 88.762 323.316 108.949 332 129.402 336.262
 c 126.176 343.672 126.215 352.043 129.426 359.371 c h
150.543 77.672 m 149.746 74.008 149.141 70.223 148.746 66.375 c 147.82 
57.469 142.125 49.684 133.883 46.062 c 127.422 43.219 l 121.91 40.797 118.613
 35.141 119.211 29.141 c 119.906 22.16 126.137 16.691 133.398 16.691 c 186.727
 16.691 l 212.758 16.691 237.457 26.594 256.277 44.574 c 257.801 46.039 
259.477 47.305 261.383 48.371 c 234.176 75.531 188.762 80.445 150.543 77.672
 c h
200.328 321.285 m 215.242 321.285 l 229.02 321.285 241.418 328.934 247.602
 341.25 c 251.777 349.574 245.715 359.371 236.418 359.371 c 187.051 359.371
 l 194.594 347.891 199.109 334.586 200.328 321.285 c h
181.977 198.758 m 181.973 198.758 181.969 198.762 181.961 198.766 c 153.824
 216.012 l 144.914 221.477 143.113 233.609 149.961 241.43 c 171.652 266.195
 l 183.594 279.828 189.859 297.387 189.391 315.523 c 189.391 315.527 189.391
 315.531 189.391 315.535 c 189.391 315.543 189.387 315.551 189.387 315.555
 c 188.926 333.066 182.16 349.168 171.48 361.273 c 164.961 368.664 153.645
 369.371 146.258 362.848 c 144.363 361.18 l 137.059 354.734 136.199 343.418
 142.785 335.953 c 153.891 323.367 154.062 304.191 142.867 291.41 c 121.887
 267.324 120.992 266.766 118.051 262.629 c 98.973 235.809 106.879 199.902
 133.824 183.387 c 162.402 165.871 l 171.453 160.324 183.051 163.371 188.508
 171.859 c 194.344 180.961 191.121 193.145 181.977 198.758 c h
195.805 162.809 m 189.691 155.387 180.609 151.531 171.434 151.805 c 174.07
 144.516 175.668 137.484 176.629 131.379 c 184.496 134.996 193.156 136.863
 201.879 137.363 c 201.121 144.832 199.414 153.805 195.805 162.809 c h
343.859 123.172 m 327.996 128.965 309.758 126.41 295.074 116.336 c 284.309
 108.953 272.758 103.441 260.742 99.961 c 258.285 99.25 255.66 100.281 254.348
 102.473 c 244.305 119.25 227.254 126.246 207.871 126.246 c 205.648 125.668
 168.852 130.465 153.852 89.18 c 196.344 91.637 246.285 84.32 273.855 51.422
 c 277.496 51.301 281.047 50.34 284.273 48.578 c 287.977 46.555 291.609 
44.324 295.074 41.949 c 309.766 31.875 328.004 29.32 343.859 35.121 c 356.988
 39.918 365.758 48.359 369.93 60.211 c 371.074 63.465 371.812 67.074 372.137
 70.938 c 355.73 86.922 l 354.441 88.176 352.422 88.176 351.133 86.922 c
 337.824 73.957 l 332.133 68.414 323.219 68.414 317.527 73.957 c 304.219
 86.918 l 302.934 88.176 300.91 88.176 299.625 86.918 c 288.727 76.309 l
 286.504 74.141 282.941 74.184 280.773 76.41 c 278.605 78.637 278.652 82.199
 280.879 84.367 c 291.773 94.977 l 297.465 100.523 306.379 100.52 312.07
 94.977 c 325.379 82.016 l 326.668 80.762 328.684 80.762 329.973 82.016 
c 343.281 94.977 l 348.973 100.52 357.887 100.523 363.578 94.977 c 372.492
 86.297 l 370.574 104.52 360.949 116.922 343.859 123.172 c h
343.859 123.172 m f
Q Q
showpage
%%Trailer
end
%%EOF
