%!PS-Adobe-3.0 EPSF-3.0
%%Creator: cairo 1.16.0 (https://cairographics.org)
%%CreationDate: Mon Aug 23 08:35:22 2021
%%Pages: 1
%%DocumentData: Clean7Bit
%%LanguageLevel: 2
%%BoundingBox: 5 0 379 384
%%EndComments
%%BeginProlog
50 dict begin
/q { gsave } bind def
/Q { grestore } bind def
/cm { 6 array astore concat } bind def
/w { setlinewidth } bind def
/J { setlinecap } bind def
/j { setlinejoin } bind def
/M { setmiterlimit } bind def
/d { setdash } bind def
/m { moveto } bind def
/l { lineto } bind def
/c { curveto } bind def
/h { closepath } bind def
/re { exch dup neg 3 1 roll 5 3 roll moveto 0 rlineto
      0 exch rlineto 0 rlineto closepath } bind def
/S { stroke } bind def
/f { fill } bind def
/f* { eofill } bind def
/n { newpath } bind def
/W { clip } bind def
/W* { eoclip } bind def
/BT { } bind def
/ET { } bind def
/BDC { mark 3 1 roll /BDC pdfmark } bind def
/EMC { mark /EMC pdfmark } bind def
/cairo_store_point { /cairo_point_y exch def /cairo_point_x exch def } def
/Tj { show currentpoint cairo_store_point } bind def
/TJ {
  {
    dup
    type /stringtype eq
    { show } { -0.001 mul 0 cairo_font_matrix dtransform rmoveto } ifelse
  } forall
  currentpoint cairo_store_point
} bind def
/cairo_selectfont { cairo_font_matrix aload pop pop pop 0 0 6 array astore
    cairo_font exch selectfont cairo_point_x cairo_point_y moveto } bind def
/Tf { pop /cairo_font exch def /cairo_font_matrix where
      { pop cairo_selectfont } if } bind def
/Td { matrix translate cairo_font_matrix matrix concatmatrix dup
      /cairo_font_matrix exch def dup 4 get exch 5 get cairo_store_point
      /cairo_font where { pop cairo_selectfont } if } bind def
/Tm { 2 copy 8 2 roll 6 array astore /cairo_font_matrix exch def
      cairo_store_point /cairo_font where { pop cairo_selectfont } if } bind def
/g { setgray } bind def
/rg { setrgbcolor } bind def
/d1 { setcachedevice } bind def
/cairo_data_source {
  CairoDataIndex CairoData length lt
    { CairoData CairoDataIndex get /CairoDataIndex CairoDataIndex 1 add def }
    { () } ifelse
} def
/cairo_flush_ascii85_file { cairo_ascii85_file status { cairo_ascii85_file flushfile } if } def
/cairo_image { image cairo_flush_ascii85_file } def
/cairo_imagemask { imagemask cairo_flush_ascii85_file } def
%%EndProlog
%%BeginSetup
%%EndSetup
%%Page: 1 1
%%BeginPageSetup
%%PageBoundingBox: 5 0 379 384
%%EndPageSetup
q 5 0 374 384 rectclip
1 0 0 -1 0 384 cm q
0.552941 0.556863 0.772549 rg
154.113 344.695 m 143.91 344.695 l 148.133 334.941 154.16 326.07 161.68
 318.555 c 161.723 318.512 l 176.934 303.301 176.934 278.637 161.723 263.426
 c 150.961 252.668 133.52 252.668 122.758 263.426 c 117.082 269.105 114.398
 276.645 114.715 284.082 c 84.141 325.918 l 84.141 359.234 l 110.613 372.801
 l 117.758 376.465 125.676 378.375 133.707 378.375 c 154.113 378.375 l 163.414
 378.375 170.953 370.836 170.953 361.535 c 170.953 352.234 163.414 344.695
 154.113 344.695 c h
154.113 344.695 m f
60.09 63.707 m 40.621 109.555 42.098 157.586 83.605 186.734 c 54.125 228.715
 l 48.668 224.879 38.551 213.008 33.262 205.551 c -9.02 144.984 20.164 79.242
 36.883 51.734 c 40.664 45.512 48.785 43.562 54.973 47.398 c 60.484 50.816
 62.625 57.738 60.09 63.707 c h
60.09 63.707 m f
0.815686 0.811765 0.909804 rg
168.871 229.035 m 164.539 229.035 161.762 228.805 160.996 228.734 c 165.203
 184.344 l 165.059 184.332 l 167.527 184.535 225.938 188.609 257.98 132.195
 c 296.75 154.215 l 277.512 188.082 248.078 211.738 211.621 222.621 c 193.453
 228.047 177.836 229.035 168.871 229.035 c h
168.871 229.035 m f
0.941176 0.556863 0.619608 rg
336.875 46.559 m 336.875 77.375 304.465 117.215 273.648 117.215 c 242.832
 117.215 217.852 92.234 217.852 61.422 c 217.852 30.605 242.832 5.625 273.648
 5.625 c 304.465 5.625 336.875 15.742 336.875 46.559 c h
336.875 46.559 m f
0.407843 0.435294 0.694118 rg
161.719 263.426 m 150.961 252.668 133.516 252.668 122.758 263.426 c 117.082
 269.105 114.398 276.645 114.715 284.082 c 92.008 315.152 l 98.504 316.449
 105.246 317.141 112.168 317.141 c 112.176 317.141 l 122.961 317.141 133.754
 315.488 144.254 312.238 c 154.359 309.105 163.793 304.613 172.293 298.961
 c 174.891 286.531 171.371 273.078 161.719 263.426 c h
161.719 263.426 m f
0.552941 0.556863 0.772549 rg
190.414 205.562 m 201.148 240.195 177.5 278.301 137.598 290.672 c 97.691
 303.039 56.637 284.988 45.902 250.352 c 35.168 215.715 58.812 177.609 98.719
 165.242 c 117.883 159.301 138.309 160.211 155.504 167.773 c 172.703 175.336
 185.258 188.926 190.414 205.562 c h
190.414 205.562 m f
0.407843 0.435294 0.694118 rg
71.77 198.371 m 71.77 191.328 72.438 184.441 73.695 177.766 c 49.656 195.234
 37.66 223.836 45.891 250.406 c 55.578 281.672 89.961 299.43 125.918 293.504
 c 93.496 274.215 71.77 238.832 71.77 198.371 c h
71.77 198.371 m f
0.815686 0.811765 0.909804 rg
105.957 330.785 m 102.988 335.16 100.418 339.816 98.309 344.695 c 108.516
 344.695 l 113.168 344.695 117.375 346.578 120.422 349.625 c 123.469 352.672
 125.355 356.887 125.355 361.535 c 125.355 370.836 117.816 378.375 108.516
 378.375 c 75.891 378.375 l 62.793 378.375 52.176 367.762 52.176 354.668
 c 52.176 350.734 53.156 346.867 55.023 343.41 c 56.871 339.984 l 61.922
 330.633 65.348 320.625 67.293 310.297 c 54.273 297.277 l 47.664 290.668
 44.367 282.012 44.367 273.355 c 44.367 264.473 47.844 255.594 54.773 248.941
 c 55.633 248.117 56.52 247.355 57.438 246.637 c 70.742 236.273 89.941 237.246
 102.121 249.43 c 116.121 263.43 l 120.379 267.684 123.449 272.684 125.32
 278.008 c 127.82 285.09 128.199 292.75 126.473 300.012 c 124.863 306.793
 121.41 313.223 116.125 318.508 c 116.082 318.551 l 112.32 322.312 108.934
 326.406 105.957 330.785 c h
105.957 330.785 m f
0.921569 0.917647 0.960784 rg
273.891 310.812 m 273.891 333.312 255.648 351.555 233.148 351.555 c 210.648
 351.555 192.406 333.312 192.406 310.812 c 192.406 288.312 210.648 253.602
 233.148 253.602 c 255.648 253.602 273.891 288.312 273.891 310.812 c h
273.891 310.812 m f
0.815686 0.811765 0.909804 rg
226.004 284.992 m 226.004 273.703 228.688 263.043 233.445 253.609 c 233.348
 253.609 233.246 253.602 233.148 253.602 c 210.648 253.602 192.406 288.312
 192.406 310.812 c 192.406 333.316 210.648 351.555 233.148 351.555 c 242.324
 351.555 250.789 348.52 257.602 343.402 c 238.574 330.938 226.004 309.434
 226.004 284.992 c h
226.004 284.992 m f
0.921569 0.917647 0.960784 rg
185.316 309.559 m 150.484 274.727 l 143.039 267.285 143.039 255.215 150.484
 247.773 c 157.926 240.328 169.992 240.328 177.438 247.773 c 212.27 282.605
 l 219.715 290.051 219.715 302.117 212.27 309.559 c 204.828 317.004 192.762
 317.004 185.316 309.559 c h
185.316 309.559 m f
0.552941 0.556863 0.772549 rg
257.98 132.195 m 248.121 149.551 235.77 161.172 223.32 168.953 c 223.75
 169.473 224.191 169.992 224.637 170.504 c 235.062 182.426 248.859 190.648
 263.977 194.262 c 276.855 183.242 287.887 169.816 296.75 154.215 c h
257.98 132.195 m f
0.815686 0.811765 0.909804 rg
370.906 104.508 m 362.668 92.785 346.672 89.004 335.164 87.793 c 327.203
 86.957 319.629 83.891 313.375 78.898 c 303.922 71.352 292.031 67.098 278.652
 67.801 c 253.152 69.145 232.363 88.117 228.965 113.422 c 224.586 145.996
 249.805 173.832 281.523 173.832 c 286.484 173.832 292.785 172.145 298.496
 170.148 c 307.371 167.051 317.047 166.941 325.922 170.039 c 330.93 171.785
 335.344 172.27 339.125 172.031 c 347.375 171.52 350.922 161.328 344.738
 155.844 c 323.973 137.426 l 317.754 131.91 321.301 121.637 329.594 121.129
 c 363.855 119.031 l 371.059 118.59 375.059 110.41 370.906 104.508 c h
370.906 104.508 m f
0.937255 0.533333 0.607843 rg
308.805 133.656 m 308.805 144.469 297.801 153.234 284.223 153.234 c 270.645
 153.234 259.641 144.469 259.641 133.656 c 259.641 122.844 270.645 114.082
 284.223 114.082 c 297.801 114.082 308.805 122.844 308.805 133.656 c h
308.805 133.656 m f
0 g
298.527 99.137 m 295.422 99.137 292.902 101.656 292.902 104.762 c 292.902
 114.812 l 292.902 117.918 295.422 120.438 298.527 120.438 c 301.637 120.438
 304.152 117.918 304.152 114.812 c 304.152 104.762 l 304.152 101.656 301.637
 99.137 298.527 99.137 c h
298.527 99.137 m f
375.488 101.273 m 366.145 87.977 348.711 83.562 335.734 82.199 c 334.484
 82.066 333.254 81.871 332.039 81.617 c 338.801 69.828 342.48 57.594 342.48
 46.559 c 342.48 12.293 308.129 0 273.629 0 c 239.762 0 212.207 27.555 212.207
 61.422 c 212.207 75.809 217.211 89.578 226.344 100.586 c 224.945 104.438
 223.934 108.477 223.367 112.672 c 221.383 127.457 224.996 142.301 233.348
 154.309 c 214.656 171.246 193.273 176.523 180.355 178.129 c 161.656 159
 129.742 149.785 97.043 159.914 c 88.547 162.547 80.738 166.289 73.77 170.887
 c 58.848 154.91 41.395 122.082 65.246 65.906 c 68.895 57.309 65.812 47.516
 57.914 42.617 c 49.066 37.133 37.469 39.91 32.055 48.812 c 21.477 66.223
 -2.012 112.129 8.391 162.312 c 9.02 165.355 11.996 167.309 15.039 166.68
 c 18.082 166.051 20.035 163.07 19.406 160.031 c 9.816 113.762 31.781 70.926
 41.672 54.656 c 43.836 51.098 48.461 49.992 51.988 52.18 c 55.137 54.133
 56.359 58.055 54.891 61.512 c 38.047 101.184 35.348 145.648 64.715 177.691
 c 54.688 186.324 47.066 196.898 42.504 208.445 c 35.223 199.379 29.711 
189.977 25.633 180.191 c 24.438 177.324 21.145 175.969 18.273 177.164 c 
15.406 178.359 14.055 181.656 15.25 184.523 c 21.406 199.293 29.215 210.57
 38.777 221.508 c 36.566 233.465 37.664 245.602 42.258 256.984 c 35.75 271.25
 38.09 289.066 50.273 301.254 c 61.156 312.137 l 57.559 328.633 51.113 338.465
 50.055 340.734 c 39.555 360.172 53.656 384 75.871 384 c 108.496 384 l 111.957
 384 115.234 383.215 118.164 381.812 c 123.211 383.262 128.422 384 133.688
 384 c 154.094 384 l 166.48 384 176.559 373.922 176.559 361.535 c 176.559
 349.148 166.48 339.07 154.094 339.07 c 152.984 339.07 l 156.441 333.031
 160.684 327.48 165.68 322.488 c 169.961 318.203 173.266 313.195 175.484
 307.699 c 181.32 313.539 l 183.137 315.355 185.168 316.828 187.336 317.957
 c 188.926 328.23 193.91 337.664 201.605 344.809 c 210.199 352.789 221.395
 357.18 233.129 357.18 c 258.695 357.18 279.496 336.383 279.496 310.812 
c 279.496 302.984 277.504 293.738 273.891 284.781 c 272.73 281.898 269.453
 280.508 266.57 281.668 c 263.691 282.828 262.297 286.105 263.457 288.988
 c 266.543 296.645 268.246 304.395 268.246 310.816 c 268.246 330.18 252.492
 345.93 233.129 345.93 c 217.406 345.93 203.781 335.32 199.457 320.742 c
 206.055 320.559 211.988 317.801 216.227 313.539 c 225.875 303.895 225.875
 288.281 216.227 278.633 c 211.23 273.633 l 217.953 264.426 225.785 259.23
 233.129 259.23 c 241.566 259.23 248.66 265.723 253.125 271.172 c 255.094
 273.578 258.637 273.93 261.039 271.961 c 263.445 269.992 263.797 266.445
 261.828 264.043 c 253.219 253.535 243.293 247.98 233.129 247.98 c 222.406
 247.98 211.949 254.184 203.191 265.598 c 191.113 253.516 l 194.652 246.477
 196.957 239.137 197.988 231.742 c 203.137 230.742 208.242 229.496 213.211
 228.012 c 242.25 219.344 267.57 202.43 286.578 179.043 c 299.398 177.172
 308.309 169.859 324.051 175.352 c 329.305 177.184 334.488 177.957 339.453
 177.648 c 352.566 176.832 358.469 160.527 348.449 151.637 c 327.684 133.219
 l 325.207 131.023 326.609 126.945 329.918 126.746 c 364.176 124.648 l 375.637
 123.945 382.246 110.883 375.488 101.273 c h
273.629 11.25 m 300.805 11.25 331.23 19.375 331.23 46.559 c 331.23 55.973
 327.68 67.066 321.379 77.566 c 320.055 76.82 318.352 75.688 316.863 74.5
 c 310.398 69.34 303.145 65.758 295.398 63.812 c 297.996 49.824 303.082 
41.531 303.188 41.359 c 304.844 38.742 304.07 35.273 301.457 33.609 c 298.836
 31.938 295.359 32.711 293.691 35.332 c 293.402 35.781 287.254 45.586 284.258
 62.176 c 282.301 62.086 280.328 62.078 278.336 62.184 c 273.766 62.426 
268.914 63.223 264.215 64.637 c 261.039 50.078 262.719 39.953 262.758 39.715
 c 263.312 36.668 261.297 33.742 258.246 33.18 c 255.191 32.617 252.258 
34.633 251.691 37.691 c 251.586 38.266 249.344 50.957 253.668 68.98 c 244.828
 73.68 237.301 80.602 231.871 89.223 c 226.402 81.035 223.457 71.41 223.457
 61.422 c 223.457 33.758 245.965 11.25 273.629 11.25 c h
50.328 245.402 m 42.809 213.836 65.766 181.383 100.375 170.66 c 130.16 
161.434 158.555 170.504 174.016 187.863 c 187.758 203.27 191.336 224.836
 182.656 245.055 c 181.398 243.797 l 172.141 234.598 157.914 234.336 148.402
 242.074 c 137.074 251.191 136.086 268.305 146.488 278.707 c 148.215 280.434
 l 143.32 282.883 138.191 284.82 132.891 286.238 c 131.891 276.574 127.602
 266.973 120.078 259.449 c 106.082 245.449 l 106.066 245.438 106.051 245.422
 106.035 245.41 c 91.969 231.387 69.57 230.035 53.953 242.207 c 52.836 243.074
 51.34 244.395 50.328 245.402 c h
75.871 372.75 m 62.188 372.75 53.469 358.078 59.957 346.078 c 61 343.785
 68.98 331.605 72.801 311.336 c 73.145 309.512 72.562 307.633 71.25 306.32
 c 58.23 293.301 l 46.305 281.375 47.371 261.617 60.871 251.074 c 60.887
 251.066 60.898 251.055 60.914 251.043 c 72.07 242.379 88.09 243.367 98.125
 253.406 c 112.125 267.402 l 125.285 280.562 125.004 301.648 112.078 314.578
 c 104.316 322.352 97.758 331.758 93.125 342.465 c 91.523 346.172 94.246
 350.32 98.289 350.32 c 108.496 350.32 l 114.703 350.32 119.711 355.352 
119.711 361.535 c 119.711 367.762 114.633 372.75 108.496 372.75 c h
157.68 314.574 m 149.629 322.629 143.25 332.012 138.727 342.461 c 137.121
 346.168 139.844 350.32 143.891 350.32 c 154.094 350.32 l 160.277 350.32
 165.309 355.352 165.309 361.535 c 165.309 367.719 160.277 372.75 154.094
 372.75 c 133.688 372.75 l 131.836 372.75 129.992 372.637 128.164 372.41
 c 129.902 369.273 130.961 365.43 130.961 361.535 c 130.961 350.188 122.57
 340.902 111.828 339.316 c 109.645 338.992 108.121 339.09 107.391 339.07
 c 110.672 333.336 114.965 327.613 120.078 322.484 c 127.41 315.156 131.637
 305.555 132.59 297.91 c 140.758 296.027 148.996 292.93 156.547 288.766 
c 166.555 298.773 l 165.133 304.742 162.105 310.148 157.68 314.574 c h
154.395 270.699 m 148.34 264.57 149.602 254.527 156.609 249.996 c 161.797
 246.613 168.863 247.172 173.441 251.75 c 208.273 286.586 l 213.531 291.84
 213.52 300.34 208.273 305.582 c 208.273 305.586 208.27 305.586 208.27 305.59
 c 203.039 310.816 194.508 310.816 189.277 305.582 c 185.918 302.227 154.41
 270.715 154.395 270.699 c h
209.992 217.23 m 206.254 218.348 202.434 219.324 198.57 220.152 c 198.129
 209.227 194.82 198.117 188.445 188.25 c 202.816 185.566 222.777 178.969
 240.641 162.891 c 243.367 165.543 246.707 168.211 250.324 170.484 c 250.371
 170.516 250.418 170.543 250.465 170.574 c 257.281 174.824 264.719 177.5
 272.027 178.691 c 255.18 197.016 234.359 209.957 209.992 217.23 c h
363.492 113.418 m 329.23 115.516 l 315.945 116.328 310.246 132.785 320.219
 141.633 c 340.984 160.051 l 343.43 162.219 342.027 166.215 338.758 166.418
 c 335.293 166.633 331.59 166.066 327.758 164.727 c 307.164 157.547 294.863
 167.16 283.168 168.129 c 283.168 168.129 283.164 168.129 283.164 168.129
 c 275.832 168.734 265.684 166.539 257.352 161.594 c 241.203 152.043 231.883
 133.781 234.52 114.172 c 237.516 91.879 256.086 74.617 278.926 73.418 c
 294.398 72.602 302.242 78.18 312.473 85.242 c 312.488 85.25 312.5 85.262
 312.512 85.27 c 319.023 89.758 326.582 92.547 334.559 93.387 c 345.215 
94.508 359.371 97.906 366.289 107.742 c 367.895 110.031 366.328 113.246 
363.492 113.418 c h
363.492 113.418 m f
Q Q
showpage
%%Trailer
end
%%EOF
