%!PS-Adobe-3.0 EPSF-3.0
%%Creator: cairo 1.16.0 (https://cairographics.org)
%%CreationDate: Mon Aug 23 08:35:22 2021
%%Pages: 1
%%DocumentData: Clean7Bit
%%LanguageLevel: 2
%%BoundingBox: 8 0 376 384
%%EndComments
%%BeginProlog
50 dict begin
/q { gsave } bind def
/Q { grestore } bind def
/cm { 6 array astore concat } bind def
/w { setlinewidth } bind def
/J { setlinecap } bind def
/j { setlinejoin } bind def
/M { setmiterlimit } bind def
/d { setdash } bind def
/m { moveto } bind def
/l { lineto } bind def
/c { curveto } bind def
/h { closepath } bind def
/re { exch dup neg 3 1 roll 5 3 roll moveto 0 rlineto
      0 exch rlineto 0 rlineto closepath } bind def
/S { stroke } bind def
/f { fill } bind def
/f* { eofill } bind def
/n { newpath } bind def
/W { clip } bind def
/W* { eoclip } bind def
/BT { } bind def
/ET { } bind def
/BDC { mark 3 1 roll /BDC pdfmark } bind def
/EMC { mark /EMC pdfmark } bind def
/cairo_store_point { /cairo_point_y exch def /cairo_point_x exch def } def
/Tj { show currentpoint cairo_store_point } bind def
/TJ {
  {
    dup
    type /stringtype eq
    { show } { -0.001 mul 0 cairo_font_matrix dtransform rmoveto } ifelse
  } forall
  currentpoint cairo_store_point
} bind def
/cairo_selectfont { cairo_font_matrix aload pop pop pop 0 0 6 array astore
    cairo_font exch selectfont cairo_point_x cairo_point_y moveto } bind def
/Tf { pop /cairo_font exch def /cairo_font_matrix where
      { pop cairo_selectfont } if } bind def
/Td { matrix translate cairo_font_matrix matrix concatmatrix dup
      /cairo_font_matrix exch def dup 4 get exch 5 get cairo_store_point
      /cairo_font where { pop cairo_selectfont } if } bind def
/Tm { 2 copy 8 2 roll 6 array astore /cairo_font_matrix exch def
      cairo_store_point /cairo_font where { pop cairo_selectfont } if } bind def
/g { setgray } bind def
/rg { setrgbcolor } bind def
/d1 { setcachedevice } bind def
/cairo_data_source {
  CairoDataIndex CairoData length lt
    { CairoData CairoDataIndex get /CairoDataIndex CairoDataIndex 1 add def }
    { () } ifelse
} def
/cairo_flush_ascii85_file { cairo_ascii85_file status { cairo_ascii85_file flushfile } if } def
/cairo_image { image cairo_flush_ascii85_file } def
/cairo_imagemask { imagemask cairo_flush_ascii85_file } def
%%EndProlog
%%BeginSetup
%%EndSetup
%%Page: 1 1
%%BeginPageSetup
%%PageBoundingBox: 8 0 376 384
%%EndPageSetup
q 8 0 368 384 rectclip
1 0 0 -1 0 384 cm q
0.435294 0.74902 0.65098 rg
110.547 183.137 m 110.547 183.137 48.969 165.465 41.633 101.477 c 40.84
 94.578 35 89.367 28.055 89.367 c 20.652 89.367 14.586 95.258 14.391 102.66
 c 13.547 134.602 19.234 214.383 94.777 232.426 c h
110.547 183.137 m f
0.313726 0.713726 0.572549 rg
199.867 346.051 m 190.074 346.051 l 194.129 336.688 199.914 328.176 207.129
 320.961 c 207.168 320.918 l 221.77 306.32 221.77 282.652 207.168 268.055
 c 196.844 257.727 180.102 257.727 169.777 268.055 c 164.328 273.504 161.754
 280.738 162.055 287.879 c 132.715 328.031 l 132.715 360.008 l 158.121 373.027
 l 164.98 376.543 172.578 378.375 180.285 378.375 c 199.871 378.375 l 208.797
 378.375 216.031 371.141 216.031 362.215 c 216.031 353.289 208.793 346.051
 199.867 346.051 c h
199.867 346.051 m f
0.976471 0.729412 0.427451 rg
245.242 79.473 m 239.094 64.137 234.504 45.195 242.625 29.672 c 248.609
 18.238 260.387 11.711 272.434 8.371 c 301.016 0.445 345.168 9.117 354.926
 41.727 c 361.965 65.254 336.078 81.238 318.207 89.367 c h
245.242 79.473 m f
0.435294 0.74902 0.65098 rg
218.699 246.602 m 216.055 206.492 l 215.961 206.5 l 216.039 206.492 223.996
 205.863 233.082 202.707 c 240.066 200.281 249.34 195.773 253.82 188.078
 c 260.656 176.34 254.855 158.523 248.785 145.645 c 285.145 128.504 l 300.016
 160.051 301.109 186.984 288.402 208.562 c 279.73 223.293 264.695 234.555
 244.918 241.137 c 231.32 245.664 219.949 246.52 218.699 246.602 c h
218.699 246.602 m f
270.906 312.762 m 263.504 286.492 247.957 272.547 233.367 265.141 c 240.184
 253.191 244.082 239.359 244.082 224.617 c 244.082 182.859 212.836 154.758
 172.445 150.68 c 118.492 160.605 l 95.5 172.91 80.23 195.426 80.23 224.617
 c 80.23 269.863 116.906 306.547 162.152 306.547 c 178.914 306.547 194.496
 301.508 207.477 292.871 c 209.117 293.25 210.812 293.719 212.531 294.328
 c 224.895 298.707 232.898 307.711 236.988 321.844 c 239.691 331.184 249.477
 337.066 258.824 334.402 c 268.121 331.75 273.527 322.074 270.906 312.762
 c h
270.906 312.762 m f
0.313726 0.713726 0.572549 rg
248.785 145.645 m 253.543 155.73 258.129 168.852 256.609 179.703 c 261.996
 181.332 267.594 182.312 273.305 182.574 c 274.359 182.621 275.426 182.645
 276.48 182.645 c 281.672 182.645 286.855 182.062 291.883 180.91 c 293.562
 180.523 295.285 180.223 297.031 180 c 298 164.59 294.039 147.371 285.145
 128.504 c h
248.785 145.645 m f
0.964706 0.65098 0.254902 rg
354.758 41.203 m 345.246 55.145 329.242 64.301 311.09 64.301 c 282.797 
64.301 259.703 42.059 258.328 14.109 c 251.82 17.801 246.191 22.859 242.625
 29.672 c 234.5 45.195 239.094 64.137 245.242 79.473 c 318.207 89.367 l 
336.078 81.238 361.965 65.25 354.926 41.723 c 354.871 41.551 354.812 41.379
 354.758 41.203 c h
354.758 41.203 m f
0.501961 0.772549 0.690196 rg
360.52 147.273 m 368.652 141.078 l 372.648 126.652 364.773 110.184 348.75
 105.414 c 348.488 105.332 348.223 105.258 347.957 105.18 c 333.449 101.012
 320.527 92.797 310.137 81.844 c 301.688 72.934 289.734 67.375 276.48 67.375
 c 250.129 67.375 228.898 89.355 230.145 115.988 c 231.254 139.75 250.559
 159.02 274.324 160.098 c 278.652 160.293 282.855 159.895 286.863 158.977
 c 298.676 156.273 310.965 156.473 322.82 158.98 c 334.742 161.504 l 344.105
 163.492 353.883 160.766 360.777 154.125 c 360.91 153.988 361.047 153.855
 361.188 153.723 c 361.496 153.414 361.781 153.098 362.074 152.781 c h
360.52 147.273 m f
0.313726 0.713726 0.572549 rg
126.387 217.648 m 126.387 193.695 135.105 171.781 149.539 154.895 c 118.492
 160.605 l 95.5 172.91 80.23 195.426 80.23 224.617 c 80.23 269.863 116.906
 306.547 162.152 306.547 c 164.203 306.547 166.238 306.469 168.25 306.32
 c 142.105 287.258 126.387 253.027 126.387 217.648 c h
126.387 217.648 m f
0.976471 0.87451 0.603922 rg
173.664 158.711 m 173.664 163.73 172.004 168.66 168.875 172.703 c 163.559
 179.559 154.801 182.809 146.293 181.074 c 137.629 179.305 l 131.285 178.02
 125.797 174.098 122.516 168.52 c 120.531 165.141 l 119.672 163.688 118.992
 162.168 118.492 160.609 c 131.129 153.84 146.102 150.164 162.152 150.164
 c 165.641 150.164 169.078 150.336 172.445 150.68 c 173.141 153.84 l 173.492
 155.453 173.664 157.09 173.664 158.711 c h
173.664 158.711 m f
196.871 198.578 m 181.16 195.016 l 178.434 194.398 175.586 194.629 173 
195.684 c 170.199 196.82 l 161.863 200.207 159.023 210.59 164.477 217.746
 c 166 219.746 l 168.512 223.039 172.379 225.016 176.52 225.121 c 193.512
 225.547 l 199.25 225.688 204.465 222.23 206.562 216.891 c 209.621 209.105
 205.027 200.43 196.871 198.578 c h
196.871 198.578 m f
0.501961 0.772549 0.690196 rg
153.648 332.699 m 150.801 336.898 148.336 341.371 146.312 346.051 c 156.109
 346.051 l 160.57 346.051 164.609 347.859 167.531 350.781 c 170.457 353.707
 172.27 357.75 172.27 362.215 c 172.27 371.137 165.031 378.375 156.105 378.375
 c 124.793 378.375 l 112.223 378.375 102.035 368.188 102.035 355.621 c 102.035
 351.848 102.977 348.133 104.766 344.816 c 106.539 341.527 l 111.387 332.555
 114.676 322.949 116.539 313.035 c 104.047 300.543 l 97.703 294.199 94.539
 285.891 94.539 277.582 c 94.539 269.055 97.875 260.535 104.527 254.152 
c 105.352 253.359 106.203 252.629 107.082 251.941 c 119.852 241.992 138.277
 242.926 149.969 254.617 c 163.406 268.055 l 167.488 272.137 170.434 276.938
 172.234 282.047 c 174.629 288.844 174.992 296.195 173.34 303.164 c 171.793
 309.672 168.477 315.844 163.406 320.918 c 163.363 320.957 l 159.762 324.57
 156.508 328.496 153.648 332.699 c h
153.648 332.699 m f
0.988235 0.792157 0.45098 rg
153.504 150.531 m 140.73 151.609 128.828 155.07 118.492 160.605 c 118.992
 162.168 119.672 163.684 120.531 165.141 c 122.516 168.52 l 125.27 173.207
 129.59 176.715 134.66 178.484 c 139.285 168.066 145.695 158.617 153.504
 150.531 c h
153.504 150.531 m f
0 g
303.508 98.594 m 300.402 98.594 297.883 101.113 297.883 104.219 c 297.883
 113.184 l 297.883 116.289 300.402 118.809 303.508 118.809 c 306.613 118.809
 309.133 116.289 309.133 113.184 c 309.133 104.219 l 309.133 101.113 306.613
 98.594 303.508 98.594 c h
303.508 98.594 m f
293.742 26.141 m 288.098 26.141 282.621 26.832 277.906 28.141 c 274.91 
28.973 273.156 32.07 273.988 35.066 c 274.816 38.059 277.918 39.812 280.91
 38.984 c 284.664 37.941 289.098 37.395 293.742 37.395 c 300.875 37.395 
308.199 38.77 313.836 41.172 c 316.695 42.391 319.996 41.059 321.215 38.203
 c 322.434 35.344 321.102 32.039 318.246 30.824 c 311.164 27.805 302.461
 26.141 293.742 26.141 c h
293.742 26.141 m f
198.105 193.09 m 182.391 189.527 l 173.414 187.492 159.91 192.758 156.73
 204.383 c 153.742 215.316 161.098 222.309 161.516 223.152 c 165.078 227.828
 170.492 230.594 176.367 230.742 c 193.359 231.168 l 208.027 231.535 217.785
 215.918 210.883 202.875 c 208.25 197.902 203.594 194.336 198.105 193.09
 c h
193.641 219.922 m 176.648 219.496 l 174.203 219.434 171.945 218.281 170.465
 216.336 c 169.875 215.25 166.219 212.332 167.582 207.352 c 168.973 202.258
 173.738 201.695 175.105 200.891 c 179.004 199.309 180.789 201.105 195.617
 204.062 c 197.938 204.59 199.828 206.035 200.941 208.137 c 203.793 213.531
 199.812 220.047 193.641 219.922 c h
193.641 219.922 m f
374.258 125.008 m 371.305 113.203 362.707 103.59 349.5 99.773 c 342.305
 97.703 335.395 94.5 328.977 90.309 c 354.801 76.398 365.891 58.781 360.305
 40.109 c 356.023 25.816 345.582 14.531 330.102 7.48 c 327.273 6.195 323.938
 7.441 322.648 10.27 c 321.363 13.098 322.609 16.434 325.438 17.719 c 334.113
 21.672 345.332 29.32 349.523 43.336 c 352.5 53.273 349.477 68.031 319.113
 82.723 c 317.52 81.293 315.781 79.625 314.207 77.969 c 304.285 67.508 290.883
 61.75 276.469 61.75 c 266.523 61.75 256.559 64.551 247.859 70.312 c 242.602
 54.457 242.527 41.969 247.598 32.277 c 253.258 21.461 265.039 16.25 273.926
 13.789 c 283.52 11.129 294.828 10.531 305.77 12.109 c 308.84 12.551 311.695
 10.418 312.141 7.344 c 312.582 4.27 310.449 1.418 307.375 0.973 c 294.926
 -0.82 281.98 -0.121 270.918 2.945 c 255.102 7.332 243.59 15.672 237.629
 27.062 c 230.602 40.492 230.934 57.199 238.66 78.051 c 228.871 88.406 223.844
 101.961 224.512 116.246 c 225.293 132.961 234.215 147.758 247.344 156.73
 c 250.691 165.824 253.391 177.613 248.945 185.246 c 247.605 187.551 245.543
 189.688 242.805 191.641 c 228.91 161.031 196.547 144.539 162.141 144.539
 c 137.621 144.539 113.02 152.887 95.836 170.617 c 78.109 160.941 51.719
 140.152 47.207 100.836 c 46.09 91.09 37.852 83.742 28.043 83.742 c 17.504
 83.742 9.031 91.984 8.754 102.508 c 8.23 122.398 10.191 160.441 29.219 
191.758 c 30.832 194.414 34.293 195.258 36.945 193.645 c 39.602 192.035 
40.445 188.574 38.832 185.918 c 21.301 157.062 19.508 121.461 20 102.805
 c 20.113 98.426 23.648 94.992 28.043 94.992 c 32.129 94.992 35.566 98.055
 36.031 102.117 c 40.945 144.98 68.777 168.18 88.516 179.418 c 80.473 190.766
 75.707 204.23 74.754 219.305 c 65.93 214.902 58.082 209.18 51.348 202.227
 c 49.188 199.996 45.625 199.941 43.395 202.102 c 41.164 204.266 41.109 
207.824 43.27 210.059 c 52.188 219.262 62.812 226.547 74.883 231.758 c 76.074
 246.52 80.953 260.613 89.18 272.992 c 87.82 284.348 91.473 295.938 100.055
 304.52 c 110.414 314.879 l 108.543 323.398 105.574 331.453 101.578 338.855
 c 98.801 344 96.398 348.266 96.398 355.625 c 96.398 371.273 109.129 384.004
 124.781 384.004 c 156.094 384.004 l 159.418 384.004 162.57 383.25 165.391
 381.914 c 170.23 383.297 175.223 384 180.273 384 c 199.855 384 l 211.871
 384 221.645 374.227 221.645 362.215 c 221.645 350.203 211.871 340.43 199.855
 340.43 c 199.184 340.43 l 202.449 334.785 206.43 329.605 211.059 324.977
 c 211.07 324.965 211.125 324.91 211.137 324.898 c 216.301 319.734 220.016
 313.391 222.02 306.477 c 226.355 310.625 229.48 316.191 231.57 323.41 c
 235.199 335.941 248.105 343.305 260.355 339.812 c 272.605 336.32 279.762
 323.5 276.309 311.238 c 270.293 289.887 258.105 273.289 240.898 262.898
 c 243.469 257.609 245.492 252.07 246.949 246.383 c 267.902 239.352 283.906
 227.266 293.242 211.418 c 301.594 197.23 304.457 180.859 301.82 162.688
 c 315.566 162.211 324.875 165.445 333.566 167.008 c 358.508 172.301 380.449
 149.746 374.258 125.008 c h
167.805 155.949 m 167.762 156.391 169.746 164.043 163.012 170.844 c 158.961
 174.934 153.16 176.73 147.406 175.562 c 142.234 173.906 132.773 174.887
 127.352 165.664 c 125.914 163.219 l 136.789 158.344 149.199 155.789 162.141
 155.789 c 164.039 155.789 165.934 155.844 167.805 155.949 c h
124.781 372.75 m 115.336 372.75 107.648 365.066 107.648 355.621 c 107.648
 349.824 110.367 346.609 111.57 344.027 c 116.52 334.816 120.047 324.742
 122.059 314.074 c 122.402 312.25 121.82 310.371 120.508 309.059 c 108.012
 296.562 l 95.895 284.445 98.07 264.195 112.574 254.93 c 123.062 248.23 
137.016 249.629 145.98 258.594 c 159.418 272.031 l 167.098 279.711 170.477
 290.832 167.855 301.863 c 166.289 308.465 163.637 312.254 159.23 317.133
 c 151.238 325.176 145.266 334.266 141.137 343.82 c 139.555 347.477 142.223
 351.68 146.301 351.68 c 156.098 351.68 l 161.891 351.68 166.633 356.406
 166.633 362.215 c 166.633 368.086 161.809 372.75 156.098 372.75 c h
203.219 316.906 m 203.207 316.918 203.152 316.969 203.141 316.98 c 195.391
 324.73 189.254 333.762 184.902 343.816 c 183.297 347.523 186.02 351.676
 190.062 351.676 c 199.859 351.676 l 205.668 351.676 210.395 356.402 210.395
 362.215 c 210.395 368.023 205.668 372.75 199.859 372.75 c 180.273 372.75
 l 178.613 372.75 176.965 372.656 175.324 372.465 c 176.914 369.492 177.883
 365.844 177.883 362.215 c 177.883 356.477 175.668 350.973 171.496 346.805
 c 164.152 339.461 156.102 340.578 155.426 340.43 c 159.438 333.504 162.68
 330.086 167.469 324.793 c 171.094 321.145 174.609 316.195 176.746 310.941
 c 187.566 309.113 198.559 305.094 208.445 298.93 c 210.098 299.402 210.891
 299.715 211.969 300.145 c 210.828 306.48 207.785 312.34 203.219 316.906
 c h
265.48 314.285 m 267.258 320.598 263.574 327.195 257.27 328.992 c 251.078
 330.758 244.258 326.77 242.379 320.281 c 237.059 301.895 225.246 291.195
 208.727 287.387 c 207.172 287.027 205.578 287.375 204.359 288.18 c 204.355
 288.18 204.352 288.184 204.348 288.188 c 197.117 292.996 188.691 296.73
 179.758 298.848 c 181.074 286.375 176.816 273.52 167.371 264.074 c 153.934
 250.637 l 140.367 237.07 118.734 235.719 103.605 247.504 c 99.641 250.605
 96.273 254.527 93.875 258.734 c 88.387 247.785 85.844 236.062 85.844 224.617
 c 85.844 201.398 96.535 181.125 116.012 168.574 c 117.656 171.367 l 126.094
 185.727 140.797 185.043 145.16 186.586 c 155.879 188.766 166.672 184.691
 173.301 176.156 c 173.305 176.152 173.309 176.148 173.312 176.145 c 177.57
 170.648 179.562 163.852 179.242 157.312 c 213.777 163.582 238.445 188.98
 238.445 224.617 c 238.445 237.773 235.02 250.871 228.473 262.355 c 226.883
 265.141 227.941 268.699 230.812 270.156 c 248.027 278.895 259.691 293.742
 265.48 314.285 c h
283.547 205.707 m 276.477 217.711 264.691 227.25 249.238 233.543 c 249.516
 230.871 249.695 227.609 249.695 224.617 c 249.695 217.18 248.766 209.734
 246.758 202.516 c 252.086 199.238 256.086 195.348 258.672 190.906 c 262.816
 183.793 263.621 174.586 261.094 163.438 c 265.355 164.762 269.859 165.523
 274.059 165.715 c 282.109 166.082 287.203 164.586 290.648 163.934 c 292.996
 179.672 290.613 193.703 283.547 205.707 c h
335.898 156 m 327.105 154.379 318.059 151.383 304.465 151.383 c 288.703
 151.383 285.07 154.945 274.566 154.473 c 253.805 153.535 236.723 136.516
 235.75 115.723 c 234.641 91.891 253.727 73 276.469 73 c 287.766 73 298.27
 77.512 306.047 85.711 c 317.086 97.344 330.98 106.152 346.391 110.582 c
 346.57 110.691 359.773 113.449 363.348 127.738 c 364.523 132.441 364.203
 137.219 362.562 141.531 c 351.438 141.215 343.223 134.832 343.039 134.688
 c 340.629 132.742 337.098 133.113 335.145 135.52 c 333.184 137.93 333.551
 141.473 335.961 143.43 c 336.363 143.758 343.699 149.613 354.719 151.895
 c 349.406 155.883 342.562 157.414 335.898 156 c h
335.898 156 m f
Q Q
showpage
%%Trailer
end
%%EOF
