%!PS-Adobe-3.0 EPSF-3.0
%%Creator: cairo 1.16.0 (https://cairographics.org)
%%CreationDate: Mon Aug 23 08:35:23 2021
%%Pages: 1
%%DocumentData: Clean7Bit
%%LanguageLevel: 2
%%BoundingBox: 62 0 322 384
%%EndComments
%%BeginProlog
50 dict begin
/q { gsave } bind def
/Q { grestore } bind def
/cm { 6 array astore concat } bind def
/w { setlinewidth } bind def
/J { setlinecap } bind def
/j { setlinejoin } bind def
/M { setmiterlimit } bind def
/d { setdash } bind def
/m { moveto } bind def
/l { lineto } bind def
/c { curveto } bind def
/h { closepath } bind def
/re { exch dup neg 3 1 roll 5 3 roll moveto 0 rlineto
      0 exch rlineto 0 rlineto closepath } bind def
/S { stroke } bind def
/f { fill } bind def
/f* { eofill } bind def
/n { newpath } bind def
/W { clip } bind def
/W* { eoclip } bind def
/BT { } bind def
/ET { } bind def
/BDC { mark 3 1 roll /BDC pdfmark } bind def
/EMC { mark /EMC pdfmark } bind def
/cairo_store_point { /cairo_point_y exch def /cairo_point_x exch def } def
/Tj { show currentpoint cairo_store_point } bind def
/TJ {
  {
    dup
    type /stringtype eq
    { show } { -0.001 mul 0 cairo_font_matrix dtransform rmoveto } ifelse
  } forall
  currentpoint cairo_store_point
} bind def
/cairo_selectfont { cairo_font_matrix aload pop pop pop 0 0 6 array astore
    cairo_font exch selectfont cairo_point_x cairo_point_y moveto } bind def
/Tf { pop /cairo_font exch def /cairo_font_matrix where
      { pop cairo_selectfont } if } bind def
/Td { matrix translate cairo_font_matrix matrix concatmatrix dup
      /cairo_font_matrix exch def dup 4 get exch 5 get cairo_store_point
      /cairo_font where { pop cairo_selectfont } if } bind def
/Tm { 2 copy 8 2 roll 6 array astore /cairo_font_matrix exch def
      cairo_store_point /cairo_font where { pop cairo_selectfont } if } bind def
/g { setgray } bind def
/rg { setrgbcolor } bind def
/d1 { setcachedevice } bind def
/cairo_data_source {
  CairoDataIndex CairoData length lt
    { CairoData CairoDataIndex get /CairoDataIndex CairoDataIndex 1 add def }
    { () } ifelse
} def
/cairo_flush_ascii85_file { cairo_ascii85_file status { cairo_ascii85_file flushfile } if } def
/cairo_image { image cairo_flush_ascii85_file } def
/cairo_imagemask { imagemask cairo_flush_ascii85_file } def
%%EndProlog
%%BeginSetup
%%EndSetup
%%Page: 1 1
%%BeginPageSetup
%%PageBoundingBox: 62 0 322 384
%%EndPageSetup
q 62 0 260 384 rectclip
1 0 0 -1 0 384 cm q
0.407843 0.435294 0.694118 rg
281.996 279.996 m 281.996 316.137 301.562 349.668 301.562 349.668 c 229.336
 368.699 l 219.742 366.352 212.621 357.699 212.621 347.383 c 212.621 295.035
 l h
281.996 279.996 m f
102.004 279.996 m 102.004 316.137 82.438 349.668 82.438 349.668 c 154.664
 368.699 l 164.258 366.352 171.379 357.699 171.379 347.383 c 171.379 295.035
 l h
102.004 279.996 m f
0.298039 0.341176 0.596078 rg
112.992 333.844 m 112.992 312.539 127.707 294.684 147.527 289.863 c 102.004
 279.996 l 102.004 316.137 82.438 349.668 82.438 349.668 c 121.25 359.895
 l 116.055 352.527 112.992 343.547 112.992 333.844 c h
112.992 333.844 m f
236.016 328.355 m 236.016 303.352 256.285 283.082 281.285 283.082 c 281.539
 283.082 281.793 283.098 282.047 283.102 c 282.016 282.066 281.996 281.031
 281.996 279.996 c 212.621 295.035 l 212.621 347.383 l 212.621 357.699 219.742
 366.352 229.336 368.699 c 251.879 362.762 l 242.172 354.457 236.016 342.129
 236.016 328.355 c h
236.016 328.355 m f
0.611765 0.619608 0.811765 rg
114.078 229.828 m 81.738 264.688 91.453 311.43 139.082 324.312 c 153.93
 328.328 171.434 330.844 192 330.844 c 212.566 330.844 230.07 328.328 244.918
 324.312 c 292.543 311.43 302.262 264.688 269.922 229.828 c h
114.078 229.828 m f
0.423529 0.501961 0.588235 rg
79.703 176.465 m 70.379 183.43 70.379 197.352 79.703 204.312 c 89.664 211.75
 104.551 219.328 123.613 218.988 c 123.613 161.789 l 104.551 161.449 89.664
 169.027 79.703 176.465 c h
79.703 176.465 m f
304.297 176.465 m 313.621 183.43 313.621 197.352 304.297 204.312 c 294.336
 211.75 279.449 219.328 260.387 218.988 c 260.387 161.789 l 279.449 161.449
 294.336 169.027 304.297 176.465 c h
304.297 176.465 m f
0.552941 0.556863 0.772549 rg
269.922 229.828 m 114.078 229.828 l 106.57 237.922 101.332 246.652 98.305
 255.457 c 108.816 267.898 125.492 277.172 148.113 283.102 c 148.223 283.133
 148.328 283.16 148.438 283.188 c 153.34 284.461 158.074 286.281 162.645
 288.469 c 171.039 292.488 180.973 294.57 192 294.57 c 203.027 294.57 212.961
 292.488 221.355 288.469 c 225.926 286.281 230.656 284.461 235.559 283.188
 c 235.668 283.16 235.777 283.133 235.883 283.102 c 258.508 277.172 275.184
 267.898 285.695 255.453 c 282.668 246.652 277.43 237.922 269.922 229.828
 c h
269.922 229.828 m f
0.321569 0.419608 0.501961 rg
79.703 176.465 m 79.004 176.988 78.363 177.555 77.766 178.152 c 80.453 
181.508 83.266 184.766 86.211 187.887 c 89.289 191.148 90.305 195.824 88.871
 200.074 c 87.875 203.027 87.098 205.969 86.527 208.883 c 96.02 214.551 
108.5 219.258 123.613 218.988 c 123.613 161.789 l 104.551 161.449 89.664
 169.027 79.703 176.465 c h
79.703 176.465 m f
306.234 178.152 m 305.637 177.555 304.996 176.988 304.297 176.465 c 294.336
 169.027 279.449 161.449 260.387 161.789 c 260.387 218.988 l 275.5 219.258
 287.98 214.551 297.473 208.883 c 296.902 205.969 296.125 203.031 295.129
 200.074 c 293.695 195.824 294.711 191.148 297.789 187.887 c 300.734 184.762
 303.547 181.508 306.234 178.152 c h
306.234 178.152 m f
0.611765 0.619608 0.811765 rg
305.125 94.676 m 284.41 38.211 236.406 16.297 210.078 8.309 c 198.289 4.73
 185.711 4.73 173.922 8.309 c 147.594 16.297 99.59 38.211 78.875 94.676 
c 72.629 111.707 74.309 130.699 83.32 146.445 c 89.031 156.418 97.309 167.988
 109.047 178.859 c 114.93 184.305 116.695 192.945 113.156 200.133 c 104.93
 216.84 99.234 247.031 153.82 261.34 c 178.832 267.895 205.168 267.895 230.18
 261.34 c 284.766 247.031 279.07 216.84 270.844 200.133 c 267.301 192.945
 269.07 184.305 274.949 178.859 c 286.691 167.988 294.969 156.418 300.676
 146.445 c 309.691 130.699 311.371 111.707 305.125 94.676 c h
305.125 94.676 m f
0.321569 0.419608 0.501961 rg
225.766 242.184 m 225.848 243.16 225.895 244.148 225.895 245.148 c 225.895
 263.871 210.723 272.07 192 272.07 c 173.277 272.07 158.105 263.871 158.105
 245.148 c 158.105 244.148 158.152 243.16 158.234 242.184 c h
225.766 242.184 m f
0.423529 0.501961 0.588235 rg
225.766 242.184 m 216.152 246.305 204.527 248.719 192 248.719 c 179.473
 248.719 167.848 246.305 158.234 242.184 c 159.738 224.848 174.281 211.258
 192 211.258 c 209.719 211.258 224.262 224.848 225.766 242.184 c h
225.766 242.184 m f
212.758 168.344 m 212.758 179.809 203.465 189.102 192 189.102 c 180.535
 189.102 171.242 179.809 171.242 168.344 c 171.242 156.879 180.535 136.32
 192 136.32 c 203.465 136.32 212.758 156.879 212.758 168.344 c h
212.758 168.344 m f
0.921569 0.917647 0.960784 rg
287.414 375.594 m 289.887 377.344 292.902 378.375 296.156 378.375 c 307.316
 378.375 l 312.223 378.375 316.203 374.395 316.203 369.488 c 316.203 358.039
 306.922 348.758 295.473 348.758 c 290.637 348.758 286.363 351.141 283.738
 354.785 c h
287.414 375.594 m f
0.815686 0.811765 0.909804 rg
261.066 375.594 m 263.539 377.344 266.555 378.375 269.809 378.375 c 280.969
 378.375 l 285.875 378.375 289.855 374.395 289.855 369.488 c 289.855 358.039
 280.574 348.758 269.125 348.758 c 264.289 348.758 260.016 351.141 257.391
 354.785 c h
261.066 375.594 m f
0.921569 0.917647 0.960784 rg
242.777 348.758 m 234.789 348.758 228.312 355.234 228.312 363.223 c 228.312
 371.59 235.098 378.375 243.465 378.375 c 254.621 378.375 l 259.531 378.375
 263.508 374.395 263.508 369.488 c 263.508 358.039 254.227 348.758 242.777
 348.758 c h
242.777 348.758 m f
96.586 375.594 m 94.113 377.344 91.098 378.375 87.844 378.375 c 76.684 
378.375 l 71.777 378.375 67.797 374.395 67.797 369.488 c 67.797 358.039 
77.078 348.758 88.527 348.758 c 93.363 348.758 97.637 351.141 100.262 354.785
 c h
96.586 375.594 m f
0.815686 0.811765 0.909804 rg
122.934 375.594 m 120.461 377.344 117.445 378.375 114.191 378.375 c 103.031
 378.375 l 98.125 378.375 94.145 374.395 94.145 369.488 c 94.145 358.039
 103.426 348.758 114.875 348.758 c 119.711 348.758 123.984 351.141 126.609
 354.785 c h
122.934 375.594 m f
0.921569 0.917647 0.960784 rg
141.223 348.758 m 149.211 348.758 155.688 355.234 155.688 363.223 c 155.688
 371.59 148.902 378.375 140.535 378.375 c 129.379 378.375 l 124.469 378.375
 120.492 374.395 120.492 369.488 c 120.492 358.039 129.773 348.758 141.223
 348.758 c h
141.223 348.758 m f
0.321569 0.419608 0.501961 rg
184.457 158.055 m 184.457 149.293 188.926 141.574 195.707 137.047 c 194.504
 136.586 193.266 136.32 192 136.32 c 180.535 136.32 171.242 156.879 171.242
 168.344 c 171.242 179.809 180.535 189.102 192 189.102 c 197.691 189.102
 202.844 186.812 206.594 183.105 c 194.117 181.57 184.457 170.945 184.457
 158.055 c h
184.457 158.055 m f
0 g
147.988 215.051 m 151.094 215.051 153.613 212.531 153.613 209.426 c 153.613
 200.262 l 153.613 197.156 151.094 194.637 147.988 194.637 c 144.883 194.637
 142.363 197.156 142.363 200.262 c 142.363 209.426 l 142.363 212.531 144.883
 215.051 147.988 215.051 c h
147.988 215.051 m f
236.012 194.637 m 232.906 194.637 230.387 197.156 230.387 200.262 c 230.387
 209.426 l 230.387 212.531 232.906 215.051 236.012 215.051 c 239.121 215.051
 241.637 212.531 241.637 209.426 c 241.637 200.262 l 241.637 197.156 239.121
 194.637 236.012 194.637 c h
236.012 194.637 m f
165.617 168.348 m 165.617 182.898 177.453 194.734 192 194.734 c 206.547
 194.734 218.383 182.898 218.383 168.348 c 218.383 155.422 208.109 130.703
 192 130.703 c 175.891 130.703 165.617 155.422 165.617 168.348 c h
192 141.953 m 198.68 141.953 207.133 158.32 207.133 168.352 c 207.133 176.695
 200.344 183.484 192 183.484 c 183.656 183.484 176.867 176.695 176.867 168.352
 c 176.867 158.32 185.32 141.953 192 141.953 c h
192 141.953 m f
197.625 92.906 m 197.625 49.207 l 197.625 46.102 195.105 43.582 192 43.582
 c 188.895 43.582 186.375 46.102 186.375 49.207 c 186.375 92.906 l 186.375
 96.012 188.895 98.531 192 98.531 c 195.105 98.531 197.625 96.012 197.625
 92.906 c h
197.625 92.906 m f
127.543 99.328 m 127.43 96.234 124.848 93.816 121.746 93.906 c 118.641 
94.004 116.203 96.602 116.297 99.707 c 116.32 100.477 117.07 118.809 133.078
 138.637 c 135.027 141.055 138.57 141.43 140.988 139.48 c 143.402 137.527
 143.781 133.988 141.832 131.57 c 128.395 114.922 127.555 99.613 127.543
 99.328 c h
127.543 99.328 m f
243.012 139.48 m 245.434 141.438 248.977 141.051 250.922 138.637 c 266.93
 118.809 267.68 100.477 267.703 99.707 c 267.797 96.602 265.359 94.004 262.254
 93.91 c 259.145 93.812 256.555 96.25 256.457 99.355 c 256.453 99.508 255.828
 114.648 242.168 131.57 c 240.219 133.988 240.594 137.527 243.012 139.48
 c h
243.012 139.48 m f
62.176 369.488 m 62.176 377.488 68.684 384 76.688 384 c 87.844 384 l 90.738
 384 93.543 383.395 96.145 382.258 c 98.195 383.367 100.543 384 103.035 
384 c 114.191 384 l 117.082 384 119.891 383.395 122.492 382.258 c 124.543
 383.367 126.891 384 129.379 384 c 140.539 384 l 148.312 384 155.102 379.703
 158.66 373.363 c 169.586 369.504 177.004 359.188 177.004 347.383 c 177.004
 336.008 l 181.91 336.312 186.91 336.469 192 336.469 c 197.09 336.469 202.09
 336.312 206.996 336.008 c 206.996 347.383 l 206.996 359.188 214.414 369.504
 225.34 373.363 c 228.902 379.703 235.688 384 243.461 384 c 254.621 384 
l 257.109 384 259.457 383.367 261.508 382.258 c 264.109 383.395 266.918 
384 269.809 384 c 280.969 384 l 283.457 384 285.805 383.367 287.855 382.258
 c 290.457 383.395 293.266 384 296.156 384 c 307.312 384 l 315.316 384 321.824
 377.488 321.824 369.488 c 321.824 358.496 315.059 349.059 305.473 345.109
 c 302.398 339.352 292.707 319.887 289.055 297.105 c 291.602 291.863 293.297
 286.234 294.02 280.359 c 295.996 264.309 290.902 247.496 279.652 232.684
 c 280.863 229.223 281.539 225.594 281.672 221.832 c 290.828 219.234 299.555
 214.875 307.66 208.824 c 320.004 199.605 320.012 181.184 307.66 171.965
 c 303.781 169.066 299.719 166.547 295.527 164.414 c 299.168 159.594 302.527
 154.539 305.559 149.246 c 315.461 131.945 317.227 111.352 310.402 92.746
 c 288.902 34.137 239.34 11.32 211.711 2.934 c 198.816 -0.98 185.184 -0.977
 172.289 2.934 c 154 8.484 127.488 19.902 105.035 42.773 c 102.855 44.988
 102.891 48.551 105.105 50.727 c 107.324 52.902 110.883 52.871 113.062 50.652
 c 133.852 29.477 158.523 18.871 175.555 13.699 c 186.312 10.438 197.688
 10.438 208.445 13.699 c 234.07 21.477 280.023 42.59 299.84 96.621 c 305.52
 112.102 304.043 129.246 295.793 143.656 c 288.957 155.598 280.434 166.121
 271.129 174.738 c 264.422 180.945 261.844 190.496 264.395 199.055 c 265.938
 204.238 274.457 217.379 268.207 231.066 c 262.051 244.551 244.336 251.672
 229.969 255.574 c 231.223 251.648 231.809 246.867 231.367 241.703 c 229.668
 222.082 213.668 206.605 193.859 205.684 c 193.242 205.652 192.621 205.641
 192 205.641 c 172.035 205.641 155.43 220.473 152.836 239.875 c 152.074 
245.555 152.594 251.07 154.027 255.574 c 139.734 251.691 121.965 244.59 
115.793 231.066 c 111.629 221.953 113.77 211.629 118.207 202.625 c 122.812
 193.266 120.516 181.82 112.871 174.738 c 103.848 166.383 95.145 155.785
 88.207 143.66 c 79.957 129.25 78.48 112.105 84.16 96.625 c 88.078 85.941
 93.266 75.938 99.578 66.891 c 101.355 64.344 100.734 60.836 98.184 59.059
 c 95.641 57.281 92.133 57.906 90.355 60.453 c 83.488 70.293 77.852 81.16
 73.598 92.75 c 66.773 111.355 68.539 131.949 78.445 149.25 c 81.473 154.543
 84.836 159.598 88.473 164.418 c 84.281 166.551 80.223 169.07 76.34 171.969
 c 63.996 181.184 63.992 199.605 76.34 208.828 c 84.445 214.879 93.172 219.242
 102.328 221.836 c 102.465 225.602 103.141 229.23 104.352 232.691 c 90.641
 250.738 86.168 271.512 92.121 290.148 c 92.898 292.586 93.84 294.941 94.934
 297.211 c 91.266 319.949 81.602 339.363 78.527 345.113 c 68.941 349.059
 62.176 358.496 62.176 369.488 c h
87.844 372.75 m 76.688 372.75 l 74.887 372.75 73.426 371.285 73.426 369.488
 c 73.426 361.082 80.293 354.383 88.527 354.383 c 89.988 354.383 91.34 354.738
 92.598 355.395 c 89.926 359.598 88.523 364.629 88.523 369.488 c 88.523 
370.527 88.66 371.727 88.879 372.695 c 88.539 372.73 88.191 372.75 87.844
 372.75 c h
114.191 372.75 m 103.035 372.75 l 101.188 372.75 99.773 371.227 99.773 
369.488 c 99.773 361.273 106.477 354.383 114.875 354.383 c 116.184 354.383
 117.648 354.699 118.953 355.379 c 116.379 359.426 114.875 364.414 114.871
 369.453 c 114.871 369.465 114.867 369.477 114.867 369.488 c 114.867 370.527
 115.004 371.715 115.227 372.695 c 114.883 372.73 114.539 372.75 114.191
 372.75 c h
140.539 372.75 m 129.379 372.75 l 127.562 372.75 126.117 371.258 126.117
 369.488 c 126.117 361.199 132.883 354.383 141.223 354.383 c 146.297 354.383
 150.523 358.719 150.02 364.121 c 149.539 368.992 145.457 372.75 140.539
 372.75 c h
243.461 372.75 m 238.453 372.75 234.445 368.891 233.984 364.125 c 233.473
 358.738 237.688 354.383 242.777 354.383 c 251.152 354.383 257.875 361.23
 257.883 369.477 c 257.883 369.48 257.883 369.484 257.883 369.488 c 257.883
 371.191 256.492 372.75 254.621 372.75 c h
269.809 372.75 m 269.461 372.75 269.117 372.73 268.773 372.695 c 269 371.703
 269.133 370.512 269.133 369.488 c 269.133 364.297 267.555 359.316 265.047
 355.379 c 266.348 354.703 267.809 354.383 269.125 354.383 c 277.492 354.383
 284.227 361.25 284.227 369.488 c 284.227 371.223 282.82 372.75 280.965 
372.75 c h
307.312 372.75 m 296.156 372.75 l 295.809 372.75 295.461 372.73 295.121
 372.695 c 295.348 371.691 295.477 370.504 295.477 369.488 c 295.477 364.52
 294.02 359.512 291.402 355.395 c 292.715 354.707 294.098 354.383 295.473
 354.383 c 303.711 354.383 310.574 361.086 310.574 369.488 c 310.574 371.285
 309.113 372.75 307.312 372.75 c h
288.215 173.355 m 292.617 175.402 296.879 177.957 300.93 180.98 c 307.242
 185.691 307.246 195.094 300.93 199.809 c 294.508 204.605 287.668 208.164
 280.527 210.434 c 279.52 206.055 277.84 201.621 275.887 197.652 c 273.496
 192.801 274.688 186.77 278.77 182.992 c 281.543 180.422 285.109 176.848
 288.215 173.355 c h
192 266.449 m 179.652 266.449 167.008 262.453 164.281 250.363 c 164.285
 250.367 164.293 250.367 164.297 250.367 c 173.141 253.055 182.68 254.348
 192 254.348 c 206.945 254.348 216.133 251.168 219.719 250.363 c 216.992
 262.449 204.344 266.449 192 266.449 c h
192 216.887 m 204.934 216.887 216.457 225.949 219.496 238.594 c 210.695
 241.711 201.188 243.098 192 243.098 c 182.812 243.098 173.344 241.715 164.504
 238.594 c 167.535 225.965 179.051 216.887 192 216.887 c h
83.07 180.98 m 87.121 177.957 91.383 175.402 95.785 173.355 c 101.676 179.969
 105.293 182.805 106.625 184.508 c 109.551 188.258 110.207 193.402 108.113
 197.652 c 106.133 201.676 104.473 206.098 103.473 210.434 c 96.332 208.164
 89.492 204.605 83.07 199.809 c 76.758 195.098 76.754 185.695 83.07 180.98
 c h
110.402 243.594 m 110.43 243.629 110.461 243.664 110.488 243.695 c 122.277
 258.445 144.965 265.82 163.465 269.238 c 171.32 275.508 181.91 277.699 
192 277.699 c 202.113 277.699 212.695 275.496 220.531 269.238 c 238.98 265.832
 261.891 258.363 273.594 243.598 c 281.023 254.965 284.289 267.301 282.852
 278.984 c 281.332 291.324 274.801 301.523 264.926 308.832 c 262.43 310.68
 261.906 314.203 263.754 316.699 c 263.754 316.703 263.754 316.703 263.754
 316.703 c 265.605 319.199 269.129 319.727 271.621 317.879 c 274.227 315.949
 277.57 313.051 280.215 310.164 c 283.57 324.012 288.453 335.82 292.035 
343.426 c 288.84 343.977 285.844 345.293 283.281 347.262 c 279.008 344.531
 273.996 343.133 269.121 343.133 c 261.844 343.133 257.156 347.148 256.949
 347.262 c 252.809 344.609 247.816 343.133 242.777 343.133 c 233.309 343.133
 225.113 349.785 223.125 359.039 c 220.078 356.055 218.246 351.902 218.246
 347.383 c 218.246 335.027 l 231.004 333.578 243.059 330.898 250.184 328.621
 c 253.082 327.695 254.699 324.645 253.883 321.742 c 253.863 321.68 253.852
 321.613 253.832 321.551 c 252.887 318.59 249.723 316.961 246.762 317.902
 c 239.012 320.375 226.102 323.094 212.121 324.344 c 205.605 324.926 198.891
 325.219 192 325.219 c 185.105 325.219 178.391 324.926 171.875 324.344 c
 142.996 321.766 111.648 314.328 102.836 286.719 c 98.457 273 101.227 257.625
 110.402 243.594 c h
103.773 310.219 m 119.09 326.969 143 332.438 165.754 335.031 c 165.754 
347.383 l 165.754 351.902 163.922 356.055 160.875 359.043 c 158.922 349.805
 150.68 343.133 141.223 343.133 c 136.184 343.133 131.145 344.641 127.051
 347.262 c 125.191 346.137 121.66 343.133 114.879 343.133 c 109.766 343.133
 104.781 344.668 100.719 347.262 c 98.156 345.293 95.16 343.977 91.965 343.426
 c 95.539 335.832 100.414 324.043 103.773 310.219 c h
103.773 310.219 m f
Q Q
showpage
%%Trailer
end
%%EOF
