%!PS-Adobe-3.0 EPSF-3.0
%%Creator: cairo 1.16.0 (https://cairographics.org)
%%CreationDate: Mon Aug 23 08:35:23 2021
%%Pages: 1
%%DocumentData: Clean7Bit
%%LanguageLevel: 2
%%BoundingBox: 0 0 384 384
%%EndComments
%%BeginProlog
50 dict begin
/q { gsave } bind def
/Q { grestore } bind def
/cm { 6 array astore concat } bind def
/w { setlinewidth } bind def
/J { setlinecap } bind def
/j { setlinejoin } bind def
/M { setmiterlimit } bind def
/d { setdash } bind def
/m { moveto } bind def
/l { lineto } bind def
/c { curveto } bind def
/h { closepath } bind def
/re { exch dup neg 3 1 roll 5 3 roll moveto 0 rlineto
      0 exch rlineto 0 rlineto closepath } bind def
/S { stroke } bind def
/f { fill } bind def
/f* { eofill } bind def
/n { newpath } bind def
/W { clip } bind def
/W* { eoclip } bind def
/BT { } bind def
/ET { } bind def
/BDC { mark 3 1 roll /BDC pdfmark } bind def
/EMC { mark /EMC pdfmark } bind def
/cairo_store_point { /cairo_point_y exch def /cairo_point_x exch def } def
/Tj { show currentpoint cairo_store_point } bind def
/TJ {
  {
    dup
    type /stringtype eq
    { show } { -0.001 mul 0 cairo_font_matrix dtransform rmoveto } ifelse
  } forall
  currentpoint cairo_store_point
} bind def
/cairo_selectfont { cairo_font_matrix aload pop pop pop 0 0 6 array astore
    cairo_font exch selectfont cairo_point_x cairo_point_y moveto } bind def
/Tf { pop /cairo_font exch def /cairo_font_matrix where
      { pop cairo_selectfont } if } bind def
/Td { matrix translate cairo_font_matrix matrix concatmatrix dup
      /cairo_font_matrix exch def dup 4 get exch 5 get cairo_store_point
      /cairo_font where { pop cairo_selectfont } if } bind def
/Tm { 2 copy 8 2 roll 6 array astore /cairo_font_matrix exch def
      cairo_store_point /cairo_font where { pop cairo_selectfont } if } bind def
/g { setgray } bind def
/rg { setrgbcolor } bind def
/d1 { setcachedevice } bind def
/cairo_data_source {
  CairoDataIndex CairoData length lt
    { CairoData CairoDataIndex get /CairoDataIndex CairoDataIndex 1 add def }
    { () } ifelse
} def
/cairo_flush_ascii85_file { cairo_ascii85_file status { cairo_ascii85_file flushfile } if } def
/cairo_image { image cairo_flush_ascii85_file } def
/cairo_imagemask { imagemask cairo_flush_ascii85_file } def
%%EndProlog
%%BeginSetup
%%EndSetup
%%Page: 1 1
%%BeginPageSetup
%%PageBoundingBox: 0 0 384 384
%%EndPageSetup
q 0 0 384 384 rectclip
1 0 0 -1 0 384 cm q
0.92549 0.415686 0.384314 rg
91.281 229.355 m 110.043 230.562 125.25 214.594 123.145 195.941 c 86.414
 183.504 57.699 149.766 40.562 124.684 c 32.391 112.723 14.164 114.809 8.977
 128.328 c 6.754 134.121 5.68 140.484 6.035 147.137 c 7.25 170.027 25.637
 188.652 48.512 190.16 c 54.422 190.551 60.105 189.801 65.379 188.129 c 
63.715 192.266 62.934 196.848 63.293 201.656 c 64.41 216.465 76.461 228.398
 91.281 229.355 c h
91.281 229.355 m f
0.423529 0.501961 0.588235 rg
171.734 361.777 m 165.859 353.426 156.289 348.461 146.082 348.461 c 142.527
 348.461 139.129 346.887 136.93 344.098 c 129.996 335.301 128.148 326.555
 131.094 316.934 c 134.004 307.441 140.559 300.707 140.625 300.641 c 117.75
 277.551 l 116.566 278.715 106.012 289.406 100.535 305.793 c 95.688 320.297
 96.285 334.875 102.047 348.457 c 95.805 348.457 l 85.16 348.457 75.77 355.434
 72.695 365.621 c 72.695 372.637 78.434 378.375 85.445 378.375 c 163.117
 378.375 l 171.648 378.375 176.645 368.758 171.734 361.777 c h
171.734 361.777 m f
0.941176 0.556863 0.619608 rg
316.418 223.094 m 312.453 180.195 259.848 161.715 229.492 192.289 c 219.645
 202.207 218.402 217.785 226.555 229.137 c 235.051 240.965 251.074 244.523
 263.777 237.406 c 274.027 231.664 l 274.027 231.664 282.617 237.43 289.348
 251.242 c 292.426 257.562 299.633 260.715 306.34 258.609 c 311.762 256.902
 315.613 252.113 316.184 246.457 c 317.047 237.855 317.066 230.094 316.418
 223.094 c h
316.418 223.094 m f
0.933333 0.490196 0.564706 rg
315.824 218.703 m 308.793 222.457 300.766 224.594 292.238 224.594 c 267.309
 224.594 246.641 206.402 242.75 182.578 c 238.043 184.973 233.566 188.184
 229.492 192.289 c 219.645 202.207 218.402 217.785 226.555 229.137 c 235.051
 240.965 251.074 244.523 263.777 237.406 c 274.027 231.664 l 274.027 231.664
 282.617 237.43 289.348 251.242 c 292.426 257.562 299.633 260.715 306.34
 258.609 c 311.762 256.902 315.613 252.113 316.184 246.457 c 317.047 237.855
 317.066 230.094 316.418 223.094 c 316.281 221.598 316.078 220.137 315.824
 218.703 c h
315.824 218.703 m f
0.94902 0.615686 0.666667 rg
190.125 228.344 m 177.43 193.051 l 177.359 193.078 l 177.555 193.004 197.156
 185.652 213.016 169.305 c 232.758 148.949 237.848 124.613 228.57 94.902
 c 264.371 83.723 l 271.824 107.594 272.496 130.246 266.367 151.059 c 261.426
 167.84 252.16 183.145 238.82 196.551 c 216.953 218.527 191.207 227.953 
190.125 228.344 c h
190.125 228.344 m f
0.321569 0.419608 0.501961 rg
286.547 105.152 m 286.883 105.281 287.215 105.414 287.562 105.52 c 287.766
 105.586 304.77 111.027 312.043 126.945 c 314.797 132.969 321.074 136.57
 327.648 135.742 c 337.668 134.48 343.629 123.879 339.48 114.672 c 330.988
 95.832 315.184 85.465 305.25 80.539 c h
286.547 105.152 m f
0.423529 0.501961 0.588235 rg
305.305 80.402 m 309.359 81.098 314.367 81.668 319.902 81.668 c 322.043
 81.668 324.258 81.582 326.523 81.387 c 350.152 79.355 368.051 66.195 376.926
 44.336 c 380.043 36.66 376.344 27.91 368.668 24.793 c 360.996 21.676 352.242
 25.371 349.125 33.051 c 344.543 44.332 336.781 50.172 324.691 51.426 c 
317.945 52.125 311.617 51.148 307.898 50.344 c h
305.305 80.402 m f
0.941176 0.556863 0.619608 rg
228.57 94.902 m 233.172 109.633 234.234 123.043 231.734 135.301 c 238.711
 137.363 246.09 138.477 253.723 138.477 c 259.105 138.477 264.355 137.926
 269.43 136.879 c 271.84 120.09 270.164 102.277 264.371 83.723 c h
228.57 94.902 m f
0.92549 0.415686 0.384314 rg
308.898 60.801 m 308.898 91.273 284.195 115.977 253.723 115.977 c 223.25
 115.977 198.547 91.273 198.547 60.801 c 198.547 30.328 223.25 5.625 253.723
 5.625 c 284.195 5.625 308.898 30.328 308.898 60.801 c h
308.898 60.801 m f
0.929412 0.627451 0.666667 rg
283.492 80.867 m 283.492 90.551 273.633 98.402 261.473 98.402 c 249.312
 98.402 239.453 90.551 239.453 80.867 c 239.453 71.184 249.312 63.332 261.473
 63.332 c 273.633 63.332 283.492 71.184 283.492 80.867 c h
283.492 80.867 m f
0.321569 0.419608 0.501961 rg
100.535 305.793 m 99.32 309.426 98.449 313.066 97.914 316.695 c 106.773
 324.598 118.016 329.867 130.418 331.281 c 129.34 326.648 129.57 321.91 
131.094 316.934 c 134.004 307.445 140.559 300.707 140.625 300.641 c 117.75
 277.551 l 116.566 278.715 106.012 289.406 100.535 305.793 c h
100.535 305.793 m f
0.909804 0.34902 0.309804 rg
173.668 272.656 m 173.668 292.824 157.32 309.176 137.148 309.176 c 116.98
 309.176 100.629 292.824 100.629 272.656 c 100.629 252.484 116.98 236.133
 137.148 236.133 c 157.32 236.133 173.668 252.484 173.668 272.656 c h
173.668 272.656 m f
100.82 185.387 m 92.309 197.418 87.641 211.465 87.641 225.84 c 87.641 226.863
 87.672 227.879 87.719 228.898 c 88.883 229.117 90.07 229.277 91.281 229.355
 c 110.043 230.562 125.25 214.594 123.145 195.941 c 115.328 193.293 107.879
 189.676 100.82 185.387 c h
100.82 185.387 m f
0.92549 0.415686 0.384314 rg
239.453 225.84 m 239.453 255.609 210.508 279.742 174.797 279.742 c 139.09
 279.742 110.141 255.609 110.141 225.84 c 110.141 196.07 139.09 171.938 
174.797 171.938 c 210.508 171.938 239.453 196.07 239.453 225.84 c h
239.453 225.84 m f
0.94902 0.615686 0.666667 rg
213.512 221.629 m 199.535 221.676 187.645 231.816 185.383 245.605 c 183.023
 259.977 191.84 273.824 205.855 277.773 c 217.164 280.961 l 217.164 280.961
 219.16 291.113 214.152 305.641 c 211.859 312.285 214.727 319.609 220.957
 322.863 c 225.996 325.492 232.109 324.828 236.512 321.23 c 243.203 315.758
 248.707 310.285 253.199 304.879 c 280.727 271.738 256.594 221.473 213.512
 221.629 c h
213.512 221.629 m f
0.941176 0.556863 0.619608 rg
214.422 242.523 m 214.422 235.195 215.895 228.215 218.555 221.852 c 216.902
 221.703 215.223 221.621 213.512 221.629 c 199.535 221.676 187.641 231.816
 185.379 245.605 c 183.023 259.977 191.836 273.824 205.852 277.773 c 217.164
 280.961 l 217.164 280.961 219.16 291.113 214.152 305.641 c 211.859 312.285
 214.723 319.609 220.957 322.863 c 225.996 325.492 232.109 324.828 236.512
 321.23 c 243.203 315.758 248.707 310.285 253.195 304.879 c 255.699 301.863
 257.77 298.711 259.445 295.465 c 233.918 291.34 214.422 269.215 214.422
 242.523 c h
214.422 242.523 m f
0 g
284.633 46.355 m 266.582 41.52 l 263.582 40.715 260.496 42.496 259.691 
45.496 c 258.887 48.496 260.668 51.582 263.668 52.387 c 268.98 53.809 l 
268.789 54.371 268.684 54.973 268.684 55.602 c 268.684 63.375 l 268.684 
66.48 271.203 69 274.309 69 c 277.414 69 279.934 66.48 279.934 63.375 c 
279.934 56.742 l 281.719 57.223 l 284.715 58.023 287.805 56.254 288.609 
53.246 c 289.414 50.242 287.633 47.16 284.633 46.355 c h
284.633 46.355 m f
370.785 19.582 m 360.23 15.293 348.207 20.367 343.914 30.934 c 339.625 
41.496 331.32 48.246 312.566 45.473 c 305.758 19.344 281.961 0 253.727 0
 c 220.199 0 192.926 27.273 192.926 60.801 c 192.926 84.785 206.891 105.566
 227.113 115.453 c 229.055 136.516 221.691 155.164 202.723 171.215 c 194.16
 168.062 184.719 166.312 174.801 166.312 c 152.609 166.312 132.789 175.07
 119.898 188.719 c 103.613 182.168 87.441 170.645 71.77 154.414 c 69.613
 152.18 66.051 152.117 63.816 154.277 c 61.582 156.434 61.52 159.996 63.676
 162.23 c 79.512 178.629 95.977 190.605 112.715 197.91 c 108.273 204.992
 105.535 212.902 104.758 220.938 c 100.766 223.074 96.285 224.043 91.648
 223.742 c 79.59 222.965 69.816 213.289 68.906 201.234 c 68.621 197.434 
69.191 193.734 70.602 190.23 c 72.375 185.832 68.219 181.332 63.684 182.77
 c 58.914 184.281 53.934 184.883 48.887 184.547 c 28.73 183.219 12.727 167.008
 11.656 146.836 c 11.352 141.141 12.219 135.59 14.234 130.344 c 17.797 121.055
 30.297 119.621 35.922 127.855 c 40.008 133.84 44.297 139.645 48.668 145.113
 c 50.605 147.539 54.145 147.934 56.574 145.992 c 59 144.055 59.395 140.512
 57.453 138.086 c 53.258 132.84 49.141 127.262 45.211 121.512 c 34.508 105.844
 10.547 108.551 3.73 126.316 c 1.148 133.047 0.035 140.152 0.422 147.434
 c 1.793 173.289 22.309 194.07 48.145 195.773 c 51.387 195.988 54.609 195.898
 57.789 195.516 c 57.555 197.676 57.523 199.867 57.688 202.078 c 59.016 
219.691 73.301 233.832 90.922 234.969 c 95.77 235.281 100.543 234.645 105.039
 233.07 c 105.516 236.406 106.324 239.656 107.43 242.797 c 93.961 256.18
 91.344 276.547 100.062 292.656 c 98.117 296.379 96.484 300.188 95.203 304.012
 c 90.879 316.957 90.531 330.242 94.125 342.883 c 81.621 343.57 70.973 351.883
 67.312 364 c 65.297 370.688 72.234 384 85.449 384 c 163.117 384 l 176.195
 384 183.863 369.242 176.336 358.539 c 169.418 348.707 158.109 342.836 146.082
 342.836 c 144.215 342.836 142.445 342.004 141.348 340.613 c 134.953 332.5
 133.469 324.621 137.934 314.785 c 156.133 314.445 171.969 302.402 177.344
 285.316 c 185.039 285.086 192.535 283.809 199.691 281.516 c 203.242 283.09
 205.352 283.398 211.91 285.324 c 212.012 289.051 211.641 295.664 208.836
 303.809 c 202.281 322.82 224.719 338.141 240.074 325.582 c 246.77 320.109
 252.641 314.352 257.527 308.473 c 271.59 291.547 274.469 268.613 265.043
 248.621 c 264.32 247.086 263.531 245.598 262.691 244.152 c 265.941 242.828
 267.246 241.84 273.398 238.465 c 276.105 241.027 280.523 245.965 284.293
 253.707 c 288.656 262.66 298.66 266.918 308.027 263.977 c 315.59 261.598
 320.988 254.941 321.781 247.02 c 323.379 231.113 323.121 214.789 315.438
 200.719 c 313.949 197.992 310.531 196.988 307.805 198.477 c 305.078 199.969
 304.074 203.387 305.562 206.109 c 312.043 217.977 311.934 232.496 310.59
 245.895 c 310.242 249.336 307.914 252.219 304.656 253.242 c 300.598 254.52
 296.289 252.641 294.406 248.781 c 287.098 233.777 277.566 227.262 277.168
 226.992 c 275.406 225.812 273.133 225.719 271.281 226.758 c 262.027 231.758
 260.18 233.457 255.785 234.641 c 252.492 230.973 248.773 227.828 245.078
 225.367 c 245.051 221.328 244.473 216.797 243.281 212.414 c 243.281 212.414
 243.281 212.414 243.277 212.41 c 242.441 209.328 241.324 206.301 239.898
 203.352 c 246.113 197.492 252.082 190.625 256.926 183.59 c 269.031 181.266
 282.125 184.098 292.348 191.34 c 294.883 193.137 298.395 192.535 300.191
 190.004 c 301.984 187.469 301.387 183.957 298.852 182.16 c 288.586 174.891
 276.406 171.227 264.172 171.527 c 267.309 165.465 269.848 159.164 271.766
 152.648 c 275.074 141.422 276.5 129.562 276.035 117.344 c 280.02 115.766
 283.801 113.789 287.324 111.441 c 291.23 113.062 301.934 118.348 306.93
 129.281 c 314.066 144.906 335.57 145.594 343.793 130.922 c 347.027 125.152
 347.324 118.387 344.609 112.363 c 339.695 101.457 332.492 93.195 325.344
 87.098 c 352.477 85.324 372.383 70.484 382.141 46.453 c 386.418 35.914 
381.324 23.859 370.785 19.582 c h
146.082 354.086 m 154.449 354.086 162.32 358.172 167.133 365.012 c 169.426
 368.27 167.102 372.75 163.117 372.75 c 85.449 372.75 l 81.777 372.75 78.746
 369.961 78.363 366.391 c 80.984 358.992 87.883 354.082 95.805 354.082 c
 102.051 354.082 l 106.066 354.082 108.809 349.977 107.23 346.262 c 101.926
 333.766 101.469 320.75 105.875 307.574 c 106.41 305.969 107.02 304.367 
107.699 302.77 c 113.215 308.113 119.645 311.613 126.352 313.391 c 121.809
 325.977 124.297 337.152 132.516 347.578 c 135.773 351.715 140.719 354.086
 146.082 354.086 c h
134.938 303.461 m 134.934 303.461 134.93 303.461 134.922 303.461 c 110.691
 301.734 97.523 273.375 112.691 253.777 c 123.988 271.895 144.402 282.484
 165.543 284.852 c 160.461 296.672 148.328 304.418 134.938 303.461 c h
187.961 272.914 m 182.875 273.863 178.09 274.195 173.145 274.082 c 173.133
 274.082 173.125 274.082 173.113 274.082 c 130.973 273.109 98.348 234.105
 125.914 198.809 c 136.539 185.996 154.488 177.562 174.801 177.562 c 184.434
 177.562 193.527 179.469 201.57 182.828 c 201.574 182.828 201.574 182.832
 201.578 182.832 c 215.016 188.453 226.898 198.922 231.66 212.852 c 231.68
 212.906 231.695 212.957 231.711 213.008 c 232.844 216.359 233.289 219.312
 233.309 219.395 c 227.578 217.301 221.621 216.234 215.828 216.039 c 196.359
 215.332 182.484 228.52 179.832 244.695 c 178.207 254.617 180.992 265.012
 187.961 272.914 c h
254.867 253.418 m 262.41 269.414 260.113 287.754 248.871 301.285 c 244.449
 306.609 239.09 311.855 232.953 316.875 c 226.273 322.336 216.637 315.695
 219.469 307.473 c 224.91 291.695 222.777 280.352 222.684 279.875 c 222.277
 277.797 220.73 276.121 218.691 275.547 c 207.383 272.359 l 196.219 269.215
 189.027 258.156 190.934 246.516 c 192.676 235.895 201.648 227.227 213.984
 227.258 c 231.582 227.359 247.277 237.316 254.867 253.418 c h
260.973 149.473 m 256.012 166.32 246.496 181.145 233.859 193.551 c 228.656
 186.746 221.82 180.871 213.867 176.352 c 230.148 161.086 239.23 142.211
 238.633 119.715 c 243.449 120.949 248.648 121.602 253.727 121.602 c 257.473
 121.602 261.539 121.199 264.867 120.582 c 264.984 130.586 263.684 140.273
 260.973 149.473 c h
253.727 110.352 m 226.465 110.352 204.176 88.172 204.176 60.801 c 204.176
 33.477 226.402 11.25 253.727 11.25 c 281.18 11.25 303.277 33.641 303.277
 60.801 c 303.277 88.02 281.145 110.352 253.727 110.352 c h
334.355 116.984 m 335.586 119.723 335.449 122.797 333.98 125.422 c 330.238
 132.098 320.453 131.812 317.16 124.609 c 312.152 113.648 303.328 107.105
 296.926 103.582 c 301.379 99.086 305.113 93.875 307.906 88.395 c 316.434
 93.488 327.848 102.551 334.355 116.984 c h
371.715 42.219 m 361.641 67.031 339.512 78.184 312.68 75.703 c 313.867 
71.012 314.527 65.887 314.527 60.801 c 314.527 59.352 314.422 57.242 314.41
 57.031 c 332.781 58.742 347.227 52.68 354.34 35.164 c 356.289 30.367 361.754
 28.055 366.555 30.004 c 371.344 31.949 373.66 37.43 371.715 42.219 c h
371.715 42.219 m f
Q Q
showpage
%%Trailer
end
%%EOF
