%!PS-Adobe-3.0 EPSF-3.0
%%Creator: cairo 1.16.0 (https://cairographics.org)
%%CreationDate: Mon Aug 23 08:35:24 2021
%%Pages: 1
%%DocumentData: Clean7Bit
%%LanguageLevel: 2
%%BoundingBox: 14 0 370 384
%%EndComments
%%BeginProlog
50 dict begin
/q { gsave } bind def
/Q { grestore } bind def
/cm { 6 array astore concat } bind def
/w { setlinewidth } bind def
/J { setlinecap } bind def
/j { setlinejoin } bind def
/M { setmiterlimit } bind def
/d { setdash } bind def
/m { moveto } bind def
/l { lineto } bind def
/c { curveto } bind def
/h { closepath } bind def
/re { exch dup neg 3 1 roll 5 3 roll moveto 0 rlineto
      0 exch rlineto 0 rlineto closepath } bind def
/S { stroke } bind def
/f { fill } bind def
/f* { eofill } bind def
/n { newpath } bind def
/W { clip } bind def
/W* { eoclip } bind def
/BT { } bind def
/ET { } bind def
/BDC { mark 3 1 roll /BDC pdfmark } bind def
/EMC { mark /EMC pdfmark } bind def
/cairo_store_point { /cairo_point_y exch def /cairo_point_x exch def } def
/Tj { show currentpoint cairo_store_point } bind def
/TJ {
  {
    dup
    type /stringtype eq
    { show } { -0.001 mul 0 cairo_font_matrix dtransform rmoveto } ifelse
  } forall
  currentpoint cairo_store_point
} bind def
/cairo_selectfont { cairo_font_matrix aload pop pop pop 0 0 6 array astore
    cairo_font exch selectfont cairo_point_x cairo_point_y moveto } bind def
/Tf { pop /cairo_font exch def /cairo_font_matrix where
      { pop cairo_selectfont } if } bind def
/Td { matrix translate cairo_font_matrix matrix concatmatrix dup
      /cairo_font_matrix exch def dup 4 get exch 5 get cairo_store_point
      /cairo_font where { pop cairo_selectfont } if } bind def
/Tm { 2 copy 8 2 roll 6 array astore /cairo_font_matrix exch def
      cairo_store_point /cairo_font where { pop cairo_selectfont } if } bind def
/g { setgray } bind def
/rg { setrgbcolor } bind def
/d1 { setcachedevice } bind def
/cairo_data_source {
  CairoDataIndex CairoData length lt
    { CairoData CairoDataIndex get /CairoDataIndex CairoDataIndex 1 add def }
    { () } ifelse
} def
/cairo_flush_ascii85_file { cairo_ascii85_file status { cairo_ascii85_file flushfile } if } def
/cairo_image { image cairo_flush_ascii85_file } def
/cairo_imagemask { imagemask cairo_flush_ascii85_file } def
%%EndProlog
%%BeginSetup
%%EndSetup
%%Page: 1 1
%%BeginPageSetup
%%PageBoundingBox: 14 0 370 384
%%EndPageSetup
q 14 0 356 384 rectclip
1 0 0 -1 0 384 cm q
0.898039 0.52549 0.431373 rg
295.668 357.125 m 290.656 352.027 275.824 348.02 265.113 348.02 c 265.113
 260.25 l 222.129 260.25 l 222.129 350.918 l 222.129 366.082 234.422 378.375
 249.586 378.375 c 286.691 378.375 l 297.754 378.375 303.422 365.023 295.668
 357.125 c h
295.668 357.125 m f
0.835294 0.454902 0.356863 rg
222.133 334.18 m 231.938 331.492 244.414 326.582 257.566 317.617 c 260.137
 315.863 262.652 313.996 265.113 312.043 c 265.113 260.25 l 222.133 260.25
 l h
222.133 334.18 m f
0.815686 0.811765 0.909804 rg
201.82 314.93 m 201.82 314.93 281.754 314.262 306.586 189.684 c 208.879
 196.113 l 180.141 276.156 l h
201.82 314.93 m f
0.952941 0.615686 0.521569 rg
329.07 92.234 m 340.68 92.234 351.391 86.406 357.742 76.914 c 357.805 72.098
 l 362.586 65.887 l 363.242 63.191 363.578 60.441 363.578 57.688 c 363.578
 51.418 361.867 45.164 358.457 39.668 c 357.145 37.559 355.688 35.527 354.145
 33.578 c 339.969 15.719 318.176 5.625 295.375 5.625 c 287.445 5.625 l 255.738
 5.625 230.027 31.336 230.027 63.043 c 230.027 72.758 228.121 82.215 224.559
 90.961 c 231.07 119.348 l 204.66 118.793 l 202.41 120.75 200.035 122.586
 197.527 124.281 c 190.93 128.746 183.75 133.934 176.43 139.809 c 180.145
 167.961 l 151.402 162.508 l 143.418 170.797 135.855 179.879 129.34 189.68
 c 136.863 217.086 l 113.445 221.52 l 109.809 232.297 107.715 243.68 107.715
 255.605 c 107.715 255.605 103.824 347.285 33.66 345.418 c 20.805 345.082
 15.438 361.617 26.117 368.773 c 48.828 384 89.992 388.266 158.836 326.242
 c 158.836 350.918 l 158.836 366.082 171.129 378.375 186.293 378.375 c 223.395
 378.375 l 234.457 378.375 240.129 365.023 232.375 357.125 c 227.363 352.027
 212.527 348.02 201.816 348.02 c 201.816 314.93 l 201.816 269.09 228.113
 227.316 269.445 207.492 c 274.57 205.035 l 321.277 224.91 l 332.109 229.52
 344.625 224.477 349.234 213.645 c 353.844 202.812 348.801 190.297 337.969
 185.688 c 309.375 173.52 l 312.23 154.277 313.859 132.426 313.859 107.594
 c 313.863 99.133 320.613 92.234 329.07 92.234 c h
329.07 92.234 m f
0.972549 0.780392 0.733333 rg
252.535 142.801 m 245.949 149.383 235.262 149.391 228.668 142.801 c 204.664
 118.793 l 211.539 112.801 217.195 105.637 221.402 97.711 c 222.566 95.512
 223.621 93.262 224.559 90.961 c 252.535 118.934 l 259.129 125.527 259.129
 136.207 252.535 142.801 c h
252.535 142.801 m f
0.898039 0.52549 0.431373 rg
151.168 235.051 m 151.168 210.367 155.578 186.715 163.645 164.832 c 151.406
 162.508 l 143.418 170.797 135.855 179.879 129.34 189.684 c 136.863 217.086
 l 113.445 221.52 l 109.809 232.297 107.719 243.684 107.719 255.605 c 107.719
 255.605 103.824 347.285 33.664 345.418 c 20.809 345.082 15.438 361.621 
26.117 368.773 c 48.828 384 89.996 388.266 158.836 326.242 c 158.836 350.918
 l 158.836 366.082 171.129 378.375 186.293 378.375 c 210.414 378.375 l 173.805
 341.656 151.168 290.996 151.168 235.051 c h
151.168 235.051 m f
0.972549 0.780392 0.733333 rg
203.934 191.168 m 197.352 197.758 186.664 197.758 180.07 191.176 c 151.406
 162.508 l 159.52 154.102 168.07 146.512 176.434 139.809 c 203.934 167.301
 l 210.527 173.895 210.527 184.582 203.934 191.168 c h
203.934 191.168 m f
155.336 239.543 m 148.742 246.133 138.055 246.133 131.469 239.543 c 113.445
 221.52 l 117.258 210.215 122.762 199.582 129.34 189.684 c 155.336 215.676
 l 161.918 222.27 161.918 232.949 155.336 239.543 c h
155.336 239.543 m f
0.952941 0.615686 0.521569 rg
173.695 142.031 m 166.211 148.18 158.637 155.016 151.406 162.508 c 161.102
 172.203 l 164.5 161.75 168.719 151.664 173.695 142.031 c h
173.695 142.031 m f
151.168 235.051 m 151.168 227.508 151.594 220.066 152.395 212.738 c 129.34
 189.684 l 122.762 199.582 117.258 210.215 113.445 221.52 c 131.469 239.543
 l 136.84 244.918 144.938 245.906 151.32 242.512 c 151.23 240.035 151.168
 237.551 151.168 235.051 c h
151.168 235.051 m f
0.921569 0.917647 0.960784 rg
324.836 59.285 m 324.836 69.074 314.871 77.008 302.582 77.008 c 290.289
 77.008 280.324 69.074 280.324 59.285 c 280.324 49.496 290.289 41.562 302.582
 41.562 c 314.871 41.562 324.836 49.496 324.836 59.285 c h
324.836 59.285 m f
0 g
312.523 47.84 m 315.629 47.84 318.148 45.32 318.148 42.215 c 318.148 33.871
 l 318.148 30.766 315.629 28.246 312.523 28.246 c 309.418 28.246 306.902
 30.766 306.902 33.871 c 306.902 42.215 l 306.902 45.32 309.418 47.84 312.523
 47.84 c h
312.523 47.84 m f
363.203 36.684 m 349.555 14.77 324.242 0 295.359 0 c 287.434 0 l 252.68
 0 224.402 28.277 224.402 63.031 c 224.402 85.754 213.133 106.91 194.387
 119.598 c 147.434 151.344 102.195 198.48 102.117 255.414 c 102.012 257.453
 100.07 289.395 84.113 313.391 c 82.395 315.977 83.094 319.465 85.68 321.188
 c 88.277 322.914 91.766 322.195 93.477 319.617 c 105.527 301.5 113.367 
272.262 113.367 255.551 c 113.367 247.785 114.32 239.953 116.215 232.172
 c 127.508 243.465 l 136.363 252.328 150.602 252.191 159.324 243.469 c 159.328
 243.465 159.328 243.465 159.328 243.465 c 168.086 234.695 168.086 220.426
 159.324 211.656 c 136.641 188.969 l 141.008 182.789 146 176.621 151.547
 170.555 c 176.105 195.113 l 184.949 203.949 199.184 203.844 207.91 195.105
 c 216.816 186.211 216.594 171.973 207.914 163.289 c 184.902 140.285 l 189.957
 136.402 195.246 132.594 200.684 128.914 c 201.898 128.094 203.098 127.23
 204.277 126.332 c 224.691 146.746 l 234.086 156.141 249.566 155.418 258.043
 145.043 c 258.047 145.039 258.051 145.031 258.055 145.027 c 265.266 136.191
 264.738 123.164 256.504 114.934 c 231.105 89.539 l 234.121 81.016 235.648
 72.117 235.648 63.035 c 235.648 34.48 258.879 11.25 287.43 11.25 c 295.359
 11.25 l 320.559 11.25 342.18 24.215 353.648 42.629 c 356.445 47.133 357.922
 52.34 357.922 57.68 c 357.922 60.289 357.555 62.902 356.855 65.422 c 349.105
 63.773 344.188 58.598 344.047 58.445 c 341.973 56.156 338.43 55.969 336.125
 58.035 c 333.812 60.109 333.621 63.664 335.691 65.977 c 336 66.32 341.859
 72.738 351.645 75.699 c 346.238 82.531 338.012 86.594 329.047 86.594 c 
317.559 86.594 308.215 96.004 308.215 107.574 c 308.215 130.98 306.727 152.879
 303.793 172.66 c 303.418 175.191 304.797 177.66 307.152 178.66 c 335.738
 190.828 l 343.699 194.211 347.418 203.441 344.031 211.402 c 340.645 219.359
 331.414 223.078 323.457 219.691 c 276.758 199.82 l 275.27 199.188 273.578
 199.227 272.125 199.926 c 269 201.582 257.785 205.969 244.453 216.312 c
 242 218.219 241.555 221.75 243.461 224.203 c 245.363 226.66 248.898 227.105
 251.352 225.199 c 262.98 216.172 272.973 212.09 274.695 211.168 c 293.137
 219.016 l 279.074 261.801 250.332 301.238 207.625 308.566 c 209.004 283.871
 218.438 259.426 236.016 239.586 c 238.078 237.262 237.863 233.707 235.535
 231.648 c 233.211 229.586 229.656 229.805 227.598 232.129 c 207.348 254.98
 196.195 284.367 196.195 314.867 c 196.195 347.949 l 196.195 351.055 198.711
 353.574 201.816 353.574 c 209.852 353.574 219.402 356.027 224.82 358.684
 c 234.305 363.398 229.93 372.672 223.391 372.672 c 186.297 372.672 l 174.262
 372.672 164.469 362.879 164.469 350.844 c 164.469 326.176 l 164.469 321.312
 158.691 318.742 155.082 321.996 c 102.473 369.395 58.973 383.93 29.285 
364.027 c 23.289 360.008 26.309 350.777 33.547 350.969 c 50.395 351.414 
65.105 346.836 77.285 337.348 c 79.734 335.438 80.176 331.902 78.266 329.453
 c 76.355 327.004 72.824 326.562 70.371 328.473 c 60.305 336.316 48.02 340.102
 33.844 339.727 c 15.332 339.23 7.676 363.086 23.023 373.371 c 63.836 400.73
 115.664 370.285 153.219 338.551 c 153.219 350.844 l 153.219 369.082 168.059
 383.918 186.297 383.918 c 223.391 383.918 l 227.527 383.918 231.348 382.598
 234.422 380.242 c 239.082 382.656 244.238 383.918 249.574 383.918 c 286.672
 383.918 l 302.738 383.918 310.902 364.562 299.66 353.113 c 294.121 347.477
 281.465 343.656 270.723 342.613 c 270.723 283.293 l 286.953 264.664 297.172
 242.43 303.516 223.434 c 319.051 230.043 l 332.711 235.855 348.562 229.473
 354.379 215.805 c 357.195 209.188 357.266 201.867 354.578 195.195 c 351.887
 188.52 346.762 183.293 340.141 180.477 c 315.531 170.004 l 318.141 150.828
 319.461 129.852 319.461 107.574 c 319.461 102.207 323.762 97.844 329.043
 97.844 c 351.664 97.844 369.168 79.465 369.168 57.68 c 369.172 50.238 367.109
 42.98 363.203 36.684 c h
151.371 219.605 m 155.73 223.969 155.773 231.105 151.375 235.512 c 147.121
 239.766 139.988 240.043 135.469 235.512 c 119.957 220.004 l 122.617 212.852
 126.102 205.68 130.355 198.59 c h
199.961 171.242 m 204.41 175.691 204.309 182.809 199.961 187.152 c 195.574
 191.543 188.453 191.547 184.055 187.156 c 159.352 162.453 l 164.527 157.34
 170.121 152.281 176.062 147.348 c h
248.551 122.887 m 252.359 126.691 252.891 132.629 249.992 137.027 c 249.992
 137.027 249.992 137.031 249.992 137.031 c 246.047 143.008 237.641 143.785
 232.645 138.793 c 212.746 118.891 l 218.098 113.469 222.621 107.332 226.238
 100.574 c h
216.508 344.078 m 213.469 343.395 210.387 342.895 207.449 342.609 c 207.449
 319.973 l 209.844 319.633 212.914 319.07 216.508 318.137 c h
291.641 360.988 m 295.883 365.309 292.781 372.668 286.68 372.668 c 249.582
 372.668 l 246.527 372.668 243.562 372.043 240.82 370.836 c 242.969 363.637
 240.559 355.832 233.996 351.086 c 233.992 351.086 233.992 351.082 233.992
 351.082 c 232.105 349.719 229.906 348.582 227.754 347.645 c 227.754 314.445
 l 239.578 309.723 249.941 303.094 259.48 294.672 c 259.48 347.945 l 259.48
 351.051 262 353.57 265.105 353.57 c 275.469 353.57 288.359 357.652 291.641
 360.988 c h
291.641 360.988 m f
Q Q
showpage
%%Trailer
end
%%EOF
