%!PS-Adobe-3.0 EPSF-3.0
%%Creator: cairo 1.16.0 (https://cairographics.org)
%%CreationDate: Mon Aug 23 08:35:24 2021
%%Pages: 1
%%DocumentData: Clean7Bit
%%LanguageLevel: 2
%%BoundingBox: 1 0 383 384
%%EndComments
%%BeginProlog
50 dict begin
/q { gsave } bind def
/Q { grestore } bind def
/cm { 6 array astore concat } bind def
/w { setlinewidth } bind def
/J { setlinecap } bind def
/j { setlinejoin } bind def
/M { setmiterlimit } bind def
/d { setdash } bind def
/m { moveto } bind def
/l { lineto } bind def
/c { curveto } bind def
/h { closepath } bind def
/re { exch dup neg 3 1 roll 5 3 roll moveto 0 rlineto
      0 exch rlineto 0 rlineto closepath } bind def
/S { stroke } bind def
/f { fill } bind def
/f* { eofill } bind def
/n { newpath } bind def
/W { clip } bind def
/W* { eoclip } bind def
/BT { } bind def
/ET { } bind def
/BDC { mark 3 1 roll /BDC pdfmark } bind def
/EMC { mark /EMC pdfmark } bind def
/cairo_store_point { /cairo_point_y exch def /cairo_point_x exch def } def
/Tj { show currentpoint cairo_store_point } bind def
/TJ {
  {
    dup
    type /stringtype eq
    { show } { -0.001 mul 0 cairo_font_matrix dtransform rmoveto } ifelse
  } forall
  currentpoint cairo_store_point
} bind def
/cairo_selectfont { cairo_font_matrix aload pop pop pop 0 0 6 array astore
    cairo_font exch selectfont cairo_point_x cairo_point_y moveto } bind def
/Tf { pop /cairo_font exch def /cairo_font_matrix where
      { pop cairo_selectfont } if } bind def
/Td { matrix translate cairo_font_matrix matrix concatmatrix dup
      /cairo_font_matrix exch def dup 4 get exch 5 get cairo_store_point
      /cairo_font where { pop cairo_selectfont } if } bind def
/Tm { 2 copy 8 2 roll 6 array astore /cairo_font_matrix exch def
      cairo_store_point /cairo_font where { pop cairo_selectfont } if } bind def
/g { setgray } bind def
/rg { setrgbcolor } bind def
/d1 { setcachedevice } bind def
/cairo_data_source {
  CairoDataIndex CairoData length lt
    { CairoData CairoDataIndex get /CairoDataIndex CairoDataIndex 1 add def }
    { () } ifelse
} def
/cairo_flush_ascii85_file { cairo_ascii85_file status { cairo_ascii85_file flushfile } if } def
/cairo_image { image cairo_flush_ascii85_file } def
/cairo_imagemask { imagemask cairo_flush_ascii85_file } def
%%EndProlog
%%BeginSetup
%%EndSetup
%%Page: 1 1
%%BeginPageSetup
%%PageBoundingBox: 1 0 383 384
%%EndPageSetup
q 1 0 382 384 rectclip
1 0 0 -1 0 384 cm q
0.741176 0.815686 0.396078 rg
144.176 301.281 m 52.219 306.293 17.559 253.418 8.82 236.375 c 7.23 233.27
 7.062 229.629 8.367 226.395 c 11.637 218.277 22.203 216.27 28.227 222.621
 c 44.145 239.414 76.691 262.492 130.648 253.363 c h
144.176 301.281 m f
230.758 351.559 m 222.633 351.559 l 225.996 343.793 230.797 336.73 236.781
 330.742 c 236.816 330.711 l 248.926 318.598 248.926 298.961 236.816 286.852
 c 228.25 278.285 214.359 278.285 205.793 286.852 c 201.273 291.371 199.137
 297.375 199.391 303.297 c 175.047 336.609 l 175.047 363.137 l 196.125 373.938
 l 201.812 376.855 208.117 378.375 214.512 378.375 c 230.758 378.375 l 238.164
 378.375 244.168 372.371 244.168 364.969 c 244.168 357.562 238.164 351.559
 230.758 351.559 c h
230.758 351.559 m f
0.937255 0.501961 0.498039 rg
237.129 120.809 m 242.691 71.297 l 245.484 46.453 258.648 23.949 278.934
 9.34 c 292.195 1.254 309.543 6.891 315.52 21.227 c 319.172 29.98 327.402
 35.961 336.855 36.734 c 336.898 36.738 l 352.363 37.996 363.078 52.734 
359.504 67.832 c 359.492 67.891 l 357.312 77.105 360.453 86.766 367.633 
92.941 c 367.684 92.988 l 379.445 103.098 379.445 121.309 367.684 131.422
 c 367.633 131.465 l 360.449 137.641 357.312 147.305 359.492 156.52 c 359.504
 156.574 l 363.078 171.676 352.363 186.41 336.898 187.672 c 336.855 187.676
 l 327.402 188.445 319.172 194.43 315.52 203.184 c 314.797 204.922 l 308.898
 219.062 291.367 224.023 278.934 215.07 c 248.992 193.508 233.012 157.473
 237.129 120.809 c h
237.129 120.809 m f
0.654902 0.776471 0.392157 rg
101.121 255.293 m 101.02 256.863 100.953 258.434 100.953 260.008 c 100.953
 275.035 105.461 289.027 113.191 300.711 c 122.715 301.641 133.023 301.887
 144.176 301.281 c 130.648 253.363 l 119.98 255.168 110.152 255.711 101.121
 255.293 c h
101.121 255.293 m f
236.816 286.852 m 228.25 278.285 214.359 278.285 205.793 286.852 c 201.273
 291.371 199.137 297.375 199.391 303.297 c 179.902 329.961 l 178.906 338.625
 l 178.906 338.625 218.652 336.461 245.691 305.25 c 244.922 298.527 241.973
 292.008 236.816 286.852 c h
236.816 286.852 m f
0.741176 0.815686 0.396078 rg
199.758 148.035 m 135.012 227.516 l 127.535 236.695 123.453 248.172 123.453
 260.008 c 123.453 288.422 146.484 311.457 174.902 311.457 c 207.438 311.457
 l 235.48 294.023 255.934 266.66 264.668 234.812 c 270.348 214.105 275.059
 189.211 275.059 163.598 c h
199.758 148.035 m f
0.654902 0.776471 0.392157 rg
275.059 163.598 m 199.758 148.035 l 169.918 184.664 l 185.391 200.684 207.152
 210.688 231.156 210.688 c 264.773 210.688 l 266.637 210.688 268.492 210.621
 270.34 210.5 c 273.168 195.742 275.059 179.816 275.059 163.598 c h
275.059 163.598 m f
0.937255 0.501961 0.498039 rg
219.918 120.809 m 214.359 71.297 l 211.566 46.453 198.402 23.949 178.117
 9.34 c 164.855 1.254 147.504 6.891 141.527 21.227 c 137.879 29.98 129.645
 35.961 120.191 36.734 c 120.148 36.738 l 104.684 37.996 93.973 52.734 97.543
 67.832 c 97.559 67.891 l 99.738 77.105 96.598 86.766 89.418 92.941 c 89.367
 92.988 l 77.605 103.098 77.605 121.309 89.367 131.422 c 89.418 131.465 
l 96.598 137.641 99.738 147.305 97.559 156.52 c 97.547 156.574 l 93.973 
171.676 104.688 186.41 120.152 187.672 c 120.195 187.676 l 129.648 188.445
 137.879 194.43 141.527 203.184 c 142.254 204.922 l 148.152 219.062 165.684
 224.023 178.117 215.07 c 208.059 193.508 224.035 157.473 219.918 120.809
 c h
219.918 120.809 m f
0.92549 0.415686 0.384314 rg
113.375 52.129 m 113.375 47.32 113.676 42.586 114.25 37.934 c 102.09 41.934
 94.449 54.742 97.543 67.832 c 97.559 67.887 l 99.738 77.105 96.598 86.766
 89.418 92.941 c 89.367 92.984 l 77.605 103.098 77.605 121.309 89.367 131.422
 c 89.418 131.465 l 96.598 137.641 99.738 147.305 97.559 156.52 c 97.547
 156.574 l 93.973 171.676 104.688 186.41 120.152 187.672 c 120.195 187.676
 l 129.648 188.445 137.879 194.43 141.527 203.184 c 142.254 204.918 l 148.152
 219.062 165.684 224.023 178.117 215.07 c 195.398 202.621 208.02 185.348
 214.816 165.918 c 157.73 159.418 113.375 110.957 113.375 52.129 c h
113.375 52.129 m f
0.741176 0.815686 0.396078 rg
316.082 161.965 m 316.973 154.484 l 321.852 152.129 l 327.355 139.117 323.473
 123.844 312.078 115.102 c 303.57 108.574 293.629 103.984 286.438 101.191
 c 276.762 79.895 255.305 65.09 230.391 65.09 c 196.242 65.09 168.586 92.902
 168.84 127.109 c 169.094 161.043 197.223 188.188 231.156 188.188 c 264.773
 188.188 l 285.262 188.188 304.285 178.293 316.082 161.965 c h
316.082 161.965 m f
0.992157 0.94902 0.894118 rg
262.449 145.547 m 262.449 155.062 252.762 162.773 240.816 162.773 c 228.871
 162.773 219.184 155.062 219.184 145.547 c 219.184 136.035 228.871 128.32
 240.816 128.32 c 252.762 128.32 262.449 136.035 262.449 145.547 c h
262.449 145.547 m f
0.843137 0.87451 0.486275 rg
293.824 262.777 m 281.195 242.746 263.344 233.398 249.367 229.031 c 238.602
 225.672 227.652 233.688 227.551 244.965 c 227.484 252.426 232.355 258.969
 239.469 261.219 c 247.543 263.773 257.98 269.207 265.277 280.777 c 270.246
 288.66 280.664 291.023 288.551 286.055 c 296.434 281.082 298.797 270.664
 293.824 262.777 c h
293.824 262.777 m f
192.414 340.48 m 190.051 343.969 188.008 347.676 186.328 351.559 c 194.453
 351.559 l 198.156 351.559 201.508 353.059 203.934 355.484 c 206.359 357.91
 207.863 361.266 207.863 364.969 c 207.863 372.371 201.859 378.375 194.453
 378.375 c 168.477 378.375 l 158.047 378.375 149.598 369.922 149.598 359.5
 c 149.598 356.367 150.375 353.285 151.863 350.535 c 153.332 347.805 l 157.352
 340.363 160.082 332.395 161.629 324.168 c 151.266 313.805 l 146 308.539
 143.375 301.648 143.375 294.758 c 143.375 287.684 146.145 280.617 151.664
 275.316 c 152.348 274.664 153.051 274.055 153.781 273.484 c 164.375 265.23
 179.664 266.008 189.363 275.707 c 200.508 286.852 l 203.898 290.242 206.34
 294.223 207.832 298.461 c 209.82 304.098 210.121 310.199 208.75 315.98 
c 207.469 321.379 204.719 326.5 200.508 330.707 c 200.473 330.742 l 197.484
 333.738 194.785 336.996 192.414 340.48 c h
192.414 340.48 m f
0 g
242.941 117.711 m 248.051 119.078 l 247.883 119.613 247.793 120.18 247.793
 120.77 c 247.793 128.406 l 247.793 131.512 250.309 134.031 253.418 134.031
 c 256.523 134.031 259.039 131.516 259.039 128.406 c 259.039 122.023 l 260.672
 122.461 l 263.676 123.266 266.758 121.48 267.559 118.484 c 268.363 115.484
 266.582 112.398 263.582 111.594 c 245.852 106.844 l 242.852 106.043 239.77
 107.82 238.965 110.82 c 238.16 113.82 239.941 116.906 242.941 117.711 c
 h
242.941 117.711 m f
371.273 88.73 m 365.664 83.906 363.238 76.438 364.953 69.184 c 369.324 
50.719 356.219 32.73 337.293 31.188 c 329.906 30.586 323.547 25.961 320.695
 19.125 c 312.641 -0.195 288.855 -4.723 275.637 4.84 c 270.539 8.512 265.785
 12.719 261.508 17.348 c 259.398 19.629 259.543 23.188 261.824 25.297 c 
264.105 27.402 267.664 27.262 269.77 24.98 c 273.484 20.961 277.609 17.301
 282.027 14.098 c 292.336 7.961 305.699 12.383 310.312 23.453 c 314.789 
34.191 324.777 41.453 336.422 42.402 c 348.398 43.379 356.801 54.781 353.992
 66.648 c 351.32 77.953 355.129 89.684 363.988 97.301 c 373.145 105.176 
373.148 119.324 363.938 127.246 c 355.129 134.82 351.32 146.547 354.008 
157.91 c 356.77 169.594 348.527 181.113 336.379 182.105 c 323.172 183.18
 315 190.922 309.609 202.734 c 307.277 208.219 302.918 211.816 297.77 213.273
 c 288.949 215.77 283.211 211.691 276.809 206.344 c 277.484 202.461 278.324
 196.895 278.867 192.398 c 298.316 188.352 315.73 175.816 325.566 157.379
 c 329.301 150.383 330.602 142.684 329.664 135.305 c 328.461 125.828 323.578
 116.898 315.484 110.688 c 307.191 104.324 297.688 99.742 290.559 96.832
 c 286.559 88.773 280.824 81.383 273.59 75.297 c 266.477 69.328 258.094 
64.906 249.922 62.422 c 251.621 55.117 254.305 48.094 257.922 41.473 c 259.414
 38.746 258.41 35.328 255.688 33.84 c 252.961 32.352 249.543 33.352 248.055
 36.078 c 243.91 43.656 240.867 51.711 238.938 60.082 c 236.125 59.719 233.27
 59.523 230.387 59.523 c 226.266 59.523 222.203 59.906 218.234 60.629 c 
212.562 35.492 195.453 13.398 181.051 4.602 c 164.844 -5.281 143.645 1.625
 136.352 19.121 c 133.496 25.961 127.137 30.586 119.711 31.191 c 100.887
 32.723 87.707 50.656 92.105 69.238 c 93.809 76.438 91.379 83.902 85.777
 88.723 c 85.777 88.723 85.723 88.77 85.723 88.77 c 71.406 101.078 71.289
 123.32 85.773 135.773 c 91.379 140.598 93.809 148.062 92.09 155.316 c 87.723
 173.781 100.824 191.77 119.754 193.312 c 127.137 193.914 133.496 198.535
 136.348 205.375 c 136.859 206.484 137.688 209.113 140.02 212.504 c 130.664
 223.988 l 124.688 231.324 120.664 240.047 118.887 249.258 c 75.234 253.32
 47.805 235.09 32.34 218.777 c 28.191 214.398 22.172 212.457 16.246 213.582
 c 4.605 215.797 -1.484 228.547 3.852 238.965 c 8.621 248.266 19.859 266.141
 41.57 281.352 c 44.113 283.133 47.621 282.516 49.402 279.973 c 51.184 277.43
 50.566 273.922 48.023 272.141 c 28.301 258.32 18.152 242.207 13.863 233.832
 c 11.965 230.133 14.031 225.453 18.348 224.633 c 20.523 224.219 22.648 
224.906 24.176 226.516 c 46.949 250.543 79.312 263.656 117.844 260.637 c
 117.973 273.543 122.668 286.16 130.629 295.996 c 106.484 295.812 84.855
 291.324 66.188 282.609 c 63.371 281.293 60.027 282.512 58.711 285.324 c
 57.398 288.141 58.613 291.484 61.43 292.801 c 81.996 302.402 105.742 307.246
 132.168 307.246 c 134.809 307.246 137.477 307.195 140.172 307.098 c 141.785
 311.051 144.188 314.68 147.297 317.789 c 155.516 326.008 l 153.977 332.801
 151.586 339.223 148.391 345.145 c 147.715 346.723 143.98 351.586 143.98
 359.5 c 143.98 373.008 154.973 383.996 168.484 383.996 c 194.457 383.996
 l 197.242 383.996 199.887 383.391 202.273 382.312 c 206.281 383.426 210.387
 383.996 214.508 383.996 c 230.754 383.996 l 241.246 383.996 249.785 375.461
 249.785 364.969 c 249.785 354.848 241.844 346.547 231.867 345.969 c 234.367
 341.902 237.34 338.141 240.754 334.727 c 240.789 334.691 l 253.879 321.602
 254.961 300.992 244.055 286.645 c 247.16 282.859 250.055 278.906 252.734
 274.809 c 255.527 277.195 258.203 280.137 260.508 283.793 c 267.141 294.312
 281.066 297.422 291.535 290.824 c 302.027 284.211 305.184 270.289 298.566
 259.797 c 290.609 247.176 280.703 238.57 271.039 232.699 c 272.27 228.016
 273.391 223.359 274.391 218.742 c 283.227 225.309 292.336 226.5 300.832
 224.094 c 310.07 221.48 317.082 214.641 320.105 206.777 c 321.551 203.031
 326.113 194.223 337.332 193.309 c 356.156 191.777 369.336 173.84 364.938
 155.262 c 363.234 148.062 365.66 140.598 371.32 135.73 c 385.613 123.445
 385.785 101.207 371.273 88.73 c h
263.891 81.945 m 263.898 81.949 263.902 81.953 263.91 81.957 c 271.387 
87.559 277.441 95.062 281.305 103.566 c 281.914 104.902 283.02 105.949 284.391
 106.484 c 290.992 109.051 300.555 113.41 308.637 119.613 c 317.555 126.453
 320.859 138.043 317.27 148.367 c 307.949 140.598 l 305.863 138.863 302.832
 138.863 300.746 140.598 c 287.887 151.316 l 275.027 140.598 l 272.941 138.863
 269.914 138.863 267.828 140.598 c 251.367 154.316 l 248.98 156.305 248.656
 159.852 250.645 162.234 c 252.637 164.625 256.184 164.941 258.566 162.957
 c 271.426 152.238 l 284.285 162.957 l 286.371 164.691 289.402 164.691 291.488
 162.957 c 304.348 152.238 l 311.727 158.387 l 301.164 173.172 283.82 182.598
 264.766 182.598 c 231.152 182.598 l 200.145 182.598 174.695 157.695 174.473
 127.113 c 174.25 96.266 199.227 70.77 230.387 70.77 c 242.691 70.77 254.391
 74.84 263.891 81.945 c h
120.625 182.102 m 108.668 181.125 100.238 169.746 103.051 157.855 c 105.727
 146.547 101.914 134.82 93.055 127.203 c 83.895 119.324 83.926 105.152 93.047
 97.305 c 93.051 97.305 93.102 97.258 93.105 97.258 c 101.914 89.684 105.727
 77.953 103.039 66.594 c 100.273 54.91 108.52 43.391 120.668 42.398 c 132.266
 41.453 142.254 34.195 146.73 23.453 c 151.355 12.363 164.734 7.977 175.02
 14.102 c 191.434 25.992 203.035 43.809 207.371 63.559 c 181.285 73.051 
163.016 98.184 163.227 127.195 c 163.227 127.211 163.227 127.227 163.227
 127.238 c 163.422 151.297 176.746 173.855 198.766 185.688 c 193.07 194.285
 178.312 211.277 168.117 213.543 c 165.234 214.176 162.211 214.105 159.273
 213.273 c 149.34 210.461 147.086 201.566 146.73 201.051 c 142.254 190.309
 132.266 183.051 120.625 182.102 c h
168.484 372.754 m 161.176 372.754 155.23 366.809 155.23 359.504 c 155.23
 354.93 157.492 352.266 158.293 350.484 c 162.484 342.723 165.473 334.223
 167.168 325.223 c 167.512 323.395 166.93 321.516 165.617 320.203 c 155.254
 309.84 l 146.164 300.754 147.148 285.828 157.25 277.941 c 165.453 271.547
 177.594 271.91 185.391 279.703 c 196.535 290.848 l 205.039 299.355 203.887
 309.629 203.93 309.887 c 203.648 316.438 200.969 322.309 196.496 326.781
 c 190.164 333.125 184.902 340.703 181.172 349.332 c 179.559 353.055 182.305
 357.191 186.332 357.191 c 194.457 357.191 l 198.777 357.191 202.238 360.688
 202.238 364.973 c 202.238 364.977 202.238 364.98 202.238 364.988 c 202.234
 369.289 198.695 372.754 194.457 372.754 c h
232.836 326.742 m 232.801 326.777 l 226.289 333.289 221.129 340.879 217.473
 349.332 c 215.867 353.035 218.59 357.188 222.633 357.188 c 230.758 357.188
 l 235.047 357.188 238.539 360.68 238.539 364.969 c 238.539 369.262 235.047
 372.75 230.758 372.75 c 214.512 372.75 l 213.633 372.75 212.754 372.719
 211.875 372.648 c 212.816 370.516 213.348 368.145 213.461 365.957 c 214
 355.23 205.734 346.555 195.57 345.973 c 198.027 341.977 201.129 338.059
 204.488 334.695 c 210.195 328.984 213.93 321.48 214.941 313.297 c 222.395
 308.246 229.785 302.105 236.387 295.297 c 242.539 305.098 241.355 318.223
 232.836 326.742 c h
289.055 265.801 m 292.363 271.047 290.785 278.008 285.539 281.312 c 280.293
 284.621 273.332 283.043 270.023 277.797 c 263.41 267.305 253.375 259.742
 241.16 255.879 c 235.332 254.035 232.082 248.188 233.5 242.422 c 235.004
 236.309 241.438 232.48 247.68 234.426 c 247.68 234.426 247.684 234.426 
247.684 234.426 c 247.684 234.43 247.688 234.43 247.691 234.43 c 252.383
 235.895 256.691 237.699 260.887 239.883 c 270.57 244.949 280.984 253 289.055
 265.801 c h
250.535 223.551 m 237.453 219.789 224.625 228.426 222.305 240.977 c 221.418
 245.77 222.062 250.84 224.375 255.359 c 227.059 260.602 231.789 264.711
 237.77 266.602 c 239.488 267.141 241.457 267.898 243.277 268.746 c 235.316
 280.91 225.32 291.52 214.152 300.008 c 212.707 293.992 209.473 287.879 
204.488 282.891 c 202.855 281.262 196.035 274.438 193.344 271.746 c 182.164
 260.559 164.434 259.039 151.508 268.195 c 144.992 272.82 140.223 279.785
 138.492 287.859 c 131.016 278.121 128.133 266.395 129.375 255.043 c 130.34
 246.305 133.805 237.945 139.387 231.094 c 148.086 220.414 l 154.879 224.91
 163.617 226.48 171.938 224.191 c 185.32 220.539 201.871 201.828 209.23 
190.238 c 216.375 192.652 223.762 193.848 231.152 193.848 c 264.766 193.848
 l 265.605 193.848 266.586 193.824 267.34 193.797 c 265.824 205.219 263.613
 216.367 260.82 227.359 c 257.141 225.738 253.062 224.277 250.535 223.551
 c h
250.535 223.551 m f
Q Q
showpage
%%Trailer
end
%%EOF
