%!PS-Adobe-3.0 EPSF-3.0
%%Creator: cairo 1.16.0 (https://cairographics.org)
%%CreationDate: Mon Aug 23 08:35:25 2021
%%Pages: 1
%%DocumentData: Clean7Bit
%%LanguageLevel: 2
%%BoundingBox: 0 0 384 384
%%EndComments
%%BeginProlog
50 dict begin
/q { gsave } bind def
/Q { grestore } bind def
/cm { 6 array astore concat } bind def
/w { setlinewidth } bind def
/J { setlinecap } bind def
/j { setlinejoin } bind def
/M { setmiterlimit } bind def
/d { setdash } bind def
/m { moveto } bind def
/l { lineto } bind def
/c { curveto } bind def
/h { closepath } bind def
/re { exch dup neg 3 1 roll 5 3 roll moveto 0 rlineto
      0 exch rlineto 0 rlineto closepath } bind def
/S { stroke } bind def
/f { fill } bind def
/f* { eofill } bind def
/n { newpath } bind def
/W { clip } bind def
/W* { eoclip } bind def
/BT { } bind def
/ET { } bind def
/BDC { mark 3 1 roll /BDC pdfmark } bind def
/EMC { mark /EMC pdfmark } bind def
/cairo_store_point { /cairo_point_y exch def /cairo_point_x exch def } def
/Tj { show currentpoint cairo_store_point } bind def
/TJ {
  {
    dup
    type /stringtype eq
    { show } { -0.001 mul 0 cairo_font_matrix dtransform rmoveto } ifelse
  } forall
  currentpoint cairo_store_point
} bind def
/cairo_selectfont { cairo_font_matrix aload pop pop pop 0 0 6 array astore
    cairo_font exch selectfont cairo_point_x cairo_point_y moveto } bind def
/Tf { pop /cairo_font exch def /cairo_font_matrix where
      { pop cairo_selectfont } if } bind def
/Td { matrix translate cairo_font_matrix matrix concatmatrix dup
      /cairo_font_matrix exch def dup 4 get exch 5 get cairo_store_point
      /cairo_font where { pop cairo_selectfont } if } bind def
/Tm { 2 copy 8 2 roll 6 array astore /cairo_font_matrix exch def
      cairo_store_point /cairo_font where { pop cairo_selectfont } if } bind def
/g { setgray } bind def
/rg { setrgbcolor } bind def
/d1 { setcachedevice } bind def
/cairo_data_source {
  CairoDataIndex CairoData length lt
    { CairoData CairoDataIndex get /CairoDataIndex CairoDataIndex 1 add def }
    { () } ifelse
} def
/cairo_flush_ascii85_file { cairo_ascii85_file status { cairo_ascii85_file flushfile } if } def
/cairo_image { image cairo_flush_ascii85_file } def
/cairo_imagemask { imagemask cairo_flush_ascii85_file } def
%%EndProlog
%%BeginSetup
%%EndSetup
%%Page: 1 1
%%BeginPageSetup
%%PageBoundingBox: 0 0 384 384
%%EndPageSetup
q 0 0 384 384 rectclip
1 0 0 -1 0 384 cm q
0.321569 0.419608 0.501961 rg
131.234 226.93 m 131.234 192.133 l 129.805 192.133 95.91 192.387 65.992
 214.477 c 58.262 220.184 56.621 231.078 62.328 238.809 c 68.051 246.555
 78.945 248.168 86.66 242.473 c 107.105 227.375 131.09 226.934 131.328 226.93
 c h
131.234 226.93 m f
156.613 252.309 m 156.613 252.215 l 156.609 252.453 156.168 276.438 141.07
 296.883 c 135.375 304.598 136.988 315.492 144.734 321.215 c 152.465 326.922
 163.359 325.285 169.066 317.551 c 191.156 287.633 191.41 253.738 191.41
 252.309 c h
156.613 252.309 m f
0.937255 0.501961 0.498039 rg
154.18 46.027 m 26.16 26.531 l 15.156 33.59 l 15.156 33.59 68.008 65.18
 68.395 117.441 c 68.461 126.652 73.543 135.047 81.602 139.508 c 94.996 
146.918 114.434 162.312 126.199 192.57 c 173.082 152.195 l h
154.18 46.027 m f
337.516 229.363 m 231.348 210.461 l 190.973 257.344 l 221.23 269.109 236.625
 288.547 244.035 301.941 c 248.496 310 256.891 315.082 266.102 315.148 c
 318.367 315.535 349.953 368.387 349.953 368.387 c 357.012 357.383 l h
337.516 229.363 m f
0.92549 0.415686 0.384314 rg
94.121 79.719 m 94.121 64.859 97.605 50.816 103.801 38.355 c 26.16 26.531
 l 15.156 33.59 l 15.156 33.59 68.008 65.18 68.395 117.441 c 68.461 126.652
 73.543 135.047 81.602 139.508 c 94.996 146.918 114.434 162.312 126.199 
192.57 c 155.566 167.277 l 119.734 154.332 94.121 120.016 94.121 79.719 
c h
94.121 79.719 m f
0.423529 0.501961 0.588235 rg
175.32 42.773 m 175.297 43.059 175.27 43.34 175.238 43.621 c 175.289 43.18
 175.316 42.91 175.32 42.773 c h
175.32 42.773 m f
200.078 154.785 m 194.008 145.711 189.121 140.199 182.316 120.672 c 182.293
 120.594 181.133 116.992 181.211 117.223 c 169.516 80.012 175.422 40.543
 175.32 42.773 c 175.77 37.633 174.539 32.656 170.469 29.137 c 166.52 25.723
 160.996 24.551 155.898 25.238 c 126.93 29.301 72.5 23.758 24.07 6.758 c
 16.773 4.422 8.914 8.336 6.402 15.613 c 3.855 22.996 7.773 31.043 15.156
 33.59 c 48.48 45.086 80.219 56.285 141.336 57.203 c 135.223 111.578 149.621
 157.594 166.523 180.047 c 173.496 189.312 186.664 191.172 195.93 184.195
 c 205.195 177.219 207.055 164.055 200.078 154.785 c h
200.078 154.785 m f
0.92549 0.415686 0.384314 rg
254.301 218.301 m 254.301 217.047 254.336 215.805 254.379 214.562 c 231.348
 210.461 l 190.973 257.344 l 221.23 269.109 236.625 288.547 244.035 301.941
 c 248.496 310 256.891 315.082 266.102 315.148 c 318.367 315.535 349.953
 368.387 349.953 368.387 c 357.012 357.383 l 350.922 317.391 l 297.332 316.062
 254.301 272.207 254.301 218.301 c h
254.301 218.301 m f
0.423529 0.501961 0.588235 rg
376.789 359.473 m 359.785 311.043 354.242 256.613 358.305 227.645 c 358.992
 222.547 357.82 217.023 354.406 213.074 c 350.887 209.004 345.91 207.773
 340.77 208.219 c 343 208.121 303.531 214.027 266.32 202.332 c 266.551 202.406
 262.949 201.25 262.871 201.227 c 243.344 194.422 237.832 189.535 228.758
 183.465 c 219.488 176.488 206.324 178.348 199.348 187.613 c 192.375 196.879
 194.23 210.047 203.496 217.02 c 225.949 233.922 271.965 248.32 326.34 242.207
 c 327.258 303.324 338.457 335.062 349.953 368.387 c 352.5 375.766 360.547
 379.688 367.93 377.141 c 375.207 374.629 379.121 366.77 376.789 359.473
 c h
376.789 359.473 m f
0.921569 0.917647 0.960784 rg
340.246 105.953 m 320.172 104.691 l 319.27 123.02 l 318.895 130.641 326.965
 135.77 333.703 132.191 c 349.91 123.59 l h
340.246 105.953 m f
0.423529 0.501961 0.588235 rg
367.461 62.145 m 362.68 57.332 355.41 56.008 349.242 58.824 c 344.254 61.102
 338.453 60.699 333.828 57.762 c 292.867 31.73 l 263.883 13.312 231.328 
25.609 212.91 54.594 c 195.582 81.859 196.945 114.18 221.301 133.246 c 177.086
 177.461 l 206.086 206.457 l 256.547 155.996 l 306.898 187.992 l 311.27 
190.77 316.797 190.988 321.375 188.562 c 331.145 183.387 331.688 169.594
 322.359 163.664 c 314.758 158.836 l 311.531 156.785 309.25 153.535 308.418
 149.805 c 306.031 139.098 l 305.199 135.367 302.922 132.121 299.695 130.07
 c 296.031 127.742 l 288.48 122.941 286.25 112.93 291.047 105.379 c 295.848
 97.828 305.859 95.598 313.41 100.395 c 349.91 123.59 l 359.305 129.559 
371.766 124.289 374.031 113.395 c 377.59 96.273 l 380.156 83.918 376.352
 71.098 367.461 62.145 c h
367.461 62.145 m f
0.937255 0.533333 0.607843 rg
272.07 71.164 m 281.594 77.211 285.406 88.262 280.59 95.844 c 275.777 103.43
 264.152 104.676 254.629 98.625 c 245.105 92.578 241.289 81.527 246.105 
73.945 c 250.922 66.359 262.547 65.113 272.07 71.164 c h
272.07 71.164 m f
0.321569 0.419608 0.501961 rg
322.355 163.664 m 321.367 163.035 l 317.887 163.5 314.336 163.742 310.727
 163.742 c 266.566 163.742 230.77 127.945 230.77 83.785 c 230.77 59.656 
241.457 38.027 258.359 23.367 c 240.629 25.449 224.141 36.918 212.91 54.594
 c 195.582 81.859 196.945 114.176 221.297 133.246 c 177.086 177.461 l 206.082
 206.457 l 256.547 155.992 l 306.898 187.992 l 311.27 190.77 316.797 190.988
 321.371 188.562 c 331.145 183.387 331.688 169.594 322.355 163.664 c h
322.355 163.664 m f
254.301 218.301 m 254.301 211.621 254.969 205.094 256.227 198.781 c 241.926
 193.195 236.707 188.785 228.758 183.465 c 219.488 176.488 206.324 178.348
 199.348 187.613 c 192.371 196.879 194.23 210.047 203.496 217.023 c 215.344
 225.938 233.75 234.156 256.48 239.035 c 255.059 232.348 254.301 225.414
 254.301 218.301 c h
254.301 218.301 m f
364.883 316.762 m 361.121 317.191 357.301 317.422 353.426 317.422 c 346.824
 317.422 340.379 316.773 334.141 315.543 c 338.496 335.363 344.188 351.676
 349.949 368.387 c 352.496 375.77 360.547 379.688 367.93 377.141 c 375.207
 374.629 379.121 366.77 376.785 359.473 c 371.875 345.484 367.926 330.992
 364.883 316.762 c h
364.883 316.762 m f
123.781 229.633 m 122.895 232.008 119.926 244.715 109.84 256.508 c 97.723
 270.676 81.625 275.352 62.73 272.586 c 62.5 272.551 l 57.84 271.863 53.227
 274.617 51.727 279.25 c 50.051 284.414 52.883 289.961 58.047 291.637 c 
79.59 298.617 99.645 296.973 117.59 287.395 c 144.172 273.328 156.207 245.992
 158.164 242.527 c h
123.781 229.633 m f
0.239216 0.356863 0.462745 rg
109.84 256.508 m 109.793 256.559 109.746 256.609 109.699 256.66 c 112.172
 259.773 114.871 262.805 117.805 265.738 c 122.258 270.195 126.984 274.148
 131.91 277.578 c 148.602 263.277 156.598 245.297 158.164 242.527 c 123.781
 229.633 l 122.895 232.008 119.926 244.715 109.84 256.508 c h
109.84 256.508 m f
131.234 226.93 m 131.234 192.133 l 130.188 192.133 111.688 192.27 90.098
 201.047 c 89.727 212.719 92.086 224.617 97.137 236.043 c 114.496 227.246
 131.129 226.934 131.328 226.93 c h
131.234 226.93 m f
156.613 252.215 m 156.609 252.414 156.297 269.023 147.52 286.367 c 158.039
 291.004 169.117 293.438 180.25 293.438 c 180.258 293.438 l 181.012 293.438
 181.762 293.422 182.516 293.398 c 191.273 271.828 191.41 253.355 191.41
 252.309 c 156.613 252.309 l h
156.613 252.215 m f
0.321569 0.419608 0.501961 rg
222.867 160.676 m 198.25 136.059 153.414 140.977 128.793 165.598 c 104.176
 190.215 109.094 225.211 133.715 249.828 c 158.332 274.449 193.328 279.367
 217.945 254.75 c 242.566 230.129 247.488 185.293 222.867 160.676 c h
222.867 160.676 m f
0.423529 0.501961 0.588235 rg
202.199 181.344 m 198.977 178.125 191.535 172.863 177.895 173.828 c 167.113
 174.594 156.484 179.242 149.461 186.266 c 131.391 204.336 150.391 225.168
 154.383 229.16 c 158.375 233.152 179.207 252.148 197.277 234.082 c 204.301
 227.055 208.949 216.426 209.711 205.648 c 210.68 192.008 205.418 184.566
 202.199 181.344 c h
202.199 181.344 m f
0.937255 0.501961 0.498039 rg
58.348 262.355 m 50.121 261.996 42.438 264.738 36.484 269.605 c 28.348 
276.258 28.359 288.484 36.5 295.129 c 42.465 299.996 50.152 302.727 58.348
 302.367 c 83.355 301.27 83.355 263.453 58.348 262.355 c h
58.348 262.355 m f
0.321569 0.419608 0.501961 rg
111.586 25.434 m 84.859 23.129 53.371 17.043 24.07 6.758 c 16.773 4.422
 8.914 8.336 6.402 15.613 c 3.855 22.996 7.773 31.043 15.156 33.59 c 39.473
 41.98 62.949 50.211 97.605 54.402 c 100.578 43.867 105.355 34.098 111.586
 25.434 c h
111.586 25.434 m f
0.92549 0.415686 0.384314 rg
41.129 295.023 m 41.129 281.715 51.918 270.93 65.223 270.93 c 68.719 270.93
 72.043 271.684 75.043 273.023 c 72.27 267.195 66.711 262.723 58.352 262.355
 c 50.121 261.996 42.438 264.742 36.484 269.609 c 28.348 276.258 28.359 
288.488 36.5 295.129 c 38.02 296.371 39.652 297.469 41.375 298.414 c 41.219
 297.305 41.129 296.172 41.129 295.023 c h
41.129 295.023 m f
0 g
177.496 168.215 m 165.402 169.07 153.434 174.328 145.48 182.281 c 136.27
 191.496 133.812 202.797 138.379 214.961 c 141.715 223.844 147.898 230.625
 150.402 233.129 c 155.812 238.191 161.281 242.418 168.57 245.152 c 180.715
 249.711 192.02 247.281 201.25 238.051 c 209.203 230.098 214.461 218.129
 215.32 206.039 c 217.035 181.82 201.777 166.492 177.496 168.215 c h
204.098 205.242 m 203.426 214.711 199.387 224.004 193.293 230.098 c 187.266
 236.125 180.473 237.605 172.523 234.621 c 165.512 231.988 159.906 226.727
 158.359 225.176 c 156.809 223.625 151.547 218.023 148.914 211.008 c 145.93
 203.059 147.406 196.266 153.438 190.238 c 159.531 184.145 168.82 180.105
 178.289 179.434 c 196.137 178.164 205.305 188.227 204.098 205.242 c h
204.098 205.242 m f
119 78.91 m 118.707 75.82 115.961 73.551 112.871 73.844 c 112.305 73.898
 98.875 75.297 84.762 87.648 c 82.422 89.695 82.188 93.25 84.234 95.586 
c 86.277 97.922 89.832 98.16 92.168 96.113 c 103.309 86.363 113.711 85.07
 113.969 85.039 c 117.043 84.727 119.293 81.992 119 78.91 c h
119 78.91 m f
128.613 116.414 m 128.32 113.32 125.574 111.055 122.484 111.344 c 122.031
 111.387 111.281 112.504 100.094 122.293 c 97.758 124.34 97.52 127.895 99.566
 130.23 c 101.613 132.57 105.168 132.805 107.504 130.762 c 115.715 123.574
 123.352 122.566 123.59 122.539 c 126.66 122.223 128.906 119.492 128.613
 116.414 c h
128.613 116.414 m f
304.621 264.512 m 301.535 264.219 298.785 266.469 298.492 269.562 c 298.484
 269.664 297.242 280.141 287.418 291.363 c 285.371 293.699 285.609 297.254
 287.945 299.301 c 290.289 301.352 293.844 301.105 295.883 298.773 c 308.238
 284.656 309.637 271.227 309.691 270.66 c 309.984 267.57 307.715 264.805
 304.621 264.512 c h
304.621 264.512 m f
267.121 254.895 m 264.027 254.602 261.289 256.844 260.996 259.938 c 260.984
 260.016 260.035 267.73 252.773 276.027 c 250.727 278.367 250.965 281.918
 253.301 283.965 c 255.645 286.016 259.195 285.77 261.238 283.438 c 271.027
 272.25 272.148 261.504 272.188 261.051 c 272.48 257.957 270.215 255.188
 267.121 254.895 c h
267.121 254.895 m f
287.309 56.367 m 285.207 54.082 281.648 53.93 279.363 56.031 c 277.074 
58.133 276.922 61.691 279.023 63.977 c 282.195 67.43 l 281.863 67.742 281.562
 68.098 281.309 68.5 c 277.438 74.586 l 275.77 77.211 276.547 80.688 279.168
 82.352 c 281.805 84.027 285.277 83.227 286.934 80.621 c 289.949 75.875 
l 290.754 76.75 l 292.855 79.039 296.414 79.184 298.699 77.086 c 300.988
 74.984 301.141 71.426 299.039 69.141 c h
287.309 56.367 m f
343.031 100.246 m 343.711 103.301 346.734 105.188 349.746 104.516 c 352.777
 103.84 354.688 100.832 354.012 97.801 c 352.082 89.137 l 351.406 86.105
 348.398 84.191 345.367 84.871 c 342.336 85.547 340.426 88.551 341.102 91.586
 c h
343.031 100.246 m f
336.336 137.152 m 349.941 129.934 l 362.52 135.34 376.773 127.805 379.531
 114.535 c 383.09 97.41 l 386.051 83.168 381.695 68.5 371.445 58.176 c 365.035
 51.723 355.172 49.926 346.898 53.703 c 343.633 55.191 339.871 54.934 336.84
 53.008 c 295.875 26.977 l 280.582 17.258 263.762 14.852 247.242 20.012 
c 231.93 24.797 218.051 36.008 208.156 51.57 c 191.098 78.418 190.316 111.684
 213.051 133.527 c 204.027 142.555 l 201.879 141.812 199.676 141.184 197.418
 140.664 c 190.66 129.531 186.754 115.992 186.566 115.516 c 175.965 81.758
 180.68 48.871 180.938 43.016 c 180.938 43.016 180.938 43.012 180.938 43.012
 c 182.199 27.004 169.352 17.746 155.113 19.66 c 135.777 22.375 106.234 
20.559 76.082 14.805 c 73.031 14.223 70.086 16.223 69.504 19.273 c 68.922
 22.324 70.922 25.273 73.973 25.855 c 105.273 31.828 136.188 33.676 156.645
 30.809 c 164.055 29.812 170.215 33.621 169.754 41.738 c 168.293 48.508 
165.402 85.695 175.84 118.902 c 175.844 118.902 l 175.848 118.914 175.848
 118.926 175.852 118.938 c 175.848 118.938 l 175.859 118.973 175.871 119.008
 175.883 119.043 c 177.477 124.328 180.637 132.691 183.656 138.898 c 173.746
 138.57 163.762 140.172 154.672 143.281 c 145.961 116.492 143.75 86.035 
146.922 57.824 c 147.293 54.527 144.738 51.621 141.414 51.57 c 85.285 50.73
 55.977 41.723 16.988 28.27 c 12.551 26.738 10.188 21.883 11.719 17.445 
c 13.207 13.129 17.938 10.734 22.289 12.09 c 31.637 15.367 41.574 18.344
 51.828 20.941 c 54.84 21.707 57.902 19.879 58.664 16.867 c 59.426 13.855
 57.602 10.797 54.59 10.035 c 44.629 7.512 34.984 4.621 25.93 1.445 c 25.879
 1.426 25.832 1.41 25.781 1.395 c 15.637 -1.848 4.555 3.703 1.082 13.773
 c -2.395 23.852 2.785 34.855 12.656 38.656 c 14.895 40.062 26.352 47.551
 37.672 59.926 c 54.176 77.961 62.617 97.324 62.766 117.477 c 62.848 128.648
 69.02 138.973 78.875 144.422 c 88.543 149.773 102.086 159.891 112.875 177.992
 c 111.047 181.66 109.633 185.465 108.652 189.395 c 95.988 192.223 78.777
 198.035 62.645 209.945 c 52.434 217.484 50.258 231.93 57.801 242.145 c 
65.305 252.305 79.738 254.562 89.996 246.988 c 98.695 240.57 108.137 237.031
 115.559 235.086 c 115.641 235.23 115.73 235.375 115.812 235.523 c 109.191
 252.309 96.895 265.402 78.238 267.406 c 74.258 261.473 67.668 257.129 58.594
 256.73 c 49.254 256.32 40.137 259.348 32.918 265.246 c 22.023 274.152 22.051
 290.594 32.941 299.48 c 44.828 309.18 64.219 311.84 75.137 301.062 c 104.098
 304.172 129.801 291.59 148.25 268.727 c 146.262 276.027 142.746 285.133
 136.543 293.535 c 129.004 303.746 131.18 318.191 141.391 325.734 c 151.602
 333.273 166.016 331.145 173.59 320.887 c 185.5 304.754 191.309 287.539 
194.141 274.875 c 198.066 273.895 201.871 272.484 205.535 270.656 c 223.641
 281.445 233.758 294.988 239.109 304.656 c 244.562 314.512 254.887 320.684
 266.055 320.766 c 286.207 320.914 305.57 329.355 323.602 345.852 c 336.066
 357.254 343.574 368.801 344.906 370.922 c 348.75 380.82 359.746 385.906
 369.758 382.449 c 379.828 378.977 385.383 367.895 382.141 357.754 c 382.125
 357.703 382.105 357.652 382.09 357.602 c 365.043 309.047 360.02 255.859
 363.875 228.387 c 364.832 221.258 362.93 214.336 358.656 209.387 c 352.09
 201.793 341.34 202.035 338.34 202.906 c 331.609 203.707 299.223 206.77 
268.016 196.965 c 267.594 196.801 253.895 192.812 242.871 186.113 c 242.352
 183.855 241.719 181.652 240.98 179.504 c 257.332 163.152 l 303.875 192.73
 l 307.141 194.805 310.879 195.852 314.629 195.852 c 317.844 195.852 321.07
 195.082 324 193.527 c 337.578 186.336 338.352 167.16 325.367 158.91 c 317.77
 154.078 l 309.816 149.027 315.973 133.746 302.707 125.316 c 299.043 122.988
 l 294.121 119.859 292.664 113.312 295.789 108.391 c 298.918 103.469 305.469
 102.008 310.387 105.137 c 314.391 107.68 l 313.645 122.734 l 313.055 134.691
 325.711 142.793 336.336 137.152 c h
83.316 237.938 m 78.094 241.793 70.707 240.684 66.852 235.461 c 62.992 
230.238 64.105 222.852 69.328 218.992 c 82.254 209.449 96.012 204.223 107.004
 201.363 c 106.758 209.426 108.23 217.488 110.836 224.711 c 102.664 227.031
 92.66 231.039 83.316 237.938 c h
68.66 291.457 m 62.32 299.805 48.215 297.422 40.055 290.766 c 34.672 286.371
 34.66 278.352 40.039 273.957 c 45.125 269.801 51.539 267.68 58.102 267.969
 c 58.098 267.969 l 71.199 268.543 74.559 283.328 68.66 291.457 c h
331.062 127.219 m 328.172 128.75 324.723 126.551 324.883 123.289 c 325.309
 114.621 l 345.086 127.188 336.289 121.598 338.73 123.148 c h
84.32 134.578 m 78.016 131.094 74.066 124.508 74.016 117.395 c 73.789 87.18
 57.434 63.719 42.449 48.539 c 73.922 58.031 102.555 61.82 135.137 62.695
 c 132.781 90.211 135.391 121.055 144.262 147.66 c 134.727 152.453 126.078
 159.266 119.566 167.504 c 108.043 150.18 94.344 140.125 84.32 134.578 c
 h
81.574 290.242 m 82.781 286.129 82.996 282.324 82.406 278.203 c 101.156
 275.191 114.727 263.09 123.199 246.504 c 125.754 249.699 128.84 253.055
 132.145 256.117 c 134.371 258.184 137.164 260.492 139.207 262.016 c 124.617
 279.93 104.738 290.992 81.574 290.242 c h
164.539 314.203 m 160.676 319.438 153.309 320.551 148.074 316.684 c 142.852
 312.824 141.738 305.438 145.594 300.215 c 152.492 290.871 156.5 280.867
 158.82 272.695 c 166.633 275.512 174.797 276.77 182.172 276.52 c 179.312
 287.512 174.086 301.273 164.539 314.203 c h
137.688 245.844 m 106.262 214.418 113.945 172.602 153.449 155.793 c 175.273
 146.508 202.285 148.047 218.887 164.648 c 235.656 181.414 236.914 208.52
 227.738 230.082 c 227.738 230.082 227.738 230.086 227.738 230.086 c 224.391
 237.949 219.629 245.102 213.965 250.766 c 191.422 273.309 159.914 268.07
 137.688 245.844 c h
244.633 199.875 m 250.02 202.496 256.211 204.973 264.602 207.684 c 264.613
 207.684 264.621 207.688 264.629 207.688 c 264.629 207.695 l 294.664 217.133
 331.848 215.926 341.793 213.777 c 350.027 213.305 353.699 219.633 352.727
 226.855 c 347.309 265.512 358.395 324.039 371.441 361.246 c 372.797 365.594
 370.402 370.328 366.086 371.816 c 361.648 373.348 356.793 370.984 355.262
 366.543 c 355.234 366.465 354.828 365.285 354.855 365.363 c 348.871 348.023
 343.219 331.641 338.957 311.188 c 338.328 308.164 335.359 306.195 332.301
 306.828 c 329.281 307.457 327.309 310.434 327.941 313.484 c 329.871 322.734
 332.324 332.145 335.016 341.105 c 319.84 326.113 296.371 309.742 266.137
 309.516 c 259.023 309.465 252.438 305.516 248.953 299.211 c 243.406 289.188
 233.352 275.488 216.023 263.965 c 223.812 257.828 230.836 249.285 235.875
 239.27 c 259.371 247.156 289.715 251.055 320.84 248.395 c 321.254 263.949
 322.363 278.168 324.207 291.699 c 324.625 294.777 327.457 296.934 330.539
 296.512 c 333.617 296.094 335.773 293.258 335.352 290.18 c 333.332 275.348
 332.223 259.625 331.961 242.117 c 331.91 238.801 329.016 236.242 325.707
 236.609 c 297.352 239.797 266.758 237.477 240.25 228.859 c 243.367 219.746
 244.961 209.781 244.633 199.875 c h
286.293 102.355 m 279.84 112.516 282.852 126.027 293.012 132.484 c 296.672
 134.809 l 304.348 139.688 298.539 155.191 311.734 163.574 c 319.336 168.406
 l 325.023 172.02 324.695 180.426 318.734 183.586 c 315.949 185.059 312.57
 184.926 309.91 183.238 c 259.559 151.242 l 257.316 149.816 254.414 150.16
 252.562 152.012 c 235.988 168.586 l 233.508 164.324 230.418 160.281 226.891
 156.746 c 226.875 156.727 226.859 156.711 226.84 156.691 c 226.824 156.676
 226.805 156.66 226.785 156.641 c 223.281 153.148 219.25 150.047 214.945
 147.543 c 225.273 137.219 l 227.656 134.832 227.418 130.895 224.762 128.812
 c 203.848 112.438 200.992 83.824 217.652 57.605 c 226.117 44.281 237.82
 34.746 250.598 30.75 c 263.859 26.605 277.43 28.586 289.84 36.473 c 330.805
 62.504 l 337.062 66.48 344.828 67.016 351.57 63.938 c 355.578 62.109 360.355
 62.977 363.461 66.105 c 371.043 73.738 374.262 84.59 372.074 95.125 c 368.516
 112.246 l 367.055 119.273 359.023 122.715 352.922 118.84 c 316.418 95.645
 l 306.262 89.188 292.75 92.199 286.293 102.355 c h
286.293 102.355 m f
Q Q
showpage
%%Trailer
end
%%EOF
