%!PS-Adobe-3.0 EPSF-3.0
%%Creator: cairo 1.16.0 (https://cairographics.org)
%%CreationDate: Mon Aug 23 08:35:25 2021
%%Pages: 1
%%DocumentData: Clean7Bit
%%LanguageLevel: 2
%%BoundingBox: 0 7 384 377
%%EndComments
%%BeginProlog
50 dict begin
/q { gsave } bind def
/Q { grestore } bind def
/cm { 6 array astore concat } bind def
/w { setlinewidth } bind def
/J { setlinecap } bind def
/j { setlinejoin } bind def
/M { setmiterlimit } bind def
/d { setdash } bind def
/m { moveto } bind def
/l { lineto } bind def
/c { curveto } bind def
/h { closepath } bind def
/re { exch dup neg 3 1 roll 5 3 roll moveto 0 rlineto
      0 exch rlineto 0 rlineto closepath } bind def
/S { stroke } bind def
/f { fill } bind def
/f* { eofill } bind def
/n { newpath } bind def
/W { clip } bind def
/W* { eoclip } bind def
/BT { } bind def
/ET { } bind def
/BDC { mark 3 1 roll /BDC pdfmark } bind def
/EMC { mark /EMC pdfmark } bind def
/cairo_store_point { /cairo_point_y exch def /cairo_point_x exch def } def
/Tj { show currentpoint cairo_store_point } bind def
/TJ {
  {
    dup
    type /stringtype eq
    { show } { -0.001 mul 0 cairo_font_matrix dtransform rmoveto } ifelse
  } forall
  currentpoint cairo_store_point
} bind def
/cairo_selectfont { cairo_font_matrix aload pop pop pop 0 0 6 array astore
    cairo_font exch selectfont cairo_point_x cairo_point_y moveto } bind def
/Tf { pop /cairo_font exch def /cairo_font_matrix where
      { pop cairo_selectfont } if } bind def
/Td { matrix translate cairo_font_matrix matrix concatmatrix dup
      /cairo_font_matrix exch def dup 4 get exch 5 get cairo_store_point
      /cairo_font where { pop cairo_selectfont } if } bind def
/Tm { 2 copy 8 2 roll 6 array astore /cairo_font_matrix exch def
      cairo_store_point /cairo_font where { pop cairo_selectfont } if } bind def
/g { setgray } bind def
/rg { setrgbcolor } bind def
/d1 { setcachedevice } bind def
/cairo_data_source {
  CairoDataIndex CairoData length lt
    { CairoData CairoDataIndex get /CairoDataIndex CairoDataIndex 1 add def }
    { () } ifelse
} def
/cairo_flush_ascii85_file { cairo_ascii85_file status { cairo_ascii85_file flushfile } if } def
/cairo_image { image cairo_flush_ascii85_file } def
/cairo_imagemask { imagemask cairo_flush_ascii85_file } def
%%EndProlog
%%BeginSetup
%%EndSetup
%%Page: 1 1
%%BeginPageSetup
%%PageBoundingBox: 0 7 384 377
%%EndPageSetup
q 0 7 384 370 rectclip
1 0 0 -1 0 384 cm q
0.435294 0.74902 0.65098 rg
82.117 269.355 m 10.676 254.855 5.625 183.777 5.625 163.98 c 5.625 160.77
 6.734 157.66 8.758 155.168 c 15.523 146.84 28.656 148.949 32.652 158.902
 c 39.273 175.402 55.039 193.727 92.195 196.516 c 112.559 227.48 l 112.559
 255.754 l h
82.117 269.355 m f
0.313726 0.713726 0.572549 rg
184.77 339.453 m 175.207 339.453 l 179.164 330.312 184.812 322.004 191.855
 314.957 c 191.895 314.918 l 206.145 300.668 206.145 277.562 191.895 263.312
 c 181.812 253.23 165.473 253.23 155.391 263.312 c 150.07 268.633 147.559
 275.695 147.855 282.664 c 119.211 321.859 l 119.211 353.074 l 144.012 365.785
 l 150.707 369.215 158.125 371.004 165.648 371.004 c 184.766 371.004 l 193.48
 371.004 200.543 363.941 200.543 355.23 c 200.543 346.516 193.48 339.453
 184.77 339.453 c h
184.77 339.453 m f
334.902 240.605 m 331.664 230.16 320.57 224.32 310.125 227.562 c 294.543
 232.398 279.941 229.809 269.906 226.469 c 261.422 223.645 252.098 226.777
 247.125 234.207 c 239.867 245.043 244.871 259.832 257.23 263.984 c 273.309
 269.383 296.41 273.281 321.863 265.383 c 324.168 264.668 326.246 263.57
 328.055 262.18 c 334.441 257.277 337.43 248.742 334.902 240.605 c h
334.902 240.605 m f
0.976471 0.87451 0.603922 rg
378.375 71.57 m 340.031 84.887 l 301.688 71.57 l 301.688 44.949 l 351.746
 44.949 l 366.434 44.949 378.375 56.844 378.375 71.57 c h
378.375 71.57 m f
0.988235 0.792157 0.45098 rg
378.375 71.57 m 378.375 86.285 366.449 98.203 351.742 98.203 c 301.684 
98.203 l 301.684 71.57 l h
378.375 71.57 m f
0.313726 0.713726 0.572549 rg
74.652 193.723 m 68.641 206.379 65.461 220.312 65.461 234.688 c 65.461 
245.668 67.305 256.363 70.84 266.43 c 74.406 267.562 78.152 268.551 82.117
 269.355 c 112.559 255.754 l 112.559 227.48 l 92.195 196.516 l 85.715 196.027
 79.898 195.062 74.652 193.723 c h
74.652 193.723 m f
0.501961 0.772549 0.690196 rg
306.879 109.805 m 317.168 92.105 l 337.195 57.668 313.219 13.793 273.387
 13.008 c 272.855 12.996 272.316 12.992 271.781 12.996 c 240.078 13.238 
214.723 39.52 214.723 71.227 c 214.723 96.676 l 214.723 123.559 195.5 145.945
 170.039 150.828 c 106.934 174.207 l 94.262 187.355 86.461 205.23 86.461
 224.938 c 86.461 245.129 94.648 263.402 107.875 276.629 c 121.102 289.852
 139.383 298.039 159.57 298.039 c 173.117 298.039 l 199.25 298.039 223.531
 290.121 243.699 276.555 c 253.137 286.707 265.949 296.66 282.953 302.949
 c 285.219 303.785 287.535 304.18 289.816 304.18 c 297.867 304.18 305.438
 299.234 308.391 291.238 c 312.18 280.98 306.941 269.594 296.684 265.801
 c 286.445 262.02 278.594 255.871 272.734 249.59 c 289.652 228.062 299.742
 200.914 299.742 171.414 c 299.742 136.273 l 299.742 126.973 302.203 117.84
 306.879 109.805 c h
306.879 109.805 m f
0.435294 0.74902 0.65098 rg
137.926 195.996 m 137.926 183.559 140.043 171.617 143.922 160.5 c 106.934
 174.203 l 94.262 187.352 86.461 205.23 86.461 224.938 c 86.461 245.125 
94.648 263.398 107.875 276.625 c 121.102 289.852 139.383 298.039 159.57 
298.039 c 173.117 298.039 l 183.191 298.039 192.992 296.859 202.391 294.633
 c 164.438 277.988 137.926 240.09 137.926 195.996 c h
137.926 195.996 m f
0.501961 0.772549 0.690196 rg
139.652 326.418 m 136.871 330.52 134.465 334.883 132.488 339.453 c 142.051
 339.453 l 146.406 339.453 150.348 341.215 153.203 344.07 c 156.059 346.926
 157.828 350.871 157.828 355.227 c 157.828 363.941 150.762 371.004 142.051
 371.004 c 111.484 371.004 l 99.211 371.004 89.266 361.059 89.266 348.797
 c 89.266 345.109 90.184 341.484 91.934 338.246 c 93.664 335.035 l 98.395
 326.277 101.605 316.902 103.426 307.223 c 91.23 295.027 l 85.039 288.832
 81.949 280.723 81.949 272.613 c 81.949 264.289 85.207 255.973 91.699 249.742
 c 92.504 248.969 93.336 248.254 94.191 247.582 c 106.66 237.871 124.645
 238.785 136.059 250.195 c 149.176 263.312 l 153.16 267.301 156.035 271.984
 157.793 276.969 c 160.133 283.605 160.488 290.785 158.871 297.586 c 157.363
 303.938 154.129 309.965 149.176 314.918 c 149.133 314.957 l 145.613 318.48
 142.438 322.316 139.652 326.418 c h
139.652 326.418 m f
0.976471 0.87451 0.603922 rg
166.637 178.82 m 157.297 191.73 143.191 189.332 136.566 190.91 c 121.613
 192.66 113.785 181.867 112.023 180.715 c 109.961 178.797 108.258 176.598
 106.934 174.203 c 107.242 173.879 107.559 173.559 107.875 173.242 c 121.102
 160.008 139.383 151.828 159.57 151.828 c 163.152 151.828 166.648 151.488
 170.043 150.828 c 170.402 151.582 170.727 152.352 171.012 153.152 c 176.355
 167.941 166.836 178.34 166.637 178.82 c h
166.637 178.82 m f
264.059 169.34 m 263.992 169.266 258.715 155.398 244.371 158.551 c 240.051
 160.234 226.469 159.273 222.531 172.273 c 218.293 186.273 232.398 193.309
 232.625 193.57 c 243.848 201.117 253.773 191.887 256.551 190.973 c 264.246
 186.766 267.492 177.406 264.059 169.34 c h
264.059 169.34 m f
208.082 222.754 m 204.891 212.758 195.039 206.445 184.625 207.73 c 183.16
 207.91 l 168.074 209.77 164.793 223.883 164.746 223.957 c 159.352 242.926
 182.672 261.867 200.273 250.047 c 215.605 239.75 208.086 223.117 208.082
 222.754 c h
208.082 222.754 m f
0.921569 0.917647 0.960784 rg
298.07 77.34 m 298.07 87.258 287.973 95.301 275.516 95.301 c 263.059 95.301
 252.961 87.258 252.961 77.34 c 252.961 67.418 263.059 59.379 275.516 59.379
 c 287.973 59.379 298.07 67.418 298.07 77.34 c h
298.07 77.34 m f
0.988235 0.792157 0.45098 rg
146.895 152.926 m 131.785 155.566 118.27 162.84 107.875 173.238 c 107.559
 173.555 107.242 173.879 106.93 174.203 c 108.254 176.594 109.961 178.797
 112.023 180.715 c 113.785 181.867 121.613 192.66 136.566 190.91 c 137.027
 190.801 137.527 190.711 138.059 190.633 c 138.715 177.277 141.809 164.566
 146.895 152.926 c h
146.895 152.926 m f
0 g
243.164 153.055 m 242.883 153.117 240.523 153.715 239.512 153.895 c 233.582
 154.945 221.242 157.129 217.148 170.641 c 213.91 181.328 218.5 191.629 
229.418 198.195 c 229.465 198.223 l 229.488 198.238 l 233.801 201.141 237.965
 202.172 241.754 202.172 c 248.746 202.172 253.41 199.09 259.25 195.906 
c 282.562 183.16 268.422 147.508 243.164 153.055 c h
254.141 185.875 m 248.801 188.125 244.301 194.023 235.219 188.555 c 230.688
 185.832 225.742 181.078 227.914 173.902 c 229.852 167.512 234.977 166.121
 241.473 164.973 c 243.133 164.68 244.59 164.422 245.906 163.977 c 258.332
 161.535 265.348 179.332 254.141 185.875 c h
268.758 166.25 m 268.949 166.543 269.082 166.797 269.156 166.961 c 269.039
 166.715 268.906 166.477 268.758 166.25 c h
268.758 166.25 m f
183.938 202.145 m 183.793 202.25 164.82 202.832 159.355 222.348 c 159.348
 222.371 159.34 222.395 159.332 222.418 c 156.109 233.758 160.734 245.957
 171.117 253.496 c 181.234 260.848 193.609 261.297 203.41 254.715 c 214.562
 247.223 218.332 234.695 213.492 221.203 c 213.473 221.152 l 209.883 209.07
 197.453 200.48 183.938 202.145 c h
197.137 245.375 m 188.434 251.223 180.082 246.102 177.727 244.395 c 172.402
 240.527 168 233.207 170.137 225.559 c 170.16 225.488 170.176 225.426 170.188
 225.379 c 173.477 213.5 185.148 213.426 185.312 213.312 c 192.461 212.426
 199.695 216.066 202.902 225.004 c 206.844 235.992 201.945 242.148 197.137
 245.375 c h
197.137 245.375 m f
294.285 50.828 m 294.285 47.723 291.766 45.203 288.66 45.203 c 285.555 
45.203 283.035 47.723 283.035 50.828 c 283.035 60.047 l 283.035 63.152 285.555
 65.672 288.66 65.672 c 291.766 65.672 294.285 63.152 294.285 60.047 c h
294.285 50.828 m f
351.742 39.324 m 323.75 39.324 l 313.867 19.625 294.758 7.801 273.496 7.383
 c 237.824 6.688 209.098 36 209.098 71.227 c 209.098 96.676 l 209.098 120.395
 192.227 140.844 168.98 145.305 c 168.977 145.305 168.973 145.305 168.969
 145.305 c 168.969 145.305 168.965 145.305 168.965 145.305 c 165.918 145.902
 162.758 146.203 159.57 146.203 c 137.184 146.203 117.035 155.496 102.883
 170.301 c 97.285 176.094 92.418 182.941 88.723 190.539 c 62.824 187.691
 45.723 176.359 37.875 156.809 c 35.23 150.227 29.484 145.664 22.5 144.605
 c 10.277 142.754 0 152.375 0 163.98 c 0 179.574 2.867 218.887 29.391 247.152
 c 31.52 249.414 35.078 249.527 37.344 247.402 c 39.609 245.277 39.723 241.715
 37.598 239.449 c 13.82 214.117 11.25 178.234 11.25 163.98 c 11.25 159.238
 15.414 154.906 20.812 155.727 c 23.816 156.184 26.289 158.152 27.43 160.996
 c 33.855 177.008 48.961 196.465 84.43 201.348 c 82.043 208.973 80.836 216.945
 80.836 224.938 c 80.836 233.426 82.328 242.223 84.633 249.141 c 81.391 
253.125 79.043 257.672 77.688 262.559 c 68.637 260.203 60.387 256.727 53.109
 252.184 c 50.473 250.539 47.004 251.344 45.359 253.98 c 43.715 256.617 
44.52 260.086 47.156 261.73 c 55.805 267.125 65.609 271.188 76.352 273.828
 c 76.652 283.34 80.488 292.242 87.25 299.004 c 97.309 309.062 l 95.484 
317.344 92.598 325.168 88.711 332.367 c 87.902 334.246 83.641 339.77 83.641
 348.797 c 83.641 364.145 96.129 376.629 111.48 376.629 c 142.051 376.629
 l 145.309 376.629 148.395 375.895 151.164 374.586 c 155.906 375.941 160.766
 376.629 165.648 376.629 c 184.77 376.629 l 196.566 376.629 206.168 367.027
 206.168 355.227 c 206.168 343.426 196.566 333.828 184.77 333.828 c 184.344
 333.828 l 187.508 328.398 191.363 323.406 195.871 318.895 c 201.344 313.422
 205.129 306.695 206.961 299.273 c 219.582 295.941 231.676 290.758 242.875
 283.789 c 253.922 294.734 266.727 302.945 281.004 308.223 c 294.254 313.117
 308.844 306.234 313.664 293.188 c 316.02 286.82 315.754 279.914 312.914
 273.742 c 312.871 273.652 312.824 273.562 312.781 273.473 c 316.41 272.754
 320.004 271.852 323.527 270.758 c 336.996 266.574 344.406 252.242 340.277
 238.938 c 336.113 225.52 321.879 218.023 308.457 222.191 c 303.887 223.609
 299.117 224.395 294.219 224.559 c 298.277 215.324 301.289 205.637 303.133
 195.719 c 303.699 192.664 301.684 189.727 298.629 189.16 c 295.574 188.594
 292.641 190.609 292.07 193.664 c 288.539 212.672 280.316 230.84 268.312
 246.113 c 266.598 248.297 266.73 251.398 268.621 253.43 c 276.18 261.527
 284.965 267.469 294.73 271.078 c 294.738 271.078 294.742 271.082 294.75
 271.086 c 302.051 273.797 305.82 281.961 303.113 289.289 c 300.441 296.52
 292.348 300.422 284.902 297.672 c 270.852 292.477 258.375 284.086 247.82
 272.727 c 245.934 270.699 242.855 270.344 240.559 271.887 c 204.184 296.355
 169.621 291.871 165.363 292.414 c 166.309 280.551 162.133 268.32 153.152
 259.336 c 140.035 246.223 l 127.832 234.016 108.688 231.762 93.996 240.875
 c 92.766 235.801 92.086 230.652 92.086 224.938 c 92.086 210.328 96.84 195.484
 106.547 183.188 c 108.293 185.07 108.164 184.715 109.379 185.91 c 112.512
 188.992 120.379 196.73 133.297 196.73 c 137.43 196.73 137.191 196.27 142.523
 195.836 c 154.359 194.867 163.793 192.352 171.191 182.117 c 177.211 173.824
 179.801 164.879 177.375 154.797 c 202.625 147.098 220.352 123.602 220.352
 96.676 c 220.352 71.223 l 220.352 42.105 244.031 18.074 273.277 18.629 
c 302.129 19.199 321.508 45.121 318.441 70.965 c 315.59 95.641 294.117 105.812
 294.117 136.273 c 294.117 137 294.121 130.344 294.109 172.277 c 294.09 
175.383 296.594 177.918 299.699 177.938 c 299.734 177.938 l 302.824 177.938
 305.34 175.441 305.359 172.344 c 305.375 156.93 305.363 189.496 305.367
 136.273 c 305.367 119.145 314.207 109.41 316.863 103.828 c 351.746 103.828
 l 369.531 103.828 384 89.355 384 71.57 c 384 53.789 369.531 39.324 351.742
 39.324 c h
288.68 235.762 m 296.66 236.168 304.414 235.223 311.789 232.934 c 319.273
 230.613 327.207 234.789 329.531 242.273 c 331.828 249.668 327.734 257.672
 320.195 260.012 c 315.02 261.617 309.684 262.777 304.301 263.465 c 302.535
 262.246 300.535 261.227 298.633 260.523 c 291.766 257.984 285.492 253.984
 280.176 249.066 c 282.883 245.344 286.129 240.328 288.68 235.762 c h
166.336 157.078 m 168.316 164.699 166.234 169.254 161.973 175.664 c 157.137
 182.246 150.801 183.699 144.793 184.332 c 141.262 184.703 138.289 184.777
 135.633 185.352 c 125.891 186.371 120.074 180.652 117.266 177.887 c 115.422
 176.074 115.703 176.598 114.262 174.922 c 126.688 163.633 142.652 157.453
 159.57 157.453 c 161.84 157.453 164.102 157.324 166.336 157.078 c h
194.152 301.996 m 192.637 305.301 190.527 308.332 187.879 310.98 c 180.301
 318.559 174.301 327.383 170.047 337.219 c 168.441 340.926 171.16 345.078
 175.207 345.078 c 184.77 345.078 l 190.367 345.078 194.918 349.629 194.918
 355.227 c 194.918 360.828 190.367 365.379 184.77 365.379 c 165.648 365.379
 l 164.109 365.379 162.57 365.293 161.035 365.121 c 162.539 362.238 163.453
 358.758 163.453 355.227 c 163.453 343.461 153.934 333.828 142.051 333.828
 c 141.977 333.828 141.555 333.828 141.629 333.828 c 142.996 331.48 144.586
 329.07 146.309 326.777 c 152.562 318.461 158.617 315.305 162.898 303.664
 c 169.641 303.512 179.82 304.285 194.152 301.996 c h
145.195 267.289 m 152.957 275.051 155.836 286.023 153.398 296.289 c 153.402
 296.266 l 149.719 309.008 145.301 309.387 137.305 320.027 c 133.281 325.387
 129.91 331.238 127.324 337.219 c 125.719 340.926 128.441 345.078 132.484
 345.078 c 142.051 345.078 l 147.68 345.078 152.199 349.641 152.199 355.227
 c 152.199 360.789 147.641 365.379 142.051 365.379 c 111.48 365.379 l 102.332
 365.379 94.891 357.941 94.891 348.797 c 94.891 343.031 97.734 339.668 98.609
 337.711 c 103.496 328.66 106.977 318.754 108.953 308.266 c 109.297 306.438
 108.719 304.559 107.402 303.246 c 95.207 291.047 l 84.523 280.363 85.031
 262.672 96.84 252.684 c 107.352 243.797 122.676 244.773 132.082 254.176
 c h
351.742 50.574 m 361.379 50.574 369.52 57.09 371.984 65.945 c 330.027 65.945
 l 330.059 60.789 329.395 55.625 328.039 50.574 c h
351.742 92.578 m 323.336 92.578 l 325.953 87.57 327.793 82.258 328.836 
77.195 c 371.984 77.195 l 369.52 86.055 361.379 92.578 351.742 92.578 c 
h
351.742 92.578 m f
Q Q
showpage
%%Trailer
end
%%EOF
