%!PS-Adobe-3.0 EPSF-3.0
%%Creator: cairo 1.16.0 (https://cairographics.org)
%%CreationDate: Mon Aug 23 08:35:26 2021
%%Pages: 1
%%DocumentData: Clean7Bit
%%LanguageLevel: 2
%%BoundingBox: 0 47 384 337
%%EndComments
%%BeginProlog
50 dict begin
/q { gsave } bind def
/Q { grestore } bind def
/cm { 6 array astore concat } bind def
/w { setlinewidth } bind def
/J { setlinecap } bind def
/j { setlinejoin } bind def
/M { setmiterlimit } bind def
/d { setdash } bind def
/m { moveto } bind def
/l { lineto } bind def
/c { curveto } bind def
/h { closepath } bind def
/re { exch dup neg 3 1 roll 5 3 roll moveto 0 rlineto
      0 exch rlineto 0 rlineto closepath } bind def
/S { stroke } bind def
/f { fill } bind def
/f* { eofill } bind def
/n { newpath } bind def
/W { clip } bind def
/W* { eoclip } bind def
/BT { } bind def
/ET { } bind def
/BDC { mark 3 1 roll /BDC pdfmark } bind def
/EMC { mark /EMC pdfmark } bind def
/cairo_store_point { /cairo_point_y exch def /cairo_point_x exch def } def
/Tj { show currentpoint cairo_store_point } bind def
/TJ {
  {
    dup
    type /stringtype eq
    { show } { -0.001 mul 0 cairo_font_matrix dtransform rmoveto } ifelse
  } forall
  currentpoint cairo_store_point
} bind def
/cairo_selectfont { cairo_font_matrix aload pop pop pop 0 0 6 array astore
    cairo_font exch selectfont cairo_point_x cairo_point_y moveto } bind def
/Tf { pop /cairo_font exch def /cairo_font_matrix where
      { pop cairo_selectfont } if } bind def
/Td { matrix translate cairo_font_matrix matrix concatmatrix dup
      /cairo_font_matrix exch def dup 4 get exch 5 get cairo_store_point
      /cairo_font where { pop cairo_selectfont } if } bind def
/Tm { 2 copy 8 2 roll 6 array astore /cairo_font_matrix exch def
      cairo_store_point /cairo_font where { pop cairo_selectfont } if } bind def
/g { setgray } bind def
/rg { setrgbcolor } bind def
/d1 { setcachedevice } bind def
/cairo_data_source {
  CairoDataIndex CairoData length lt
    { CairoData CairoDataIndex get /CairoDataIndex CairoDataIndex 1 add def }
    { () } ifelse
} def
/cairo_flush_ascii85_file { cairo_ascii85_file status { cairo_ascii85_file flushfile } if } def
/cairo_image { image cairo_flush_ascii85_file } def
/cairo_imagemask { imagemask cairo_flush_ascii85_file } def
%%EndProlog
%%BeginSetup
%%EndSetup
%%Page: 1 1
%%BeginPageSetup
%%PageBoundingBox: 0 47 384 337
%%EndPageSetup
q 0 47 384 290 rectclip
1 0 0 -1 0 384 cm q
0.972549 0.780392 0.733333 rg
27.082 127.316 m 20.598 120.82 9.383 123.77 7 132.633 c 3.641 145.133 5.266
 161.449 25.355 176.582 c 48.727 138.582 l 38.383 136.137 31.566 131.805
 27.082 127.316 c h
27.082 127.316 m f
233.387 158.363 m 215.484 124.809 l 215.484 124.809 101.09 72.555 40.074
 148.121 c 29.691 160.988 23.617 176.73 22.434 193.137 c 48.898 219.602 
l 230.484 219.602 l h
233.387 158.363 m f
0.952941 0.615686 0.521569 rg
75.941 201.047 m 75.941 162.871 94.176 128.961 122.402 107.535 c 93.352
 109.418 62.961 119.777 40.074 148.121 c 29.695 160.984 23.617 176.727 22.434
 193.137 c 48.898 219.602 l 77.406 219.602 l 76.445 213.559 75.941 207.363
 75.941 201.047 c h
75.941 201.047 m f
0.898039 0.52549 0.431373 rg
252.121 193.488 m 267.711 222.723 254.09 258.949 223.145 270.785 c 206.297
 277.227 188.262 280.625 169.879 280.625 c 103.777 280.625 l 81.254 280.625
 60.859 271.492 46.102 256.734 c 31.344 241.977 22.219 221.59 22.219 199.066
 c 22.219 197.086 22.293 195.102 22.434 193.137 c 24.18 194.164 l 33.688
 199.77 45.48 199.77 54.984 194.164 c 59.738 191.363 65.062 189.965 70.387
 189.965 c 75.715 189.965 81.039 191.359 85.793 194.164 c 90.543 196.965
 95.867 198.363 101.195 198.363 c 106.52 198.363 111.844 196.965 116.598
 194.164 c 121.344 191.363 126.668 189.965 132 189.965 c 137.324 189.965
 142.648 191.359 147.402 194.164 c 152.148 196.965 157.48 198.363 162.805
 198.363 c 168.129 198.363 173.461 196.965 178.207 194.164 c 193.609 185.082
 l 233.391 158.359 l h
252.121 193.488 m f
0.835294 0.454902 0.356863 rg
92.082 260.449 m 81.828 243.023 75.941 222.727 75.941 201.047 c 75.941 
197.516 76.105 194.023 76.41 190.57 c 74.422 190.168 72.402 189.965 70.383
 189.965 c 65.059 189.965 59.734 191.363 54.98 194.164 c 45.48 199.77 33.688
 199.77 24.18 194.164 c 22.434 193.137 l 22.293 195.105 22.219 197.086 22.219
 199.066 c 22.219 221.59 31.344 241.977 46.102 256.734 c 53.758 264.391 
62.93 270.523 73.129 274.664 c h
92.082 260.449 m f
0.952941 0.615686 0.521569 rg
98.387 300.23 m 98.387 262.652 l 98.387 246.391 85.203 233.211 68.945 233.211
 c 52.684 233.211 39.504 246.391 39.504 262.652 c 39.504 308.609 l 39.504
 320.758 49.352 330.605 61.5 330.605 c 87.852 330.605 l h
98.387 300.23 m f
0.898039 0.52549 0.431373 rg
223.09 215.262 m 226.93 227.617 240.121 234.129 252.352 237.555 c 267.703
 241.852 284 241.852 299.355 237.555 c 311.586 234.129 324.777 227.617 328.617
 215.262 c 328.617 180.352 l 223.09 180.352 l h
223.09 215.262 m f
0.835294 0.454902 0.356863 rg
251.746 181.062 m 251.746 180.824 251.754 180.59 251.758 180.352 c 223.09
 180.352 l 223.09 215.262 l 226.93 227.621 240.121 234.133 252.352 237.555
 c 264.23 240.879 276.668 241.621 288.801 239.801 c 266.887 229.332 251.746
 206.965 251.746 181.062 c h
251.746 181.062 m f
0.972549 0.780392 0.733333 rg
343.984 61.742 m 335.305 52.625 321.41 50.699 310.711 57.328 c 305.516 
60.547 299.871 63.184 294.664 65.27 c 282.594 70.102 269.113 70.102 257.043
 65.27 c 251.836 63.188 246.191 60.547 240.992 57.328 c 230.293 50.699 216.398
 52.625 207.723 61.742 c 192.258 77.984 173.332 107.473 173.332 154.484 
c 173.332 190.219 190.816 212.453 210.062 226.102 c 218.695 232.227 230.938
 228.34 234.395 218.336 c 238.812 205.539 249.617 191.219 275.852 191.219
 c 302.086 191.219 312.891 205.539 317.312 218.336 c 320.766 228.34 333.008
 232.227 341.641 226.102 c 360.891 212.453 378.375 190.219 378.375 154.484
 c 378.375 107.473 359.445 77.984 343.984 61.742 c h
343.984 61.742 m f
0.952941 0.615686 0.521569 rg
210.035 129.398 m 210.035 101.074 221.172 75.355 239.305 56.371 c 228.867
 50.926 215.949 53.098 207.723 61.742 c 192.258 77.984 173.332 107.473 173.332
 154.484 c 173.332 190.219 190.816 212.453 210.062 226.102 c 218.695 232.227
 230.938 228.34 234.395 218.336 c 235.945 213.836 238.293 209.152 241.82
 204.965 c 222.211 185.77 210.035 159.008 210.035 129.398 c h
210.035 129.398 m f
0.992157 0.94902 0.894118 rg
239.285 186.215 m 239.285 195.621 229.711 203.242 217.902 203.242 c 206.09
 203.242 196.516 195.621 196.516 186.215 c 196.516 176.809 206.09 169.188
 217.902 169.188 c 229.711 169.188 239.285 176.809 239.285 186.215 c h
239.285 186.215 m f
355.188 186.215 m 355.188 195.621 345.613 203.242 333.805 203.242 c 321.996
 203.242 312.422 195.621 312.422 186.215 c 312.422 176.809 321.996 169.188
 333.805 169.188 c 345.613 169.188 355.188 176.809 355.188 186.215 c h
355.188 186.215 m f
0.423529 0.501961 0.588235 rg
94.098 299.773 m 83.859 299.773 75.555 308.074 75.555 318.312 c 75.555 
325.102 81.059 330.609 87.852 330.609 c 103.871 330.609 l 109.688 330.609
 114.402 325.895 114.402 320.078 c 114.402 308.863 105.309 299.773 94.098
 299.773 c h
94.098 299.773 m f
0.952941 0.615686 0.521569 rg
209.551 300.23 m 209.551 262.652 l 209.551 246.391 196.371 233.211 180.109
 233.211 c 163.852 233.211 150.668 246.391 150.668 262.652 c 150.668 308.609
 l 150.668 320.758 160.52 330.605 172.668 330.605 c 199.016 330.605 l h
209.551 300.23 m f
0.423529 0.501961 0.588235 rg
205.266 299.773 m 195.023 299.773 186.723 308.074 186.723 318.312 c 186.723
 325.102 192.227 330.609 199.016 330.609 c 215.039 330.609 l 220.855 330.609
 225.57 325.895 225.57 320.078 c 225.57 308.863 216.477 299.773 205.266 
299.773 c h
205.266 299.773 m f
0 g
214.562 167.668 m 214.562 170.777 217.078 173.293 220.188 173.293 c 223.293
 173.293 225.812 170.777 225.812 167.668 c 225.812 165.16 227.852 163.117
 230.363 163.117 c 232.875 163.117 234.918 165.16 234.918 167.668 c 234.918
 170.777 237.438 173.293 240.543 173.293 c 243.648 173.293 246.168 170.777
 246.168 167.668 c 246.168 158.953 239.078 151.867 230.363 151.867 c 221.648
 151.867 214.562 158.953 214.562 167.668 c h
214.562 167.668 m f
311.164 173.293 m 314.273 173.293 316.789 170.777 316.789 167.668 c 316.789
 165.16 318.832 163.117 321.344 163.117 c 323.855 163.117 325.898 165.16
 325.898 167.668 c 325.898 170.777 328.414 173.293 331.523 173.293 c 334.629
 173.293 337.148 170.777 337.148 167.668 c 337.148 158.953 330.059 151.867
 321.344 151.867 c 312.629 151.867 305.539 158.953 305.539 167.668 c 305.539
 170.777 308.059 173.293 311.164 173.293 c h
311.164 173.293 m f
270.23 100.078 m 270.23 121.973 l 270.23 125.078 272.746 127.598 275.855
 127.598 c 278.961 127.598 281.48 125.078 281.48 121.973 c 281.48 100.078
 l 281.48 96.969 278.961 94.453 275.855 94.453 c 272.746 94.453 270.23 96.969
 270.23 100.078 c h
270.23 100.078 m f
235.535 117.594 m 235.809 109.805 240.984 104.723 241.129 104.578 c 243.387
 102.469 243.523 98.934 241.426 96.66 c 239.324 94.375 235.766 94.227 233.48
 96.332 c 233.121 96.66 224.738 104.523 224.293 117.195 c 224.184 120.301
 226.609 122.906 229.715 123.016 c 232.777 123.133 235.422 120.727 235.535
 117.594 c h
235.535 117.594 m f
316.172 117.594 m 316.281 120.645 318.828 123.121 321.992 123.016 c 325.098
 122.906 327.527 120.301 327.418 117.195 c 326.973 104.523 318.586 96.66
 318.23 96.332 c 315.945 94.227 312.367 94.359 310.266 96.645 c 308.16 98.93
 308.289 102.473 310.574 104.578 c 310.629 104.625 315.898 109.734 316.172
 117.594 c h
316.172 117.594 m f
307.75 52.531 m 285.91 66.055 268.227 67.562 243.957 52.531 c 231.109 44.574
 214.16 46.809 203.652 57.848 c 193.527 68.484 182.207 84.281 175.023 106.262
 c 152.598 101.508 121.477 98.383 91.801 107.141 c 88.82 108.02 87.117 111.148
 87.996 114.125 c 88.875 117.105 92.004 118.809 94.984 117.93 c 122.125 
109.918 150.926 112.723 171.957 117.109 c 169.055 129.215 167.707 141.969
 167.707 154.469 c 167.707 166.473 169.637 178.578 174.121 189.973 c 166.711
 193.797 157.672 193.676 150.258 189.301 c 138.883 182.598 124.871 182.73
 113.742 189.301 c 105.926 193.906 96.297 193.816 88.652 189.301 c 77.398
 182.668 63.398 182.656 52.125 189.301 c 44.902 193.562 35.895 193.848 28.379
 190.031 c 28.848 186.027 29.637 182.105 30.711 178.285 c 30.738 178.211
 30.77 178.141 30.793 178.062 c 37.727 153.777 56.777 135.434 76.758 125.188
 c 79.52 123.77 80.613 120.379 79.195 117.613 c 77.777 114.852 74.387 113.758
 71.621 115.176 c 62.715 119.746 54.527 125.492 47.141 132.328 c 40.484 
130.371 35.086 127.348 31.066 123.324 c 21.52 113.766 5.082 118.105 1.57
 131.156 c -1.793 143.668 -1.309 161.824 18.988 178.684 c 17.398 185.391
 16.598 192.203 16.598 199.047 c 16.598 218.617 23.203 237.625 35.254 252.938
 c 34.367 256.02 33.879 259.27 33.879 262.633 c 33.879 308.59 l 33.879 323.82
 46.273 336.215 61.504 336.215 c 103.875 336.215 l 112.781 336.215 120.027
 328.965 120.027 320.059 c 120.027 309.273 113.406 300.004 104.012 296.105
 c 104.012 286.23 l 145.047 286.23 l 145.047 308.59 l 145.047 323.82 157.438
 336.215 172.668 336.215 c 215.043 336.215 l 223.949 336.215 231.195 328.969
 231.195 320.062 c 231.195 309.273 224.57 300.008 215.18 296.105 c 215.18
 279.441 l 218.566 278.406 221.91 277.262 225.156 276.02 c 240.023 270.336
 251.977 259.078 258.594 244.758 c 272.953 247.473 287.336 246.742 300.871
 242.953 c 309.953 240.414 317.348 236.887 322.934 232.449 c 330.043 235.875
 338.336 235.328 344.898 230.676 c 353.641 224.473 361.066 217.258 366.961
 209.223 c 368.801 206.715 368.258 203.195 365.754 201.359 c 363.25 199.52
 359.73 200.062 357.891 202.566 c 352.711 209.625 346.148 215.996 338.391
 221.496 c 332.789 225.473 324.852 222.914 322.629 216.484 c 315.371 195.457
 297.824 185.578 275.855 185.578 c 253.863 185.578 236.332 195.477 229.078
 216.48 c 226.863 222.898 218.902 225.457 213.32 221.496 c 190.578 205.371
 178.957 182.715 178.957 154.469 c 178.957 121.492 188.797 89.766 211.801
 65.602 c 218.656 58.398 229.688 56.926 238.035 62.094 c 265.598 79.168 
287.914 78.051 313.676 62.094 c 322.02 56.926 333.051 58.398 339.91 65.602
 c 354.891 81.344 372.75 109.535 372.75 154.469 c 372.75 165.289 371.027
 175.402 367.633 184.523 c 366.551 187.434 368.031 190.672 370.941 191.758
 c 373.855 192.84 377.094 191.359 378.176 188.445 c 382.039 178.066 384 
166.633 384 154.469 c 384 105.816 364.453 75.07 348.059 57.848 c 337.547
 46.809 320.598 44.57 307.75 52.531 c h
12.434 134.078 m 13.695 129.387 19.68 127.844 23.105 131.273 c 27.273 135.449
 32.43 138.781 38.504 141.23 c 31.688 149.062 26.582 157.035 22.684 166.902
 c 12.648 157.113 9.203 146.102 12.434 134.078 c h
61.504 324.965 m 52.473 324.965 45.129 317.621 45.129 308.594 c 45.129 
262.637 l 45.129 249.594 55.734 238.82 68.945 238.82 c 82.078 238.82 92.762
 249.504 92.762 262.637 c 92.762 294.168 l 80.07 294.859 69.934 305.441 
69.934 318.297 c 69.934 318.305 l 69.938 320.609 70.398 322.922 71.223 324.965
 c h
108.777 320.062 m 108.777 322.766 106.578 324.965 103.875 324.965 c 87.852
 324.965 l 84.184 324.965 81.184 321.984 81.184 318.297 c 81.184 311.176
 86.977 305.383 94.098 305.383 c 94.141 305.383 94.184 305.391 94.227 305.391
 c 102.281 305.461 108.777 312.027 108.777 320.062 c h
172.668 324.965 m 163.641 324.965 156.297 317.621 156.297 308.594 c 156.297
 262.637 l 156.297 249.504 166.98 238.82 180.113 238.82 c 193.246 238.82
 203.93 249.504 203.93 262.637 c 203.93 294.168 l 191.281 294.859 181.102
 305.379 181.102 318.297 c 181.102 318.305 l 181.102 320.664 181.582 322.965
 182.387 324.965 c h
219.945 320.062 m 219.945 322.766 217.746 324.965 215.043 324.965 c 199.02
 324.965 l 195.352 324.965 192.352 321.969 192.352 318.297 c 192.352 311.176
 198.145 305.383 205.266 305.383 c 205.309 305.383 205.348 305.391 205.391
 305.391 c 213.484 305.461 219.945 312.062 219.945 320.062 c h
221.137 265.516 m 219.184 266.262 217.191 266.973 215.18 267.641 c 215.18
 262.637 l 215.18 243.301 199.449 227.57 180.113 227.57 c 160.777 227.57
 145.047 243.301 145.047 262.637 c 145.047 274.98 l 104.012 274.98 l 104.012
 262.637 l 104.012 243.301 88.281 227.57 68.945 227.57 c 57.871 227.57 47.473
 232.738 40.879 241.586 c 32.98 229.91 28.461 216.191 27.902 202.027 c 28.074
 202.043 42.641 207.961 57.84 198.996 c 65.73 194.344 75.355 194.523 82.934
 198.992 c 94.23 205.66 108.238 205.605 119.457 198.992 c 127.176 194.434
 136.809 194.434 144.543 198.992 c 155.039 205.191 168.027 205.629 178.93
 200.156 c 184.152 209.551 191.164 217.969 199.867 225.301 c 199.898 225.328
 199.93 225.352 199.961 225.379 c 209.102 233.066 217.293 237.98 228.77 
232.453 c 234.176 236.766 240.898 239.816 247.473 241.945 c 241.93 252.707
 232.586 261.133 221.137 265.516 c h
275.855 196.828 m 293.078 196.828 306.258 203.543 311.996 220.156 c 312.578
 221.84 313.363 223.426 314.297 224.867 c 310.086 227.805 304.574 230.234
 297.84 232.121 c 275.055 238.5 250.594 234.004 237.414 224.863 c 238.355
 223.41 239.137 221.82 239.711 220.152 c 245.059 204.676 257.219 196.828
 275.855 196.828 c h
275.855 196.828 m f
Q Q
showpage
%%Trailer
end
%%EOF
