%!PS-Adobe-3.0 EPSF-3.0
%%Creator: cairo 1.16.0 (https://cairographics.org)
%%CreationDate: Mon Aug 23 08:35:26 2021
%%Pages: 1
%%DocumentData: Clean7Bit
%%LanguageLevel: 2
%%BoundingBox: 26 0 358 384
%%EndComments
%%BeginProlog
50 dict begin
/q { gsave } bind def
/Q { grestore } bind def
/cm { 6 array astore concat } bind def
/w { setlinewidth } bind def
/J { setlinecap } bind def
/j { setlinejoin } bind def
/M { setmiterlimit } bind def
/d { setdash } bind def
/m { moveto } bind def
/l { lineto } bind def
/c { curveto } bind def
/h { closepath } bind def
/re { exch dup neg 3 1 roll 5 3 roll moveto 0 rlineto
      0 exch rlineto 0 rlineto closepath } bind def
/S { stroke } bind def
/f { fill } bind def
/f* { eofill } bind def
/n { newpath } bind def
/W { clip } bind def
/W* { eoclip } bind def
/BT { } bind def
/ET { } bind def
/BDC { mark 3 1 roll /BDC pdfmark } bind def
/EMC { mark /EMC pdfmark } bind def
/cairo_store_point { /cairo_point_y exch def /cairo_point_x exch def } def
/Tj { show currentpoint cairo_store_point } bind def
/TJ {
  {
    dup
    type /stringtype eq
    { show } { -0.001 mul 0 cairo_font_matrix dtransform rmoveto } ifelse
  } forall
  currentpoint cairo_store_point
} bind def
/cairo_selectfont { cairo_font_matrix aload pop pop pop 0 0 6 array astore
    cairo_font exch selectfont cairo_point_x cairo_point_y moveto } bind def
/Tf { pop /cairo_font exch def /cairo_font_matrix where
      { pop cairo_selectfont } if } bind def
/Td { matrix translate cairo_font_matrix matrix concatmatrix dup
      /cairo_font_matrix exch def dup 4 get exch 5 get cairo_store_point
      /cairo_font where { pop cairo_selectfont } if } bind def
/Tm { 2 copy 8 2 roll 6 array astore /cairo_font_matrix exch def
      cairo_store_point /cairo_font where { pop cairo_selectfont } if } bind def
/g { setgray } bind def
/rg { setrgbcolor } bind def
/d1 { setcachedevice } bind def
/cairo_data_source {
  CairoDataIndex CairoData length lt
    { CairoData CairoDataIndex get /CairoDataIndex CairoDataIndex 1 add def }
    { () } ifelse
} def
/cairo_flush_ascii85_file { cairo_ascii85_file status { cairo_ascii85_file flushfile } if } def
/cairo_image { image cairo_flush_ascii85_file } def
/cairo_imagemask { imagemask cairo_flush_ascii85_file } def
%%EndProlog
%%BeginSetup
%%EndSetup
%%Page: 1 1
%%BeginPageSetup
%%PageBoundingBox: 26 0 358 384
%%EndPageSetup
q 26 0 332 384 rectclip
1 0 0 -1 0 384 cm q
0.321569 0.419608 0.501961 rg
178.766 111.051 m 178.766 307.777 l 116.762 307.777 l 86.613 307.312 62.289
 282.984 61.816 252.832 c 61.816 252.742 l 35.898 237.254 26.996 203.969
 41.719 177.609 c 41.727 177.602 l 41.719 177.586 l 29.328 155.398 33.68
 128.309 50.816 111.051 c h
178.766 111.051 m f
0.423529 0.501961 0.588235 rg
349.375 204.781 m 349.375 223.809 339.641 242.309 322.18 252.742 c 322.18
 252.832 l 321.715 282.984 297.387 307.312 267.234 307.777 c 267.145 307.777
 l 267.145 307.785 l 178.766 307.777 l 178.766 111.051 l 333.184 111.051
 l 350.32 128.309 354.672 155.398 342.281 177.586 c 342.273 177.602 l 342.281
 177.609 l 347.09 186.219 349.375 195.562 349.375 204.781 c h
349.375 204.781 m f
0.976471 0.87451 0.603922 rg
82.223 334.848 m 96.344 281.77 132.836 258.785 132.836 258.785 c 192 258.785
 l 212.039 334.848 l 192 378.375 l 129.254 378.375 l h
82.223 334.848 m f
0.988235 0.792157 0.45098 rg
254.75 378.375 m 192 378.375 l 192 258.785 l 251.164 258.785 l 251.164 
258.785 287.656 281.766 301.777 334.848 c h
254.75 378.375 m f
0.976471 0.729412 0.427451 rg
127.391 262.816 m 145.094 298.34 l 151.656 311.512 169.941 312.812 178.305
 300.707 c 192 280.879 l h
127.391 262.816 m f
256.609 262.816 m 238.906 298.34 l 232.344 311.512 214.059 312.812 205.695
 300.707 c 192 280.879 l h
256.609 262.816 m f
0.898039 0.647059 0.501961 rg
303.562 176.812 m 303.562 238.426 253.617 280.879 192 280.879 c 130.383
 280.879 80.438 238.426 80.438 176.812 c 80.438 115.195 130.387 65.246 192
 65.246 c 253.613 65.246 303.562 115.195 303.562 176.812 c h
303.562 176.812 m f
0.878431 0.584314 0.427451 rg
111.637 168.695 m 111.637 126.055 134.188 88.684 168.008 67.844 c 117.926
 78.82 80.438 123.434 80.438 176.812 c 80.438 238.426 130.387 280.879 192
 280.879 c 192.035 280.879 192.07 280.879 192.105 280.879 c 145.32 265.07
 111.637 220.816 111.637 168.695 c h
111.637 168.695 m f
0.988235 0.792157 0.45098 rg
295.07 83.148 m 192 103.402 l 88.93 83.148 l 108.816 51.109 l 192 28.367
 l 275.184 51.109 l h
295.07 83.148 m f
0.992157 0.94902 0.894118 rg
152.336 187.695 m 152.336 197.895 141.953 206.164 129.145 206.164 c 116.336
 206.164 105.953 197.895 105.953 187.695 c 105.953 177.496 116.336 169.227
 129.145 169.227 c 141.953 169.227 152.336 177.496 152.336 187.695 c h
152.336 187.695 m f
278.047 187.695 m 278.047 197.895 267.664 206.164 254.855 206.164 c 242.047
 206.164 231.664 197.895 231.664 187.695 c 231.664 177.496 242.047 169.227
 254.855 169.227 c 267.664 169.227 278.047 177.496 278.047 187.695 c h
278.047 187.695 m f
0.976471 0.729412 0.427451 rg
142.66 88.211 m 142.66 70.602 146.535 53.902 153.465 38.902 c 108.816 51.109
 l 88.93 83.148 l 142.793 93.734 l 142.711 91.902 142.66 90.062 142.66 88.211
 c h
142.66 88.211 m f
0.976471 0.87451 0.603922 rg
348.105 80.156 m 335.5 66.555 l 330.352 61 321.895 60.109 315.695 64.461
 c 301.336 74.539 283.773 81.812 272.363 81.812 c 111.637 81.812 l 100.227
 81.812 82.664 74.539 68.305 64.461 c 62.105 60.109 53.648 61 48.5 66.555
 c 35.895 80.156 l 29.727 86.805 30.73 97.367 38.074 102.688 c 58.508 117.492
 86.602 130.535 111.637 130.535 c 272.363 130.535 l 297.398 130.535 325.492
 117.492 345.926 102.688 c 353.27 97.367 354.273 86.805 348.105 80.156 c
 h
348.105 80.156 m f
0.898039 0.647059 0.501961 rg
129.254 334.848 m 129.254 378.375 l 76.727 378.375 l 76.727 362.062 78.828
 347.59 82.223 334.848 c h
129.254 334.848 m f
307.273 378.375 m 254.746 378.375 l 254.746 334.848 l 301.777 334.848 l
 305.172 347.59 307.273 362.062 307.273 378.375 c h
307.273 378.375 m f
0.976471 0.87451 0.603922 rg
275.184 51.109 m 108.816 51.109 l 129.254 18.18 l 135.367 8.316 147.191
 3.57 158.426 6.465 c 170.969 9.695 l 184.766 13.25 199.234 13.25 213.035
 9.695 c 225.574 6.465 l 236.812 3.57 248.633 8.316 254.75 18.18 c h
275.184 51.109 m f
0.988235 0.792157 0.45098 rg
142.66 88.211 m 142.66 86.062 142.723 83.93 142.836 81.812 c 111.637 81.812
 l 100.227 81.812 82.664 74.539 68.305 64.461 c 62.105 60.109 53.648 61 
48.5 66.555 c 35.895 80.156 l 29.727 86.805 30.73 97.367 38.074 102.688 
c 58.508 117.492 86.602 130.535 111.637 130.535 c 150.508 130.535 l 145.445
 117.398 142.66 103.129 142.66 88.211 c h
142.66 88.211 m f
172.383 10.035 m 171.91 9.926 171.438 9.816 170.965 9.695 c 158.426 6.465
 l 147.191 3.57 135.367 8.316 129.254 18.18 c 108.816 51.109 l 148.637 51.109
 l 153.723 35.777 161.883 21.844 172.383 10.035 c h
172.383 10.035 m f
0 g
142.664 150.941 m 133.477 150.941 126 158.418 126 167.605 c 126 170.711
 128.52 173.23 131.625 173.23 c 134.73 173.23 137.25 170.711 137.25 167.605
 c 137.25 164.621 139.68 162.191 142.664 162.191 c 145.648 162.191 148.078
 164.621 148.078 167.605 c 148.078 170.711 150.594 173.23 153.703 173.23
 c 156.809 173.23 159.328 170.711 159.328 167.605 c 159.328 158.418 151.852
 150.941 142.664 150.941 c h
142.664 150.941 m f
241.336 150.941 m 232.148 150.941 224.672 158.418 224.672 167.605 c 224.672
 170.711 227.191 173.23 230.297 173.23 c 233.406 173.23 235.922 170.711 
235.922 167.605 c 235.922 164.621 238.352 162.191 241.336 162.191 c 244.32
 162.191 246.75 164.621 246.75 167.605 c 246.75 170.711 249.27 173.23 252.375
 173.23 c 255.484 173.23 258 170.711 258 167.605 c 258 158.418 250.523 150.941
 241.336 150.941 c h
241.336 150.941 m f
207.406 176.27 m 205.062 174.227 201.508 174.469 199.469 176.812 c 197.582
 178.977 194.859 180.219 192 180.219 c 189.141 180.219 186.418 178.977 184.531
 176.812 c 182.492 174.469 178.938 174.227 176.598 176.266 c 174.254 178.309
 174.008 181.863 176.051 184.203 c 180.074 188.82 185.887 191.465 192 191.465
 c 198.113 191.465 203.926 188.82 207.949 184.203 c 209.992 181.863 209.746
 178.309 207.406 176.27 c h
207.406 176.27 m f
352.227 76.34 m 339.621 62.742 l 332.598 55.164 320.922 53.93 312.461 59.871
 c 306.508 64.047 300.031 67.676 293.793 70.445 c 259.527 15.23 l 252.074
 3.211 237.863 -2.496 224.168 1.031 c 211.629 4.262 l 198.789 7.566 185.211
 7.566 172.371 4.262 c 159.828 1.031 l 146.137 -2.496 131.926 3.211 124.477
 15.227 c 124.477 15.227 93.281 65.488 90.207 70.441 c 83.973 67.672 77.492
 64.047 71.539 59.867 c 63.082 53.93 51.406 55.164 44.383 62.742 c 31.773
 76.34 l 23.32 85.461 24.711 99.953 34.781 107.25 c 37.223 109.02 39.699
 110.715 42.199 112.34 c 27.695 130.777 24.895 156.355 35.379 177.602 c 
28.742 190.992 27.215 206.184 31.102 220.715 c 34.988 235.238 43.891 247.637
 56.32 255.926 c 57.66 276.523 69.414 295.184 87.258 305.363 c 83.203 313.629
 79.57 322.957 76.789 333.402 c 73.02 347.559 71.109 362.688 71.109 378.375
 c 71.109 381.48 73.625 384 76.734 384 c 307.27 384 l 310.375 384 312.895
 381.48 312.895 378.375 c 312.895 362.688 310.98 347.555 307.211 333.402
 c 304.434 322.957 300.797 313.629 296.742 305.363 c 314.59 295.18 326.344
 276.52 327.68 255.926 c 340.109 247.637 349.016 235.242 352.898 220.715
 c 356.789 206.172 355.258 190.969 348.625 177.602 c 359.109 156.363 356.309
 130.781 341.801 112.34 c 344.305 110.715 346.781 109.02 349.223 107.25 
c 359.289 99.957 360.68 85.461 352.227 76.34 c h
100.98 74.418 m 111.949 56.746 l 148.191 56.746 l 151.301 56.746 153.816
 54.23 153.816 51.121 c 153.816 48.016 151.301 45.496 148.191 45.496 c 118.93
 45.496 l 134.035 21.16 l 138.879 13.344 148.121 9.633 157.023 11.926 c 
169.566 15.156 l 184.242 18.934 199.758 18.934 214.434 15.156 c 226.977 
11.926 l 235.879 9.633 245.117 13.344 249.965 21.16 c 265.066 45.496 l 170.23
 45.496 l 167.125 45.496 164.605 48.016 164.605 51.121 c 164.605 54.23 167.125
 56.746 170.23 56.746 c 272.051 56.746 l 283.02 74.418 l 279.742 75.355 
275.707 76.199 272.359 76.199 c 111.641 76.199 l 108.285 76.199 104.262 
75.359 100.98 74.418 c h
67.445 252.695 m 67.445 252.609 l 67.395 250.68 66.363 248.91 64.707 247.922
 c 53.438 241.188 45.363 230.492 41.969 217.809 c 38.574 205.125 40.234 
191.824 46.641 180.352 c 47.594 178.645 47.59 176.555 46.637 174.852 c 36.484
 156.672 38.762 133.984 51.914 118.211 c 62.922 124.387 73.949 128.938 83.77
 131.82 c 77.824 146.066 74.816 161.168 74.816 176.82 c 74.816 211.953 90.531
 243.094 118.199 263.355 c 110.984 270.031 101.27 280.613 92.559 295.445
 c 77.422 286.688 67.723 270.434 67.445 252.695 c h
181.551 286.113 m 173.676 297.512 l 167.746 306.094 154.785 305.18 150.129
 295.836 c 140.242 275.996 l 153.227 281.66 167.262 285.027 181.551 286.113
 c h
243.758 275.996 m 233.871 295.836 l 229.219 305.168 216.258 306.105 210.324
 297.512 c 202.449 286.113 l 217.52 284.965 231.484 281.352 243.758 275.996
 c h
86.613 340.473 m 123.629 340.473 l 123.629 372.75 l 82.445 372.75 l 82.793
 361.574 84.191 350.758 86.613 340.473 c h
129.254 329.223 m 89.734 329.223 l 99.074 300.148 115.293 281.438 125.602
 271.836 c 140.062 300.852 l 148.559 317.906 172.168 319.488 182.934 303.906
 c 186.375 298.922 l 186.375 372.75 l 134.879 372.75 l 134.879 334.848 l
 134.879 331.742 132.359 329.223 129.254 329.223 c h
249.121 372.75 m 197.625 372.75 l 197.625 298.922 l 201.066 303.906 l 211.836
 319.496 235.445 317.898 243.938 300.852 c 258.398 271.836 l 268.707 281.438
 284.926 300.145 294.266 329.223 c 254.746 329.223 l 251.641 329.223 249.121
 331.742 249.121 334.848 c h
260.371 372.75 m 260.371 340.473 l 297.387 340.473 l 299.809 350.758 301.207
 361.574 301.555 372.75 c h
337.359 174.863 m 336.406 176.566 336.41 178.656 337.363 180.359 c 343.766
 191.824 345.426 205.121 342.031 217.809 c 338.637 230.492 330.562 241.188
 319.293 247.922 c 317.621 248.918 316.586 250.711 316.555 252.652 c 316.551
 252.75 l 316.277 270.438 306.578 286.688 291.441 295.445 c 282.734 280.613
 273.02 270.031 265.801 263.355 c 276.562 255.48 285.566 245.93 292.633 
234.883 c 294.305 232.266 293.539 228.789 290.922 227.113 c 288.305 225.441
 284.828 226.203 283.152 228.82 c 275.668 240.527 265.727 250.367 253.598
 258.07 c 253.594 258.07 253.594 258.07 253.59 258.07 c 235.246 269.723 
213.637 275.258 192 275.258 c 170.297 275.258 148.734 269.711 130.41 258.074
 c 130.406 258.07 130.406 258.07 130.406 258.07 c 102.227 240.172 86.066
 210.559 86.066 176.82 c 86.066 162.059 89.035 147.84 94.875 134.484 c 100.684
 135.59 106.312 136.168 111.641 136.168 c 272.359 136.168 l 277.688 136.168
 283.316 135.59 289.125 134.484 c 294.969 147.84 297.934 162.059 297.934
 176.82 c 297.934 188.336 296.078 199.441 292.418 209.816 c 291.387 212.746
 292.922 215.957 295.852 216.992 c 298.781 218.023 301.996 216.488 303.027
 213.559 c 307.113 201.977 309.184 189.617 309.184 176.82 c 309.184 161.168
 306.176 146.066 300.23 131.82 c 311.176 128.605 322.254 123.723 332.086
 118.211 c 345.238 133.984 347.516 156.672 337.359 174.863 c h
342.617 98.141 m 323.961 111.656 296.41 124.918 272.359 124.918 c 111.641
 124.918 l 87.809 124.918 59.973 111.609 41.379 98.141 c 36.652 94.715 36.25
 88.059 40.023 83.992 c 52.633 70.391 l 55.859 66.906 61.215 66.367 65.078
 69.078 c 77.438 77.754 96.711 87.449 111.641 87.449 c 272.359 87.449 l 
287.277 87.449 306.516 77.789 318.922 69.078 c 322.801 66.355 328.152 66.922
 331.371 70.391 c 343.977 83.992 l 347.75 88.062 347.344 94.719 342.617 
98.141 c h
342.617 98.141 m f
Q Q
showpage
%%Trailer
end
%%EOF
