%!PS-Adobe-3.0 EPSF-3.0
%%Creator: cairo 1.16.0 (https://cairographics.org)
%%CreationDate: Mon Aug 23 08:35:27 2021
%%Pages: 1
%%DocumentData: Clean7Bit
%%LanguageLevel: 2
%%BoundingBox: 29 0 355 384
%%EndComments
%%BeginProlog
50 dict begin
/q { gsave } bind def
/Q { grestore } bind def
/cm { 6 array astore concat } bind def
/w { setlinewidth } bind def
/J { setlinecap } bind def
/j { setlinejoin } bind def
/M { setmiterlimit } bind def
/d { setdash } bind def
/m { moveto } bind def
/l { lineto } bind def
/c { curveto } bind def
/h { closepath } bind def
/re { exch dup neg 3 1 roll 5 3 roll moveto 0 rlineto
      0 exch rlineto 0 rlineto closepath } bind def
/S { stroke } bind def
/f { fill } bind def
/f* { eofill } bind def
/n { newpath } bind def
/W { clip } bind def
/W* { eoclip } bind def
/BT { } bind def
/ET { } bind def
/BDC { mark 3 1 roll /BDC pdfmark } bind def
/EMC { mark /EMC pdfmark } bind def
/cairo_store_point { /cairo_point_y exch def /cairo_point_x exch def } def
/Tj { show currentpoint cairo_store_point } bind def
/TJ {
  {
    dup
    type /stringtype eq
    { show } { -0.001 mul 0 cairo_font_matrix dtransform rmoveto } ifelse
  } forall
  currentpoint cairo_store_point
} bind def
/cairo_selectfont { cairo_font_matrix aload pop pop pop 0 0 6 array astore
    cairo_font exch selectfont cairo_point_x cairo_point_y moveto } bind def
/Tf { pop /cairo_font exch def /cairo_font_matrix where
      { pop cairo_selectfont } if } bind def
/Td { matrix translate cairo_font_matrix matrix concatmatrix dup
      /cairo_font_matrix exch def dup 4 get exch 5 get cairo_store_point
      /cairo_font where { pop cairo_selectfont } if } bind def
/Tm { 2 copy 8 2 roll 6 array astore /cairo_font_matrix exch def
      cairo_store_point /cairo_font where { pop cairo_selectfont } if } bind def
/g { setgray } bind def
/rg { setrgbcolor } bind def
/d1 { setcachedevice } bind def
/cairo_data_source {
  CairoDataIndex CairoData length lt
    { CairoData CairoDataIndex get /CairoDataIndex CairoDataIndex 1 add def }
    { () } ifelse
} def
/cairo_flush_ascii85_file { cairo_ascii85_file status { cairo_ascii85_file flushfile } if } def
/cairo_image { image cairo_flush_ascii85_file } def
/cairo_imagemask { imagemask cairo_flush_ascii85_file } def
%%EndProlog
%%BeginSetup
%%EndSetup
%%Page: 1 1
%%BeginPageSetup
%%PageBoundingBox: 29 0 355 384
%%EndPageSetup
q 29 0 326 384 rectclip
1 0 0 -1 0 384 cm q
0.992157 0.94902 0.894118 rg
254.285 270.898 m 231.305 324.637 l 254.285 331.426 l 283.246 354.898 l
 304.637 331.426 l 288.941 286.785 254.285 270.898 254.285 270.898 c h
254.285 270.898 m f
0.984314 0.811765 0.631373 rg
254.285 331.426 m 234.625 351.023 l 254.285 378.375 l 312.211 378.375 l
 312.211 360.043 309.238 344.504 304.637 331.426 c h
254.285 331.426 m f
0.992157 0.94902 0.894118 rg
214.961 270.898 m 234.625 324.637 l 214.961 378.375 l 169.039 378.375 l
 152.695 324.637 l 169.039 270.898 l h
214.961 270.898 m f
129.715 270.898 m 152.695 324.637 l 129.715 331.426 l 100.75 354.898 l 
79.363 331.426 l 95.059 286.785 129.715 270.898 129.715 270.898 c h
129.715 270.898 m f
0.984314 0.811765 0.631373 rg
129.715 331.426 m 149.375 351.023 l 129.715 378.375 l 71.789 378.375 l 
71.789 360.043 74.762 344.504 79.363 331.426 c h
129.715 331.426 m f
0.992157 0.913725 0.815686 rg
158.617 305.16 m 169.391 307.449 180.574 308.637 192 308.637 c 204.121 
308.637 215.969 307.305 227.344 304.734 c 214.961 270.895 l 169.039 270.895
 l h
158.617 305.16 m f
274.367 285.141 m 263.383 275.07 254.285 270.898 254.285 270.898 c 241.496
 300.805 l 253.188 296.938 264.227 291.688 274.367 285.141 c h
274.367 285.141 m f
129.715 270.898 m 129.715 270.898 120.617 275.07 109.633 285.141 c 119.773
 291.688 130.812 296.938 142.504 300.805 c h
129.715 270.898 m f
0.952941 0.615686 0.521569 rg
129.715 270.898 39.324 107.477 re f
214.961 270.898 39.324 107.477 re f
0.968627 0.721569 0.509804 rg
349.195 161.227 m 349.195 181.652 332.637 198.211 312.211 198.211 c 291.785
 198.211 275.227 181.652 275.227 161.227 c 275.227 140.801 291.785 124.242
 312.211 124.242 c 332.637 124.242 349.195 140.801 349.195 161.227 c h
349.195 161.227 m f
0.898039 0.52549 0.431373 rg
214.961 307.008 m 228.746 305.039 241.965 301.297 254.285 295.906 c 254.285
 270.895 l 214.961 270.895 l h
214.961 307.008 m f
129.715 295.906 m 142.035 301.297 155.254 305.039 169.039 307.008 c 169.039
 270.898 l 129.715 270.898 l h
129.715 295.906 m f
0.984314 0.811765 0.631373 rg
312.211 173.754 m 312.211 240.145 258.391 286.137 192 286.137 c 125.609
 286.137 71.789 240.145 71.789 173.754 c 71.789 107.363 125.609 53.539 192
 53.539 c 258.391 53.539 312.211 107.363 312.211 173.754 c h
312.211 173.754 m f
0.968627 0.721569 0.509804 rg
111.227 186.328 m 111.227 130.191 146.398 65.133 199.188 53.762 c 196.809
 53.621 194.414 53.543 192 53.543 c 142.723 53.543 100.379 83.195 81.816
 125.629 c 78.625 124.73 75.266 124.242 71.789 124.242 c 51.363 124.242 
34.805 140.801 34.805 161.227 c 34.805 181.652 51.363 198.211 71.789 198.211
 c 72.645 198.211 73.492 198.172 74.336 198.113 c 84.188 243.934 121.641
 276.297 169.02 284.238 c 134.562 265.188 111.227 228.484 111.227 186.328
 c h
111.227 186.328 m f
0.972549 0.780392 0.733333 rg
74.895 74.184 m 74.895 74.184 97.348 5.625 192 5.625 c 286.652 5.625 309.105
 74.184 309.105 74.184 c 192 101.098 l h
74.895 74.184 m f
0.952941 0.615686 0.521569 rg
160.324 8.473 m 92.18 21.426 74.895 74.184 74.895 74.184 c 118.805 84.273
 l 122.258 53.602 137.289 25.207 160.324 8.473 c h
160.324 8.473 m f
330.859 97.938 m 324.352 89.363 317.062 81.41 309.105 74.18 c 74.895 74.18
 l 66.938 81.41 59.648 89.363 53.141 97.938 c 43.773 110.281 52.582 128.016
 68.074 128.016 c 315.926 128.016 l 331.418 128.016 340.227 110.281 330.859
 97.938 c h
330.859 97.938 m f
0.937255 0.533333 0.607843 rg
152.695 182.277 m 152.695 192.387 142.406 200.582 129.711 200.582 c 117.02
 200.582 106.73 192.387 106.73 182.277 c 106.73 172.172 117.02 163.977 129.711
 163.977 c 142.406 163.977 152.695 172.172 152.695 182.277 c h
152.695 182.277 m f
277.27 182.277 m 277.27 192.387 266.98 200.582 254.289 200.582 c 241.594
 200.582 231.305 192.387 231.305 182.277 c 231.305 172.172 241.594 163.977
 254.289 163.977 c 266.98 163.977 277.27 172.172 277.27 182.277 c h
277.27 182.277 m f
0.952941 0.615686 0.521569 rg
248.305 209.816 m 237.02 196.461 230.461 159.145 192 179.516 c 153.539 
159.145 146.98 196.461 135.695 209.816 c 132.547 213.543 133.918 219.246
 138.344 221.297 c 150.262 226.816 170.555 230.215 192 207.133 c 213.445
 230.215 233.738 226.816 245.656 221.297 c 250.082 219.246 251.453 213.543
 248.305 209.816 c h
248.305 209.816 m f
0.898039 0.52549 0.431373 rg
118.039 97.805 m 118.039 89.816 118.84 81.891 120.371 74.184 c 74.895 74.184
 l 66.938 81.41 59.648 89.363 53.141 97.941 c 43.773 110.281 52.582 128.016
 68.074 128.016 c 122.824 128.016 l 119.723 118.504 118.039 108.352 118.039
 97.805 c h
118.039 97.805 m f
0 g
143.105 170.285 m 146.211 170.285 148.73 167.766 148.73 164.66 c 148.73
 155.266 l 148.73 152.16 146.211 149.641 143.105 149.641 c 140 149.641 137.48
 152.16 137.48 155.266 c 137.48 164.66 l 137.48 167.766 140 170.285 143.105
 170.285 c h
143.105 170.285 m f
240.895 170.285 m 244 170.285 246.52 167.766 246.52 164.66 c 246.52 155.266
 l 246.52 152.16 244 149.641 240.895 149.641 c 237.785 149.641 235.27 152.16
 235.27 155.266 c 235.27 164.66 l 235.27 167.766 237.785 170.285 240.895
 170.285 c h
240.895 170.285 m f
252.602 206.184 m 250.484 203.68 248.352 199.805 246.094 195.703 c 241.516
 187.387 236.328 177.965 227.652 172.426 c 217.793 166.137 206.109 166.387
 192 173.207 c 177.891 166.387 166.203 166.133 156.348 172.426 c 147.668
 177.965 142.484 187.387 137.906 195.703 c 135.648 199.805 133.516 203.68
 131.398 206.184 c 125.871 212.727 128.148 222.773 135.98 226.398 c 140.926
 228.691 147.879 230.949 156.066 230.949 c 166.566 230.949 179.09 227.234
 192 215.109 c 214.977 236.691 236.734 231.625 248.02 226.398 c 255.852 
222.773 258.129 212.727 252.602 206.184 c h
243.293 216.191 m 237.945 218.668 232.863 219.719 228.086 219.719 c 214.691
 219.715 203.707 211.469 196.121 203.305 c 193.898 200.91 190.105 200.906
 187.879 203.305 c 177.586 214.383 161.047 225.609 140.711 216.191 c 139.656
 215.703 139.238 214.34 139.992 213.445 c 142.832 210.086 145.227 205.734
 147.762 201.125 c 151.691 193.992 156.141 185.902 162.402 181.91 c 170.617
 176.664 180.75 179.922 189.367 184.484 c 191.016 185.359 192.984 185.359
 194.633 184.484 c 211.578 175.512 219.121 180.328 221.598 181.91 c 227.859
 185.902 232.309 193.992 236.238 201.125 c 238.773 205.734 241.168 210.086
 244.008 213.445 c 244.766 214.344 244.34 215.707 243.293 216.191 c h
243.293 216.191 m f
334.574 124.957 m 335.801 123.492 336.879 121.875 337.758 120.105 c 341.898
 111.758 340.977 101.961 335.34 94.539 c 328.93 86.094 321.727 78.18 313.926
 70.984 c 299.758 34.145 257.473 0 192 0 c 127.402 0 84.457 33.586 70.074
 70.984 c 62.273 78.18 55.07 86.094 48.66 94.539 c 41.711 103.695 42.094
 116.195 49.426 124.957 c 37.027 132.594 29.18 146.211 29.18 161.227 c 29.18
 184.098 47.289 202.809 69.922 203.789 c 75.406 225.023 86.766 244.035 103.211
 259 c 108.012 263.371 113.172 267.324 118.633 270.863 c 106.711 278.816
 85.582 296.777 74.055 329.559 c 74.055 329.562 l 68.82 344.449 66.164 360.871
 66.164 378.375 c 66.164 381.48 68.684 384 71.789 384 c 312.211 384 l 315.316
 384 317.836 381.48 317.836 378.375 c 317.836 360.871 315.18 344.445 309.945
 329.562 c 309.945 329.562 309.945 329.559 309.945 329.559 c 298.418 296.777
 277.289 278.816 265.371 270.863 c 270.828 267.324 275.988 263.371 280.789
 259 c 297.234 244.035 308.594 225.023 314.078 203.789 c 336.711 202.809
 354.824 184.098 354.824 161.227 c 354.82 146.211 346.969 132.594 334.574
 124.957 c h
67.555 192.301 m 52.258 190.227 40.43 177.082 40.43 161.227 c 40.43 148.453
 48.145 137.051 59.828 132.238 c 62.523 133.199 65.355 133.641 68.074 133.641
 c 72.699 133.641 l 68.434 146.301 66.164 159.895 66.164 173.754 c 66.164
 179.699 66.613 186.133 67.555 192.301 c h
124.09 280.824 m 124.09 325.801 l 87.605 325.801 l 98.102 301.594 114.414
 287.508 124.09 280.824 c h
83.418 337.051 m 124.09 337.051 l 124.09 372.75 l 77.512 372.75 l 77.961
 360.082 79.941 348.113 83.418 337.051 c h
135.34 331.426 m 135.34 279.949 l 143.984 283.832 153.52 286.918 163.414
 288.926 c 163.414 372.75 l 135.34 372.75 l h
174.664 290.727 m 180.555 291.434 186.559 291.762 192 291.762 c 197.703
 291.762 203.617 291.41 209.336 290.727 c 209.336 372.75 l 174.664 372.75
 l h
220.586 372.75 m 220.586 288.926 l 230.777 286.859 240.289 283.711 248.66
 279.953 c 248.66 372.75 l h
259.91 372.75 m 259.91 337.051 l 300.582 337.051 l 304.059 348.109 306.035
 360.082 306.488 372.75 c h
296.395 325.801 m 259.91 325.801 l 259.91 280.824 l 269.586 287.508 285.895
 301.594 296.395 325.801 c h
273.215 250.68 m 256.73 265.684 236.016 275.012 214.031 278.691 c 199.613
 281.105 184.383 281.105 169.969 278.691 c 148.02 275.016 127.289 265.703
 110.785 250.68 c 89.273 231.105 77.414 203.785 77.414 173.754 c 77.414 
160.109 79.766 146.68 84.645 133.641 c 242.969 133.641 l 246.074 133.641
 248.594 131.125 248.594 128.016 c 248.594 124.91 246.074 122.391 242.969
 122.391 c 236.301 122.391 73.996 122.391 68.074 122.391 c 57.238 122.391
 51.039 110.012 57.621 101.34 c 63.465 93.645 70.008 86.406 77.09 79.809
 c 129.68 79.809 l 132.785 79.809 135.305 77.289 135.305 74.184 c 135.305
 71.074 132.785 68.559 129.68 68.559 c 83.551 68.559 l 100.473 35.926 136.645
 11.25 192 11.25 c 247.266 11.25 283.492 35.855 300.453 68.559 c 152.133
 68.559 l 149.027 68.559 146.508 71.074 146.508 74.184 c 146.508 77.289 
149.027 79.809 152.133 79.809 c 306.91 79.809 l 313.992 86.406 320.535 93.641
 326.379 101.34 c 329.457 105.395 329.945 110.539 327.68 115.102 c 325.414
 119.66 320.996 122.391 315.926 122.391 c 298.988 122.391 282.047 122.391
 265.199 122.391 c 262.094 122.391 259.574 124.91 259.574 128.016 c 259.574
 131.125 262.094 133.641 265.199 133.641 c 299.355 133.641 l 304.062 146.227
 306.586 159.719 306.586 173.754 c 306.586 204.824 293.973 231.793 273.215
 250.68 c h
316.445 192.301 m 317.375 186.184 317.836 179.754 317.836 173.754 c 317.836
 159.824 315.559 146.277 311.301 133.641 c 315.926 133.641 l 318.645 133.641
 321.477 133.195 324.172 132.238 c 335.855 137.051 343.57 148.453 343.57
 161.227 c 343.57 177.082 331.742 190.227 316.445 192.301 c h
316.445 192.301 m f
Q Q
showpage
%%Trailer
end
%%EOF
