%!PS-Adobe-3.0 EPSF-3.0
%%Creator: cairo 1.16.0 (https://cairographics.org)
%%CreationDate: Mon Aug 23 08:35:28 2021
%%Pages: 1
%%DocumentData: Clean7Bit
%%LanguageLevel: 2
%%BoundingBox: 0 0 384 384
%%EndComments
%%BeginProlog
50 dict begin
/q { gsave } bind def
/Q { grestore } bind def
/cm { 6 array astore concat } bind def
/w { setlinewidth } bind def
/J { setlinecap } bind def
/j { setlinejoin } bind def
/M { setmiterlimit } bind def
/d { setdash } bind def
/m { moveto } bind def
/l { lineto } bind def
/c { curveto } bind def
/h { closepath } bind def
/re { exch dup neg 3 1 roll 5 3 roll moveto 0 rlineto
      0 exch rlineto 0 rlineto closepath } bind def
/S { stroke } bind def
/f { fill } bind def
/f* { eofill } bind def
/n { newpath } bind def
/W { clip } bind def
/W* { eoclip } bind def
/BT { } bind def
/ET { } bind def
/BDC { mark 3 1 roll /BDC pdfmark } bind def
/EMC { mark /EMC pdfmark } bind def
/cairo_store_point { /cairo_point_y exch def /cairo_point_x exch def } def
/Tj { show currentpoint cairo_store_point } bind def
/TJ {
  {
    dup
    type /stringtype eq
    { show } { -0.001 mul 0 cairo_font_matrix dtransform rmoveto } ifelse
  } forall
  currentpoint cairo_store_point
} bind def
/cairo_selectfont { cairo_font_matrix aload pop pop pop 0 0 6 array astore
    cairo_font exch selectfont cairo_point_x cairo_point_y moveto } bind def
/Tf { pop /cairo_font exch def /cairo_font_matrix where
      { pop cairo_selectfont } if } bind def
/Td { matrix translate cairo_font_matrix matrix concatmatrix dup
      /cairo_font_matrix exch def dup 4 get exch 5 get cairo_store_point
      /cairo_font where { pop cairo_selectfont } if } bind def
/Tm { 2 copy 8 2 roll 6 array astore /cairo_font_matrix exch def
      cairo_store_point /cairo_font where { pop cairo_selectfont } if } bind def
/g { setgray } bind def
/rg { setrgbcolor } bind def
/d1 { setcachedevice } bind def
/cairo_data_source {
  CairoDataIndex CairoData length lt
    { CairoData CairoDataIndex get /CairoDataIndex CairoDataIndex 1 add def }
    { () } ifelse
} def
/cairo_flush_ascii85_file { cairo_ascii85_file status { cairo_ascii85_file flushfile } if } def
/cairo_image { image cairo_flush_ascii85_file } def
/cairo_imagemask { imagemask cairo_flush_ascii85_file } def
%%EndProlog
%%BeginSetup
%%EndSetup
%%Page: 1 1
%%BeginPageSetup
%%PageBoundingBox: 0 0 384 384
%%EndPageSetup
q 0 0 384 384 rectclip
1 0 0 -1 0 384 cm q
0.952941 0.615686 0.521569 rg
182.586 266.574 m 193.375 257.652 209.34 240.848 217.223 225.801 c 221.297
 218.035 227.539 211.598 235.328 207.562 c 257.078 196.297 267.266 183.289
 272.031 173.387 c 275.613 165.945 272.371 157.121 264.941 153.52 c 257.965
 150.145 251.094 145.305 244.891 139.102 c 238.688 132.898 233.852 126.031
 230.473 119.055 c 226.875 111.621 218.047 108.379 210.605 111.961 c 200.703
 116.727 187.699 126.914 176.43 148.664 c 172.395 156.453 165.961 162.699
 158.191 166.77 c 143.148 174.652 126.344 190.617 117.422 201.402 c 114.777
 204.598 109.668 203.414 108.672 199.391 c 106.891 192.207 106.152 180.754
 111.566 165.168 c 116.109 152.094 116.043 138.453 114.637 127.516 c 113.426
 118.066 102.891 113.004 94.715 117.906 c 84.375 124.109 69.344 128.652 
52.031 120.094 c 44.543 116.395 35.59 120.477 33.441 128.551 c 30.926 138.008
 29.324 150.758 32.523 164.711 c 35.641 178.309 33.035 192.574 25.012 203.992
 c 20.406 210.547 15.547 218.555 11.59 227.613 c -2.887 260.723 9.805 299.438
 40.914 317.816 c 51.332 323.969 60.023 332.66 66.176 343.078 c 84.535 374.152
 123.195 386.875 156.277 372.449 c 165.402 368.469 173.465 363.578 180.051
 358.945 c 191.445 350.93 205.703 348.355 219.281 351.469 c 233.277 354.68
 246.066 353.055 255.531 350.527 c 263.613 348.367 267.527 339.352 263.84
 331.844 c 255.367 314.594 259.895 299.613 266.074 289.301 c 270.977 281.113
 265.934 270.566 256.473 269.352 c 245.535 267.949 231.895 267.887 218.824
 272.426 c 203.152 277.867 191.656 277.094 184.484 275.293 c 180.516 274.297
 179.438 269.18 182.586 266.574 c h
182.586 266.574 m f
322.328 38.746 m 302.199 39.703 278.227 51.281 265.297 64.211 c 228.957
 100.551 283.41 155.082 319.789 118.703 c 332.719 105.773 344.293 81.797
 345.254 61.668 c 345.863 48.789 335.207 38.133 322.328 38.746 c h
322.328 38.746 m f
84.172 11.707 m 76.797 3.598 63.988 3.598 56.613 11.707 c 45.09 24.383 
37.637 45.75 37.637 61.293 c 37.637 104.98 103.148 105.027 103.148 61.293
 c 103.148 45.75 95.695 24.383 84.172 11.707 c h
84.172 11.707 m f
372.289 299.828 m 380.398 307.199 380.398 320.012 372.289 327.383 c 359.617
 338.91 338.246 346.359 322.703 346.359 c 279.02 346.359 278.973 280.852
 322.703 280.852 c 338.246 280.852 359.617 288.305 372.289 299.828 c h
372.289 299.828 m f
0.898039 0.52549 0.431373 rg
72.223 219.383 m 72.223 180.914 85.18 145.48 106.949 117.18 c 103.207 115.5
 98.684 115.527 94.719 117.906 c 84.379 124.109 69.348 128.652 52.031 120.094
 c 44.543 116.395 35.59 120.477 33.445 128.551 c 30.93 138.008 29.324 150.758
 32.523 164.711 c 35.641 178.309 33.035 192.574 25.012 203.992 c 20.406 
210.547 15.551 218.555 11.59 227.613 c -2.887 260.723 9.805 299.438 40.918
 317.816 c 51.336 323.969 60.027 332.66 66.18 343.078 c 84.535 374.152 123.195
 386.875 156.281 372.449 c 158.863 371.32 161.352 370.117 163.758 368.867
 c 109.422 341.102 72.223 284.586 72.223 219.383 c h
72.223 219.383 m f
60.75 29.879 m 60.75 21.113 63.152 12.914 67.316 5.883 c 63.344 6.543 59.547
 8.48 56.613 11.707 c 45.09 24.383 37.637 45.75 37.637 61.293 c 37.637 99.195
 86.938 104.242 99.996 76.355 c 77.723 72.594 60.75 53.223 60.75 29.879 
c h
60.75 29.879 m f
284.707 97.754 m 284.707 71.711 305.82 50.602 331.859 50.602 c 335.887 
50.602 339.793 51.105 343.52 52.059 c 340.043 43.93 331.789 38.297 322.328
 38.746 c 302.199 39.703 278.227 51.281 265.297 64.211 c 235.875 93.633 
265.969 134.973 297.797 130.34 c 289.695 121.871 284.707 110.398 284.707
 97.754 c h
284.707 97.754 m f
343.777 302.207 m 357.289 302.207 369.461 307.898 378.059 317.004 c 379.18
 310.902 377.258 304.344 372.289 299.828 c 359.617 288.305 338.246 280.852
 322.703 280.852 c 289.707 280.852 281.641 318.141 298.43 336.449 c 304.047
 316.688 322.215 302.207 343.777 302.207 c h
343.777 302.207 m f
0 g
267.391 148.453 m 260.715 145.223 254.484 140.738 248.867 135.121 c 243.25
 129.504 238.766 123.273 235.531 116.598 c 230.578 106.363 218.301 102.008
 208.164 106.887 c 190.07 115.598 178.203 133.004 171.434 146.07 c 167.988
 152.719 162.508 158.152 155.578 161.781 c 140.594 169.637 123.68 185.262
 113.863 196.883 c 112.531 190.621 112.145 180.637 116.879 167.008 c 120.996
 155.156 122.117 141.629 120.215 126.797 c 118.484 113.324 103.465 106.094
 91.82 113.078 c 79.445 120.5 66.895 121.164 54.52 115.047 c 43.848 109.773
 31.062 115.586 28.004 127.098 c 24.48 140.336 24.156 153.41 27.035 165.961
 c 29.82 178.109 27.402 190.793 20.406 200.754 c 14.754 208.793 10.051 217.07
 6.43 225.355 c -9.145 260.977 4.449 302.809 38.051 322.656 c 47.625 328.312
 55.676 336.359 61.332 345.934 c 69.66 360.035 81.996 370.957 97.008 377.516
 c 99.855 378.758 103.172 377.457 104.414 374.609 c 105.656 371.766 104.359
 368.449 101.512 367.203 c 88.68 361.602 78.137 352.266 71.016 340.211 c
 64.398 329.008 54.977 319.586 43.773 312.969 c 15.059 296.008 3.438 260.281
 16.738 229.863 c 20.059 222.266 24.391 214.648 29.609 207.223 c 38.441 
194.656 41.5 178.699 38 163.445 c 35.535 152.695 35.828 141.441 38.875 129.992
 c 40.109 125.344 45.238 123.008 49.535 125.133 c 69.5 135 86.695 129.27
 97.605 122.727 c 102.309 119.902 108.359 122.789 109.055 128.227 c 110.734
 141.316 109.789 153.125 106.25 163.316 c 100.309 180.422 101.316 193.105
 103.207 200.738 c 104.184 204.68 107.242 207.688 111.191 208.586 c 115.125
 209.484 119.172 208.105 121.75 204.984 c 130.734 194.125 146.785 179.09
 160.797 171.746 c 169.781 167.039 176.914 159.949 181.422 151.246 c 192.262
 130.324 204.602 121.09 213.043 117.023 c 217.602 114.832 223.148 116.836
 225.406 121.5 c 229.188 129.309 234.402 136.566 240.91 143.074 c 247.418
 149.582 254.676 154.801 262.488 158.578 c 267.148 160.836 269.156 166.383
 266.961 170.941 c 262.898 179.387 253.66 191.727 232.742 202.566 c 224.035
 207.074 216.945 214.207 212.238 223.188 c 204.898 237.199 189.863 253.25
 179 262.238 c 175.879 264.816 174.496 268.879 175.391 272.828 c 176.273
 276.738 179.234 279.77 183.109 280.746 c 190.762 282.668 203.488 283.703
 220.668 277.734 c 230.859 274.195 242.664 273.25 255.754 274.93 c 261.184
 275.625 264.082 281.672 261.246 286.406 c 254.73 297.277 249.016 314.418
 258.789 334.32 c 260.898 338.613 258.777 343.832 254.078 345.09 c 242.602
 348.156 231.316 348.457 220.539 345.984 c 205.277 342.484 189.34 345.531
 176.812 354.344 c 159.504 366.52 142.078 374.41 121.66 372.445 c 118.57
 372.152 115.82 374.414 115.523 377.508 c 115.227 380.598 117.492 383.348
 120.586 383.645 c 144.121 385.902 163.906 377.176 183.285 363.547 c 193.207
 356.566 205.867 354.164 218.023 356.949 c 230.609 359.836 243.715 359.504
 256.984 355.957 c 268.414 352.902 274.172 340.117 268.891 329.359 c 262.832
 317.027 263.508 304.52 270.898 292.188 c 277.902 280.492 270.629 265.496
 257.188 263.77 c 242.355 261.867 228.828 262.992 216.98 267.105 c 203.363
 271.836 193.383 271.457 187.105 270.121 c 198.727 260.309 214.352 243.391
 222.203 228.41 c 225.836 221.48 231.27 215.996 237.918 212.555 c 250.984
 205.785 268.391 193.914 277.102 175.82 c 281.98 165.688 277.621 153.41 
267.391 148.453 c h
267.391 148.453 m f
286.543 55.582 m 289.258 54.078 290.242 50.656 288.738 47.938 c 287.234
 45.219 283.812 44.238 281.094 45.742 c 273.344 50.031 266.504 55.039 261.316
 60.227 c 241.867 79.676 244.469 105.871 261.305 122.711 c 278.363 139.766
 304.508 141.934 323.766 122.672 c 338.5 107.941 349.898 82.395 350.871 
61.93 c 351.641 45.754 338.242 32.348 322.062 33.121 c 316 33.41 309.492
 34.582 302.723 36.602 c 299.746 37.492 298.055 40.625 298.941 43.602 c 
299.832 46.578 302.965 48.273 305.941 47.383 c 311.84 45.621 317.441 44.605
 322.598 44.359 c 332.172 43.91 340.09 51.809 339.633 61.395 c 338.793 79.055
 328.551 101.977 315.812 114.719 c 301.156 129.371 282.117 127.609 269.262
 114.754 c 253.266 98.758 258.055 79.398 269.273 68.18 c 273.727 63.727 
279.695 59.371 286.543 55.582 c h
286.543 55.582 m f
70.402 99.695 m 91.039 99.695 108.77 85.211 108.77 61.289 c 108.77 43.391
 100.172 20.941 88.332 7.918 c 78.75 -2.621 62.062 -2.656 52.449 7.918 c
 40.605 20.941 32.012 43.387 32.012 61.289 c 32.012 85.16 49.715 99.695 
70.402 99.695 c h
60.773 15.484 m 65.961 9.777 74.902 9.871 80.008 15.484 c 89.992 26.465
 97.52 46.156 97.52 61.289 c 97.52 78.438 85.391 88.445 70.402 88.445 c 
51.754 88.445 43.262 74.367 43.262 61.289 c 43.262 46.156 50.789 26.465 
60.773 15.484 c h
60.773 15.484 m f
376.074 295.664 m 363.051 283.82 340.602 275.223 322.703 275.223 c 310.922
 275.223 300.969 279.414 293.914 287.34 c 281.078 301.762 281.078 325.422
 293.914 339.855 c 300.973 347.789 310.926 351.984 322.703 351.984 c 340.605
 351.984 363.051 343.387 376.074 331.543 c 386.613 321.961 386.648 305.277
 376.074 295.664 c h
368.508 323.219 m 357.527 333.203 337.836 340.734 322.703 340.734 c 286.695
 340.734 286.078 286.473 322.703 286.473 c 337.836 286.473 357.527 294.004
 368.508 303.988 c 374.125 309.094 374.211 318.031 368.508 323.219 c h
368.508 323.219 m f
Q Q
showpage
%%Trailer
end
%%EOF
