%!PS-Adobe-3.0 EPSF-3.0
%%Creator: cairo 1.16.0 (https://cairographics.org)
%%CreationDate: Mon Aug 23 08:35:28 2021
%%Pages: 1
%%DocumentData: Clean7Bit
%%LanguageLevel: 2
%%BoundingBox: 0 0 384 384
%%EndComments
%%BeginProlog
50 dict begin
/q { gsave } bind def
/Q { grestore } bind def
/cm { 6 array astore concat } bind def
/w { setlinewidth } bind def
/J { setlinecap } bind def
/j { setlinejoin } bind def
/M { setmiterlimit } bind def
/d { setdash } bind def
/m { moveto } bind def
/l { lineto } bind def
/c { curveto } bind def
/h { closepath } bind def
/re { exch dup neg 3 1 roll 5 3 roll moveto 0 rlineto
      0 exch rlineto 0 rlineto closepath } bind def
/S { stroke } bind def
/f { fill } bind def
/f* { eofill } bind def
/n { newpath } bind def
/W { clip } bind def
/W* { eoclip } bind def
/BT { } bind def
/ET { } bind def
/BDC { mark 3 1 roll /BDC pdfmark } bind def
/EMC { mark /EMC pdfmark } bind def
/cairo_store_point { /cairo_point_y exch def /cairo_point_x exch def } def
/Tj { show currentpoint cairo_store_point } bind def
/TJ {
  {
    dup
    type /stringtype eq
    { show } { -0.001 mul 0 cairo_font_matrix dtransform rmoveto } ifelse
  } forall
  currentpoint cairo_store_point
} bind def
/cairo_selectfont { cairo_font_matrix aload pop pop pop 0 0 6 array astore
    cairo_font exch selectfont cairo_point_x cairo_point_y moveto } bind def
/Tf { pop /cairo_font exch def /cairo_font_matrix where
      { pop cairo_selectfont } if } bind def
/Td { matrix translate cairo_font_matrix matrix concatmatrix dup
      /cairo_font_matrix exch def dup 4 get exch 5 get cairo_store_point
      /cairo_font where { pop cairo_selectfont } if } bind def
/Tm { 2 copy 8 2 roll 6 array astore /cairo_font_matrix exch def
      cairo_store_point /cairo_font where { pop cairo_selectfont } if } bind def
/g { setgray } bind def
/rg { setrgbcolor } bind def
/d1 { setcachedevice } bind def
/cairo_data_source {
  CairoDataIndex CairoData length lt
    { CairoData CairoDataIndex get /CairoDataIndex CairoDataIndex 1 add def }
    { () } ifelse
} def
/cairo_flush_ascii85_file { cairo_ascii85_file status { cairo_ascii85_file flushfile } if } def
/cairo_image { image cairo_flush_ascii85_file } def
/cairo_imagemask { imagemask cairo_flush_ascii85_file } def
%%EndProlog
%%BeginSetup
%%EndSetup
%%Page: 1 1
%%BeginPageSetup
%%PageBoundingBox: 0 0 384 384
%%EndPageSetup
q 0 0 384 384 rectclip
1 0 0 -1 0 384 cm q
0.972549 0.780392 0.733333 rg
377.672 256.129 m 377.672 319.383 l 377.672 333.578 370.227 346.816 357.938
 353.914 c 357.859 353.961 357.785 354.004 357.707 354.047 c 324.242 373.168
 l 298.574 387.828 280.023 366.551 256.426 369.645 c 215.375 375.016 l 180.352
 379.602 161.91 333.648 125.156 345.793 c 76.844 361.766 l 62.766 366.414
 47.277 362.82 36.695 352.449 c 21.938 337.984 l 21.887 337.934 21.836 337.883
 21.785 337.832 c 12.977 329.156 8.129 317.23 8.129 304.867 c 8.129 261.723
 l h
377.672 256.129 m f
0.952941 0.615686 0.521569 rg
374.652 241.379 m 373.27 238.137 371.066 232.949 367.398 224.109 c 356.961
 194.652 386.117 178.574 374.453 149.129 c 357.773 106.984 l 353.656 96.59
 354.129 84.949 359.059 74.93 c 361.816 69.324 363.133 63.355 363.133 57.469
 c 363.133 44.316 356.574 31.555 344.82 24.059 c 334.207 18.762 320.789 
3.16 298.223 8.277 c 267.711 15.195 254.297 18.801 245.621 19.793 c 238.676
 23.453 l 233.777 19.23 l 233.102 19.078 232.41 18.91 231.691 18.719 c 185.105
 6.32 181.453 4.066 169.594 6.484 c 132.105 14.16 l 107.836 19.121 89.125
 -1.891 63.766 12.113 c 49.973 19.727 l 35.926 27.492 27.945 42.957 29.777
 58.895 c 33.445 90.957 36.965 101.875 28.02 116.602 c 14.273 139.234 l 
-5.59 171.926 30.066 186.832 18.656 218.93 c 8.617 236.66 l 5.688 244.902
 5.617 253.691 8.129 261.723 c 10.035 267.852 13.441 273.535 18.203 278.207
 c 26.832 286.664 l 35.062 287.473 l 35.062 294.555 l 45.945 303.465 63.652
 306.344 76.844 301.988 c 125.156 286.016 l 161.91 273.871 180.352 319.824
 215.375 315.238 c 256.426 309.867 l 274.465 307.5 289.559 319.379 307.133
 318.555 c 309.18 311.793 l 318.832 316.004 l 320.602 315.301 322.402 314.441
 324.242 313.391 c 359.203 294.27 l 359.59 294.051 359.973 293.82 360.348
 293.59 c 371.254 286.871 377.672 274.762 377.672 261.953 c 377.672 256.129
 l 377.672 251.059 376.645 246.043 374.652 241.379 c h
374.652 241.379 m f
0.992157 0.94902 0.894118 rg
242.531 132.867 m 241.672 127.121 239.086 121.336 232.73 118.391 c 225.801
 115.18 217.562 117.164 212.5 122.887 c 206.602 129.555 198.375 141.746 
194.523 160.75 c 192.07 172.863 195.23 185.441 203.027 195.031 c 205.961
 198.641 211.715 197.469 213.039 193.012 c 216.113 182.637 222.496 166.957
 235.016 154.531 c 240.75 148.84 243.727 140.855 242.531 132.867 c h
242.531 132.867 m f
170.617 133.523 m 168.008 128.336 163.738 123.652 156.781 122.844 c 149.191
 121.961 141.992 126.426 138.973 133.441 c 135.457 141.625 131.461 155.777
 133.75 175.027 c 135.211 187.301 142.148 198.262 152.555 204.93 c 156.469
 207.438 161.566 204.523 161.43 199.875 c 161.105 189.062 162.258 172.172
 170.262 156.453 c 173.926 149.254 174.254 140.734 170.617 133.523 c h
170.617 133.523 m f
115.941 203.367 m 110.898 193.793 104.512 178.117 104.793 160.477 c 104.926
 152.402 101.477 144.609 95.039 139.723 c 90.414 136.215 84.523 133.879 
77.918 136.211 c 70.715 138.754 66.207 145.93 66.578 153.559 c 67.016 162.453
 69.645 176.922 80.16 193.211 c 86.863 203.594 97.91 210.387 110.188 211.809
 c 114.809 212.34 118.109 207.48 115.941 203.367 c h
115.941 203.367 m f
128.746 46.176 m 127.227 41.449 122.164 38.844 117.434 40.363 c 89.605 
49.188 70.691 69.395 66.465 98.621 c 65.062 108.312 73.328 116.66 83.035
 115.359 c 90.492 114.359 95.898 107.914 95.828 100.391 c 95.641 79.664 
107.734 64.559 122.93 57.488 c 127.656 55.969 130.262 50.906 128.746 46.176
 c h
128.746 46.176 m f
320.598 141.117 m 307.383 134.754 l 303.801 133.031 303.332 128.121 306.523
 125.75 c 317.523 117.586 l 322.602 113.816 322.562 106.203 317.445 102.484
 c 316.109 101.832 305.684 91.371 288.871 94.68 c 269.258 98.539 263.797
 116.895 263.848 116.82 c 257.508 131.762 262.941 149.277 276.895 157.574
 c 291.344 166.164 314.758 169.598 324.48 154.531 c 327.508 149.84 325.633
 143.539 320.598 141.117 c h
320.598 141.117 m f
209.508 243.391 m 202.391 230.879 189.945 224.137 177.176 223.48 c 165.586
 222.883 160.492 238.113 170.305 244.305 c 175.621 247.66 180.207 252.328
 183.531 258.172 c 186.855 264.016 188.527 270.348 188.695 276.625 c 189.004
 288.227 204.699 291.629 210.105 281.363 c 216.066 270.055 216.637 255.914
 209.508 243.391 c h
209.508 243.391 m f
294.77 212.504 m 288.824 210.473 283.277 206.992 278.691 202.078 c 274.105
 197.164 271.012 191.395 269.395 185.324 c 266.406 174.109 250.352 174.438
 247.469 185.676 c 244.289 198.062 247.02 211.949 256.844 222.473 c 266.676
 233.008 280.344 236.676 292.914 234.355 c 304.324 232.25 305.75 216.254
 294.77 212.504 c h
294.77 212.504 m f
0.992157 0.913725 0.815686 rg
109.754 189.172 m 92.336 187.203 78.797 172.43 78.797 154.484 c 78.797 
147.41 80.906 140.836 84.52 135.336 c 82.422 135.164 80.215 135.402 77.918
 136.211 c 70.715 138.754 66.207 145.93 66.578 153.559 c 67.016 162.453 
69.645 176.922 80.16 193.211 c 86.863 203.594 97.91 210.387 110.188 211.809
 c 114.809 212.34 118.109 207.48 115.941 203.367 c 113.918 199.531 111.688
 194.703 109.754 189.172 c h
109.754 189.172 m f
161.691 188.617 m 152.559 182.32 146.574 171.793 146.574 159.859 c 146.574
 145.766 154.934 133.629 166.961 128.113 c 164.457 125.387 161.148 123.348
 156.781 122.84 c 149.195 121.961 141.992 126.422 138.973 133.441 c 135.457
 141.621 131.461 155.777 133.75 175.027 c 135.211 187.301 142.148 198.258
 152.555 204.93 c 156.469 207.438 161.57 204.523 161.43 199.875 c 161.332
 196.613 161.371 192.789 161.691 188.617 c h
161.691 188.617 m f
210.703 159.863 m 210.703 142.441 223.461 128.004 240.145 125.375 c 238.59
 122.508 236.234 120.016 232.73 118.391 c 225.801 115.18 217.562 117.164
 212.5 122.887 c 206.602 129.555 198.375 141.746 194.523 160.75 c 192.07
 172.863 195.23 185.441 203.027 195.031 c 205.961 198.641 211.715 197.469
 213.039 193.012 c 214.105 189.41 215.582 185.164 217.566 180.648 c 213.254
 174.84 210.703 167.648 210.703 159.863 c h
210.703 159.863 m f
312.363 154.129 m 293.145 154.129 277.566 138.551 277.566 119.332 c 277.566
 109.852 281.359 101.262 287.508 94.984 c 269.012 99.406 263.797 116.895
 263.848 116.82 c 257.508 131.762 262.941 149.277 276.891 157.574 c 291.34
 166.164 314.754 169.598 324.48 154.531 c 325.105 153.562 325.508 152.523
 325.734 151.465 c 321.613 153.18 317.102 154.129 312.363 154.129 c h
312.363 154.129 m f
0 g
207.473 202.797 m 212.5 202.797 216.969 199.52 218.422 194.621 c 221.43
 184.473 227.438 169.977 238.969 158.535 c 246.098 151.461 249.504 141.559
 248.082 132.047 c 246.746 123.102 242.254 116.621 235.086 113.301 c 226.059
 109.117 215.035 111.535 208.277 119.172 c 201.723 126.578 193.059 139.613
 189.004 159.645 c 186.211 173.418 189.73 187.613 198.652 198.59 c 200.844
 201.289 204.086 202.801 207.473 202.797 c h
200.027 161.879 m 203.59 144.293 211.062 133.004 216.703 126.625 c 219.07
 123.953 222.41 122.504 225.734 122.504 c 227.316 122.504 228.891 122.828
 230.355 123.508 c 234.027 125.207 236.184 128.547 236.957 133.707 c 237.852
 139.691 235.641 145.988 231.043 150.551 c 217.824 163.664 211.016 180.016
 207.633 191.422 c 207.609 191.504 207.598 191.508 207.574 191.523 c 207.52
 191.551 207.449 191.555 207.383 191.496 c 200.59 183.141 197.906 172.344
 200.027 161.879 c h
200.027 161.879 m f
128.156 175.703 m 129.816 189.66 137.598 202.043 149.508 209.676 c 153.074
 211.965 157.578 212.086 161.258 210 c 164.953 207.906 167.168 203.969 167.043
 199.719 c 166.723 189.141 167.895 173.492 175.266 159.016 c 179.82 150.062
 179.961 139.59 175.633 131.004 c 171.566 122.93 165.266 118.18 157.422 
117.266 c 147.539 116.117 137.824 121.863 133.797 131.234 c 129.891 140.32
 125.742 155.41 128.156 175.703 c h
144.133 135.676 m 146.199 130.867 151.113 127.859 156.121 128.441 c 160.141
 128.91 163.238 131.402 165.586 136.066 c 168.309 141.469 168.18 148.137
 165.238 153.91 c 156.789 170.508 155.441 188.164 155.797 200.055 c 155.797
 200.137 155.789 200.148 155.77 200.168 c 155.727 200.215 155.66 200.238
 155.578 200.203 c 146.512 194.391 140.586 184.977 139.324 174.375 c 137.207
 156.559 140.77 143.496 144.133 135.676 c h
144.133 135.676 m f
110.41 160.582 m 110.75 139.34 91.324 125.523 76.035 130.918 c 66.656 134.23
 60.453 143.656 60.953 153.844 c 61.434 163.723 64.34 179.102 75.426 196.27
 c 83.051 208.078 95.48 215.781 109.535 217.406 c 113.734 217.891 117.84
 216.027 120.23 212.531 c 122.629 209.031 122.891 204.516 120.906 200.758
 c 115.977 191.391 110.148 176.82 110.41 160.582 c h
110.98 206.113 m 110.961 206.172 110.914 206.223 110.824 206.23 c 100.129
 204.992 90.668 199.141 84.875 190.168 c 75.145 175.098 72.605 161.797 72.188
 153.293 c 71.934 148.035 75.055 143.195 79.781 141.527 c 87.938 138.648
 99.371 147.371 99.16 160.398 c 98.863 179.02 105.41 195.473 110.957 206
 c 110.996 206.074 110.988 206.09 110.98 206.113 c h
110.98 206.113 m f
81.008 121.133 m 92.605 121.133 101.547 111.59 101.445 100.355 c 101.297
 83.832 110.102 69.789 125.02 62.727 c 132.453 60.117 136.512 52.02 134.09
 44.473 c 131.609 36.73 123.344 32.57 115.727 35.016 c 104.703 38.512 94.996
 43.695 86.879 50.422 c 84.488 52.402 84.156 55.949 86.137 58.34 c 88.121
 60.734 91.664 61.062 94.059 59.082 c 101.055 53.285 109.488 48.793 119.145
 45.73 c 120.91 45.164 122.809 46.133 123.379 47.91 c 124.121 50.223 122.387
 51.547 120.547 52.398 c 101.637 61.199 90.008 79.613 90.195 100.457 c 90.238
 105.172 86.836 109.188 82.281 109.797 c 76.254 110.602 71.156 105.426 72.023
 99.438 c 73.355 90.223 76.293 81.816 80.75 74.457 c 82.359 71.797 81.512
 68.34 78.855 66.73 c 76.199 65.121 72.738 65.969 71.129 68.625 c 65.883
 77.285 62.438 87.109 60.887 97.828 c 59.078 110.328 68.875 121.133 81.008
 121.133 c h
81.008 121.133 m f
274.004 162.422 m 291.59 172.875 317.855 175.16 329.191 157.594 c 334.031
 150.094 331.141 139.965 323.023 136.059 c 310.316 129.945 l 320.863 122.117
 l 324.738 119.242 326.945 114.824 326.918 110 c 326.895 105.176 324.641
 100.781 320.738 97.945 c 313.379 92.617 307.586 89.219 298.09 88.523 c 
294.992 88.301 292.297 90.625 292.07 93.723 c 291.844 96.82 294.168 99.516
 297.27 99.742 c 306.629 100.43 312.234 105.859 314.285 107.168 c 316.172
 108.691 316.137 111.613 314.16 113.082 c 303.16 121.246 l 296.566 126.141
 297.543 136.281 304.934 139.836 c 318.148 146.195 l 320.125 147.148 320.938
 149.641 319.738 151.492 c 311.777 163.832 291.172 159.539 279.754 152.75
 c 260.953 141.57 264.691 115.254 279.566 104.637 c 282.094 102.832 282.684
 99.32 280.879 96.793 c 279.074 94.266 275.559 93.676 273.031 95.48 c 268.508
 98.711 264.57 103.086 261.648 108.145 c 249.484 129.168 256.836 152.211
 274.004 162.422 c h
274.004 162.422 m f
160.293 229.809 m 157.945 237.211 160.758 244.949 167.293 249.074 c 171.961
 252.02 175.883 256.129 178.633 260.965 c 181.383 265.797 182.914 271.27
 183.059 276.785 c 183.266 284.508 188.484 290.883 196.043 292.648 c 203.75
 294.445 211.398 290.969 215.07 283.996 c 222.297 270.289 222.039 254.07
 214.387 240.621 c 206.734 227.172 192.93 218.668 177.453 217.871 c 169.578
 217.473 162.688 222.266 160.293 229.809 c h
204.609 246.184 m 210.355 256.281 210.547 268.457 205.121 278.75 c 203.578
 281.68 200.742 282.191 198.602 281.691 c 197.617 281.461 194.41 280.41 
194.305 276.488 c 194.109 269.129 192.07 261.836 188.41 255.402 c 184.746
 248.965 179.523 243.488 173.297 239.559 c 169.977 237.465 170.711 234.172
 171.016 233.211 c 171.656 231.191 173.43 229.098 176.516 229.098 c 176.633
 229.098 176.754 229.102 176.875 229.109 c 188.5 229.707 198.867 236.09 
204.609 246.184 c h
204.609 246.184 m f
296.574 207.191 m 291.352 205.41 286.586 202.316 282.793 198.254 c 278.996
 194.188 276.238 189.219 274.816 183.887 c 272.836 176.445 266.324 171.465
 258.598 171.465 c 258.57 171.465 258.539 171.465 258.512 171.465 c 250.598
 171.5 243.965 176.656 242.008 184.289 c 238.156 199.301 242.164 215.016
 252.719 226.324 c 263.285 237.641 278.691 242.711 293.922 239.898 c 301.672
 238.469 307.27 232.203 307.848 224.312 c 308.418 216.57 303.887 209.691
 296.574 207.191 c h
296.629 223.488 m 296.469 225.68 295.137 228.234 291.883 228.836 c 280.438
 230.945 268.871 227.141 260.945 218.648 c 253.02 210.156 250.016 198.359
 252.906 187.086 c 253.727 183.879 256.367 182.727 258.566 182.715 c 258.59
 182.715 l 259.625 182.715 262.945 183.02 263.949 186.781 c 265.844 193.895
 269.516 200.516 274.566 205.93 c 279.621 211.34 285.973 215.461 292.941
 217.84 c 296.652 219.105 296.703 222.484 296.629 223.488 c h
296.629 223.488 m f
379.812 239.18 m 369.727 215.57 367.09 212.602 376.414 189.164 c 381.098
 177.398 386.402 164.066 379.668 147.07 c 362.992 104.926 l 359.469 96.031
 359.871 86.008 364.094 77.426 c 367.18 71.156 368.746 64.445 368.746 57.48
 c 368.746 41.945 360.926 27.684 347.828 19.332 c 347.664 19.227 342.598
 16.211 339.895 14.352 c 330.059 7.602 316.586 -1.641 296.969 2.809 c 287.438
 4.969 279.438 6.84 273.008 8.34 c 237.332 16.676 243.922 16.285 211.613
 7.492 c 184.371 0.078 179.461 -1.258 168.453 0.988 c 130.969 8.664 l 121.93
 10.512 113.508 8.148 104.59 5.648 c 91.926 2.098 77.578 -1.93 61.039 7.203
 c 47.242 14.82 l 31.133 23.723 22.082 41.281 24.18 59.547 c 27.855 91.691
 31.016 100.836 23.203 113.695 c 9.457 136.328 l -2.715 156.359 3.637 171.133
 9.242 184.164 c 13.828 194.828 17.797 204.059 13.504 216.609 c 3.281 234.719
 3.605 233.953 3.309 234.789 c 0.148 243.676 -0.125 253.488 2.496 262.527
 c 2.496 304.879 l 2.496 318.77 8.086 332.246 17.84 341.859 c 32.75 356.473
 l 44.883 368.367 62.449 372.445 78.598 367.117 c 126.91 351.141 l 143.824
 345.555 156.125 354.129 170.371 364.059 c 183.746 373.383 197.578 383.023
 216.09 380.598 c 257.145 375.227 l 265.465 374.137 273.352 376.617 281.707
 379.238 c 298.703 384.578 311.434 386.961 327.016 378.062 c 360.488 358.938
 l 360.738 358.793 l 374.645 350.762 383.285 335.664 383.285 319.391 c 383.285
 308.266 383.285 263.543 383.285 256.141 c 383.285 250.277 382.117 244.57
 379.812 239.18 c h
13.754 239.004 m 23.973 220.898 23.652 221.66 23.949 220.828 c 29.973 203.887
 24.449 191.047 19.578 179.719 c 14.176 167.164 9.91 157.242 19.07 142.168
 c 32.82 119.535 l 42.926 102.895 39.023 90.352 35.355 58.266 c 33.777 44.543
 40.582 31.352 52.68 24.664 c 66.477 17.051 l 78.977 10.148 89.438 13.082
 101.547 16.48 c 111.363 19.23 121.516 22.078 133.223 19.684 c 170.707 12.012
 l 178.852 10.348 181.59 10.98 208.66 18.348 c 211.227 19.047 229.105 23.914
 231.719 24.543 c 230.531 27.613 l 228.012 34.141 223.336 39.746 217.367
 43.395 c 198.797 54.742 180.934 39.578 158.723 58.18 c 147.074 67.934 l
 144.695 69.93 144.379 73.477 146.375 75.859 c 148.375 78.246 151.926 78.547
 154.297 76.559 c 165.945 66.805 l 179.371 55.559 193.09 60.766 206.512 
58.941 c 208.449 63.25 211.453 71.504 212.297 82.629 c 212.531 85.734 215.238
 88.047 218.332 87.812 c 221.43 87.578 223.75 84.879 223.516 81.777 c 222.648
 70.363 219.758 61.449 217.461 55.941 c 219.445 55.105 221.379 54.125 223.234
 52.992 c 231.301 48.062 237.621 40.488 241.027 31.668 c 243.355 25.637 
l 250.16 25.23 258.977 23.172 275.566 19.297 c 281.977 17.797 289.961 15.93
 299.453 13.781 c 314.277 10.418 324.504 17.438 333.527 23.629 c 336.461
 25.641 339.238 27.547 342.008 28.965 c 351.711 35.258 357.492 45.898 357.492
 57.48 c 357.492 62.711 356.316 67.75 354 72.461 c 348.375 83.887 347.84
 97.23 352.531 109.07 c 369.211 151.211 l 374.297 164.055 370.434 173.766
 365.961 185.008 c 354.477 213.883 359.617 220.547 369.469 243.602 c 371.172
 247.586 372.035 251.809 372.035 256.141 c 372.035 261.965 l 372.035 272.844
 366.508 283.598 356.441 289.375 c 321.527 308.469 l 321.496 308.484 321.469
 308.5 321.438 308.52 c 319.492 309.629 317.602 310.496 315.75 311.164 c
 308.18 299.191 l 305.988 295.727 304.605 291.738 304.184 287.66 c 303.848
 284.387 303.078 281.199 301.93 278.18 c 306.617 275.879 l 314.301 272.109
 320.527 265.762 324.148 258.008 c 331.297 242.699 l 332.613 239.883 331.395
 236.535 328.582 235.223 c 325.77 233.906 322.418 235.125 321.105 237.938
 c 313.953 253.25 l 311.414 258.684 307.051 263.137 301.664 265.777 c 296.406
 268.355 l 292.801 263.691 288.129 259.84 282.676 257.254 c 251.426 242.453
 l 248.621 241.125 245.266 242.32 243.934 245.129 c 242.605 247.934 243.805
 251.289 246.609 252.617 c 277.859 267.422 l 286.242 271.391 292.039 279.59
 292.992 288.816 c 293.594 294.609 295.555 300.277 298.668 305.203 c 303.559
 312.938 l 297.477 312.625 291.504 310.754 285.078 308.734 c 275.145 305.613
 266.145 302.926 255.684 304.297 c 214.629 309.672 l 200.438 311.531 188.957
 303.527 176.805 295.055 c 162.195 284.875 145.641 273.328 123.379 280.684
 c 75.07 296.656 l 63.066 300.621 47.336 297.617 38.25 289.902 c 46.031 
278.555 l 49.637 273.297 55.336 269.883 61.672 269.184 c 76.84 267.512 l
 86.641 266.43 95.387 261.094 100.828 252.871 c 109.988 239.031 l 111.703
 236.441 110.996 232.953 108.402 231.238 c 105.816 229.523 102.324 230.23
 100.609 232.824 c 91.449 246.664 l 88.352 251.34 83.637 254.598 78.254 
255.867 c 73.719 251.047 l 68.703 245.707 65.223 239.102 63.656 231.945 
c 62.992 228.91 59.992 226.988 56.961 227.652 c 53.926 228.316 52.004 231.316
 52.668 234.348 c 54.555 242.969 58.613 250.961 64.441 257.562 c 60.438 
258.004 l 50.844 259.062 42.211 264.234 36.754 272.195 c 30.051 281.965 
l 22.5 274.535 16.629 270.148 13.492 260.055 c 11.328 253.133 11.418 245.863
 13.754 239.004 c h
372.035 291.129 m 372.035 319.395 l 372.035 331.66 365.551 343.023 355.105
 349.059 c 321.438 368.293 l 308.293 375.801 297.535 372.422 285.078 368.508
 c 275.254 365.422 266.176 362.695 255.684 364.074 c 214.633 369.445 l 200.438
 371.301 188.957 363.301 176.805 354.832 c 162.199 344.648 145.645 333.105
 123.383 340.457 c 75.07 356.434 l 62.941 360.438 49.742 357.375 40.625 
348.441 c 25.863 333.969 l 25.727 333.832 l 18.113 326.332 13.746 315.777
 13.746 304.875 c 13.746 281.723 l 14.164 282.145 16.465 284.391 29.016 
296.699 c 40.754 308.203 62.07 312.797 78.602 307.34 c 126.91 291.367 l 
143.68 285.824 155.891 294.188 170.371 304.285 c 184.711 314.277 198.055
 323.188 216.094 320.824 c 257.145 315.453 l 265.562 314.344 273.66 316.938
 281.707 319.465 c 298.582 324.766 311.504 327.129 326.973 318.312 c 361.887
 299.215 l 361.918 299.199 361.949 299.184 361.98 299.164 c 365.832 296.965
 369.195 294.242 372.035 291.129 c h
372.035 291.129 m f
Q Q
showpage
%%Trailer
end
%%EOF
