%!PS-Adobe-3.0 EPSF-3.0
%%Creator: cairo 1.16.0 (https://cairographics.org)
%%CreationDate: Mon Aug 23 08:35:29 2021
%%Pages: 1
%%DocumentData: Clean7Bit
%%LanguageLevel: 2
%%BoundingBox: 0 14 384 370
%%EndComments
%%BeginProlog
50 dict begin
/q { gsave } bind def
/Q { grestore } bind def
/cm { 6 array astore concat } bind def
/w { setlinewidth } bind def
/J { setlinecap } bind def
/j { setlinejoin } bind def
/M { setmiterlimit } bind def
/d { setdash } bind def
/m { moveto } bind def
/l { lineto } bind def
/c { curveto } bind def
/h { closepath } bind def
/re { exch dup neg 3 1 roll 5 3 roll moveto 0 rlineto
      0 exch rlineto 0 rlineto closepath } bind def
/S { stroke } bind def
/f { fill } bind def
/f* { eofill } bind def
/n { newpath } bind def
/W { clip } bind def
/W* { eoclip } bind def
/BT { } bind def
/ET { } bind def
/BDC { mark 3 1 roll /BDC pdfmark } bind def
/EMC { mark /EMC pdfmark } bind def
/cairo_store_point { /cairo_point_y exch def /cairo_point_x exch def } def
/Tj { show currentpoint cairo_store_point } bind def
/TJ {
  {
    dup
    type /stringtype eq
    { show } { -0.001 mul 0 cairo_font_matrix dtransform rmoveto } ifelse
  } forall
  currentpoint cairo_store_point
} bind def
/cairo_selectfont { cairo_font_matrix aload pop pop pop 0 0 6 array astore
    cairo_font exch selectfont cairo_point_x cairo_point_y moveto } bind def
/Tf { pop /cairo_font exch def /cairo_font_matrix where
      { pop cairo_selectfont } if } bind def
/Td { matrix translate cairo_font_matrix matrix concatmatrix dup
      /cairo_font_matrix exch def dup 4 get exch 5 get cairo_store_point
      /cairo_font where { pop cairo_selectfont } if } bind def
/Tm { 2 copy 8 2 roll 6 array astore /cairo_font_matrix exch def
      cairo_store_point /cairo_font where { pop cairo_selectfont } if } bind def
/g { setgray } bind def
/rg { setrgbcolor } bind def
/d1 { setcachedevice } bind def
/cairo_data_source {
  CairoDataIndex CairoData length lt
    { CairoData CairoDataIndex get /CairoDataIndex CairoDataIndex 1 add def }
    { () } ifelse
} def
/cairo_flush_ascii85_file { cairo_ascii85_file status { cairo_ascii85_file flushfile } if } def
/cairo_image { image cairo_flush_ascii85_file } def
/cairo_imagemask { imagemask cairo_flush_ascii85_file } def
%%EndProlog
%%BeginSetup
%%EndSetup
%%Page: 1 1
%%BeginPageSetup
%%PageBoundingBox: 0 14 384 370
%%EndPageSetup
q 0 14 384 356 rectclip
1 0 0 -1 0 384 cm q
0.992157 0.913725 0.815686 rg
257.957 274.316 m 283.223 258.379 l 293.652 251.801 307.359 258.512 308.559
 270.789 c 311.457 300.516 l 266.305 307.32 l h
257.957 274.316 m f
204.461 248.117 m 229.723 232.18 l 240.156 225.602 253.863 232.312 255.059
 244.59 c 257.961 274.316 l 212.809 281.125 l h
204.461 248.117 m f
281.914 165.594 m 249.699 183.996 l 262.184 213.543 l 266.352 223.406 279.34
 225.621 286.543 217.699 c 310.348 191.52 l h
281.914 165.594 m f
222.594 162.52 m 189.051 176.477 l 201.535 206.023 l 205.703 215.887 218.691
 218.102 225.895 210.18 c 249.699 184 l h
222.594 162.52 m f
0.992157 0.94902 0.894118 rg
105.633 28.902 m 29.777 67.105 l 11.906 76.109 2.387 96.055 6.625 115.609
 c 8.859 125.91 13.949 133.156 19.473 138.215 c 29.73 147.605 32.77 162.516
 26.484 174.922 c 14.086 199.398 l 9.684 208.09 10.547 218.516 16.32 226.363
 c 23.121 235.613 35.211 239.262 45.996 235.32 c 117.68 209.09 l 126.133
 206 133.66 200.812 139.559 194.02 c 151.172 180.648 168.676 173.938 186.25
 176.113 c 326.953 193.562 l 349.848 196.402 371.273 181.766 376.961 159.41
 c 380.227 146.578 377.773 132.957 370.238 122.066 c 344.539 84.941 l 334.312
 70.164 316.387 62.734 298.703 65.953 c 292.117 67.148 l 279.199 69.496 
265.977 69.656 253.004 67.617 c 237.215 65.137 l 222.227 62.781 208.422 
55.59 197.902 44.656 c 181.23 27.324 157.559 18.555 133.621 20.832 c 123.871
 21.762 114.379 24.5 105.633 28.902 c h
105.633 28.902 m f
311.457 300.516 m 173.137 232.777 l 160.359 226.52 145.223 227.492 133.348
 235.332 c 119.578 244.426 101.969 245.383 87.297 237.828 c 57.859 222.676
 l 40.648 222.676 l 25.727 246.125 l 21.332 253.031 20.453 261.605 23.348
 269.258 c 27.57 280.418 35.812 284.297 43.133 285.562 c 52.129 287.117 
59.359 293.844 61.926 302.605 c 67.07 320.188 l 72.578 338.996 86.879 353.957
 105.422 360.301 c 121.727 365.879 139.582 364.117 154.629 355.727 c 169.227
 347.586 191.555 340.613 219.785 348.617 c 252.129 357.789 285.367 361.004
 309.754 351.09 c 331.93 342.078 332.957 311.043 311.457 300.516 c h
311.457 300.516 m f
0.423529 0.501961 0.588235 rg
176.359 86.277 m 165.953 73.047 148.16 59.082 120.961 63.707 c 117.039 
64.375 113.316 65.914 110.004 68.109 c 102.938 72.785 l 90.922 80.738 86.473
 96.25 92.445 109.363 c 98.543 122.754 113.625 129.543 127.695 125.234 c
 167.953 112.906 l 179.312 109.426 183.703 95.613 176.359 86.277 c h
176.359 86.277 m f
325.309 123.656 m 313.059 111.402 l 310.891 109.234 308.137 107.746 305.137
 107.113 c 285.371 102.953 l 275.547 100.883 266.305 108.383 266.305 118.422
 c 266.305 123.512 268.754 128.285 272.883 131.258 c 301.406 151.777 l 307.992
 156.512 316.891 156.41 323.363 151.527 c 332.344 144.758 333.262 131.609
 325.309 123.656 c h
325.309 123.656 m f
0.992157 0.913725 0.815686 rg
111.355 248.699 m 111.355 246.711 111.406 244.734 111.48 242.766 c 103.258
 243.359 94.887 241.734 87.297 237.828 c 57.859 222.676 l 40.648 222.676
 l 25.727 246.125 l 21.332 253.031 20.453 261.605 23.348 269.258 c 27.57
 280.418 35.812 284.297 43.133 285.562 c 52.129 287.117 59.359 293.844 61.926
 302.605 c 67.07 320.188 l 72.578 338.996 86.879 353.957 105.422 360.301
 c 121.594 365.832 139.293 364.145 154.266 355.922 c 127.68 328.035 111.355
 290.273 111.355 248.699 c h
111.355 248.699 m f
0.423529 0.501961 0.588235 rg
144.082 308.965 m 112.965 286.504 l 104.961 280.727 93.836 287.09 94.828
 296.91 c 95.781 306.328 99.715 316.805 110.785 324.004 c 121.184 330.762
 131.441 331.223 139.855 329.465 c 149.547 327.441 152.109 314.762 144.082
 308.965 c h
144.082 308.965 m f
0.992157 0.913725 0.815686 rg
64.641 105.141 m 64.641 83.504 68.699 62.816 76.086 43.785 c 29.777 67.105
 l 11.906 76.109 2.387 96.055 6.625 115.609 c 8.859 125.91 13.949 133.156
 19.473 138.215 c 29.73 147.605 32.77 162.516 26.484 174.922 c 14.086 199.398
 l 9.684 208.09 10.547 218.52 16.32 226.363 c 23.121 235.613 35.211 239.262
 45.996 235.32 c 104.203 214.023 l 79.512 184.559 64.641 146.59 64.641 105.141
 c h
64.641 105.141 m f
0 g
129.297 130.633 m 169.547 118.305 l 184.688 113.668 190.496 95.242 180.727
 82.824 c 157.793 53.676 123.645 52.336 106.855 63.445 c 99.793 68.121 l
 85.387 77.66 80.129 95.992 87.289 111.715 c 94.543 127.641 112.613 135.742
 129.297 130.633 c h
106.004 77.504 m 113.062 72.828 l 123.922 65.641 151.785 64.23 171.883 
89.777 c 176.801 96.027 173.832 105.227 166.254 107.551 c 126 119.875 l 
114.676 123.344 102.434 117.832 97.527 107.055 c 92.672 96.395 96.234 83.969
 106.004 77.504 c h
106.004 77.504 m f
298.051 156.355 m 306.68 162.562 318.184 162.438 326.676 156.031 c 338.383
 147.203 339.566 130.055 329.207 119.695 c 316.961 107.449 l 314.012 104.5
 310.301 102.488 306.219 101.629 c 286.461 97.469 l 273.125 94.664 260.613
 104.844 260.613 118.441 c 260.613 125.32 263.949 131.824 269.531 135.84
 c h
284.145 108.477 m 303.902 112.637 l 305.84 113.047 307.605 114 309.008 
115.402 c 321.254 127.648 l 326.793 133.188 326.145 142.34 319.902 147.051
 c 315.371 150.469 309.23 150.539 304.621 147.223 c 276.102 126.707 l 273.445
 124.797 271.863 121.707 271.863 118.441 c 271.863 111.973 277.82 107.145
 284.145 108.477 c h
284.145 108.477 m f
116.215 281.938 m 104.266 273.312 87.715 282.836 89.195 297.469 c 90.559
 310.93 96.949 321.73 107.676 328.703 c 118.074 335.461 129.641 337.316 
140.961 334.957 c 155.418 331.938 159.332 313.059 147.328 304.395 c h
138.66 323.945 m 129.789 325.797 121.426 324.227 113.809 319.273 c 105.922
 314.148 101.406 306.43 100.387 296.336 c 99.883 291.375 105.523 288.094
 109.629 291.059 c 140.742 313.516 l 144.844 316.477 143.516 322.934 138.66
 323.945 c h
138.66 323.945 m f
349.086 81.766 m 337.629 65.215 317.43 56.844 297.625 60.445 c 293.645 
60.902 277.07 65.746 253.812 62.09 c 245.09 59.758 221.727 61.398 201.898
 40.789 c 175.223 13.062 134.965 7.848 103.059 23.914 c 68.867 41.137 l 
66.094 42.535 64.977 45.918 66.375 48.691 c 67.77 51.465 71.152 52.582 73.926
 51.184 c 108.121 33.961 l 135.793 20.027 170.684 24.566 193.793 48.59 c
 216.902 72.609 243.75 70.926 252.066 73.203 c 277.789 77.246 295.438 71.988
 299.637 71.516 c 315.109 68.703 330.887 75.238 339.836 88.168 c 365.527
 125.289 l 385.328 153.895 361.684 192.215 327.57 187.988 c 314.961 186.426
 192.91 171.293 186.891 170.543 c 167.426 168.129 148.129 175.531 135.266
 190.34 c 130.008 196.398 123.242 201.059 115.707 203.816 c 108.148 206.578
 49.746 227.945 44.031 230.035 c 44.027 230.039 44.02 230.039 44.016 230.043
 c 26.852 236.312 10.82 218.25 19.078 201.949 c 31.473 177.473 l 38.781 
163.047 35.395 145.207 23.242 134.082 c 4.363 116.805 8.043 84.367 32.281
 72.16 c 54.465 60.984 l 57.238 59.59 58.355 56.207 56.957 53.434 c 55.562
 50.66 52.18 49.543 49.406 50.941 c 27.219 62.113 l -4.082 77.879 -8.996
 119.82 15.648 142.379 c 24.094 150.109 26.473 162.449 21.438 172.391 c 
9.043 196.867 l 1.023 212.695 7.637 231.715 23.367 239.316 c 22.82 240.715
 11.395 253.629 18.059 271.246 c 22.215 282.23 30.543 289.094 42.141 291.102
 c 48.875 292.266 54.508 297.398 56.492 304.18 c 61.641 321.758 l 73.508
 362.309 119.996 381.438 157.32 360.621 c 170.262 353.406 191.332 346.398
 218.191 354.016 c 233.441 358.34 247.93 361.098 261.254 362.211 c 264.355
 362.473 267.066 360.172 267.328 357.074 c 267.586 353.98 265.285 351.262
 262.191 351.004 c 249.586 349.949 235.812 347.32 221.258 343.195 c 190.695
 334.527 166.641 342.547 151.84 350.797 c 120.457 368.297 82.176 351.891
 72.434 318.598 c 67.289 301.02 l 64.105 290.152 54.988 281.906 44.059 280.016
 c 36.387 278.691 31.324 274.52 28.578 267.266 c 26.32 261.301 27.02 254.527
 30.441 249.145 c 34.719 242.426 l 39.141 242.762 43.742 242.121 47.895 
240.602 c 66.867 233.66 l 84.684 242.832 l 101.141 251.301 120.953 250.227
 136.398 240.027 c 146.562 233.316 159.672 232.477 170.609 237.832 c 177.516
 241.215 302.113 302.23 308.906 305.559 c 316.848 309.445 321.59 317.355
 321.281 326.199 c 320.977 335.016 315.719 342.551 307.562 345.867 c 300.676
 348.668 292.652 350.449 283.719 351.164 c 280.625 351.41 278.316 354.121
 278.562 357.219 c 278.809 360.312 281.516 362.621 284.617 362.375 c 294.699
 361.57 303.844 359.52 311.797 356.289 c 324.121 351.277 332.062 339.898
 332.523 326.59 c 332.949 314.344 326.949 303.285 316.691 297.02 c 314.078
 270.238 l 312.477 253.785 294.105 244.82 280.148 253.621 c 262.602 264.691
 l 260.59 244.043 l 258.984 227.59 240.617 218.625 226.66 227.43 c 204.055
 241.688 l 175.559 227.73 l 161.055 220.629 143.676 221.746 130.203 230.645
 c 118.145 238.602 102.676 239.441 89.832 232.832 c 81.234 228.406 l 119.57
 214.379 l 128.887 210.973 137.254 205.211 143.758 197.719 c 154.062 185.852
 169.48 179.875 185.074 181.664 c 196.297 208.219 l 202.055 221.848 220.023
 224.938 229.996 213.969 c 247.879 194.301 l 256.938 215.738 l 262.695 229.363
 280.66 232.457 290.633 221.488 c 312.484 197.453 l 326.184 199.152 l 370.172
 204.605 399.969 155.289 374.777 118.887 c h
286.152 263.133 m 293.055 258.781 302.094 263.199 302.887 271.328 c 304.809
 291.023 l 294.09 285.773 280.09 278.918 269.418 273.691 c h
232.66 236.938 m 239.566 232.586 248.602 237.004 249.395 245.133 c 251.316
 264.828 l 215.926 247.496 l h
221.672 206.402 m 217.227 211.293 209.234 209.934 206.66 203.84 c 197.957
 183.254 l 205.98 184.246 230.371 187.27 238.184 188.242 c h
298.824 195.758 m 282.312 213.922 l 277.887 218.785 269.887 217.48 267.301
 211.359 c 258.598 190.773 l 263.227 191.344 294.977 195.281 298.824 195.758
 c h
298.824 195.758 m f
Q Q
showpage
%%Trailer
end
%%EOF
