%!PS-Adobe-3.0 EPSF-3.0
%%Creator: cairo 1.16.0 (https://cairographics.org)
%%CreationDate: Mon Aug 23 08:35:29 2021
%%Pages: 1
%%DocumentData: Clean7Bit
%%LanguageLevel: 2
%%BoundingBox: 0 0 384 384
%%EndComments
%%BeginProlog
50 dict begin
/q { gsave } bind def
/Q { grestore } bind def
/cm { 6 array astore concat } bind def
/w { setlinewidth } bind def
/J { setlinecap } bind def
/j { setlinejoin } bind def
/M { setmiterlimit } bind def
/d { setdash } bind def
/m { moveto } bind def
/l { lineto } bind def
/c { curveto } bind def
/h { closepath } bind def
/re { exch dup neg 3 1 roll 5 3 roll moveto 0 rlineto
      0 exch rlineto 0 rlineto closepath } bind def
/S { stroke } bind def
/f { fill } bind def
/f* { eofill } bind def
/n { newpath } bind def
/W { clip } bind def
/W* { eoclip } bind def
/BT { } bind def
/ET { } bind def
/BDC { mark 3 1 roll /BDC pdfmark } bind def
/EMC { mark /EMC pdfmark } bind def
/cairo_store_point { /cairo_point_y exch def /cairo_point_x exch def } def
/Tj { show currentpoint cairo_store_point } bind def
/TJ {
  {
    dup
    type /stringtype eq
    { show } { -0.001 mul 0 cairo_font_matrix dtransform rmoveto } ifelse
  } forall
  currentpoint cairo_store_point
} bind def
/cairo_selectfont { cairo_font_matrix aload pop pop pop 0 0 6 array astore
    cairo_font exch selectfont cairo_point_x cairo_point_y moveto } bind def
/Tf { pop /cairo_font exch def /cairo_font_matrix where
      { pop cairo_selectfont } if } bind def
/Td { matrix translate cairo_font_matrix matrix concatmatrix dup
      /cairo_font_matrix exch def dup 4 get exch 5 get cairo_store_point
      /cairo_font where { pop cairo_selectfont } if } bind def
/Tm { 2 copy 8 2 roll 6 array astore /cairo_font_matrix exch def
      cairo_store_point /cairo_font where { pop cairo_selectfont } if } bind def
/g { setgray } bind def
/rg { setrgbcolor } bind def
/d1 { setcachedevice } bind def
/cairo_data_source {
  CairoDataIndex CairoData length lt
    { CairoData CairoDataIndex get /CairoDataIndex CairoDataIndex 1 add def }
    { () } ifelse
} def
/cairo_flush_ascii85_file { cairo_ascii85_file status { cairo_ascii85_file flushfile } if } def
/cairo_image { image cairo_flush_ascii85_file } def
/cairo_imagemask { imagemask cairo_flush_ascii85_file } def
%%EndProlog
%%BeginSetup
%%EndSetup
%%Page: 1 1
%%BeginPageSetup
%%PageBoundingBox: 0 0 384 384
%%EndPageSetup
q 0 0 384 384 rectclip
1 0 0 -1 0 384 cm q
0.976471 0.87451 0.603922 rg
198.578 67.742 m 119.551 9.191 l 111.602 3.301 100.379 4.973 94.488 12.926
 c 88.594 20.875 90.266 32.098 98.219 37.988 c 106.172 43.883 107.84 55.102
 101.949 63.055 c 96.059 71.008 84.836 72.68 76.883 66.785 c 36.797 37.086
 l 28.844 31.195 17.621 32.867 11.73 40.816 c 5.84 48.77 7.508 59.992 15.461
 65.883 c 55.547 95.582 l 63.5 101.473 65.172 112.695 59.277 120.648 c 53.387
 128.602 42.164 130.27 34.215 124.379 c 26.262 118.488 15.039 120.16 9.148
 128.109 c 3.258 136.062 4.926 147.285 12.879 153.176 c 12.879 153.176 91.902
 211.723 91.902 211.723 c 131.602 241.133 187.824 232.766 217.234 193.07
 c 246.641 153.371 238.273 97.152 198.578 67.742 c h
198.578 67.742 m f
0.741176 0.815686 0.396078 rg
368.07 226.535 m 374.578 236.234 378.375 247.91 378.375 260.473 c 378.375
 378.328 l 255.668 378.328 l 255.668 338.535 l 247.598 338.535 l 237.293
 338.535 227.961 334.355 221.203 327.605 c 214.508 320.902 210.344 311.668
 210.277 301.469 c 210.137 280.809 227.586 263.895 248.258 263.895 c 256.426
 263.895 l 256.426 260.473 l 256.426 234.965 272.094 213.121 294.324 204.023
 c 349.523 204.023 l h
368.07 226.535 m f
0.654902 0.776471 0.392157 rg
322.008 378.328 m 300.34 353.762 292.184 313.199 292.184 273.918 c 292.184
 247.508 301.273 223.227 316.492 204.023 c 294.324 204.023 l 272.094 213.121
 256.426 234.965 256.426 260.473 c 256.426 263.895 l 248.258 263.895 l 227.586
 263.895 210.137 280.809 210.277 301.469 c 210.344 311.668 214.508 320.902
 221.203 327.605 c 227.961 334.355 237.293 338.535 247.598 338.535 c 255.668
 338.535 l 255.668 378.328 l h
322.008 378.328 m f
0.937255 0.501961 0.498039 rg
200.91 152.383 m 199.215 159.875 195.969 167.137 191.102 173.707 c 189.457
 175.918 187.688 177.98 185.805 179.887 c 161.391 194.465 l 144.809 199.348
 126.219 196.672 111.262 185.586 c 86.062 166.918 80.672 131.422 99.121 
106.117 c 119.684 88.688 l 138.301 79.387 161.348 80.641 179.211 93.875 
c 187.688 100.152 193.926 108.336 197.766 117.391 c h
200.91 152.383 m f
368.07 226.535 m 368.07 226.551 l 345.164 205.957 325.102 210.195 311.715
 218.145 c 304.035 222.703 294.324 217.051 294.324 208.125 c 294.324 182.293
 l 294.324 159.832 319.176 145.867 338.078 158 c 353.953 168.195 368.07 
188.07 368.07 226.535 c h
368.07 226.535 m f
0.92549 0.415686 0.384314 rg
185.805 179.887 m 178.875 186.906 170.43 191.812 161.391 194.465 c 125.477
 167.855 l 119.656 163.543 118.434 155.324 122.746 149.496 c 127.059 143.676
 135.277 142.453 141.105 146.766 c h
185.805 179.887 m f
200.91 152.383 m 180.602 137.34 l 174.781 133.027 173.559 124.809 177.871
 118.988 c 182.184 113.16 190.402 111.938 196.23 116.25 c 197.766 117.391
 l 202.434 128.375 203.566 140.652 200.91 152.383 c h
200.91 152.383 m f
0.921569 0.917647 0.960784 rg
347.875 296.918 m 344.918 293.547 339.703 293.547 336.75 296.918 c 317.895
 318.449 324.711 336.734 342.309 336.734 c 359.91 336.734 366.727 318.449
 347.875 296.918 c h
347.875 296.918 m f
0.92549 0.415686 0.384314 rg
134.609 116.086 m 130.281 121.918 122.062 123.121 116.25 118.812 c 99.121
 106.117 l 99.203 105.996 99.293 105.875 99.383 105.758 c 104.91 98.293 
111.914 92.57 119.684 88.688 c 131.879 97.723 l 137.699 102.035 138.93 110.258
 134.609 116.086 c h
134.609 116.086 m f
355.734 200.551 m 330.961 200.551 309.945 184.523 302.453 162.277 c 297.508
 167.332 294.324 174.266 294.324 182.293 c 294.324 208.125 l 294.324 217.051
 304.035 222.703 311.715 218.145 c 325.102 210.195 345.164 205.957 368.07
 226.551 c 368.07 226.543 368.07 226.543 368.07 226.535 c 368.07 216.344
 367.07 207.469 365.32 199.719 c 362.203 200.258 359.004 200.551 355.734
 200.551 c h
355.734 200.551 m f
0 g
329.836 272.477 m 332.941 272.477 335.461 269.957 335.461 266.852 c 335.461
 257.809 l 335.461 254.703 332.941 252.184 329.836 252.184 c 326.73 252.184
 324.211 254.703 324.211 257.809 c 324.211 266.852 l 324.211 269.957 326.73
 272.477 329.836 272.477 c h
329.836 272.477 m f
260.172 288.84 m 253.789 288.84 247.723 291.602 243.523 296.418 c 241.484
 298.762 241.727 302.316 244.07 304.355 c 246.41 306.398 249.965 306.152
 252.004 303.812 c 254.066 301.445 257.043 300.09 260.172 300.09 c 263.301
 300.09 266.277 301.445 268.336 303.812 c 270.379 306.152 273.93 306.398
 276.273 304.355 c 278.617 302.316 278.859 298.762 276.82 296.418 c 272.621
 291.602 266.551 288.84 260.172 288.84 c h
260.172 288.84 m f
280.934 252.184 m 277.828 252.184 275.309 254.703 275.309 257.809 c 275.309
 266.852 l 275.309 269.957 277.828 272.477 280.934 272.477 c 284.039 272.477
 286.559 269.957 286.559 266.852 c 286.559 257.809 l 286.559 254.703 284.039
 252.184 280.934 252.184 c h
280.934 252.184 m f
221.746 196.414 m 253.031 154.188 244.148 94.5 201.922 63.215 c 122.895
 4.664 l 112.461 -3.066 97.688 -0.867 89.961 9.566 c 82.23 19.996 84.43 
34.773 94.863 42.5 c 100.309 46.535 101.457 54.25 97.422 59.699 c 93.387
 65.145 85.672 66.293 80.223 62.258 c 40.133 32.559 l 29.68 24.812 14.949
 27 7.199 37.461 c -0.527 47.891 1.672 62.668 12.102 70.395 c 52.191 100.094
 l 57.637 104.129 58.785 111.848 54.75 117.293 c 50.715 122.742 43 123.891
 37.551 119.852 c 27.121 112.125 12.344 114.324 4.617 124.754 c -3.109 135.188
 -0.91 149.961 9.52 157.691 c 33.562 175.504 l 36.059 177.352 39.582 176.828
 41.43 174.332 c 43.281 171.836 42.754 168.312 40.258 166.465 c 16.215 148.652
 l 10.77 144.613 9.621 136.898 13.656 131.453 c 17.691 126.004 25.406 124.855
 30.855 128.895 c 41.285 136.621 56.059 134.422 63.789 123.992 c 71.516 
113.559 69.316 98.785 58.887 91.055 c 18.797 61.355 l 13.34 57.309 12.191
 49.617 16.238 44.156 c 20.281 38.699 27.977 37.551 33.438 41.598 c 73.523
 71.297 l 83.957 79.023 98.73 76.828 106.461 66.395 c 114.207 55.941 112.016
 41.207 101.559 33.461 c 96.109 29.426 94.961 21.711 99 16.262 c 103.035
 10.816 110.75 9.668 116.195 13.703 c 195.223 72.254 l 232.453 99.836 240.293
 152.484 212.707 189.715 c 185.141 226.922 132.449 234.766 95.242 207.199
 c 58.188 179.746 l 55.691 177.898 52.168 178.422 50.32 180.918 c 48.469
 183.414 48.992 186.938 51.492 188.785 c 88.547 216.238 l 131 247.691 190.688
 238.336 221.746 196.414 c h
221.746 196.414 m f
352.105 293.211 m 346.918 287.293 337.715 287.273 332.516 293.211 c 316.102
 311.953 319.527 325.434 321.762 330.363 c 325.168 337.871 332.848 342.355
 342.309 342.355 c 351.77 342.355 359.453 337.871 362.859 330.363 c 365.094
 325.438 368.52 311.953 352.105 293.211 c h
352.613 325.715 m 350.484 330.406 345.246 331.105 342.309 331.105 c 339.375
 331.105 334.133 330.406 332.008 325.715 c 329.863 320.988 331.094 311.914
 340.977 300.625 c 341.691 299.809 342.926 299.809 343.641 300.625 c 353.527
 311.914 354.758 320.988 352.613 325.715 c h
352.613 325.715 m f
107.906 190.102 m 123.883 201.945 143.961 205.457 162.973 199.859 c 162.973
 199.859 162.977 199.859 162.977 199.859 c 175.941 196.051 187.328 188.207
 195.613 177.051 c 209.066 158.895 211.516 135.387 202.941 115.184 c 202.941
 115.184 202.938 115.184 202.938 115.18 c 198.594 104.941 191.547 96.008
 182.555 89.352 c 153.715 67.98 114 75.551 94.586 102.773 c 94.586 102.773
 94.531 102.852 94.527 102.852 c 94.523 102.863 94.547 102.828 94.457 102.957
 c 74.383 130.664 80.391 169.719 107.906 190.102 c h
162.414 188.223 m 128.816 163.332 l 125.496 160.871 124.797 156.164 127.258
 152.84 c 129.699 149.547 134.418 148.816 137.75 151.281 c 176.898 180.289
 l 172.543 183.688 167.641 186.375 162.414 188.223 c h
193.148 120.965 m 195.773 127.699 196.949 134.988 196.621 142.203 c 183.945
 132.812 l 180.633 130.359 179.91 125.672 182.387 122.328 c 183.578 120.719
 185.324 119.668 187.305 119.371 c 190.828 118.848 193.02 120.902 193.148
 120.965 c h
119.203 95.328 m 128.523 102.238 l 131.848 104.699 132.559 109.391 130.086
 112.727 c 127.621 116.051 122.914 116.75 119.594 114.289 c 107.184 105.09
 l 110.68 101.223 114.703 97.961 119.203 95.328 c h
100.57 114.191 m 112.895 123.328 l 121.188 129.469 132.961 127.734 139.121
 119.43 c 145.27 111.137 143.582 99.391 135.223 93.195 c 131.191 90.211 
l 146.395 85.871 162.828 88.734 175.859 98.391 c 179.66 101.203 183.039 
104.516 185.906 108.207 c 181.016 108.852 176.453 111.43 173.344 115.633
 c 167.672 123.289 168.621 134.082 175.711 140.582 c 175.73 140.602 175.75
 140.621 175.773 140.641 c 177.027 141.781 177.297 141.848 194.496 154.633
 c 192.797 160.266 190.141 165.539 186.578 170.348 c 186.082 171.02 185.57
 171.676 185.043 172.32 c 144.445 142.238 l 136.137 136.09 124.371 137.84
 118.219 146.145 c 112.066 154.457 113.82 166.223 122.121 172.371 c 147.465
 191.148 l 135.797 191.688 124.27 188.227 114.605 181.062 c 93.523 165.445
 87.824 136.473 100.57 114.191 c h
100.57 114.191 m f
373.68 224.855 m 373.52 210.027 371.273 196.891 366.984 185.797 c 365.863
 182.898 362.605 181.457 359.707 182.578 c 356.809 183.699 355.371 186.957
 356.492 189.852 c 359.301 197.117 361.125 205.453 361.945 214.746 c 354.211
 209.762 345.672 206.516 336.629 206.023 c 327.195 205.504 317.844 207.957
 308.844 213.305 c 304.922 215.629 299.945 212.699 299.945 208.121 c 299.945
 199.078 299.945 192.434 299.945 182.289 c 299.945 173.707 304.465 166.117
 312.031 161.98 c 319.422 157.945 328.023 158.223 335.039 162.73 c 339.219
 165.414 342.988 168.684 346.242 172.445 c 348.273 174.797 351.824 175.059
 354.176 173.027 c 356.523 170.996 356.785 167.441 354.754 165.094 c 350.793
 160.508 346.207 156.531 341.117 153.262 c 330.582 146.5 317.695 146.07 
306.637 152.109 c 295.402 158.246 288.695 169.527 288.695 182.289 c 288.695
 200.371 l 266.215 211.09 251.645 233.277 250.832 258.266 c 248.254 258.266
 l 224.672 258.266 204.484 277.52 204.648 301.504 c 204.805 325.078 223.926
 344.16 247.594 344.16 c 250.039 344.16 l 250.039 378.328 l 250.039 381.438
 252.559 383.953 255.664 383.953 c 378.375 383.953 l 381.48 383.953 384 
381.438 384 378.328 c 384 260.473 l 384 247.773 380.43 235.5 373.68 224.855
 c h
372.75 372.703 m 261.289 372.703 l 261.289 338.535 l 261.289 335.426 258.77
 332.91 255.664 332.91 c 247.594 332.91 l 230.125 332.91 216.012 318.828
 215.898 301.43 c 215.777 283.723 230.879 269.516 248.254 269.516 c 256.422
 269.516 l 259.527 269.516 262.047 267 262.047 263.891 c 262.047 260.473
 l 262.047 240.582 272.527 222.602 289.312 212.754 c 292.16 223.18 304.512
 228.957 314.586 222.977 c 321.262 219.012 328.527 216.809 336.16 217.266
 c 346.598 217.887 355.953 223.348 363.816 230.301 c 369.664 239.273 372.75
 249.688 372.75 260.473 c h
372.75 372.703 m f
Q Q
showpage
%%Trailer
end
%%EOF
